%!PS-Adobe-3.0 EPSF-3.0
%%Title: daily_arma_20_one_step_prediction.eps
%%Creator: matplotlib version 1.2.1, http://matplotlib.org/
%%CreationDate: Thu Nov 21 16:17:24 2013
%%Orientation: portrait
%%BoundingBox: 18 180 594 612
%%EndComments
%%BeginProlog
/mpldict 8 dict def
mpldict begin
/m { moveto } bind def
/l { lineto } bind def
/r { rlineto } bind def
/c { curveto } bind def
/cl { closepath } bind def
/box {
m
1 index 0 r
0 exch r
neg 0 r
cl
} bind def
/clipbox {
box
clip
newpath
} bind def
%!PS-Adobe-3.0 Resource-Font
%%Title: DejaVu Sans
%%Copyright: Copyright (c) 2003 by Bitstream, Inc. All Rights Reserved. Copyright (c) 2006 by Tavmjong Bah. All Rights Reserved. DejaVu changes are in public domain 
%%Creator: Converted from TrueType to type 3 by PPR
25 dict begin
/_d{bind def}bind def
/_m{moveto}_d
/_l{lineto}_d
/_cl{closepath eofill}_d
/_c{curveto}_d
/_sc{7 -1 roll{setcachedevice}{pop pop pop pop pop pop}ifelse}_d
/_e{exec}_d
/FontName /DejaVuSans def
/PaintType 0 def
/FontMatrix[.001 0 0 .001 0 0]def
/FontBBox[-1021 -415 1681 1167]def
/FontType 3 def
/Encoding [ /space /zero /one /two /three /four /five /six /eight /D /F /I /S /Y /a /c /d /e /f /i /l /n /o /r /s /t /y ] def
/FontInfo 10 dict dup begin
/FamilyName (DejaVu Sans) def
/FullName (DejaVu Sans) def
/Notice (Copyright (c) 2003 by Bitstream, Inc. All Rights Reserved. Copyright (c) 2006 by Tavmjong Bah. All Rights Reserved. DejaVu changes are in public domain ) def
/Weight (Book) def
/Version (Version 2.33) def
/ItalicAngle 0.0 def
/isFixedPitch false def
/UnderlinePosition -130 def
/UnderlineThickness 90 def
end readonly def
/CharStrings 27 dict dup begin
/space{318 0 0 0 0 0 _sc
}_d
/zero{636 0 66 -13 570 742 _sc
318 664 _m
267 664 229 639 203 589 _c
177 539 165 464 165 364 _c
165 264 177 189 203 139 _c
229 89 267 64 318 64 _c
369 64 407 89 433 139 _c
458 189 471 264 471 364 _c
471 464 458 539 433 589 _c
407 639 369 664 318 664 _c
318 742 _m
399 742 461 709 505 645 _c
548 580 570 486 570 364 _c
570 241 548 147 505 83 _c
461 19 399 -13 318 -13 _c
236 -13 173 19 130 83 _c
87 147 66 241 66 364 _c
66 486 87 580 130 645 _c
173 709 236 742 318 742 _c
_cl}_d
/one{636 0 110 0 544 729 _sc
124 83 _m
285 83 _l
285 639 _l
110 604 _l
110 694 _l
284 729 _l
383 729 _l
383 83 _l
544 83 _l
544 0 _l
124 0 _l
124 83 _l
_cl}_d
/two{{636 0 73 0 536 742 _sc
192 83 _m
536 83 _l
536 0 _l
73 0 _l
73 83 _l
110 121 161 173 226 239 _c
290 304 331 346 348 365 _c
380 400 402 430 414 455 _c
426 479 433 504 433 528 _c
433 566 419 598 392 622 _c
365 646 330 659 286 659 _c
255 659 222 653 188 643 _c
154 632 117 616 78 594 _c
78 694 _l
118 710 155 722 189 730 _c
223 738 255 742 284 742 _c
}_e{359 742 419 723 464 685 _c
509 647 532 597 532 534 _c
532 504 526 475 515 449 _c
504 422 484 390 454 354 _c
446 344 420 317 376 272 _c
332 227 271 164 192 83 _c
_cl}_e}_d
/three{{636 0 76 -13 556 742 _sc
406 393 _m
453 383 490 362 516 330 _c
542 298 556 258 556 212 _c
556 140 531 84 482 45 _c
432 6 362 -13 271 -13 _c
240 -13 208 -10 176 -4 _c
144 1 110 10 76 22 _c
76 117 _l
103 101 133 89 166 81 _c
198 73 232 69 268 69 _c
330 69 377 81 409 105 _c
441 129 458 165 458 212 _c
458 254 443 288 413 312 _c
383 336 341 349 287 349 _c
}_e{202 349 _l
202 430 _l
291 430 _l
339 430 376 439 402 459 _c
428 478 441 506 441 543 _c
441 580 427 609 401 629 _c
374 649 336 659 287 659 _c
260 659 231 656 200 650 _c
169 644 135 635 98 623 _c
98 711 _l
135 721 170 729 203 734 _c
235 739 266 742 296 742 _c
370 742 429 725 473 691 _c
517 657 539 611 539 553 _c
539 513 527 479 504 451 _c
481 423 448 403 406 393 _c
_cl}_e}_d
/four{636 0 49 0 580 729 _sc
378 643 _m
129 254 _l
378 254 _l
378 643 _l
352 729 _m
476 729 _l
476 254 _l
580 254 _l
580 172 _l
476 172 _l
476 0 _l
378 0 _l
378 172 _l
49 172 _l
49 267 _l
352 729 _l
_cl}_d
/five{{636 0 77 -13 549 729 _sc
108 729 _m
495 729 _l
495 646 _l
198 646 _l
198 467 _l
212 472 227 476 241 478 _c
255 480 270 482 284 482 _c
365 482 429 459 477 415 _c
525 370 549 310 549 234 _c
549 155 524 94 475 51 _c
426 8 357 -13 269 -13 _c
238 -13 207 -10 175 -6 _c
143 -1 111 6 77 17 _c
77 116 _l
106 100 136 88 168 80 _c
199 72 232 69 267 69 _c
}_e{323 69 368 83 401 113 _c
433 143 450 183 450 234 _c
450 284 433 324 401 354 _c
368 384 323 399 267 399 _c
241 399 214 396 188 390 _c
162 384 135 375 108 363 _c
108 729 _l
_cl}_e}_d
/six{{636 0 70 -13 573 742 _sc
330 404 _m
286 404 251 388 225 358 _c
199 328 186 286 186 234 _c
186 181 199 139 225 109 _c
251 79 286 64 330 64 _c
374 64 409 79 435 109 _c
461 139 474 181 474 234 _c
474 286 461 328 435 358 _c
409 388 374 404 330 404 _c
526 713 _m
526 623 _l
501 635 476 644 451 650 _c
425 656 400 659 376 659 _c
310 659 260 637 226 593 _c
}_e{192 549 172 482 168 394 _c
187 422 211 444 240 459 _c
269 474 301 482 336 482 _c
409 482 467 459 509 415 _c
551 371 573 310 573 234 _c
573 159 550 99 506 54 _c
462 9 403 -13 330 -13 _c
246 -13 181 19 137 83 _c
92 147 70 241 70 364 _c
70 479 97 571 152 639 _c
206 707 280 742 372 742 _c
396 742 421 739 447 735 _c
472 730 498 723 526 713 _c
_cl}_e}_d
/eight{{636 0 68 -13 568 742 _sc
318 346 _m
271 346 234 333 207 308 _c
180 283 167 249 167 205 _c
167 161 180 126 207 101 _c
234 76 271 64 318 64 _c
364 64 401 76 428 102 _c
455 127 469 161 469 205 _c
469 249 455 283 429 308 _c
402 333 365 346 318 346 _c
219 388 _m
177 398 144 418 120 447 _c
96 476 85 511 85 553 _c
85 611 105 657 147 691 _c
188 725 245 742 318 742 _c
}_e{390 742 447 725 489 691 _c
530 657 551 611 551 553 _c
551 511 539 476 515 447 _c
491 418 459 398 417 388 _c
464 377 501 355 528 323 _c
554 291 568 251 568 205 _c
568 134 546 80 503 43 _c
459 5 398 -13 318 -13 _c
237 -13 175 5 132 43 _c
89 80 68 134 68 205 _c
68 251 81 291 108 323 _c
134 355 171 377 219 388 _c
183 544 _m
183 506 194 476 218 455 _c
}_e{242 434 275 424 318 424 _c
360 424 393 434 417 455 _c
441 476 453 506 453 544 _c
453 582 441 611 417 632 _c
393 653 360 664 318 664 _c
275 664 242 653 218 632 _c
194 611 183 582 183 544 _c
_cl}_e}_d
/D{770 0 98 0 711 729 _sc
197 648 _m
197 81 _l
316 81 _l
416 81 490 103 537 149 _c
583 195 607 267 607 365 _c
607 463 583 534 537 580 _c
490 625 416 648 316 648 _c
197 648 _l
98 729 _m
301 729 _l
442 729 546 699 612 641 _c
678 582 711 490 711 365 _c
711 239 677 147 611 88 _c
545 29 441 0 301 0 _c
98 0 _l
98 729 _l
_cl}_d
/F{575 0 98 0 517 729 _sc
98 729 _m
517 729 _l
517 646 _l
197 646 _l
197 431 _l
486 431 _l
486 348 _l
197 348 _l
197 0 _l
98 0 _l
98 729 _l
_cl}_d
/I{295 0 98 0 197 729 _sc
98 729 _m
197 729 _l
197 0 _l
98 0 _l
98 729 _l
_cl}_d
/S{{635 0 66 -13 579 742 _sc
535 705 _m
535 609 _l
497 627 462 640 429 649 _c
395 657 363 662 333 662 _c
279 662 237 651 208 631 _c
179 610 165 580 165 542 _c
165 510 174 485 194 469 _c
213 452 250 439 304 429 _c
364 417 _l
437 403 491 378 526 343 _c
561 307 579 260 579 201 _c
579 130 555 77 508 41 _c
460 5 391 -13 300 -13 _c
265 -13 228 -9 189 -2 _c
}_e{150 5 110 16 69 32 _c
69 134 _l
109 111 148 94 186 83 _c
224 71 262 66 300 66 _c
356 66 399 77 430 99 _c
460 121 476 152 476 194 _c
476 230 465 258 443 278 _c
421 298 385 313 335 323 _c
275 335 _l
201 349 148 372 115 404 _c
82 435 66 478 66 534 _c
66 598 88 649 134 686 _c
179 723 242 742 322 742 _c
356 742 390 739 426 733 _c
461 727 497 717 535 705 _c
}_e{_cl}_e}_d
/Y{611 0 -1 0 613 729 _sc
-1 729 _m
104 729 _l
306 429 _l
507 729 _l
613 729 _l
355 347 _l
355 0 _l
256 0 _l
256 347 _l
-1 729 _l
_cl}_d
/a{{613 0 60 -13 522 560 _sc
343 275 _m
270 275 220 266 192 250 _c
164 233 150 205 150 165 _c
150 133 160 107 181 89 _c
202 70 231 61 267 61 _c
317 61 357 78 387 114 _c
417 149 432 196 432 255 _c
432 275 _l
343 275 _l
522 312 _m
522 0 _l
432 0 _l
432 83 _l
411 49 385 25 355 10 _c
325 -5 287 -13 243 -13 _c
187 -13 142 2 109 33 _c
76 64 60 106 60 159 _c
}_e{60 220 80 266 122 298 _c
163 329 224 345 306 345 _c
432 345 _l
432 354 _l
432 395 418 427 391 450 _c
364 472 326 484 277 484 _c
245 484 215 480 185 472 _c
155 464 127 453 100 439 _c
100 522 _l
132 534 164 544 195 550 _c
226 556 256 560 286 560 _c
365 560 424 539 463 498 _c
502 457 522 395 522 312 _c
_cl}_e}_d
/c{{550 0 55 -13 488 560 _sc
488 526 _m
488 442 _l
462 456 437 466 411 473 _c
385 480 360 484 334 484 _c
276 484 230 465 198 428 _c
166 391 150 339 150 273 _c
150 206 166 154 198 117 _c
230 80 276 62 334 62 _c
360 62 385 65 411 72 _c
437 79 462 90 488 104 _c
488 21 _l
462 9 436 0 410 -5 _c
383 -10 354 -13 324 -13 _c
242 -13 176 12 128 64 _c
}_e{79 115 55 185 55 273 _c
55 362 79 432 128 483 _c
177 534 244 560 330 560 _c
358 560 385 557 411 551 _c
437 545 463 537 488 526 _c
_cl}_e}_d
/d{{635 0 55 -13 544 760 _sc
454 464 _m
454 760 _l
544 760 _l
544 0 _l
454 0 _l
454 82 _l
435 49 411 25 382 10 _c
353 -5 319 -13 279 -13 _c
213 -13 159 13 117 65 _c
75 117 55 187 55 273 _c
55 359 75 428 117 481 _c
159 533 213 560 279 560 _c
319 560 353 552 382 536 _c
411 520 435 496 454 464 _c
148 273 _m
148 207 161 155 188 117 _c
215 79 253 61 301 61 _c
}_e{348 61 385 79 413 117 _c
440 155 454 207 454 273 _c
454 339 440 390 413 428 _c
385 466 348 485 301 485 _c
253 485 215 466 188 428 _c
161 390 148 339 148 273 _c
_cl}_e}_d
/e{{615 0 55 -13 562 560 _sc
562 296 _m
562 252 _l
149 252 _l
153 190 171 142 205 110 _c
238 78 284 62 344 62 _c
378 62 412 66 444 74 _c
476 82 509 95 541 113 _c
541 28 _l
509 14 476 3 442 -3 _c
408 -9 373 -13 339 -13 _c
251 -13 182 12 131 62 _c
80 112 55 181 55 268 _c
55 357 79 428 127 481 _c
175 533 241 560 323 560 _c
397 560 455 536 498 489 _c
}_e{540 441 562 377 562 296 _c
472 322 _m
471 371 457 410 431 440 _c
404 469 368 484 324 484 _c
274 484 234 469 204 441 _c
174 413 156 373 152 322 _c
472 322 _l
_cl}_e}_d
/f{352 0 23 0 371 760 _sc
371 760 _m
371 685 _l
285 685 _l
253 685 230 678 218 665 _c
205 652 199 629 199 595 _c
199 547 _l
347 547 _l
347 477 _l
199 477 _l
199 0 _l
109 0 _l
109 477 _l
23 477 _l
23 547 _l
109 547 _l
109 585 _l
109 645 123 690 151 718 _c
179 746 224 760 286 760 _c
371 760 _l
_cl}_d
/i{278 0 94 0 184 760 _sc
94 547 _m
184 547 _l
184 0 _l
94 0 _l
94 547 _l
94 760 _m
184 760 _l
184 646 _l
94 646 _l
94 760 _l
_cl}_d
/l{278 0 94 0 184 760 _sc
94 760 _m
184 760 _l
184 0 _l
94 0 _l
94 760 _l
_cl}_d
/n{634 0 91 0 549 560 _sc
549 330 _m
549 0 _l
459 0 _l
459 327 _l
459 379 448 417 428 443 _c
408 469 378 482 338 482 _c
289 482 251 466 223 435 _c
195 404 181 362 181 309 _c
181 0 _l
91 0 _l
91 547 _l
181 547 _l
181 462 _l
202 494 227 519 257 535 _c
286 551 320 560 358 560 _c
420 560 468 540 500 501 _c
532 462 549 405 549 330 _c
_cl}_d
/o{612 0 55 -13 557 560 _sc
306 484 _m
258 484 220 465 192 427 _c
164 389 150 338 150 273 _c
150 207 163 156 191 118 _c
219 80 257 62 306 62 _c
354 62 392 80 420 118 _c
448 156 462 207 462 273 _c
462 337 448 389 420 427 _c
392 465 354 484 306 484 _c
306 560 _m
384 560 445 534 490 484 _c
534 433 557 363 557 273 _c
557 183 534 113 490 63 _c
445 12 384 -13 306 -13 _c
227 -13 165 12 121 63 _c
77 113 55 183 55 273 _c
55 363 77 433 121 484 _c
165 534 227 560 306 560 _c
_cl}_d
/r{411 0 91 0 411 560 _sc
411 463 _m
401 469 390 473 378 476 _c
366 478 353 480 339 480 _c
288 480 249 463 222 430 _c
194 397 181 350 181 288 _c
181 0 _l
91 0 _l
91 547 _l
181 547 _l
181 462 _l
199 495 224 520 254 536 _c
284 552 321 560 365 560 _c
371 560 378 559 386 559 _c
393 558 401 557 411 555 _c
411 463 _l
_cl}_d
/s{{521 0 54 -13 472 560 _sc
443 531 _m
443 446 _l
417 458 391 468 364 475 _c
336 481 308 485 279 485 _c
234 485 200 478 178 464 _c
156 450 145 430 145 403 _c
145 382 153 366 169 354 _c
185 342 217 330 265 320 _c
296 313 _l
360 299 405 279 432 255 _c
458 230 472 195 472 151 _c
472 100 452 60 412 31 _c
372 1 316 -13 246 -13 _c
216 -13 186 -10 154 -5 _c
}_e{122 0 89 8 54 20 _c
54 113 _l
87 95 120 82 152 74 _c
184 65 216 61 248 61 _c
290 61 323 68 346 82 _c
368 96 380 117 380 144 _c
380 168 371 187 355 200 _c
339 213 303 226 247 238 _c
216 245 _l
160 257 119 275 95 299 _c
70 323 58 356 58 399 _c
58 450 76 490 112 518 _c
148 546 200 560 268 560 _c
301 560 332 557 362 552 _c
391 547 418 540 443 531 _c
}_e{_cl}_e}_d
/t{392 0 27 0 368 702 _sc
183 702 _m
183 547 _l
368 547 _l
368 477 _l
183 477 _l
183 180 _l
183 135 189 106 201 94 _c
213 81 238 75 276 75 _c
368 75 _l
368 0 _l
276 0 _l
206 0 158 13 132 39 _c
106 65 93 112 93 180 _c
93 477 _l
27 477 _l
27 547 _l
93 547 _l
93 702 _l
183 702 _l
_cl}_d
/y{592 0 30 -207 562 547 _sc
322 -50 _m
296 -114 271 -157 247 -177 _c
223 -197 191 -207 151 -207 _c
79 -207 _l
79 -132 _l
132 -132 _l
156 -132 175 -126 189 -114 _c
203 -102 218 -75 235 -31 _c
251 9 _l
30 547 _l
125 547 _l
296 119 _l
467 547 _l
562 547 _l
322 -50 _l
_cl}_d
end readonly def

/BuildGlyph
 {exch begin
 CharStrings exch
 2 copy known not{pop /.notdef}if
 true 3 1 roll get exec
 end}_d

/BuildChar {
 1 index /Encoding get exch get
 1 index /BuildGlyph get exec
}_d

FontName currentdict end definefont pop
end
%%EndProlog
mpldict begin
18 180 translate
576 432 0 0 clipbox
gsave
0 0 m
576 0 l
576 432 l
0 432 l
cl
1.000 setgray
fill
grestore
gsave
72 43.2 m
518.4 43.2 l
518.4 388.8 l
72 388.8 l
cl
1.000 setgray
fill
grestore
1.000 setlinewidth
1 setlinejoin
2 setlinecap
[] 0 setdash
0.000 0.000 1.000 setrgbcolor
gsave
446.4 345.6 72 43.2 clipbox
72 58.2197 m
73.116 60.9189 l
74.232 78.1099 l
75.348 73.5229 l
76.464 76.7639 l
77.58 78.5655 l
78.696 78.4998 l
79.812 67.4915 l
80.928 69.8941 l
82.044 80.6745 l
83.16 76.0225 l
84.276 50.8135 l
85.392 64.1845 l
86.508 73.445 l
87.624 76.4968 l
88.74 60.3256 l
89.856 48.7586 l
90.972 82.7619 l
92.088 71.8102 l
93.204 50.3704 l
94.32 59.6616 l
95.436 50.1835 l
96.552 47.1702 l
97.668 84.5747 l
98.784 57.0857 l
99.9 51.1711 l
101.016 85.2797 l
102.132 91.8678 l
103.248 77.8237 l
104.364 73.177 l
105.48 65.2573 l
106.596 79.5203 l
107.712 65.6198 l
108.828 60.2657 l
109.944 63.8198 l
111.06 90.4264 l
112.176 52.7468 l
113.292 51.0011 l
114.408 83.9639 l
115.524 100.632 l
116.64 49.5623 l
117.756 100.505 l
118.872 100.041 l
119.988 60.5561 l
121.104 56.8669 l
122.22 64.0144 l
123.336 91.5427 l
124.452 92.4338 l
125.568 100.37 l
126.684 107.011 l
127.8 104.244 l
128.916 54.0342 l
130.032 64.416 l
131.148 51.4032 l
132.264 65.2884 l
133.38 110.01 l
134.496 107.669 l
135.612 101.145 l
136.728 79.2172 l
137.844 103.126 l
138.96 53.8399 l
140.076 55.3675 l
141.192 64.3 l
142.308 91.1241 l
143.424 107.181 l
144.54 112.956 l
145.656 75.0183 l
146.772 101.229 l
147.888 120.648 l
149.004 119.326 l
150.12 107.601 l
151.236 71.7928 l
152.352 118.978 l
153.468 111.23 l
154.584 110.311 l
155.7 116.998 l
156.816 119.2 l
157.932 113.772 l
159.048 79.8401 l
160.164 120.372 l
162.396 103.265 l
163.512 61.0034 l
164.628 68.0155 l
165.744 116.407 l
166.86 90.2713 l
167.976 109.93 l
169.092 133.849 l
170.208 117.479 l
171.324 78.5383 l
172.44 89.4204 l
173.556 92.45 l
174.672 131.184 l
175.788 121.942 l
176.904 137.623 l
178.02 136.949 l
179.136 143.444 l
180.252 123.476 l
181.368 139.263 l
182.484 143.261 l
183.6 131.061 l
184.716 143.877 l
185.832 142.367 l
188.064 64.084 l
189.18 80.3295 l
190.296 88.2382 l
191.412 126.916 l
192.528 122.898 l
193.644 120.238 l
194.76 58.1497 l
195.876 122.426 l
196.992 131.376 l
198.108 146.237 l
199.224 125.94 l
200.34 81.3545 l
201.456 118.1 l
202.572 133.596 l
203.688 70.804 l
204.804 100.191 l
205.92 60.7794 l
207.036 77.5533 l
208.152 97.8729 l
209.268 126.077 l
210.384 133.438 l
211.5 99.4543 l
212.616 80.7091 l
213.732 66.6213 l
214.848 134.809 l
215.964 116.918 l
217.08 160.193 l
218.196 147.012 l
219.312 71.8682 l
220.428 155.872 l
221.544 159.439 l
222.66 158.21 l
223.776 162.506 l
224.892 158.661 l
226.008 159.945 l
228.24 146.075 l
229.356 125.306 l
230.472 164.154 l
231.588 162.764 l
232.704 159.558 l
233.82 154.961 l
234.936 123.981 l
236.052 154.504 l
237.168 144.455 l
238.284 150.981 l
239.4 149.613 l
240.516 56.9634 l
242.748 149.347 l
243.864 145.78 l
244.98 152.249 l
246.096 166.223 l
247.212 164.207 l
248.328 161.609 l
249.444 162.525 l
250.56 245.654 l
251.676 347.733 l
252.792 364.959 l
253.908 274.72 l
255.024 141.975 l
256.14 158.514 l
257.256 162.295 l
258.372 131.924 l
259.488 154.948 l
260.604 154.709 l
261.72 154.199 l
262.836 159.204 l
263.952 115.691 l
265.068 151.4 l
266.184 130.885 l
267.3 140.224 l
268.416 171.154 l
269.532 164.624 l
270.648 162.96 l
271.764 151.705 l
272.88 108.172 l
273.996 138.018 l
275.112 119.992 l
276.228 152.152 l
277.344 148.38 l
278.46 152.19 l
279.576 156.961 l
280.692 154.707 l
281.808 143.829 l
282.924 154.368 l
284.04 135.671 l
285.156 110.259 l
286.272 149.155 l
288.504 123.551 l
289.62 134.475 l
291.852 152.088 l
292.968 147.452 l
294.084 120.026 l
295.2 99.7915 l
296.316 142.645 l
297.432 136.096 l
298.548 96.5723 l
299.664 130.376 l
300.78 99.5429 l
301.896 140.536 l
303.012 93.2146 l
304.128 128.218 l
305.244 142.891 l
306.36 121.751 l
307.476 136.839 l
308.592 131.967 l
309.708 147.468 l
310.824 135.917 l
311.94 150.288 l
313.056 117.113 l
314.172 153.138 l
315.288 155.484 l
316.404 146.663 l
317.52 101.86 l
318.636 88.8345 l
319.752 119.592 l
320.868 144.033 l
321.984 92.2594 l
323.1 55.6556 l
324.216 114.019 l
325.332 128.067 l
326.448 64.6069 l
327.564 147.459 l
328.68 136.171 l
329.796 123.176 l
330.912 119.112 l
332.028 135.026 l
333.144 141.443 l
334.26 59.5142 l
335.376 79.6545 l
336.492 129.848 l
337.608 65.3705 l
338.724 133.529 l
339.84 138.004 l
340.956 131.665 l
342.072 134.516 l
343.188 119.496 l
344.304 57.0144 l
345.42 84.7726 l
346.536 128.326 l
347.652 119.751 l
348.768 109.662 l
349.884 133.514 l
351 88.5505 l
352.116 132.163 l
353.232 119.597 l
354.348 131.319 l
355.464 131.213 l
356.58 130.001 l
357.696 93.994 l
358.812 126.552 l
359.928 126.967 l
361.044 118.894 l
362.16 97.3321 l
363.276 122.257 l
364.392 120.821 l
365.508 114.941 l
366.624 65.9516 l
367.74 117.875 l
368.856 119.147 l
369.972 210.222 l
371.088 291.771 l
372.204 288.78 l
374.436 102.306 l
375.552 115.132 l
376.668 112.376 l
377.784 87.5179 l
378.9 113.544 l
380.016 61.0143 l
381.132 97.5481 l
382.248 59.0785 l
383.364 95.9612 l
384.48 97.4665 l
385.596 112.315 l
386.712 94.411 l
387.828 107.384 l
388.944 106.304 l
390.06 102.122 l
391.176 49.6451 l
392.292 59.4118 l
393.408 104.732 l
394.524 101.094 l
395.64 67.6649 l
396.756 64.4471 l
397.872 62.75 l
398.988 93.0384 l
400.104 100.597 l
401.22 51.3037 l
402.336 59.8787 l
403.452 91.2286 l
404.568 67.3665 l
405.684 94.9152 l
406.8 97.8672 l
407.916 80.3594 l
409.032 96.0609 l
410.148 73.0466 l
411.264 83.7672 l
412.38 76.4105 l
413.496 91.6369 l
414.612 55.0516 l
415.728 88.8404 l
416.844 58.2712 l
417.96 58.258 l
419.076 57.8451 l
420.192 54.553 l
421.308 71.0152 l
422.424 65.7111 l
423.54 71.5587 l
424.656 83.4871 l
425.772 88.2639 l
426.888 85.1374 l
428.004 77.106 l
429.12 83.6228 l
430.236 83.2524 l
431.352 79.7789 l
432.468 67.3335 l
433.584 67.6663 l
434.7 65.8398 l
435.816 71.5748 l
436.932 62.4296 l
439.164 79.5242 l
440.28 63.7049 l
441.396 79.9331 l
442.512 80.9778 l
444.744 74.7079 l
445.86 61.6629 l
446.976 66.2659 l
448.092 62.2196 l
449.208 71.0124 l
450.324 78.039 l
451.44 59.9579 l
452.556 53.3852 l
453.672 59.0947 l
454.788 46.3955 l
455.904 48.0511 l
457.02 79.2804 l
458.136 78.8877 l
459.252 77.8828 l
460.368 73.9243 l
461.484 45.0435 l
462.6 48.8406 l
463.716 51.6399 l
464.832 50.2645 l
465.948 54.6589 l
467.064 45.2642 l
468.18 74.5911 l
469.296 77.7051 l
470.412 62.8031 l
471.528 49.994 l
472.644 53.454 l
473.76 49.6371 l
474.876 51.6748 l
475.992 49.4022 l
477.108 52.7975 l
478.224 78.0583 l
479.34 51.9245 l
479.34 51.9245 l
stroke
grestore
2.000 setlinewidth
1.000 0.000 0.000 setrgbcolor
gsave
446.4 345.6 72 43.2 clipbox
72 58.2197 m
73.116 62.6544 l
74.232 63.4663 l
75.348 68.2409 l
76.464 66.7575 l
77.58 68.1585 l
78.696 68.6108 l
79.812 68.7282 l
80.928 65.8473 l
82.044 66.868 l
83.16 69.7282 l
84.276 68.4066 l
85.392 61.8945 l
86.508 66.1858 l
87.624 68.1678 l
88.74 69.2331 l
89.856 65.0537 l
90.972 62.4413 l
92.088 71.9714 l
93.204 68.2246 l
94.32 63.3622 l
95.436 66.3922 l
96.552 63.4092 l
97.668 63.1735 l
98.784 73.6308 l
99.9 65.439 l
101.016 65.3136 l
102.132 74.6131 l
103.248 75.8709 l
104.364 72.7437 l
105.48 72.1486 l
106.596 70.0804 l
107.712 74.3888 l
108.828 70.3948 l
109.944 69.7656 l
111.06 70.909 l
112.176 78.399 l
113.292 67.8063 l
114.408 68.9223 l
115.524 77.7052 l
116.64 81.9192 l
117.756 68.3937 l
118.872 84.1933 l
119.988 82.4066 l
121.104 72.787 l
122.22 72.9441 l
123.336 74.6347 l
124.452 82.3916 l
125.568 82.5608 l
126.684 85.6143 l
127.8 87.6784 l
128.916 87.3023 l
130.032 73.9914 l
131.148 78.2552 l
132.264 73.9159 l
133.38 78.6154 l
134.496 90.8472 l
135.612 89.9212 l
136.728 89.3948 l
137.844 83.8413 l
138.96 91.2042 l
140.076 77.0998 l
141.192 79.4151 l
142.308 81.3731 l
143.424 89.0518 l
144.54 93.5176 l
145.656 95.6982 l
146.772 85.8229 l
147.888 94.4009 l
149.004 98.9589 l
150.12 99.1048 l
151.236 96.6895 l
152.352 87.4632 l
153.468 101.476 l
154.584 98.1376 l
155.7 99.3547 l
156.816 101.526 l
157.932 102.426 l
159.048 101.452 l
160.164 92.6866 l
161.28 104.939 l
162.396 101.479 l
163.512 100.575 l
164.628 89.3713 l
165.744 92.4928 l
166.86 105.383 l
167.976 97.7349 l
169.092 105.041 l
170.208 111.203 l
171.324 106.992 l
172.44 97.4735 l
173.556 101.44 l
174.672 101.785 l
175.788 113.05 l
176.904 110.189 l
178.02 115.855 l
179.136 115.613 l
180.252 118.142 l
181.368 112.923 l
182.484 118.246 l
183.6 119.088 l
184.716 116.357 l
185.832 120.645 l
186.948 120.165 l
189.18 100.482 l
190.296 105.485 l
191.412 107.028 l
192.528 118.228 l
193.644 116.865 l
194.76 117.322 l
195.876 100.599 l
196.992 119.952 l
198.108 120.343 l
199.224 125.805 l
200.34 120.452 l
201.456 109.246 l
202.572 120.305 l
203.688 123.371 l
204.804 106.792 l
205.92 116.837 l
207.036 104.597 l
208.152 110.923 l
209.268 115.804 l
210.384 123.792 l
211.5 125.938 l
212.616 117.277 l
214.848 109.512 l
215.964 128.547 l
217.08 122.264 l
218.196 136.079 l
219.312 131.531 l
220.428 112.213 l
221.544 136.931 l
222.66 135.092 l
224.892 138.013 l
226.008 137.109 l
227.124 137.877 l
228.24 136.027 l
229.356 134.638 l
230.472 129.173 l
231.588 140.395 l
232.704 139.057 l
233.82 139.123 l
234.936 138.112 l
236.052 129.842 l
237.168 138.986 l
238.284 135.225 l
239.4 137.958 l
240.516 137.443 l
241.632 112.313 l
242.748 127.59 l
243.864 137.234 l
244.98 136.35 l
246.096 139.134 l
247.212 142.904 l
248.328 142.302 l
249.444 141.998 l
250.56 142.377 l
251.676 165.227 l
252.792 191.627 l
253.908 195.814 l
255.024 172.603 l
256.14 138.429 l
257.256 144.159 l
258.372 142.532 l
259.488 134.468 l
260.604 141.519 l
261.72 140.466 l
262.836 140.769 l
263.952 142.164 l
265.068 130.131 l
266.184 140.911 l
267.3 133.766 l
268.416 137.374 l
269.532 145.27 l
270.648 142.979 l
271.764 143.172 l
272.88 139.96 l
273.996 128.182 l
275.112 136.997 l
276.228 130.598 l
277.344 140.236 l
278.46 138.134 l
279.576 139.738 l
280.692 140.799 l
281.808 140.045 l
282.924 137.083 l
284.04 140.031 l
285.156 134.372 l
286.272 127.851 l
287.388 138.545 l
288.504 133.803 l
289.62 130.917 l
290.736 133.8 l
291.852 135.494 l
292.968 137.821 l
294.084 136.329 l
295.2 128.887 l
296.316 123.632 l
297.432 135.076 l
298.548 131.828 l
299.664 121.691 l
300.78 131.403 l
301.896 121.339 l
303.012 133.54 l
304.128 118.963 l
305.244 129.977 l
306.36 132.168 l
307.476 126.44 l
308.592 130.984 l
309.708 128.687 l
310.824 133.004 l
311.94 129.149 l
313.056 133.289 l
314.172 123.419 l
315.288 133.887 l
316.404 132.885 l
317.52 130.742 l
318.636 118.398 l
319.752 115.271 l
320.868 122.809 l
321.984 128.281 l
323.1 113.836 l
324.216 104.98 l
325.332 120.396 l
326.448 122.027 l
327.564 105.076 l
328.68 128.873 l
329.796 122.597 l
330.912 120.363 l
332.028 118.936 l
333.144 122.744 l
334.26 123.705 l
335.376 101.097 l
336.492 107.985 l
337.608 119.422 l
338.724 100.747 l
339.84 121.139 l
340.956 119.415 l
342.072 118.378 l
343.188 118.944 l
344.304 114.252 l
345.42 97.1391 l
346.536 105.297 l
347.652 115.078 l
348.768 111.904 l
349.884 109.659 l
351 115.782 l
352.116 102.414 l
353.232 115.205 l
354.348 109.652 l
355.464 113.428 l
356.58 112.492 l
357.696 111.922 l
358.812 101.678 l
359.928 110.82 l
361.044 109.184 l
362.16 107.095 l
363.276 100.936 l
364.392 107.578 l
366.624 104.256 l
367.74 90.5415 l
368.856 105.141 l
369.972 103.113 l
371.088 128.376 l
372.204 148.317 l
373.32 146.984 l
375.552 98.5061 l
376.668 101.981 l
377.784 98.8059 l
378.9 91.8638 l
380.016 98.973 l
381.132 83.2392 l
382.248 94.2875 l
383.364 81.6888 l
384.48 92.7339 l
385.596 91.2778 l
386.712 95.5097 l
387.828 89.9188 l
388.944 93.6535 l
391.176 91.0374 l
392.292 76.3712 l
393.408 79.6146 l
394.524 90.436 l
395.64 88.2769 l
396.756 79.6214 l
397.872 78.9572 l
398.988 77.5689 l
400.104 85.4112 l
401.22 86.4294 l
402.336 72.9677 l
403.452 76.062 l
404.568 83.19 l
405.684 75.8087 l
406.8 83.9949 l
407.916 83.4465 l
409.032 78.728 l
410.148 83.0653 l
411.264 75.7957 l
412.38 79.1213 l
413.496 76.1407 l
414.612 80.2993 l
415.728 69.5286 l
416.844 79.4485 l
417.96 69.4321 l
419.076 70.3339 l
420.192 69.3666 l
421.308 68.1668 l
422.424 72.4248 l
423.54 70.2822 l
424.656 71.9917 l
425.772 74.7558 l
426.888 75.6435 l
428.004 74.6309 l
429.12 72.318 l
430.236 73.9525 l
431.352 73.3226 l
432.468 72.25 l
433.584 68.6692 l
434.7 68.7224 l
435.816 67.768 l
436.932 69.1633 l
438.048 66.2954 l
439.164 68.7476 l
440.28 70.5258 l
441.396 65.9791 l
442.512 70.7214 l
443.628 70.2139 l
444.744 69.434 l
445.86 68.5174 l
446.976 64.7904 l
448.092 66.1206 l
449.208 64.5413 l
450.324 66.9881 l
451.44 68.5375 l
452.556 63.4683 l
453.672 62.0538 l
454.788 63.3306 l
455.904 59.5104 l
457.02 60.2433 l
458.136 68.4821 l
459.252 67.6845 l
460.368 67.9152 l
461.484 66.785 l
462.6 58.8591 l
463.716 60.3907 l
464.832 60.527 l
465.948 60.133 l
467.064 61.4032 l
468.18 58.6912 l
469.296 67.036 l
470.412 67.119 l
471.528 63.4958 l
472.644 60.3567 l
473.76 61.3355 l
474.876 60.0165 l
475.992 60.7644 l
477.108 60.0785 l
477.108 60.0785 l
stroke
grestore
0.500 setlinewidth
0 setlinecap
0.000 setgray
gsave
/o {
gsave
newpath
translate
0.5 setlinewidth
1 setlinejoin
0 setlinecap
0 0 m
0 4 l
gsave
0.000 setgray
fill
grestore
stroke
grestore
} bind def
72 43.2 o
grestore
gsave
/o {
gsave
newpath
translate
0.5 setlinewidth
1 setlinejoin
0 setlinecap
0 0 m
0 -4 l
gsave
0.000 setgray
fill
grestore
stroke
grestore
} bind def
72 388.8 o
grestore
/DejaVuSans findfont
12.000 scalefont
setfont
gsave
68.976562 30.121875 translate
0.000000 rotate
0.000000 0.171875 m /zero glyphshow
grestore
gsave
/o {
gsave
newpath
translate
0.5 setlinewidth
1 setlinejoin
0 setlinecap
0 0 m
0 4 l
gsave
0.000 setgray
fill
grestore
stroke
grestore
} bind def
127.8 43.2 o
grestore
gsave
/o {
gsave
newpath
translate
0.5 setlinewidth
1 setlinejoin
0 setlinecap
0 0 m
0 -4 l
gsave
0.000 setgray
fill
grestore
stroke
grestore
} bind def
127.8 388.8 o
grestore
gsave
121.018750 30.121875 translate
0.000000 rotate
0.000000 0.171875 m /five glyphshow
7.634766 0.171875 m /zero glyphshow
grestore
gsave
/o {
gsave
newpath
translate
0.5 setlinewidth
1 setlinejoin
0 setlinecap
0 0 m
0 4 l
gsave
0.000 setgray
fill
grestore
stroke
grestore
} bind def
183.6 43.2 o
grestore
gsave
/o {
gsave
newpath
translate
0.5 setlinewidth
1 setlinejoin
0 setlinecap
0 0 m
0 -4 l
gsave
0.000 setgray
fill
grestore
stroke
grestore
} bind def
183.6 388.8 o
grestore
gsave
173.193750 30.121875 translate
0.000000 rotate
0.000000 0.171875 m /one glyphshow
7.634766 0.171875 m /zero glyphshow
15.269531 0.171875 m /zero glyphshow
grestore
gsave
/o {
gsave
newpath
translate
0.5 setlinewidth
1 setlinejoin
0 setlinecap
0 0 m
0 4 l
gsave
0.000 setgray
fill
grestore
stroke
grestore
} bind def
239.4 43.2 o
grestore
gsave
/o {
gsave
newpath
translate
0.5 setlinewidth
1 setlinejoin
0 setlinecap
0 0 m
0 -4 l
gsave
0.000 setgray
fill
grestore
stroke
grestore
} bind def
239.4 388.8 o
grestore
gsave
228.993750 30.121875 translate
0.000000 rotate
0.000000 0.171875 m /one glyphshow
7.634766 0.171875 m /five glyphshow
15.269531 0.171875 m /zero glyphshow
grestore
gsave
/o {
gsave
newpath
translate
0.5 setlinewidth
1 setlinejoin
0 setlinecap
0 0 m
0 4 l
gsave
0.000 setgray
fill
grestore
stroke
grestore
} bind def
295.2 43.2 o
grestore
gsave
/o {
gsave
newpath
translate
0.5 setlinewidth
1 setlinejoin
0 setlinecap
0 0 m
0 -4 l
gsave
0.000 setgray
fill
grestore
stroke
grestore
} bind def
295.2 388.8 o
grestore
gsave
284.575000 30.121875 translate
0.000000 rotate
0.000000 0.171875 m /two glyphshow
7.634766 0.171875 m /zero glyphshow
15.269531 0.171875 m /zero glyphshow
grestore
gsave
/o {
gsave
newpath
translate
0.5 setlinewidth
1 setlinejoin
0 setlinecap
0 0 m
0 4 l
gsave
0.000 setgray
fill
grestore
stroke
grestore
} bind def
351 43.2 o
grestore
gsave
/o {
gsave
newpath
translate
0.5 setlinewidth
1 setlinejoin
0 setlinecap
0 0 m
0 -4 l
gsave
0.000 setgray
fill
grestore
stroke
grestore
} bind def
351 388.8 o
grestore
gsave
340.375000 30.121875 translate
0.000000 rotate
0.000000 0.171875 m /two glyphshow
7.634766 0.171875 m /five glyphshow
15.269531 0.171875 m /zero glyphshow
grestore
gsave
/o {
gsave
newpath
translate
0.5 setlinewidth
1 setlinejoin
0 setlinecap
0 0 m
0 4 l
gsave
0.000 setgray
fill
grestore
stroke
grestore
} bind def
406.8 43.2 o
grestore
gsave
/o {
gsave
newpath
translate
0.5 setlinewidth
1 setlinejoin
0 setlinecap
0 0 m
0 -4 l
gsave
0.000 setgray
fill
grestore
stroke
grestore
} bind def
406.8 388.8 o
grestore
gsave
396.198437 30.121875 translate
0.000000 rotate
0.000000 0.171875 m /three glyphshow
7.634766 0.171875 m /zero glyphshow
15.269531 0.171875 m /zero glyphshow
grestore
gsave
/o {
gsave
newpath
translate
0.5 setlinewidth
1 setlinejoin
0 setlinecap
0 0 m
0 4 l
gsave
0.000 setgray
fill
grestore
stroke
grestore
} bind def
462.6 43.2 o
grestore
gsave
/o {
gsave
newpath
translate
0.5 setlinewidth
1 setlinejoin
0 setlinecap
0 0 m
0 -4 l
gsave
0.000 setgray
fill
grestore
stroke
grestore
} bind def
462.6 388.8 o
grestore
gsave
451.998437 30.121875 translate
0.000000 rotate
0.000000 0.171875 m /three glyphshow
7.634766 0.171875 m /five glyphshow
15.269531 0.171875 m /zero glyphshow
grestore
gsave
/o {
gsave
newpath
translate
0.5 setlinewidth
1 setlinejoin
0 setlinecap
0 0 m
0 4 l
gsave
0.000 setgray
fill
grestore
stroke
grestore
} bind def
518.4 43.2 o
grestore
gsave
/o {
gsave
newpath
translate
0.5 setlinewidth
1 setlinejoin
0 setlinecap
0 0 m
0 -4 l
gsave
0.000 setgray
fill
grestore
stroke
grestore
} bind def
518.4 388.8 o
grestore
gsave
507.634375 30.121875 translate
0.000000 rotate
0.000000 0.171875 m /four glyphshow
7.634766 0.171875 m /zero glyphshow
15.269531 0.171875 m /zero glyphshow
grestore
/DejaVuSans findfont
16.000 scalefont
setfont
gsave
249.637500 9.637500 translate
0.000000 rotate
0.000000 3.328125 m /D glyphshow
12.320312 3.328125 m /a glyphshow
22.125000 3.328125 m /y glyphshow
31.593750 3.328125 m /space glyphshow
36.679688 3.328125 m /o glyphshow
46.468750 3.328125 m /f glyphshow
52.101562 3.328125 m /space glyphshow
57.187500 3.328125 m /Y glyphshow
64.835938 3.328125 m /e glyphshow
74.679688 3.328125 m /a glyphshow
84.484375 3.328125 m /r glyphshow
grestore
gsave
/o {
gsave
newpath
translate
0.5 setlinewidth
1 setlinejoin
0 setlinecap
0 0 m
4 0 l
gsave
0.000 setgray
fill
grestore
stroke
grestore
} bind def
72 43.2 o
grestore
gsave
/o {
gsave
newpath
translate
0.5 setlinewidth
1 setlinejoin
0 setlinecap
0 0 m
-4 0 l
gsave
0.000 setgray
fill
grestore
stroke
grestore
} bind def
518.4 43.2 o
grestore
/DejaVuSans findfont
12.000 scalefont
setfont
gsave
61.953125 38.660937 translate
0.000000 rotate
0.000000 0.171875 m /zero glyphshow
grestore
gsave
/o {
gsave
newpath
translate
0.5 setlinewidth
1 setlinejoin
0 setlinecap
0 0 m
4 0 l
gsave
0.000 setgray
fill
grestore
stroke
grestore
} bind def
72 112.32 o
grestore
gsave
/o {
gsave
newpath
translate
0.5 setlinewidth
1 setlinejoin
0 setlinecap
0 0 m
-4 0 l
gsave
0.000 setgray
fill
grestore
stroke
grestore
} bind def
518.4 112.32 o
grestore
gsave
31.468750 107.780937 translate
0.000000 rotate
0.000000 0.171875 m /two glyphshow
7.634766 0.171875 m /zero glyphshow
15.269531 0.171875 m /zero glyphshow
22.904297 0.171875 m /zero glyphshow
30.539062 0.171875 m /zero glyphshow
grestore
gsave
/o {
gsave
newpath
translate
0.5 setlinewidth
1 setlinejoin
0 setlinecap
0 0 m
4 0 l
gsave
0.000 setgray
fill
grestore
stroke
grestore
} bind def
72 181.44 o
grestore
gsave
/o {
gsave
newpath
translate
0.5 setlinewidth
1 setlinejoin
0 setlinecap
0 0 m
-4 0 l
gsave
0.000 setgray
fill
grestore
stroke
grestore
} bind def
518.4 181.44 o
grestore
gsave
31.187500 176.900937 translate
0.000000 rotate
0.000000 0.171875 m /four glyphshow
7.634766 0.171875 m /zero glyphshow
15.269531 0.171875 m /zero glyphshow
22.904297 0.171875 m /zero glyphshow
30.539062 0.171875 m /zero glyphshow
grestore
gsave
/o {
gsave
newpath
translate
0.5 setlinewidth
1 setlinejoin
0 setlinecap
0 0 m
4 0 l
gsave
0.000 setgray
fill
grestore
stroke
grestore
} bind def
72 250.56 o
grestore
gsave
/o {
gsave
newpath
translate
0.5 setlinewidth
1 setlinejoin
0 setlinecap
0 0 m
-4 0 l
gsave
0.000 setgray
fill
grestore
stroke
grestore
} bind def
518.4 250.56 o
grestore
gsave
31.437500 246.020938 translate
0.000000 rotate
0.000000 0.171875 m /six glyphshow
7.634766 0.171875 m /zero glyphshow
15.269531 0.171875 m /zero glyphshow
22.904297 0.171875 m /zero glyphshow
30.539062 0.171875 m /zero glyphshow
grestore
gsave
/o {
gsave
newpath
translate
0.5 setlinewidth
1 setlinejoin
0 setlinecap
0 0 m
4 0 l
gsave
0.000 setgray
fill
grestore
stroke
grestore
} bind def
72 319.68 o
grestore
gsave
/o {
gsave
newpath
translate
0.5 setlinewidth
1 setlinejoin
0 setlinecap
0 0 m
-4 0 l
gsave
0.000 setgray
fill
grestore
stroke
grestore
} bind def
518.4 319.68 o
grestore
gsave
31.406250 315.140938 translate
0.000000 rotate
0.000000 0.171875 m /eight glyphshow
7.634766 0.171875 m /zero glyphshow
15.269531 0.171875 m /zero glyphshow
22.904297 0.171875 m /zero glyphshow
30.539062 0.171875 m /zero glyphshow
grestore
gsave
/o {
gsave
newpath
translate
0.5 setlinewidth
1 setlinejoin
0 setlinecap
0 0 m
4 0 l
gsave
0.000 setgray
fill
grestore
stroke
grestore
} bind def
72 388.8 o
grestore
gsave
/o {
gsave
newpath
translate
0.5 setlinewidth
1 setlinejoin
0 setlinecap
0 0 m
-4 0 l
gsave
0.000 setgray
fill
grestore
stroke
grestore
} bind def
518.4 388.8 o
grestore
gsave
24.265625 384.260938 translate
0.000000 rotate
0.000000 0.171875 m /one glyphshow
7.634766 0.171875 m /zero glyphshow
15.269531 0.171875 m /zero glyphshow
22.904297 0.171875 m /zero glyphshow
30.539062 0.171875 m /zero glyphshow
38.173828 0.171875 m /zero glyphshow
grestore
/DejaVuSans findfont
16.000 scalefont
setfont
gsave
19.265625 153.156250 translate
90.000000 rotate
0.000000 0.234375 m /S glyphshow
10.156250 0.234375 m /o glyphshow
19.945312 0.234375 m /l glyphshow
24.390625 0.234375 m /a glyphshow
34.195312 0.234375 m /r glyphshow
40.773438 0.234375 m /space glyphshow
45.859375 0.234375 m /I glyphshow
50.578125 0.234375 m /r glyphshow
56.906250 0.234375 m /r glyphshow
63.484375 0.234375 m /a glyphshow
73.289062 0.234375 m /d glyphshow
83.445312 0.234375 m /i glyphshow
87.890625 0.234375 m /a glyphshow
97.695312 0.234375 m /n glyphshow
107.835938 0.234375 m /c glyphshow
116.632812 0.234375 m /e glyphshow
grestore
1.000 setlinewidth
2 setlinecap
gsave
72 388.8 m
518.4 388.8 l
stroke
grestore
gsave
518.4 43.2 m
518.4 388.8 l
stroke
grestore
gsave
72 43.2 m
518.4 43.2 l
stroke
grestore
gsave
72 43.2 m
72 388.8 l
stroke
grestore
gsave
400.329 338.489 m
511.2 338.489 l
511.2 381.6 l
400.329 381.6 l
400.329 338.489 l
cl
gsave
1.000 setgray
fill
grestore
stroke
grestore
0.000 0.000 1.000 setrgbcolor
gsave
410.409 370.239 m
430.569 370.239 l
stroke
grestore
0.000 setgray
/DejaVuSans findfont
14.400 scalefont
setfont
gsave
446.408750 364.996250 translate
0.000000 rotate
0.000000 0.203125 m /D glyphshow
11.081055 0.203125 m /a glyphshow
19.899521 0.203125 m /t glyphshow
25.541931 0.203125 m /a glyphshow
grestore
2.000 setlinewidth
1.000 0.000 0.000 setrgbcolor
gsave
410.409 349.493 m
430.569 349.493 l
stroke
grestore
0.000 setgray
gsave
446.408750 344.249375 translate
0.000000 rotate
0.000000 0.203125 m /F glyphshow
7.777420 0.203125 m /o glyphshow
16.581833 0.203125 m /r glyphshow
22.123291 0.203125 m /e glyphshow
30.976898 0.203125 m /c glyphshow
38.888931 0.203125 m /a glyphshow
47.707397 0.203125 m /s glyphshow
55.204849 0.203125 m /t glyphshow
grestore

end
showpage
