%!PS-Adobe-3.0 EPSF-3.0
%%Title: daily_arma_20_seasonal_E.eps
%%Creator: matplotlib version 1.2.1, http://matplotlib.org/
%%CreationDate: Thu Nov 21 16:17:21 2013
%%Orientation: portrait
%%BoundingBox: 18 180 594 612
%%EndComments
%%BeginProlog
/mpldict 8 dict def
mpldict begin
/m { moveto } bind def
/l { lineto } bind def
/r { rlineto } bind def
/c { curveto } bind def
/cl { closepath } bind def
/box {
m
1 index 0 r
0 exch r
neg 0 r
cl
} bind def
/clipbox {
box
clip
newpath
} bind def
%!PS-Adobe-3.0 Resource-Font
%%Title: DejaVu Sans
%%Copyright: Copyright (c) 2003 by Bitstream, Inc. All Rights Reserved. Copyright (c) 2006 by Tavmjong Bah. All Rights Reserved. DejaVu changes are in public domain 
%%Creator: Converted from TrueType to type 3 by PPR
25 dict begin
/_d{bind def}bind def
/_m{moveto}_d
/_l{lineto}_d
/_cl{closepath eofill}_d
/_c{curveto}_d
/_sc{7 -1 roll{setcachedevice}{pop pop pop pop pop pop}ifelse}_d
/_e{exec}_d
/FontName /DejaVuSans def
/PaintType 0 def
/FontMatrix[.001 0 0 .001 0 0]def
/FontBBox[-1021 -415 1681 1167]def
/FontType 3 def
/Encoding [ /space /zero /one /two /three /four /five /C /D /I /S /Y /a /c /d /e /f /i /l /m /n /o /p /r /s /t /y ] def
/FontInfo 10 dict dup begin
/FamilyName (DejaVu Sans) def
/FullName (DejaVu Sans) def
/Notice (Copyright (c) 2003 by Bitstream, Inc. All Rights Reserved. Copyright (c) 2006 by Tavmjong Bah. All Rights Reserved. DejaVu changes are in public domain ) def
/Weight (Book) def
/Version (Version 2.33) def
/ItalicAngle 0.0 def
/isFixedPitch false def
/UnderlinePosition -130 def
/UnderlineThickness 90 def
end readonly def
/CharStrings 27 dict dup begin
/space{318 0 0 0 0 0 _sc
}_d
/zero{636 0 66 -13 570 742 _sc
318 664 _m
267 664 229 639 203 589 _c
177 539 165 464 165 364 _c
165 264 177 189 203 139 _c
229 89 267 64 318 64 _c
369 64 407 89 433 139 _c
458 189 471 264 471 364 _c
471 464 458 539 433 589 _c
407 639 369 664 318 664 _c
318 742 _m
399 742 461 709 505 645 _c
548 580 570 486 570 364 _c
570 241 548 147 505 83 _c
461 19 399 -13 318 -13 _c
236 -13 173 19 130 83 _c
87 147 66 241 66 364 _c
66 486 87 580 130 645 _c
173 709 236 742 318 742 _c
_cl}_d
/one{636 0 110 0 544 729 _sc
124 83 _m
285 83 _l
285 639 _l
110 604 _l
110 694 _l
284 729 _l
383 729 _l
383 83 _l
544 83 _l
544 0 _l
124 0 _l
124 83 _l
_cl}_d
/two{{636 0 73 0 536 742 _sc
192 83 _m
536 83 _l
536 0 _l
73 0 _l
73 83 _l
110 121 161 173 226 239 _c
290 304 331 346 348 365 _c
380 400 402 430 414 455 _c
426 479 433 504 433 528 _c
433 566 419 598 392 622 _c
365 646 330 659 286 659 _c
255 659 222 653 188 643 _c
154 632 117 616 78 594 _c
78 694 _l
118 710 155 722 189 730 _c
223 738 255 742 284 742 _c
}_e{359 742 419 723 464 685 _c
509 647 532 597 532 534 _c
532 504 526 475 515 449 _c
504 422 484 390 454 354 _c
446 344 420 317 376 272 _c
332 227 271 164 192 83 _c
_cl}_e}_d
/three{{636 0 76 -13 556 742 _sc
406 393 _m
453 383 490 362 516 330 _c
542 298 556 258 556 212 _c
556 140 531 84 482 45 _c
432 6 362 -13 271 -13 _c
240 -13 208 -10 176 -4 _c
144 1 110 10 76 22 _c
76 117 _l
103 101 133 89 166 81 _c
198 73 232 69 268 69 _c
330 69 377 81 409 105 _c
441 129 458 165 458 212 _c
458 254 443 288 413 312 _c
383 336 341 349 287 349 _c
}_e{202 349 _l
202 430 _l
291 430 _l
339 430 376 439 402 459 _c
428 478 441 506 441 543 _c
441 580 427 609 401 629 _c
374 649 336 659 287 659 _c
260 659 231 656 200 650 _c
169 644 135 635 98 623 _c
98 711 _l
135 721 170 729 203 734 _c
235 739 266 742 296 742 _c
370 742 429 725 473 691 _c
517 657 539 611 539 553 _c
539 513 527 479 504 451 _c
481 423 448 403 406 393 _c
_cl}_e}_d
/four{636 0 49 0 580 729 _sc
378 643 _m
129 254 _l
378 254 _l
378 643 _l
352 729 _m
476 729 _l
476 254 _l
580 254 _l
580 172 _l
476 172 _l
476 0 _l
378 0 _l
378 172 _l
49 172 _l
49 267 _l
352 729 _l
_cl}_d
/five{{636 0 77 -13 549 729 _sc
108 729 _m
495 729 _l
495 646 _l
198 646 _l
198 467 _l
212 472 227 476 241 478 _c
255 480 270 482 284 482 _c
365 482 429 459 477 415 _c
525 370 549 310 549 234 _c
549 155 524 94 475 51 _c
426 8 357 -13 269 -13 _c
238 -13 207 -10 175 -6 _c
143 -1 111 6 77 17 _c
77 116 _l
106 100 136 88 168 80 _c
199 72 232 69 267 69 _c
}_e{323 69 368 83 401 113 _c
433 143 450 183 450 234 _c
450 284 433 324 401 354 _c
368 384 323 399 267 399 _c
241 399 214 396 188 390 _c
162 384 135 375 108 363 _c
108 729 _l
_cl}_e}_d
/C{{698 0 56 -13 644 742 _sc
644 673 _m
644 569 _l
610 599 575 622 537 638 _c
499 653 460 661 418 661 _c
334 661 270 635 226 584 _c
182 533 160 460 160 364 _c
160 268 182 194 226 143 _c
270 92 334 67 418 67 _c
460 67 499 74 537 90 _c
575 105 610 128 644 159 _c
644 56 _l
609 32 572 15 534 4 _c
496 -7 455 -13 412 -13 _c
302 -13 215 20 151 87 _c
}_e{87 154 56 246 56 364 _c
56 481 87 573 151 641 _c
215 708 302 742 412 742 _c
456 742 497 736 535 725 _c
573 713 610 696 644 673 _c
_cl}_e}_d
/D{770 0 98 0 711 729 _sc
197 648 _m
197 81 _l
316 81 _l
416 81 490 103 537 149 _c
583 195 607 267 607 365 _c
607 463 583 534 537 580 _c
490 625 416 648 316 648 _c
197 648 _l
98 729 _m
301 729 _l
442 729 546 699 612 641 _c
678 582 711 490 711 365 _c
711 239 677 147 611 88 _c
545 29 441 0 301 0 _c
98 0 _l
98 729 _l
_cl}_d
/I{295 0 98 0 197 729 _sc
98 729 _m
197 729 _l
197 0 _l
98 0 _l
98 729 _l
_cl}_d
/S{{635 0 66 -13 579 742 _sc
535 705 _m
535 609 _l
497 627 462 640 429 649 _c
395 657 363 662 333 662 _c
279 662 237 651 208 631 _c
179 610 165 580 165 542 _c
165 510 174 485 194 469 _c
213 452 250 439 304 429 _c
364 417 _l
437 403 491 378 526 343 _c
561 307 579 260 579 201 _c
579 130 555 77 508 41 _c
460 5 391 -13 300 -13 _c
265 -13 228 -9 189 -2 _c
}_e{150 5 110 16 69 32 _c
69 134 _l
109 111 148 94 186 83 _c
224 71 262 66 300 66 _c
356 66 399 77 430 99 _c
460 121 476 152 476 194 _c
476 230 465 258 443 278 _c
421 298 385 313 335 323 _c
275 335 _l
201 349 148 372 115 404 _c
82 435 66 478 66 534 _c
66 598 88 649 134 686 _c
179 723 242 742 322 742 _c
356 742 390 739 426 733 _c
461 727 497 717 535 705 _c
}_e{_cl}_e}_d
/Y{611 0 -1 0 613 729 _sc
-1 729 _m
104 729 _l
306 429 _l
507 729 _l
613 729 _l
355 347 _l
355 0 _l
256 0 _l
256 347 _l
-1 729 _l
_cl}_d
/a{{613 0 60 -13 522 560 _sc
343 275 _m
270 275 220 266 192 250 _c
164 233 150 205 150 165 _c
150 133 160 107 181 89 _c
202 70 231 61 267 61 _c
317 61 357 78 387 114 _c
417 149 432 196 432 255 _c
432 275 _l
343 275 _l
522 312 _m
522 0 _l
432 0 _l
432 83 _l
411 49 385 25 355 10 _c
325 -5 287 -13 243 -13 _c
187 -13 142 2 109 33 _c
76 64 60 106 60 159 _c
}_e{60 220 80 266 122 298 _c
163 329 224 345 306 345 _c
432 345 _l
432 354 _l
432 395 418 427 391 450 _c
364 472 326 484 277 484 _c
245 484 215 480 185 472 _c
155 464 127 453 100 439 _c
100 522 _l
132 534 164 544 195 550 _c
226 556 256 560 286 560 _c
365 560 424 539 463 498 _c
502 457 522 395 522 312 _c
_cl}_e}_d
/c{{550 0 55 -13 488 560 _sc
488 526 _m
488 442 _l
462 456 437 466 411 473 _c
385 480 360 484 334 484 _c
276 484 230 465 198 428 _c
166 391 150 339 150 273 _c
150 206 166 154 198 117 _c
230 80 276 62 334 62 _c
360 62 385 65 411 72 _c
437 79 462 90 488 104 _c
488 21 _l
462 9 436 0 410 -5 _c
383 -10 354 -13 324 -13 _c
242 -13 176 12 128 64 _c
}_e{79 115 55 185 55 273 _c
55 362 79 432 128 483 _c
177 534 244 560 330 560 _c
358 560 385 557 411 551 _c
437 545 463 537 488 526 _c
_cl}_e}_d
/d{{635 0 55 -13 544 760 _sc
454 464 _m
454 760 _l
544 760 _l
544 0 _l
454 0 _l
454 82 _l
435 49 411 25 382 10 _c
353 -5 319 -13 279 -13 _c
213 -13 159 13 117 65 _c
75 117 55 187 55 273 _c
55 359 75 428 117 481 _c
159 533 213 560 279 560 _c
319 560 353 552 382 536 _c
411 520 435 496 454 464 _c
148 273 _m
148 207 161 155 188 117 _c
215 79 253 61 301 61 _c
}_e{348 61 385 79 413 117 _c
440 155 454 207 454 273 _c
454 339 440 390 413 428 _c
385 466 348 485 301 485 _c
253 485 215 466 188 428 _c
161 390 148 339 148 273 _c
_cl}_e}_d
/e{{615 0 55 -13 562 560 _sc
562 296 _m
562 252 _l
149 252 _l
153 190 171 142 205 110 _c
238 78 284 62 344 62 _c
378 62 412 66 444 74 _c
476 82 509 95 541 113 _c
541 28 _l
509 14 476 3 442 -3 _c
408 -9 373 -13 339 -13 _c
251 -13 182 12 131 62 _c
80 112 55 181 55 268 _c
55 357 79 428 127 481 _c
175 533 241 560 323 560 _c
397 560 455 536 498 489 _c
}_e{540 441 562 377 562 296 _c
472 322 _m
471 371 457 410 431 440 _c
404 469 368 484 324 484 _c
274 484 234 469 204 441 _c
174 413 156 373 152 322 _c
472 322 _l
_cl}_e}_d
/f{352 0 23 0 371 760 _sc
371 760 _m
371 685 _l
285 685 _l
253 685 230 678 218 665 _c
205 652 199 629 199 595 _c
199 547 _l
347 547 _l
347 477 _l
199 477 _l
199 0 _l
109 0 _l
109 477 _l
23 477 _l
23 547 _l
109 547 _l
109 585 _l
109 645 123 690 151 718 _c
179 746 224 760 286 760 _c
371 760 _l
_cl}_d
/i{278 0 94 0 184 760 _sc
94 547 _m
184 547 _l
184 0 _l
94 0 _l
94 547 _l
94 760 _m
184 760 _l
184 646 _l
94 646 _l
94 760 _l
_cl}_d
/l{278 0 94 0 184 760 _sc
94 760 _m
184 760 _l
184 0 _l
94 0 _l
94 760 _l
_cl}_d
/m{{974 0 91 0 889 560 _sc
520 442 _m
542 482 569 511 600 531 _c
631 550 668 560 711 560 _c
767 560 811 540 842 500 _c
873 460 889 403 889 330 _c
889 0 _l
799 0 _l
799 327 _l
799 379 789 418 771 444 _c
752 469 724 482 686 482 _c
639 482 602 466 575 435 _c
548 404 535 362 535 309 _c
535 0 _l
445 0 _l
445 327 _l
445 379 435 418 417 444 _c
398 469 369 482 331 482 _c
}_e{285 482 248 466 221 435 _c
194 404 181 362 181 309 _c
181 0 _l
91 0 _l
91 547 _l
181 547 _l
181 462 _l
201 495 226 520 255 536 _c
283 552 317 560 357 560 _c
397 560 430 550 458 530 _c
486 510 506 480 520 442 _c
_cl}_e}_d
/n{634 0 91 0 549 560 _sc
549 330 _m
549 0 _l
459 0 _l
459 327 _l
459 379 448 417 428 443 _c
408 469 378 482 338 482 _c
289 482 251 466 223 435 _c
195 404 181 362 181 309 _c
181 0 _l
91 0 _l
91 547 _l
181 547 _l
181 462 _l
202 494 227 519 257 535 _c
286 551 320 560 358 560 _c
420 560 468 540 500 501 _c
532 462 549 405 549 330 _c
_cl}_d
/o{612 0 55 -13 557 560 _sc
306 484 _m
258 484 220 465 192 427 _c
164 389 150 338 150 273 _c
150 207 163 156 191 118 _c
219 80 257 62 306 62 _c
354 62 392 80 420 118 _c
448 156 462 207 462 273 _c
462 337 448 389 420 427 _c
392 465 354 484 306 484 _c
306 560 _m
384 560 445 534 490 484 _c
534 433 557 363 557 273 _c
557 183 534 113 490 63 _c
445 12 384 -13 306 -13 _c
227 -13 165 12 121 63 _c
77 113 55 183 55 273 _c
55 363 77 433 121 484 _c
165 534 227 560 306 560 _c
_cl}_d
/p{{635 0 91 -207 580 560 _sc
181 82 _m
181 -207 _l
91 -207 _l
91 547 _l
181 547 _l
181 464 _l
199 496 223 520 252 536 _c
281 552 316 560 356 560 _c
422 560 476 533 518 481 _c
559 428 580 359 580 273 _c
580 187 559 117 518 65 _c
476 13 422 -13 356 -13 _c
316 -13 281 -5 252 10 _c
223 25 199 49 181 82 _c
487 273 _m
487 339 473 390 446 428 _c
418 466 381 485 334 485 _c
}_e{286 485 249 466 222 428 _c
194 390 181 339 181 273 _c
181 207 194 155 222 117 _c
249 79 286 61 334 61 _c
381 61 418 79 446 117 _c
473 155 487 207 487 273 _c
_cl}_e}_d
/r{411 0 91 0 411 560 _sc
411 463 _m
401 469 390 473 378 476 _c
366 478 353 480 339 480 _c
288 480 249 463 222 430 _c
194 397 181 350 181 288 _c
181 0 _l
91 0 _l
91 547 _l
181 547 _l
181 462 _l
199 495 224 520 254 536 _c
284 552 321 560 365 560 _c
371 560 378 559 386 559 _c
393 558 401 557 411 555 _c
411 463 _l
_cl}_d
/s{{521 0 54 -13 472 560 _sc
443 531 _m
443 446 _l
417 458 391 468 364 475 _c
336 481 308 485 279 485 _c
234 485 200 478 178 464 _c
156 450 145 430 145 403 _c
145 382 153 366 169 354 _c
185 342 217 330 265 320 _c
296 313 _l
360 299 405 279 432 255 _c
458 230 472 195 472 151 _c
472 100 452 60 412 31 _c
372 1 316 -13 246 -13 _c
216 -13 186 -10 154 -5 _c
}_e{122 0 89 8 54 20 _c
54 113 _l
87 95 120 82 152 74 _c
184 65 216 61 248 61 _c
290 61 323 68 346 82 _c
368 96 380 117 380 144 _c
380 168 371 187 355 200 _c
339 213 303 226 247 238 _c
216 245 _l
160 257 119 275 95 299 _c
70 323 58 356 58 399 _c
58 450 76 490 112 518 _c
148 546 200 560 268 560 _c
301 560 332 557 362 552 _c
391 547 418 540 443 531 _c
}_e{_cl}_e}_d
/t{392 0 27 0 368 702 _sc
183 702 _m
183 547 _l
368 547 _l
368 477 _l
183 477 _l
183 180 _l
183 135 189 106 201 94 _c
213 81 238 75 276 75 _c
368 75 _l
368 0 _l
276 0 _l
206 0 158 13 132 39 _c
106 65 93 112 93 180 _c
93 477 _l
27 477 _l
27 547 _l
93 547 _l
93 702 _l
183 702 _l
_cl}_d
/y{592 0 30 -207 562 547 _sc
322 -50 _m
296 -114 271 -157 247 -177 _c
223 -197 191 -207 151 -207 _c
79 -207 _l
79 -132 _l
132 -132 _l
156 -132 175 -126 189 -114 _c
203 -102 218 -75 235 -31 _c
251 9 _l
30 547 _l
125 547 _l
296 119 _l
467 547 _l
562 547 _l
322 -50 _l
_cl}_d
end readonly def

/BuildGlyph
 {exch begin
 CharStrings exch
 2 copy known not{pop /.notdef}if
 true 3 1 roll get exec
 end}_d

/BuildChar {
 1 index /Encoding get exch get
 1 index /BuildGlyph get exec
}_d

FontName currentdict end definefont pop
end
%%EndProlog
mpldict begin
18 180 translate
576 432 0 0 clipbox
gsave
0 0 m
576 0 l
576 432 l
0 432 l
cl
1.000 setgray
fill
grestore
gsave
72 43.2 m
518.4 43.2 l
518.4 388.8 l
72 388.8 l
cl
1.000 setgray
fill
grestore
1.000 setlinewidth
1 setlinejoin
2 setlinecap
[] 0 setdash
0.000 0.000 1.000 setrgbcolor
gsave
446.4 345.6 72 43.2 clipbox
72 131.884 m
73.116 106.055 l
74.232 138.843 l
75.348 136.475 l
76.464 56.2713 l
77.58 102.077 l
78.696 129.032 l
79.812 77.9303 l
80.928 66.4306 l
82.044 66.3205 l
83.16 52.0708 l
84.276 61.5086 l
85.392 54.248 l
86.508 142.087 l
87.624 76.3946 l
88.74 68.4589 l
89.856 65.6066 l
90.972 146.032 l
92.088 151.791 l
93.204 68.2734 l
94.32 157.539 l
95.436 150.668 l
96.552 130.117 l
97.668 170.109 l
98.784 157.342 l
99.9 150.47 l
101.016 130.444 l
102.132 170.918 l
103.248 90.9474 l
104.364 156.501 l
105.48 173.633 l
106.596 158.138 l
107.712 170.502 l
108.828 169.101 l
109.944 109.042 l
111.06 128.585 l
112.176 75.9186 l
113.292 64.1658 l
114.408 95.4647 l
115.524 123.619 l
116.64 188.097 l
117.756 188.105 l
118.872 189.589 l
119.988 87.5002 l
121.104 98.8554 l
122.22 192.259 l
123.336 170.8 l
124.452 152.395 l
125.568 59.6059 l
126.684 70.7475 l
127.8 164.081 l
128.916 191.064 l
130.032 198.054 l
131.148 146.632 l
132.264 174.62 l
133.38 208.338 l
134.496 175.783 l
135.612 147.647 l
136.728 180.327 l
137.844 63.9774 l
138.96 60.4752 l
140.076 87.4589 l
141.192 205.402 l
143.424 71.0717 l
144.54 230.188 l
146.772 101.386 l
147.888 227.677 l
149.004 165.332 l
150.12 66.3844 l
151.236 94.7057 l
152.352 249.769 l
153.468 244.47 l
154.584 219.016 l
155.7 63.151 l
156.816 114.483 l
157.932 242.458 l
159.048 144.14 l
160.164 229.45 l
161.28 83.4064 l
162.396 72.9628 l
163.512 139.176 l
164.628 238.279 l
165.744 179.843 l
166.86 112.309 l
167.976 257.136 l
169.092 265.444 l
170.208 275.384 l
171.324 225.472 l
172.44 281.031 l
173.556 277.014 l
174.672 222.34 l
175.788 60.7958 l
176.904 250.448 l
178.02 276.638 l
179.136 226.216 l
180.252 143.37 l
181.368 78.0415 l
182.484 277.005 l
183.6 161.686 l
184.716 97.6694 l
185.832 102.652 l
188.064 223.353 l
189.18 181.968 l
190.296 299.754 l
191.412 198.705 l
192.528 245.315 l
193.644 139.272 l
194.76 281.629 l
195.876 307.494 l
196.992 198.774 l
198.108 315.59 l
199.224 225.969 l
200.34 283.034 l
201.456 106.117 l
202.572 215.434 l
203.688 127.595 l
204.804 273.21 l
205.92 264.947 l
207.036 305.52 l
208.152 233.218 l
209.268 186.713 l
210.384 126.146 l
211.5 107.687 l
212.616 318.797 l
213.732 181.836 l
214.848 287.256 l
215.964 259.469 l
217.08 261.274 l
218.196 285.814 l
219.312 273.583 l
220.428 210.031 l
221.544 286.323 l
222.66 206.171 l
223.776 252.159 l
224.892 116.903 l
226.008 225.457 l
227.124 305.621 l
230.472 181.541 l
231.588 269.537 l
232.704 113.751 l
233.82 185.665 l
234.936 307.559 l
236.052 313.62 l
237.168 182.056 l
238.284 292.402 l
239.4 254.631 l
240.516 243.486 l
241.632 282.07 l
242.748 274.762 l
243.864 320.08 l
244.98 340.925 l
246.096 341.306 l
247.212 328.276 l
248.328 325.732 l
249.444 303.795 l
250.56 224.485 l
251.676 227.086 l
252.792 270.974 l
253.908 286.049 l
255.024 321.229 l
256.14 182.533 l
257.256 296.771 l
258.372 351.556 l
259.488 329.814 l
260.604 334.399 l
261.72 330.556 l
262.836 278.251 l
263.952 109.951 l
265.068 333.54 l
266.184 320.622 l
267.3 332.899 l
268.416 302.411 l
269.532 303.375 l
270.648 269.802 l
271.764 289.581 l
272.88 291.211 l
273.996 284.852 l
275.112 290.959 l
276.228 295.196 l
277.344 283.747 l
278.46 319.601 l
279.576 269.637 l
280.692 263.78 l
281.808 308.371 l
282.924 236.703 l
284.04 327.443 l
285.156 222.207 l
286.272 227.611 l
287.388 183.925 l
288.504 316.463 l
289.62 326.075 l
290.736 327.151 l
291.852 233.937 l
292.968 284.347 l
294.084 310.246 l
295.2 289.534 l
296.316 127.761 l
297.432 262.989 l
298.548 323.775 l
299.664 254.906 l
300.78 259.28 l
301.896 276.022 l
303.012 311.157 l
304.128 238.137 l
305.244 243.882 l
306.36 279.107 l
307.476 276.588 l
308.592 315.753 l
309.708 274.186 l
310.824 166.072 l
311.94 251.653 l
313.056 141.138 l
314.172 178.69 l
315.288 136.604 l
316.404 98.7194 l
317.52 298.364 l
318.636 278.803 l
319.752 297.696 l
320.868 299.423 l
321.984 247.829 l
323.1 285.663 l
324.216 276.913 l
325.332 226.945 l
326.448 203.427 l
327.564 242.859 l
328.68 167.055 l
329.796 199.602 l
330.912 256.778 l
332.028 272.747 l
333.144 255.213 l
334.26 270.104 l
335.376 256.62 l
336.492 251.341 l
337.608 244.192 l
338.724 227.783 l
339.84 207.69 l
340.956 151.193 l
342.072 255.348 l
343.188 272.464 l
344.304 196.742 l
345.42 104.96 l
346.536 216.902 l
347.652 264.473 l
348.768 260.41 l
349.884 233.308 l
351 201.683 l
352.116 229.141 l
353.232 235.032 l
354.348 184.642 l
355.464 201.963 l
356.58 210.349 l
357.696 179.958 l
358.812 192.966 l
359.928 192.898 l
361.044 216.019 l
363.276 169.742 l
364.392 249.33 l
365.508 247.422 l
366.624 93.2503 l
367.74 231.988 l
368.856 110.609 l
369.972 135.457 l
371.088 239.998 l
372.204 153.59 l
373.32 230.082 l
374.436 156.764 l
375.552 203.458 l
376.668 206.639 l
377.784 104.548 l
378.9 148.05 l
380.016 58.5329 l
381.132 141.422 l
382.248 144.93 l
383.364 217.848 l
384.48 204.276 l
385.596 196.16 l
386.712 175.421 l
387.828 199.989 l
388.944 162.63 l
390.06 191.794 l
391.176 114.426 l
392.292 158.152 l
393.408 195.282 l
394.524 194.524 l
395.64 177.806 l
396.756 196.173 l
397.872 189.638 l
398.988 184.405 l
400.104 321.807 l
401.22 314.031 l
402.336 79.0621 l
403.452 91.2286 l
404.568 52.6044 l
405.684 69.5854 l
406.8 56.9027 l
407.916 77.0184 l
409.032 59.6984 l
410.148 67.0399 l
411.264 61.7477 l
412.38 94.7495 l
413.496 115.086 l
414.612 149.254 l
415.728 93.3534 l
416.844 114.046 l
417.96 164.879 l
419.076 163.225 l
420.192 162.398 l
422.424 63.54 l
423.54 62.1174 l
424.656 143.79 l
425.772 78.386 l
426.888 55.3195 l
428.004 141.465 l
429.12 73.1645 l
430.236 114.082 l
431.352 78.2718 l
432.468 68.8663 l
433.584 144.196 l
434.7 102.314 l
435.816 55.5188 l
436.932 73.1463 l
438.048 140.665 l
439.164 119.768 l
440.28 102.369 l
441.396 50.5264 l
442.512 67.3375 l
443.628 63.9824 l
444.744 108.823 l
445.86 56.8905 l
446.976 89.6058 l
448.092 136.653 l
449.208 76.5041 l
450.324 129.892 l
451.44 71.6165 l
452.556 57.4748 l
453.672 94.0931 l
454.788 116.481 l
455.904 111.227 l
457.02 47.8284 l
458.136 121.64 l
459.252 112.863 l
460.368 110.442 l
461.484 106.996 l
462.6 113.46 l
463.716 126.108 l
464.832 128.766 l
465.948 56.1993 l
467.064 97.0618 l
468.18 56.8622 l
469.296 97.5181 l
470.412 132.034 l
471.528 128.522 l
472.644 119.161 l
473.76 54.4584 l
474.876 68.7563 l
475.992 63.193 l
477.108 63.1083 l
477.108 63.1083 l
stroke
grestore
2.000 setlinewidth
0.000 0.500 0.000 setrgbcolor
gsave
446.4 345.6 72 43.2 clipbox
72 95.7119 m
75.348 96.4612 l
78.696 97.4474 l
82.044 98.6678 l
85.392 100.119 l
88.74 101.798 l
92.088 103.699 l
95.436 105.817 l
98.784 108.147 l
103.248 111.573 l
107.712 115.348 l
112.176 119.453 l
116.64 123.87 l
121.104 128.578 l
126.684 134.836 l
132.264 141.467 l
137.844 148.42 l
144.54 157.117 l
152.352 167.632 l
164.628 184.601 l
179.136 204.617 l
186.948 215.046 l
193.644 223.64 l
199.224 230.487 l
204.804 236.995 l
210.384 243.114 l
214.848 247.699 l
219.312 251.984 l
223.776 255.949 l
228.24 259.575 l
232.704 262.845 l
236.052 265.054 l
239.4 267.048 l
242.748 268.822 l
246.096 270.37 l
249.444 271.689 l
252.792 272.775 l
256.14 273.625 l
259.488 274.237 l
262.836 274.609 l
266.184 274.741 l
269.532 274.631 l
272.88 274.281 l
276.228 273.69 l
279.576 272.862 l
282.924 271.797 l
286.272 270.5 l
289.62 268.972 l
292.968 267.219 l
296.316 265.245 l
299.664 263.055 l
303.012 260.656 l
307.476 257.141 l
311.94 253.282 l
316.404 249.097 l
320.868 244.605 l
325.332 239.828 l
330.912 233.491 l
336.492 226.792 l
343.188 218.345 l
349.884 209.539 l
358.812 197.402 l
387.828 157.521 l
394.524 148.809 l
401.22 140.482 l
406.8 133.903 l
412.38 127.702 l
416.844 123.046 l
421.308 118.684 l
425.772 114.637 l
430.236 110.924 l
434.7 107.564 l
438.048 105.284 l
441.396 103.218 l
444.744 101.37 l
448.092 99.7466 l
451.44 98.3508 l
454.788 97.1869 l
458.136 96.2578 l
461.484 95.5662 l
464.832 95.1139 l
468.18 94.902 l
471.528 94.9312 l
474.876 95.2014 l
477.108 95.5151 l
477.108 95.5151 l
stroke
grestore
0.500 setlinewidth
0 setlinecap
0.000 setgray
gsave
/o {
gsave
newpath
translate
0.5 setlinewidth
1 setlinejoin
0 setlinecap
0 0 m
0 4 l
gsave
0.000 setgray
fill
grestore
stroke
grestore
} bind def
72 43.2 o
grestore
gsave
/o {
gsave
newpath
translate
0.5 setlinewidth
1 setlinejoin
0 setlinecap
0 0 m
0 -4 l
gsave
0.000 setgray
fill
grestore
stroke
grestore
} bind def
72 388.8 o
grestore
/DejaVuSans findfont
12.000 scalefont
setfont
gsave
68.976562 30.121875 translate
0.000000 rotate
0.000000 0.171875 m /zero glyphshow
grestore
gsave
/o {
gsave
newpath
translate
0.5 setlinewidth
1 setlinejoin
0 setlinecap
0 0 m
0 4 l
gsave
0.000 setgray
fill
grestore
stroke
grestore
} bind def
127.8 43.2 o
grestore
gsave
/o {
gsave
newpath
translate
0.5 setlinewidth
1 setlinejoin
0 setlinecap
0 0 m
0 -4 l
gsave
0.000 setgray
fill
grestore
stroke
grestore
} bind def
127.8 388.8 o
grestore
gsave
121.018750 30.121875 translate
0.000000 rotate
0.000000 0.171875 m /five glyphshow
7.634766 0.171875 m /zero glyphshow
grestore
gsave
/o {
gsave
newpath
translate
0.5 setlinewidth
1 setlinejoin
0 setlinecap
0 0 m
0 4 l
gsave
0.000 setgray
fill
grestore
stroke
grestore
} bind def
183.6 43.2 o
grestore
gsave
/o {
gsave
newpath
translate
0.5 setlinewidth
1 setlinejoin
0 setlinecap
0 0 m
0 -4 l
gsave
0.000 setgray
fill
grestore
stroke
grestore
} bind def
183.6 388.8 o
grestore
gsave
173.193750 30.121875 translate
0.000000 rotate
0.000000 0.171875 m /one glyphshow
7.634766 0.171875 m /zero glyphshow
15.269531 0.171875 m /zero glyphshow
grestore
gsave
/o {
gsave
newpath
translate
0.5 setlinewidth
1 setlinejoin
0 setlinecap
0 0 m
0 4 l
gsave
0.000 setgray
fill
grestore
stroke
grestore
} bind def
239.4 43.2 o
grestore
gsave
/o {
gsave
newpath
translate
0.5 setlinewidth
1 setlinejoin
0 setlinecap
0 0 m
0 -4 l
gsave
0.000 setgray
fill
grestore
stroke
grestore
} bind def
239.4 388.8 o
grestore
gsave
228.993750 30.121875 translate
0.000000 rotate
0.000000 0.171875 m /one glyphshow
7.634766 0.171875 m /five glyphshow
15.269531 0.171875 m /zero glyphshow
grestore
gsave
/o {
gsave
newpath
translate
0.5 setlinewidth
1 setlinejoin
0 setlinecap
0 0 m
0 4 l
gsave
0.000 setgray
fill
grestore
stroke
grestore
} bind def
295.2 43.2 o
grestore
gsave
/o {
gsave
newpath
translate
0.5 setlinewidth
1 setlinejoin
0 setlinecap
0 0 m
0 -4 l
gsave
0.000 setgray
fill
grestore
stroke
grestore
} bind def
295.2 388.8 o
grestore
gsave
284.575000 30.121875 translate
0.000000 rotate
0.000000 0.171875 m /two glyphshow
7.634766 0.171875 m /zero glyphshow
15.269531 0.171875 m /zero glyphshow
grestore
gsave
/o {
gsave
newpath
translate
0.5 setlinewidth
1 setlinejoin
0 setlinecap
0 0 m
0 4 l
gsave
0.000 setgray
fill
grestore
stroke
grestore
} bind def
351 43.2 o
grestore
gsave
/o {
gsave
newpath
translate
0.5 setlinewidth
1 setlinejoin
0 setlinecap
0 0 m
0 -4 l
gsave
0.000 setgray
fill
grestore
stroke
grestore
} bind def
351 388.8 o
grestore
gsave
340.375000 30.121875 translate
0.000000 rotate
0.000000 0.171875 m /two glyphshow
7.634766 0.171875 m /five glyphshow
15.269531 0.171875 m /zero glyphshow
grestore
gsave
/o {
gsave
newpath
translate
0.5 setlinewidth
1 setlinejoin
0 setlinecap
0 0 m
0 4 l
gsave
0.000 setgray
fill
grestore
stroke
grestore
} bind def
406.8 43.2 o
grestore
gsave
/o {
gsave
newpath
translate
0.5 setlinewidth
1 setlinejoin
0 setlinecap
0 0 m
0 -4 l
gsave
0.000 setgray
fill
grestore
stroke
grestore
} bind def
406.8 388.8 o
grestore
gsave
396.198437 30.121875 translate
0.000000 rotate
0.000000 0.171875 m /three glyphshow
7.634766 0.171875 m /zero glyphshow
15.269531 0.171875 m /zero glyphshow
grestore
gsave
/o {
gsave
newpath
translate
0.5 setlinewidth
1 setlinejoin
0 setlinecap
0 0 m
0 4 l
gsave
0.000 setgray
fill
grestore
stroke
grestore
} bind def
462.6 43.2 o
grestore
gsave
/o {
gsave
newpath
translate
0.5 setlinewidth
1 setlinejoin
0 setlinecap
0 0 m
0 -4 l
gsave
0.000 setgray
fill
grestore
stroke
grestore
} bind def
462.6 388.8 o
grestore
gsave
451.998437 30.121875 translate
0.000000 rotate
0.000000 0.171875 m /three glyphshow
7.634766 0.171875 m /five glyphshow
15.269531 0.171875 m /zero glyphshow
grestore
gsave
/o {
gsave
newpath
translate
0.5 setlinewidth
1 setlinejoin
0 setlinecap
0 0 m
0 4 l
gsave
0.000 setgray
fill
grestore
stroke
grestore
} bind def
518.4 43.2 o
grestore
gsave
/o {
gsave
newpath
translate
0.5 setlinewidth
1 setlinejoin
0 setlinecap
0 0 m
0 -4 l
gsave
0.000 setgray
fill
grestore
stroke
grestore
} bind def
518.4 388.8 o
grestore
gsave
507.634375 30.121875 translate
0.000000 rotate
0.000000 0.171875 m /four glyphshow
7.634766 0.171875 m /zero glyphshow
15.269531 0.171875 m /zero glyphshow
grestore
/DejaVuSans findfont
16.000 scalefont
setfont
gsave
249.637500 9.637500 translate
0.000000 rotate
0.000000 3.328125 m /D glyphshow
12.320312 3.328125 m /a glyphshow
22.125000 3.328125 m /y glyphshow
31.593750 3.328125 m /space glyphshow
36.679688 3.328125 m /o glyphshow
46.468750 3.328125 m /f glyphshow
52.101562 3.328125 m /space glyphshow
57.187500 3.328125 m /Y glyphshow
64.835938 3.328125 m /e glyphshow
74.679688 3.328125 m /a glyphshow
84.484375 3.328125 m /r glyphshow
grestore
gsave
/o {
gsave
newpath
translate
0.5 setlinewidth
1 setlinejoin
0 setlinecap
0 0 m
4 0 l
gsave
0.000 setgray
fill
grestore
stroke
grestore
} bind def
72 43.2 o
grestore
gsave
/o {
gsave
newpath
translate
0.5 setlinewidth
1 setlinejoin
0 setlinecap
0 0 m
-4 0 l
gsave
0.000 setgray
fill
grestore
stroke
grestore
} bind def
518.4 43.2 o
grestore
/DejaVuSans findfont
12.000 scalefont
setfont
gsave
61.953125 38.660937 translate
0.000000 rotate
0.000000 0.171875 m /zero glyphshow
grestore
gsave
/o {
gsave
newpath
translate
0.5 setlinewidth
1 setlinejoin
0 setlinecap
0 0 m
4 0 l
gsave
0.000 setgray
fill
grestore
stroke
grestore
} bind def
72 86.4 o
grestore
gsave
/o {
gsave
newpath
translate
0.5 setlinewidth
1 setlinejoin
0 setlinecap
0 0 m
-4 0 l
gsave
0.000 setgray
fill
grestore
stroke
grestore
} bind def
518.4 86.4 o
grestore
gsave
39.156250 81.860938 translate
0.000000 rotate
0.000000 0.171875 m /five glyphshow
7.634766 0.171875 m /zero glyphshow
15.269531 0.171875 m /zero glyphshow
22.904297 0.171875 m /zero glyphshow
grestore
gsave
/o {
gsave
newpath
translate
0.5 setlinewidth
1 setlinejoin
0 setlinecap
0 0 m
4 0 l
gsave
0.000 setgray
fill
grestore
stroke
grestore
} bind def
72 129.6 o
grestore
gsave
/o {
gsave
newpath
translate
0.5 setlinewidth
1 setlinejoin
0 setlinecap
0 0 m
-4 0 l
gsave
0.000 setgray
fill
grestore
stroke
grestore
} bind def
518.4 129.6 o
grestore
gsave
31.906250 125.060938 translate
0.000000 rotate
0.000000 0.171875 m /one glyphshow
7.634766 0.171875 m /zero glyphshow
15.269531 0.171875 m /zero glyphshow
22.904297 0.171875 m /zero glyphshow
30.539062 0.171875 m /zero glyphshow
grestore
gsave
/o {
gsave
newpath
translate
0.5 setlinewidth
1 setlinejoin
0 setlinecap
0 0 m
4 0 l
gsave
0.000 setgray
fill
grestore
stroke
grestore
} bind def
72 172.8 o
grestore
gsave
/o {
gsave
newpath
translate
0.5 setlinewidth
1 setlinejoin
0 setlinecap
0 0 m
-4 0 l
gsave
0.000 setgray
fill
grestore
stroke
grestore
} bind def
518.4 172.8 o
grestore
gsave
31.906250 168.260938 translate
0.000000 rotate
0.000000 0.171875 m /one glyphshow
7.634766 0.171875 m /five glyphshow
15.269531 0.171875 m /zero glyphshow
22.904297 0.171875 m /zero glyphshow
30.539062 0.171875 m /zero glyphshow
grestore
gsave
/o {
gsave
newpath
translate
0.5 setlinewidth
1 setlinejoin
0 setlinecap
0 0 m
4 0 l
gsave
0.000 setgray
fill
grestore
stroke
grestore
} bind def
72 216 o
grestore
gsave
/o {
gsave
newpath
translate
0.5 setlinewidth
1 setlinejoin
0 setlinecap
0 0 m
-4 0 l
gsave
0.000 setgray
fill
grestore
stroke
grestore
} bind def
518.4 216 o
grestore
gsave
31.468750 211.460938 translate
0.000000 rotate
0.000000 0.171875 m /two glyphshow
7.634766 0.171875 m /zero glyphshow
15.269531 0.171875 m /zero glyphshow
22.904297 0.171875 m /zero glyphshow
30.539062 0.171875 m /zero glyphshow
grestore
gsave
/o {
gsave
newpath
translate
0.5 setlinewidth
1 setlinejoin
0 setlinecap
0 0 m
4 0 l
gsave
0.000 setgray
fill
grestore
stroke
grestore
} bind def
72 259.2 o
grestore
gsave
/o {
gsave
newpath
translate
0.5 setlinewidth
1 setlinejoin
0 setlinecap
0 0 m
-4 0 l
gsave
0.000 setgray
fill
grestore
stroke
grestore
} bind def
518.4 259.2 o
grestore
gsave
31.468750 254.660938 translate
0.000000 rotate
0.000000 0.171875 m /two glyphshow
7.634766 0.171875 m /five glyphshow
15.269531 0.171875 m /zero glyphshow
22.904297 0.171875 m /zero glyphshow
30.539062 0.171875 m /zero glyphshow
grestore
gsave
/o {
gsave
newpath
translate
0.5 setlinewidth
1 setlinejoin
0 setlinecap
0 0 m
4 0 l
gsave
0.000 setgray
fill
grestore
stroke
grestore
} bind def
72 302.4 o
grestore
gsave
/o {
gsave
newpath
translate
0.5 setlinewidth
1 setlinejoin
0 setlinecap
0 0 m
-4 0 l
gsave
0.000 setgray
fill
grestore
stroke
grestore
} bind def
518.4 302.4 o
grestore
gsave
31.515625 297.860938 translate
0.000000 rotate
0.000000 0.171875 m /three glyphshow
7.634766 0.171875 m /zero glyphshow
15.269531 0.171875 m /zero glyphshow
22.904297 0.171875 m /zero glyphshow
30.539062 0.171875 m /zero glyphshow
grestore
gsave
/o {
gsave
newpath
translate
0.5 setlinewidth
1 setlinejoin
0 setlinecap
0 0 m
4 0 l
gsave
0.000 setgray
fill
grestore
stroke
grestore
} bind def
72 345.6 o
grestore
gsave
/o {
gsave
newpath
translate
0.5 setlinewidth
1 setlinejoin
0 setlinecap
0 0 m
-4 0 l
gsave
0.000 setgray
fill
grestore
stroke
grestore
} bind def
518.4 345.6 o
grestore
gsave
31.515625 341.060938 translate
0.000000 rotate
0.000000 0.171875 m /three glyphshow
7.634766 0.171875 m /five glyphshow
15.269531 0.171875 m /zero glyphshow
22.904297 0.171875 m /zero glyphshow
30.539062 0.171875 m /zero glyphshow
grestore
gsave
/o {
gsave
newpath
translate
0.5 setlinewidth
1 setlinejoin
0 setlinecap
0 0 m
4 0 l
gsave
0.000 setgray
fill
grestore
stroke
grestore
} bind def
72 388.8 o
grestore
gsave
/o {
gsave
newpath
translate
0.5 setlinewidth
1 setlinejoin
0 setlinecap
0 0 m
-4 0 l
gsave
0.000 setgray
fill
grestore
stroke
grestore
} bind def
518.4 388.8 o
grestore
gsave
31.187500 384.260938 translate
0.000000 rotate
0.000000 0.171875 m /four glyphshow
7.634766 0.171875 m /zero glyphshow
15.269531 0.171875 m /zero glyphshow
22.904297 0.171875 m /zero glyphshow
30.539062 0.171875 m /zero glyphshow
grestore
/DejaVuSans findfont
16.000 scalefont
setfont
gsave
26.187500 153.156250 translate
90.000000 rotate
0.000000 0.234375 m /S glyphshow
10.156250 0.234375 m /o glyphshow
19.945312 0.234375 m /l glyphshow
24.390625 0.234375 m /a glyphshow
34.195312 0.234375 m /r glyphshow
40.773438 0.234375 m /space glyphshow
45.859375 0.234375 m /I glyphshow
50.578125 0.234375 m /r glyphshow
56.906250 0.234375 m /r glyphshow
63.484375 0.234375 m /a glyphshow
73.289062 0.234375 m /d glyphshow
83.445312 0.234375 m /i glyphshow
87.890625 0.234375 m /a glyphshow
97.695312 0.234375 m /n glyphshow
107.835938 0.234375 m /c glyphshow
116.632812 0.234375 m /e glyphshow
grestore
1.000 setlinewidth
2 setlinecap
gsave
72 388.8 m
518.4 388.8 l
stroke
grestore
gsave
518.4 43.2 m
518.4 388.8 l
stroke
grestore
gsave
72 43.2 m
518.4 43.2 l
stroke
grestore
gsave
72 43.2 m
72 388.8 l
stroke
grestore
gsave
306.688 335.786 m
511.2 335.786 l
511.2 381.6 l
306.688 381.6 l
306.688 335.786 l
cl
gsave
1.000 setgray
fill
grestore
stroke
grestore
0.000 0.000 1.000 setrgbcolor
gsave
316.768 370.239 m
336.928 370.239 l
stroke
grestore
0.000 setgray
/DejaVuSans findfont
14.400 scalefont
setfont
gsave
352.768125 362.293125 translate
0.000000 rotate
0.000000 2.906250 m /D glyphshow
11.081055 2.906250 m /a glyphshow
19.899521 2.906250 m /i glyphshow
23.897690 2.906250 m /l glyphshow
27.895859 2.906250 m /y glyphshow
36.412186 2.906250 m /space glyphshow
40.986542 2.906250 m /D glyphshow
52.067596 2.906250 m /a glyphshow
60.886063 2.906250 m /t glyphshow
66.528473 2.906250 m /a glyphshow
grestore
2.000 setlinewidth
0.000 0.500 0.000 setrgbcolor
gsave
316.768 349.493 m
336.928 349.493 l
stroke
grestore
0.000 setgray
gsave
352.768125 341.546250 translate
0.000000 rotate
0.000000 2.906250 m /S glyphshow
9.134674 2.906250 m /e glyphshow
17.988281 2.906250 m /a glyphshow
26.806747 2.906250 m /s glyphshow
34.304199 2.906250 m /o glyphshow
43.108612 2.906250 m /n glyphshow
52.229233 2.906250 m /a glyphshow
61.047699 2.906250 m /l glyphshow
65.045868 2.906250 m /space glyphshow
69.620224 2.906250 m /C glyphshow
79.668365 2.906250 m /o glyphshow
88.472778 2.906250 m /m glyphshow
102.490982 2.906250 m /p glyphshow
111.625656 2.906250 m /o glyphshow
120.430069 2.906250 m /n glyphshow
129.550690 2.906250 m /e glyphshow
138.404297 2.906250 m /n glyphshow
147.524918 2.906250 m /t glyphshow
grestore

end
showpage
