%!PS-Adobe-3.0 EPSF-3.0
%%Title: daily_arma_20_seasonal_std_E.eps
%%Creator: matplotlib version 1.2.1, http://matplotlib.org/
%%CreationDate: Thu Nov 21 16:17:22 2013
%%Orientation: portrait
%%BoundingBox: 18 180 594 612
%%EndComments
%%BeginProlog
/mpldict 8 dict def
mpldict begin
/m { moveto } bind def
/l { lineto } bind def
/r { rlineto } bind def
/c { curveto } bind def
/cl { closepath } bind def
/box {
m
1 index 0 r
0 exch r
neg 0 r
cl
} bind def
/clipbox {
box
clip
newpath
} bind def
%!PS-Adobe-3.0 Resource-Font
%%Title: DejaVu Sans
%%Copyright: Copyright (c) 2003 by Bitstream, Inc. All Rights Reserved. Copyright (c) 2006 by Tavmjong Bah. All Rights Reserved. DejaVu changes are in public domain 
%%Creator: Converted from TrueType to type 3 by PPR
25 dict begin
/_d{bind def}bind def
/_m{moveto}_d
/_l{lineto}_d
/_cl{closepath eofill}_d
/_c{curveto}_d
/_sc{7 -1 roll{setcachedevice}{pop pop pop pop pop pop}ifelse}_d
/_e{exec}_d
/FontName /DejaVuSans def
/PaintType 0 def
/FontMatrix[.001 0 0 .001 0 0]def
/FontBBox[-1021 -415 1681 1167]def
/FontType 3 def
/Encoding [ /space /zero /one /two /three /four /five /six /eight /D /I /M /S /Y /a /c /d /e /f /i /l /n /o /r /t /v /y ] def
/FontInfo 10 dict dup begin
/FamilyName (DejaVu Sans) def
/FullName (DejaVu Sans) def
/Notice (Copyright (c) 2003 by Bitstream, Inc. All Rights Reserved. Copyright (c) 2006 by Tavmjong Bah. All Rights Reserved. DejaVu changes are in public domain ) def
/Weight (Book) def
/Version (Version 2.33) def
/ItalicAngle 0.0 def
/isFixedPitch false def
/UnderlinePosition -130 def
/UnderlineThickness 90 def
end readonly def
/CharStrings 27 dict dup begin
/space{318 0 0 0 0 0 _sc
}_d
/zero{636 0 66 -13 570 742 _sc
318 664 _m
267 664 229 639 203 589 _c
177 539 165 464 165 364 _c
165 264 177 189 203 139 _c
229 89 267 64 318 64 _c
369 64 407 89 433 139 _c
458 189 471 264 471 364 _c
471 464 458 539 433 589 _c
407 639 369 664 318 664 _c
318 742 _m
399 742 461 709 505 645 _c
548 580 570 486 570 364 _c
570 241 548 147 505 83 _c
461 19 399 -13 318 -13 _c
236 -13 173 19 130 83 _c
87 147 66 241 66 364 _c
66 486 87 580 130 645 _c
173 709 236 742 318 742 _c
_cl}_d
/one{636 0 110 0 544 729 _sc
124 83 _m
285 83 _l
285 639 _l
110 604 _l
110 694 _l
284 729 _l
383 729 _l
383 83 _l
544 83 _l
544 0 _l
124 0 _l
124 83 _l
_cl}_d
/two{{636 0 73 0 536 742 _sc
192 83 _m
536 83 _l
536 0 _l
73 0 _l
73 83 _l
110 121 161 173 226 239 _c
290 304 331 346 348 365 _c
380 400 402 430 414 455 _c
426 479 433 504 433 528 _c
433 566 419 598 392 622 _c
365 646 330 659 286 659 _c
255 659 222 653 188 643 _c
154 632 117 616 78 594 _c
78 694 _l
118 710 155 722 189 730 _c
223 738 255 742 284 742 _c
}_e{359 742 419 723 464 685 _c
509 647 532 597 532 534 _c
532 504 526 475 515 449 _c
504 422 484 390 454 354 _c
446 344 420 317 376 272 _c
332 227 271 164 192 83 _c
_cl}_e}_d
/three{{636 0 76 -13 556 742 _sc
406 393 _m
453 383 490 362 516 330 _c
542 298 556 258 556 212 _c
556 140 531 84 482 45 _c
432 6 362 -13 271 -13 _c
240 -13 208 -10 176 -4 _c
144 1 110 10 76 22 _c
76 117 _l
103 101 133 89 166 81 _c
198 73 232 69 268 69 _c
330 69 377 81 409 105 _c
441 129 458 165 458 212 _c
458 254 443 288 413 312 _c
383 336 341 349 287 349 _c
}_e{202 349 _l
202 430 _l
291 430 _l
339 430 376 439 402 459 _c
428 478 441 506 441 543 _c
441 580 427 609 401 629 _c
374 649 336 659 287 659 _c
260 659 231 656 200 650 _c
169 644 135 635 98 623 _c
98 711 _l
135 721 170 729 203 734 _c
235 739 266 742 296 742 _c
370 742 429 725 473 691 _c
517 657 539 611 539 553 _c
539 513 527 479 504 451 _c
481 423 448 403 406 393 _c
_cl}_e}_d
/four{636 0 49 0 580 729 _sc
378 643 _m
129 254 _l
378 254 _l
378 643 _l
352 729 _m
476 729 _l
476 254 _l
580 254 _l
580 172 _l
476 172 _l
476 0 _l
378 0 _l
378 172 _l
49 172 _l
49 267 _l
352 729 _l
_cl}_d
/five{{636 0 77 -13 549 729 _sc
108 729 _m
495 729 _l
495 646 _l
198 646 _l
198 467 _l
212 472 227 476 241 478 _c
255 480 270 482 284 482 _c
365 482 429 459 477 415 _c
525 370 549 310 549 234 _c
549 155 524 94 475 51 _c
426 8 357 -13 269 -13 _c
238 -13 207 -10 175 -6 _c
143 -1 111 6 77 17 _c
77 116 _l
106 100 136 88 168 80 _c
199 72 232 69 267 69 _c
}_e{323 69 368 83 401 113 _c
433 143 450 183 450 234 _c
450 284 433 324 401 354 _c
368 384 323 399 267 399 _c
241 399 214 396 188 390 _c
162 384 135 375 108 363 _c
108 729 _l
_cl}_e}_d
/six{{636 0 70 -13 573 742 _sc
330 404 _m
286 404 251 388 225 358 _c
199 328 186 286 186 234 _c
186 181 199 139 225 109 _c
251 79 286 64 330 64 _c
374 64 409 79 435 109 _c
461 139 474 181 474 234 _c
474 286 461 328 435 358 _c
409 388 374 404 330 404 _c
526 713 _m
526 623 _l
501 635 476 644 451 650 _c
425 656 400 659 376 659 _c
310 659 260 637 226 593 _c
}_e{192 549 172 482 168 394 _c
187 422 211 444 240 459 _c
269 474 301 482 336 482 _c
409 482 467 459 509 415 _c
551 371 573 310 573 234 _c
573 159 550 99 506 54 _c
462 9 403 -13 330 -13 _c
246 -13 181 19 137 83 _c
92 147 70 241 70 364 _c
70 479 97 571 152 639 _c
206 707 280 742 372 742 _c
396 742 421 739 447 735 _c
472 730 498 723 526 713 _c
_cl}_e}_d
/eight{{636 0 68 -13 568 742 _sc
318 346 _m
271 346 234 333 207 308 _c
180 283 167 249 167 205 _c
167 161 180 126 207 101 _c
234 76 271 64 318 64 _c
364 64 401 76 428 102 _c
455 127 469 161 469 205 _c
469 249 455 283 429 308 _c
402 333 365 346 318 346 _c
219 388 _m
177 398 144 418 120 447 _c
96 476 85 511 85 553 _c
85 611 105 657 147 691 _c
188 725 245 742 318 742 _c
}_e{390 742 447 725 489 691 _c
530 657 551 611 551 553 _c
551 511 539 476 515 447 _c
491 418 459 398 417 388 _c
464 377 501 355 528 323 _c
554 291 568 251 568 205 _c
568 134 546 80 503 43 _c
459 5 398 -13 318 -13 _c
237 -13 175 5 132 43 _c
89 80 68 134 68 205 _c
68 251 81 291 108 323 _c
134 355 171 377 219 388 _c
183 544 _m
183 506 194 476 218 455 _c
}_e{242 434 275 424 318 424 _c
360 424 393 434 417 455 _c
441 476 453 506 453 544 _c
453 582 441 611 417 632 _c
393 653 360 664 318 664 _c
275 664 242 653 218 632 _c
194 611 183 582 183 544 _c
_cl}_e}_d
/D{770 0 98 0 711 729 _sc
197 648 _m
197 81 _l
316 81 _l
416 81 490 103 537 149 _c
583 195 607 267 607 365 _c
607 463 583 534 537 580 _c
490 625 416 648 316 648 _c
197 648 _l
98 729 _m
301 729 _l
442 729 546 699 612 641 _c
678 582 711 490 711 365 _c
711 239 677 147 611 88 _c
545 29 441 0 301 0 _c
98 0 _l
98 729 _l
_cl}_d
/I{295 0 98 0 197 729 _sc
98 729 _m
197 729 _l
197 0 _l
98 0 _l
98 729 _l
_cl}_d
/M{863 0 98 0 765 729 _sc
98 729 _m
245 729 _l
431 233 _l
618 729 _l
765 729 _l
765 0 _l
669 0 _l
669 640 _l
481 140 _l
382 140 _l
194 640 _l
194 0 _l
98 0 _l
98 729 _l
_cl}_d
/S{{635 0 66 -13 579 742 _sc
535 705 _m
535 609 _l
497 627 462 640 429 649 _c
395 657 363 662 333 662 _c
279 662 237 651 208 631 _c
179 610 165 580 165 542 _c
165 510 174 485 194 469 _c
213 452 250 439 304 429 _c
364 417 _l
437 403 491 378 526 343 _c
561 307 579 260 579 201 _c
579 130 555 77 508 41 _c
460 5 391 -13 300 -13 _c
265 -13 228 -9 189 -2 _c
}_e{150 5 110 16 69 32 _c
69 134 _l
109 111 148 94 186 83 _c
224 71 262 66 300 66 _c
356 66 399 77 430 99 _c
460 121 476 152 476 194 _c
476 230 465 258 443 278 _c
421 298 385 313 335 323 _c
275 335 _l
201 349 148 372 115 404 _c
82 435 66 478 66 534 _c
66 598 88 649 134 686 _c
179 723 242 742 322 742 _c
356 742 390 739 426 733 _c
461 727 497 717 535 705 _c
}_e{_cl}_e}_d
/Y{611 0 -1 0 613 729 _sc
-1 729 _m
104 729 _l
306 429 _l
507 729 _l
613 729 _l
355 347 _l
355 0 _l
256 0 _l
256 347 _l
-1 729 _l
_cl}_d
/a{{613 0 60 -13 522 560 _sc
343 275 _m
270 275 220 266 192 250 _c
164 233 150 205 150 165 _c
150 133 160 107 181 89 _c
202 70 231 61 267 61 _c
317 61 357 78 387 114 _c
417 149 432 196 432 255 _c
432 275 _l
343 275 _l
522 312 _m
522 0 _l
432 0 _l
432 83 _l
411 49 385 25 355 10 _c
325 -5 287 -13 243 -13 _c
187 -13 142 2 109 33 _c
76 64 60 106 60 159 _c
}_e{60 220 80 266 122 298 _c
163 329 224 345 306 345 _c
432 345 _l
432 354 _l
432 395 418 427 391 450 _c
364 472 326 484 277 484 _c
245 484 215 480 185 472 _c
155 464 127 453 100 439 _c
100 522 _l
132 534 164 544 195 550 _c
226 556 256 560 286 560 _c
365 560 424 539 463 498 _c
502 457 522 395 522 312 _c
_cl}_e}_d
/c{{550 0 55 -13 488 560 _sc
488 526 _m
488 442 _l
462 456 437 466 411 473 _c
385 480 360 484 334 484 _c
276 484 230 465 198 428 _c
166 391 150 339 150 273 _c
150 206 166 154 198 117 _c
230 80 276 62 334 62 _c
360 62 385 65 411 72 _c
437 79 462 90 488 104 _c
488 21 _l
462 9 436 0 410 -5 _c
383 -10 354 -13 324 -13 _c
242 -13 176 12 128 64 _c
}_e{79 115 55 185 55 273 _c
55 362 79 432 128 483 _c
177 534 244 560 330 560 _c
358 560 385 557 411 551 _c
437 545 463 537 488 526 _c
_cl}_e}_d
/d{{635 0 55 -13 544 760 _sc
454 464 _m
454 760 _l
544 760 _l
544 0 _l
454 0 _l
454 82 _l
435 49 411 25 382 10 _c
353 -5 319 -13 279 -13 _c
213 -13 159 13 117 65 _c
75 117 55 187 55 273 _c
55 359 75 428 117 481 _c
159 533 213 560 279 560 _c
319 560 353 552 382 536 _c
411 520 435 496 454 464 _c
148 273 _m
148 207 161 155 188 117 _c
215 79 253 61 301 61 _c
}_e{348 61 385 79 413 117 _c
440 155 454 207 454 273 _c
454 339 440 390 413 428 _c
385 466 348 485 301 485 _c
253 485 215 466 188 428 _c
161 390 148 339 148 273 _c
_cl}_e}_d
/e{{615 0 55 -13 562 560 _sc
562 296 _m
562 252 _l
149 252 _l
153 190 171 142 205 110 _c
238 78 284 62 344 62 _c
378 62 412 66 444 74 _c
476 82 509 95 541 113 _c
541 28 _l
509 14 476 3 442 -3 _c
408 -9 373 -13 339 -13 _c
251 -13 182 12 131 62 _c
80 112 55 181 55 268 _c
55 357 79 428 127 481 _c
175 533 241 560 323 560 _c
397 560 455 536 498 489 _c
}_e{540 441 562 377 562 296 _c
472 322 _m
471 371 457 410 431 440 _c
404 469 368 484 324 484 _c
274 484 234 469 204 441 _c
174 413 156 373 152 322 _c
472 322 _l
_cl}_e}_d
/f{352 0 23 0 371 760 _sc
371 760 _m
371 685 _l
285 685 _l
253 685 230 678 218 665 _c
205 652 199 629 199 595 _c
199 547 _l
347 547 _l
347 477 _l
199 477 _l
199 0 _l
109 0 _l
109 477 _l
23 477 _l
23 547 _l
109 547 _l
109 585 _l
109 645 123 690 151 718 _c
179 746 224 760 286 760 _c
371 760 _l
_cl}_d
/i{278 0 94 0 184 760 _sc
94 547 _m
184 547 _l
184 0 _l
94 0 _l
94 547 _l
94 760 _m
184 760 _l
184 646 _l
94 646 _l
94 760 _l
_cl}_d
/l{278 0 94 0 184 760 _sc
94 760 _m
184 760 _l
184 0 _l
94 0 _l
94 760 _l
_cl}_d
/n{634 0 91 0 549 560 _sc
549 330 _m
549 0 _l
459 0 _l
459 327 _l
459 379 448 417 428 443 _c
408 469 378 482 338 482 _c
289 482 251 466 223 435 _c
195 404 181 362 181 309 _c
181 0 _l
91 0 _l
91 547 _l
181 547 _l
181 462 _l
202 494 227 519 257 535 _c
286 551 320 560 358 560 _c
420 560 468 540 500 501 _c
532 462 549 405 549 330 _c
_cl}_d
/o{612 0 55 -13 557 560 _sc
306 484 _m
258 484 220 465 192 427 _c
164 389 150 338 150 273 _c
150 207 163 156 191 118 _c
219 80 257 62 306 62 _c
354 62 392 80 420 118 _c
448 156 462 207 462 273 _c
462 337 448 389 420 427 _c
392 465 354 484 306 484 _c
306 560 _m
384 560 445 534 490 484 _c
534 433 557 363 557 273 _c
557 183 534 113 490 63 _c
445 12 384 -13 306 -13 _c
227 -13 165 12 121 63 _c
77 113 55 183 55 273 _c
55 363 77 433 121 484 _c
165 534 227 560 306 560 _c
_cl}_d
/r{411 0 91 0 411 560 _sc
411 463 _m
401 469 390 473 378 476 _c
366 478 353 480 339 480 _c
288 480 249 463 222 430 _c
194 397 181 350 181 288 _c
181 0 _l
91 0 _l
91 547 _l
181 547 _l
181 462 _l
199 495 224 520 254 536 _c
284 552 321 560 365 560 _c
371 560 378 559 386 559 _c
393 558 401 557 411 555 _c
411 463 _l
_cl}_d
/t{392 0 27 0 368 702 _sc
183 702 _m
183 547 _l
368 547 _l
368 477 _l
183 477 _l
183 180 _l
183 135 189 106 201 94 _c
213 81 238 75 276 75 _c
368 75 _l
368 0 _l
276 0 _l
206 0 158 13 132 39 _c
106 65 93 112 93 180 _c
93 477 _l
27 477 _l
27 547 _l
93 547 _l
93 702 _l
183 702 _l
_cl}_d
/v{592 0 30 0 562 547 _sc
30 547 _m
125 547 _l
296 88 _l
467 547 _l
562 547 _l
357 0 _l
235 0 _l
30 547 _l
_cl}_d
/y{592 0 30 -207 562 547 _sc
322 -50 _m
296 -114 271 -157 247 -177 _c
223 -197 191 -207 151 -207 _c
79 -207 _l
79 -132 _l
132 -132 _l
156 -132 175 -126 189 -114 _c
203 -102 218 -75 235 -31 _c
251 9 _l
30 547 _l
125 547 _l
296 119 _l
467 547 _l
562 547 _l
322 -50 _l
_cl}_d
end readonly def

/BuildGlyph
 {exch begin
 CharStrings exch
 2 copy known not{pop /.notdef}if
 true 3 1 roll get exec
 end}_d

/BuildChar {
 1 index /Encoding get exch get
 1 index /BuildGlyph get exec
}_d

FontName currentdict end definefont pop
end
%%EndProlog
mpldict begin
18 180 translate
576 432 0 0 clipbox
gsave
0 0 m
576 0 l
576 432 l
0 432 l
cl
1.000 setgray
fill
grestore
gsave
72 43.2 m
518.4 43.2 l
518.4 388.8 l
72 388.8 l
cl
1.000 setgray
fill
grestore
1.000 setlinewidth
1 setlinejoin
2 setlinecap
[] 0 setdash
0.000 0.000 1.000 setrgbcolor
gsave
446.4 345.6 72 43.2 clipbox
72 65.4779 m
73.116 90.5692 l
74.232 88.7895 l
75.348 77.2736 l
76.464 76.1044 l
77.58 75.5563 l
78.696 70.3551 l
79.812 66.5617 l
80.928 79.2402 l
82.044 67.3389 l
83.16 76.0373 l
84.276 74.6564 l
85.392 89.1148 l
86.508 82.8104 l
87.624 80.1534 l
88.74 83.9397 l
89.856 96.3942 l
90.972 83.9654 l
92.088 77.8164 l
93.204 86.3063 l
94.32 89.4677 l
95.436 87.4448 l
96.552 95.1711 l
97.668 90.8747 l
98.784 90.6708 l
99.9 94.866 l
101.016 82.1239 l
102.132 93.6676 l
103.248 85.0783 l
104.364 95.6781 l
105.48 91.2309 l
106.596 81.2608 l
107.712 99.8932 l
108.828 103.346 l
109.944 105.269 l
111.06 98.041 l
112.176 99.5304 l
113.292 92.2547 l
114.408 100.44 l
115.524 92.9979 l
116.64 109.777 l
117.756 119.757 l
118.872 107.878 l
119.988 127.926 l
121.104 107.977 l
122.22 108.42 l
123.336 118.279 l
124.452 114.617 l
125.568 129.62 l
126.684 127.244 l
127.8 135.936 l
128.916 127.294 l
130.032 128.957 l
131.148 125.045 l
132.264 164.673 l
133.38 143.462 l
135.612 126.184 l
136.728 123.871 l
137.844 135.831 l
138.96 187.384 l
140.076 141.735 l
141.192 127.777 l
142.308 135.259 l
143.424 149.868 l
144.54 146.026 l
145.656 148.412 l
146.772 134.35 l
147.888 170.04 l
149.004 132.553 l
150.12 132.015 l
151.236 135.065 l
152.352 144.251 l
153.468 135.827 l
154.584 140.147 l
155.7 139.726 l
156.816 170.11 l
157.932 171.817 l
159.048 161.446 l
160.164 126.118 l
161.28 185.904 l
162.396 158.512 l
163.512 157.064 l
164.628 140.53 l
165.744 153.799 l
166.86 138.656 l
167.976 172.747 l
169.092 170.261 l
170.208 182.855 l
171.324 179.968 l
172.44 181.279 l
173.556 166.916 l
174.672 157.788 l
175.788 180.325 l
176.904 162.772 l
178.02 161.767 l
180.252 204.384 l
181.368 183.539 l
182.484 157.735 l
183.6 278.79 l
184.716 304.966 l
185.832 232.176 l
186.948 173.777 l
188.064 206.135 l
189.18 211.417 l
191.412 174.182 l
192.528 185.375 l
193.644 168.581 l
194.76 207.264 l
195.876 196.777 l
196.992 166.126 l
198.108 166.779 l
199.224 188.133 l
200.34 205.844 l
201.456 236.707 l
202.572 184.574 l
203.688 211.864 l
204.804 201.23 l
205.92 193.964 l
207.036 205.491 l
208.152 187.786 l
209.268 197.831 l
210.384 126.75 l
211.5 178.522 l
212.616 195.623 l
213.732 191.981 l
214.848 172.182 l
217.08 205.63 l
218.196 230.875 l
219.312 219.346 l
220.428 211.877 l
221.544 243.183 l
222.66 269.227 l
223.776 264.337 l
224.892 204.941 l
226.008 213.696 l
227.124 157.493 l
228.24 205.435 l
229.356 131.51 l
230.472 185.442 l
232.704 214.764 l
233.82 215.066 l
234.936 172.176 l
236.052 215.953 l
237.168 233.385 l
238.284 152.534 l
239.4 180.457 l
240.516 192.014 l
241.632 174.795 l
242.748 171.559 l
243.864 198.192 l
244.98 228.996 l
246.096 156.085 l
247.212 212.354 l
249.444 201.359 l
250.56 218.766 l
251.676 349.302 l
252.792 348.028 l
253.908 269.814 l
255.024 141.49 l
256.14 165.236 l
257.256 161.411 l
258.372 115.392 l
259.488 153.456 l
260.604 170.414 l
261.72 164.343 l
262.836 132.637 l
263.952 195.985 l
265.068 201.379 l
266.184 158.985 l
267.3 138.596 l
268.416 145.324 l
269.532 120.623 l
270.648 159.643 l
271.764 132.482 l
272.88 140.336 l
273.996 153.955 l
275.112 147.375 l
276.228 142.722 l
277.344 174.251 l
278.46 89.8982 l
279.576 84.9983 l
280.692 135.372 l
281.808 180.665 l
282.924 127.152 l
284.04 164.68 l
285.156 161.314 l
286.272 113.539 l
287.388 165.957 l
288.504 150.446 l
289.62 167.492 l
290.736 106.608 l
291.852 157.886 l
292.968 129.449 l
294.084 124.524 l
295.2 159.432 l
296.316 200.964 l
297.432 278.062 l
298.548 210.543 l
299.664 175.213 l
300.78 176.851 l
301.896 161.386 l
303.012 137.721 l
304.128 129.824 l
305.244 115.833 l
306.36 145.007 l
307.476 184.179 l
308.592 131.425 l
309.708 124.082 l
310.824 137.949 l
311.94 154.198 l
313.056 135.432 l
314.172 134.473 l
315.288 189.249 l
316.404 145.682 l
317.52 152.652 l
318.636 157.642 l
319.752 171.065 l
320.868 200.761 l
321.984 160.25 l
323.1 136.929 l
324.216 127.437 l
325.332 152.01 l
327.564 171.323 l
328.68 136.911 l
329.796 134.626 l
330.912 126.197 l
332.028 126.657 l
333.144 151.628 l
334.26 131.329 l
335.376 142.371 l
336.492 164.757 l
337.608 217.485 l
338.724 211.188 l
339.84 158.753 l
340.956 127.363 l
342.072 114.711 l
343.188 127.85 l
344.304 160.708 l
345.42 126.975 l
346.536 129.952 l
347.652 142.639 l
348.768 132.362 l
349.884 123.143 l
351 88.8293 l
352.116 136.397 l
353.232 140.15 l
354.348 113.598 l
355.464 127.324 l
356.58 152.065 l
357.696 159.412 l
358.812 136.927 l
359.928 127.55 l
361.044 94.0399 l
362.16 206.287 l
363.276 291.478 l
364.392 182.756 l
365.508 156.745 l
366.624 150.192 l
367.74 148.033 l
368.856 141.638 l
369.972 206.959 l
371.088 285.405 l
372.204 280.436 l
374.436 98.4034 l
375.552 88.5988 l
376.668 110.377 l
377.784 129.19 l
378.9 139.82 l
380.016 126.563 l
381.132 120.402 l
382.248 132.51 l
383.364 113.843 l
384.48 151.821 l
385.596 138.372 l
386.712 119.567 l
387.828 118.83 l
388.944 132.487 l
390.06 129.861 l
391.176 128.181 l
392.292 99.9499 l
393.408 126.355 l
394.524 101.061 l
395.64 103.568 l
396.756 110.609 l
397.872 118.813 l
398.988 105.613 l
400.104 142.795 l
401.22 148.602 l
402.336 113.422 l
403.452 110.317 l
404.568 117.787 l
405.684 98.9056 l
406.8 104.932 l
407.916 91.3348 l
409.032 109.693 l
410.148 100.05 l
411.264 105.948 l
412.38 105.687 l
413.496 101.498 l
414.612 141.367 l
415.728 194.165 l
416.844 169.403 l
417.96 161.783 l
419.076 107.784 l
420.192 100.52 l
421.308 95.7425 l
422.424 87.9925 l
423.54 78.862 l
424.656 94.2573 l
425.772 86.8411 l
426.888 94.8395 l
428.004 85.3046 l
429.12 91.1986 l
430.236 80.22 l
431.352 77.2909 l
432.468 78.8163 l
433.584 84.4886 l
434.7 82.9111 l
435.816 81.1342 l
436.932 86.138 l
438.048 84.839 l
439.164 86.7292 l
440.28 91.2332 l
441.396 83.5006 l
442.512 89.2891 l
444.744 75.6945 l
445.86 78.2827 l
446.976 73.6915 l
448.092 70.5434 l
449.208 73.0254 l
452.556 89.1605 l
453.672 75.7723 l
454.788 79.9089 l
455.904 80.4474 l
457.02 79.1768 l
458.136 79.7877 l
459.252 74.386 l
461.484 77.8564 l
462.6 74.8407 l
463.716 74.8212 l
464.832 65.7363 l
465.948 72.965 l
467.064 78.159 l
468.18 65.3285 l
469.296 66.2815 l
470.412 76.6377 l
471.528 75.6338 l
472.644 65.7547 l
473.76 64.8921 l
474.876 70.2278 l
475.992 72.0935 l
477.108 69.7352 l
477.108 69.7352 l
stroke
grestore
2.000 setlinewidth
0.000 0.500 0.000 setrgbcolor
gsave
446.4 345.6 72 43.2 clipbox
72 92.9043 m
76.464 94.5023 l
80.928 96.3188 l
85.392 98.3451 l
90.972 101.158 l
96.552 104.263 l
102.132 107.637 l
107.712 111.254 l
114.408 115.878 l
121.104 120.764 l
128.916 126.726 l
140.076 135.566 l
163.512 154.274 l
172.44 161.052 l
179.136 165.884 l
185.832 170.442 l
191.412 173.996 l
196.992 177.3 l
202.572 180.329 l
208.152 183.06 l
212.616 185.017 l
217.08 186.76 l
221.544 188.283 l
226.008 189.578 l
230.472 190.637 l
234.936 191.457 l
239.4 192.034 l
243.864 192.364 l
248.328 192.447 l
252.792 192.281 l
257.256 191.868 l
261.72 191.209 l
266.184 190.307 l
270.648 189.168 l
275.112 187.796 l
279.576 186.198 l
284.04 184.382 l
288.504 182.355 l
294.084 179.542 l
299.664 176.437 l
305.244 173.064 l
310.824 169.447 l
317.52 164.823 l
324.216 159.936 l
332.028 153.974 l
343.188 145.135 l
366.624 126.427 l
375.552 119.649 l
382.248 114.817 l
388.944 110.258 l
394.524 106.704 l
400.104 103.401 l
405.684 100.372 l
411.264 97.6409 l
415.728 95.6841 l
420.192 93.9402 l
424.656 92.4174 l
429.12 91.123 l
433.584 90.0633 l
438.048 89.2432 l
442.512 88.6666 l
446.976 88.3363 l
451.44 88.2539 l
455.904 88.4198 l
460.368 88.8331 l
464.832 89.4919 l
469.296 90.3931 l
473.76 91.5324 l
477.108 92.5399 l
477.108 92.5399 l
stroke
grestore
0.500 setlinewidth
0 setlinecap
0.000 setgray
gsave
/o {
gsave
newpath
translate
0.5 setlinewidth
1 setlinejoin
0 setlinecap
0 0 m
0 4 l
gsave
0.000 setgray
fill
grestore
stroke
grestore
} bind def
72 43.2 o
grestore
gsave
/o {
gsave
newpath
translate
0.5 setlinewidth
1 setlinejoin
0 setlinecap
0 0 m
0 -4 l
gsave
0.000 setgray
fill
grestore
stroke
grestore
} bind def
72 388.8 o
grestore
/DejaVuSans findfont
12.000 scalefont
setfont
gsave
68.976562 30.121875 translate
0.000000 rotate
0.000000 0.171875 m /zero glyphshow
grestore
gsave
/o {
gsave
newpath
translate
0.5 setlinewidth
1 setlinejoin
0 setlinecap
0 0 m
0 4 l
gsave
0.000 setgray
fill
grestore
stroke
grestore
} bind def
127.8 43.2 o
grestore
gsave
/o {
gsave
newpath
translate
0.5 setlinewidth
1 setlinejoin
0 setlinecap
0 0 m
0 -4 l
gsave
0.000 setgray
fill
grestore
stroke
grestore
} bind def
127.8 388.8 o
grestore
gsave
121.018750 30.121875 translate
0.000000 rotate
0.000000 0.171875 m /five glyphshow
7.634766 0.171875 m /zero glyphshow
grestore
gsave
/o {
gsave
newpath
translate
0.5 setlinewidth
1 setlinejoin
0 setlinecap
0 0 m
0 4 l
gsave
0.000 setgray
fill
grestore
stroke
grestore
} bind def
183.6 43.2 o
grestore
gsave
/o {
gsave
newpath
translate
0.5 setlinewidth
1 setlinejoin
0 setlinecap
0 0 m
0 -4 l
gsave
0.000 setgray
fill
grestore
stroke
grestore
} bind def
183.6 388.8 o
grestore
gsave
173.193750 30.121875 translate
0.000000 rotate
0.000000 0.171875 m /one glyphshow
7.634766 0.171875 m /zero glyphshow
15.269531 0.171875 m /zero glyphshow
grestore
gsave
/o {
gsave
newpath
translate
0.5 setlinewidth
1 setlinejoin
0 setlinecap
0 0 m
0 4 l
gsave
0.000 setgray
fill
grestore
stroke
grestore
} bind def
239.4 43.2 o
grestore
gsave
/o {
gsave
newpath
translate
0.5 setlinewidth
1 setlinejoin
0 setlinecap
0 0 m
0 -4 l
gsave
0.000 setgray
fill
grestore
stroke
grestore
} bind def
239.4 388.8 o
grestore
gsave
228.993750 30.121875 translate
0.000000 rotate
0.000000 0.171875 m /one glyphshow
7.634766 0.171875 m /five glyphshow
15.269531 0.171875 m /zero glyphshow
grestore
gsave
/o {
gsave
newpath
translate
0.5 setlinewidth
1 setlinejoin
0 setlinecap
0 0 m
0 4 l
gsave
0.000 setgray
fill
grestore
stroke
grestore
} bind def
295.2 43.2 o
grestore
gsave
/o {
gsave
newpath
translate
0.5 setlinewidth
1 setlinejoin
0 setlinecap
0 0 m
0 -4 l
gsave
0.000 setgray
fill
grestore
stroke
grestore
} bind def
295.2 388.8 o
grestore
gsave
284.575000 30.121875 translate
0.000000 rotate
0.000000 0.171875 m /two glyphshow
7.634766 0.171875 m /zero glyphshow
15.269531 0.171875 m /zero glyphshow
grestore
gsave
/o {
gsave
newpath
translate
0.5 setlinewidth
1 setlinejoin
0 setlinecap
0 0 m
0 4 l
gsave
0.000 setgray
fill
grestore
stroke
grestore
} bind def
351 43.2 o
grestore
gsave
/o {
gsave
newpath
translate
0.5 setlinewidth
1 setlinejoin
0 setlinecap
0 0 m
0 -4 l
gsave
0.000 setgray
fill
grestore
stroke
grestore
} bind def
351 388.8 o
grestore
gsave
340.375000 30.121875 translate
0.000000 rotate
0.000000 0.171875 m /two glyphshow
7.634766 0.171875 m /five glyphshow
15.269531 0.171875 m /zero glyphshow
grestore
gsave
/o {
gsave
newpath
translate
0.5 setlinewidth
1 setlinejoin
0 setlinecap
0 0 m
0 4 l
gsave
0.000 setgray
fill
grestore
stroke
grestore
} bind def
406.8 43.2 o
grestore
gsave
/o {
gsave
newpath
translate
0.5 setlinewidth
1 setlinejoin
0 setlinecap
0 0 m
0 -4 l
gsave
0.000 setgray
fill
grestore
stroke
grestore
} bind def
406.8 388.8 o
grestore
gsave
396.198437 30.121875 translate
0.000000 rotate
0.000000 0.171875 m /three glyphshow
7.634766 0.171875 m /zero glyphshow
15.269531 0.171875 m /zero glyphshow
grestore
gsave
/o {
gsave
newpath
translate
0.5 setlinewidth
1 setlinejoin
0 setlinecap
0 0 m
0 4 l
gsave
0.000 setgray
fill
grestore
stroke
grestore
} bind def
462.6 43.2 o
grestore
gsave
/o {
gsave
newpath
translate
0.5 setlinewidth
1 setlinejoin
0 setlinecap
0 0 m
0 -4 l
gsave
0.000 setgray
fill
grestore
stroke
grestore
} bind def
462.6 388.8 o
grestore
gsave
451.998437 30.121875 translate
0.000000 rotate
0.000000 0.171875 m /three glyphshow
7.634766 0.171875 m /five glyphshow
15.269531 0.171875 m /zero glyphshow
grestore
gsave
/o {
gsave
newpath
translate
0.5 setlinewidth
1 setlinejoin
0 setlinecap
0 0 m
0 4 l
gsave
0.000 setgray
fill
grestore
stroke
grestore
} bind def
518.4 43.2 o
grestore
gsave
/o {
gsave
newpath
translate
0.5 setlinewidth
1 setlinejoin
0 setlinecap
0 0 m
0 -4 l
gsave
0.000 setgray
fill
grestore
stroke
grestore
} bind def
518.4 388.8 o
grestore
gsave
507.634375 30.121875 translate
0.000000 rotate
0.000000 0.171875 m /four glyphshow
7.634766 0.171875 m /zero glyphshow
15.269531 0.171875 m /zero glyphshow
grestore
/DejaVuSans findfont
16.000 scalefont
setfont
gsave
249.637500 9.637500 translate
0.000000 rotate
0.000000 3.328125 m /D glyphshow
12.320312 3.328125 m /a glyphshow
22.125000 3.328125 m /y glyphshow
31.593750 3.328125 m /space glyphshow
36.679688 3.328125 m /o glyphshow
46.468750 3.328125 m /f glyphshow
52.101562 3.328125 m /space glyphshow
57.187500 3.328125 m /Y glyphshow
64.835938 3.328125 m /e glyphshow
74.679688 3.328125 m /a glyphshow
84.484375 3.328125 m /r glyphshow
grestore
gsave
/o {
gsave
newpath
translate
0.5 setlinewidth
1 setlinejoin
0 setlinecap
0 0 m
4 0 l
gsave
0.000 setgray
fill
grestore
stroke
grestore
} bind def
72 43.2 o
grestore
gsave
/o {
gsave
newpath
translate
0.5 setlinewidth
1 setlinejoin
0 setlinecap
0 0 m
-4 0 l
gsave
0.000 setgray
fill
grestore
stroke
grestore
} bind def
518.4 43.2 o
grestore
/DejaVuSans findfont
12.000 scalefont
setfont
gsave
39.109375 38.660937 translate
0.000000 rotate
0.000000 0.171875 m /two glyphshow
7.634766 0.171875 m /zero glyphshow
15.269531 0.171875 m /zero glyphshow
22.904297 0.171875 m /zero glyphshow
grestore
gsave
/o {
gsave
newpath
translate
0.5 setlinewidth
1 setlinejoin
0 setlinecap
0 0 m
4 0 l
gsave
0.000 setgray
fill
grestore
stroke
grestore
} bind def
72 86.4 o
grestore
gsave
/o {
gsave
newpath
translate
0.5 setlinewidth
1 setlinejoin
0 setlinecap
0 0 m
-4 0 l
gsave
0.000 setgray
fill
grestore
stroke
grestore
} bind def
518.4 86.4 o
grestore
gsave
38.828125 81.860937 translate
0.000000 rotate
0.000000 0.171875 m /four glyphshow
7.634766 0.171875 m /zero glyphshow
15.269531 0.171875 m /zero glyphshow
22.904297 0.171875 m /zero glyphshow
grestore
gsave
/o {
gsave
newpath
translate
0.5 setlinewidth
1 setlinejoin
0 setlinecap
0 0 m
4 0 l
gsave
0.000 setgray
fill
grestore
stroke
grestore
} bind def
72 129.6 o
grestore
gsave
/o {
gsave
newpath
translate
0.5 setlinewidth
1 setlinejoin
0 setlinecap
0 0 m
-4 0 l
gsave
0.000 setgray
fill
grestore
stroke
grestore
} bind def
518.4 129.6 o
grestore
gsave
39.078125 125.060937 translate
0.000000 rotate
0.000000 0.171875 m /six glyphshow
7.634766 0.171875 m /zero glyphshow
15.269531 0.171875 m /zero glyphshow
22.904297 0.171875 m /zero glyphshow
grestore
gsave
/o {
gsave
newpath
translate
0.5 setlinewidth
1 setlinejoin
0 setlinecap
0 0 m
4 0 l
gsave
0.000 setgray
fill
grestore
stroke
grestore
} bind def
72 172.8 o
grestore
gsave
/o {
gsave
newpath
translate
0.5 setlinewidth
1 setlinejoin
0 setlinecap
0 0 m
-4 0 l
gsave
0.000 setgray
fill
grestore
stroke
grestore
} bind def
518.4 172.8 o
grestore
gsave
39.046875 168.260938 translate
0.000000 rotate
0.000000 0.171875 m /eight glyphshow
7.634766 0.171875 m /zero glyphshow
15.269531 0.171875 m /zero glyphshow
22.904297 0.171875 m /zero glyphshow
grestore
gsave
/o {
gsave
newpath
translate
0.5 setlinewidth
1 setlinejoin
0 setlinecap
0 0 m
4 0 l
gsave
0.000 setgray
fill
grestore
stroke
grestore
} bind def
72 216 o
grestore
gsave
/o {
gsave
newpath
translate
0.5 setlinewidth
1 setlinejoin
0 setlinecap
0 0 m
-4 0 l
gsave
0.000 setgray
fill
grestore
stroke
grestore
} bind def
518.4 216 o
grestore
gsave
31.906250 211.460938 translate
0.000000 rotate
0.000000 0.171875 m /one glyphshow
7.634766 0.171875 m /zero glyphshow
15.269531 0.171875 m /zero glyphshow
22.904297 0.171875 m /zero glyphshow
30.539062 0.171875 m /zero glyphshow
grestore
gsave
/o {
gsave
newpath
translate
0.5 setlinewidth
1 setlinejoin
0 setlinecap
0 0 m
4 0 l
gsave
0.000 setgray
fill
grestore
stroke
grestore
} bind def
72 259.2 o
grestore
gsave
/o {
gsave
newpath
translate
0.5 setlinewidth
1 setlinejoin
0 setlinecap
0 0 m
-4 0 l
gsave
0.000 setgray
fill
grestore
stroke
grestore
} bind def
518.4 259.2 o
grestore
gsave
31.906250 254.660937 translate
0.000000 rotate
0.000000 0.171875 m /one glyphshow
7.634766 0.171875 m /two glyphshow
15.269531 0.171875 m /zero glyphshow
22.904297 0.171875 m /zero glyphshow
30.539062 0.171875 m /zero glyphshow
grestore
gsave
/o {
gsave
newpath
translate
0.5 setlinewidth
1 setlinejoin
0 setlinecap
0 0 m
4 0 l
gsave
0.000 setgray
fill
grestore
stroke
grestore
} bind def
72 302.4 o
grestore
gsave
/o {
gsave
newpath
translate
0.5 setlinewidth
1 setlinejoin
0 setlinecap
0 0 m
-4 0 l
gsave
0.000 setgray
fill
grestore
stroke
grestore
} bind def
518.4 302.4 o
grestore
gsave
31.906250 297.860938 translate
0.000000 rotate
0.000000 0.171875 m /one glyphshow
7.634766 0.171875 m /four glyphshow
15.269531 0.171875 m /zero glyphshow
22.904297 0.171875 m /zero glyphshow
30.539062 0.171875 m /zero glyphshow
grestore
gsave
/o {
gsave
newpath
translate
0.5 setlinewidth
1 setlinejoin
0 setlinecap
0 0 m
4 0 l
gsave
0.000 setgray
fill
grestore
stroke
grestore
} bind def
72 345.6 o
grestore
gsave
/o {
gsave
newpath
translate
0.5 setlinewidth
1 setlinejoin
0 setlinecap
0 0 m
-4 0 l
gsave
0.000 setgray
fill
grestore
stroke
grestore
} bind def
518.4 345.6 o
grestore
gsave
31.906250 341.060938 translate
0.000000 rotate
0.000000 0.171875 m /one glyphshow
7.634766 0.171875 m /six glyphshow
15.269531 0.171875 m /zero glyphshow
22.904297 0.171875 m /zero glyphshow
30.539062 0.171875 m /zero glyphshow
grestore
gsave
/o {
gsave
newpath
translate
0.5 setlinewidth
1 setlinejoin
0 setlinecap
0 0 m
4 0 l
gsave
0.000 setgray
fill
grestore
stroke
grestore
} bind def
72 388.8 o
grestore
gsave
/o {
gsave
newpath
translate
0.5 setlinewidth
1 setlinejoin
0 setlinecap
0 0 m
-4 0 l
gsave
0.000 setgray
fill
grestore
stroke
grestore
} bind def
518.4 388.8 o
grestore
gsave
31.906250 384.260938 translate
0.000000 rotate
0.000000 0.171875 m /one glyphshow
7.634766 0.171875 m /eight glyphshow
15.269531 0.171875 m /zero glyphshow
22.904297 0.171875 m /zero glyphshow
30.539062 0.171875 m /zero glyphshow
grestore
/DejaVuSans findfont
16.000 scalefont
setfont
gsave
26.906250 63.085938 translate
90.000000 rotate
0.000000 0.234375 m /S glyphshow
10.156250 0.234375 m /t glyphshow
16.429688 0.234375 m /a glyphshow
26.234375 0.234375 m /n glyphshow
36.375000 0.234375 m /d glyphshow
46.531250 0.234375 m /a glyphshow
56.335938 0.234375 m /r glyphshow
62.664062 0.234375 m /d glyphshow
72.820312 0.234375 m /space glyphshow
77.906250 0.234375 m /D glyphshow
90.226562 0.234375 m /e glyphshow
100.070312 0.234375 m /v glyphshow
109.539062 0.234375 m /i glyphshow
113.984375 0.234375 m /a glyphshow
123.789062 0.234375 m /t glyphshow
130.062500 0.234375 m /i glyphshow
134.507812 0.234375 m /o glyphshow
144.296875 0.234375 m /n glyphshow
154.437500 0.234375 m /space glyphshow
159.523438 0.234375 m /o glyphshow
169.312500 0.234375 m /f glyphshow
174.945312 0.234375 m /space glyphshow
180.031250 0.234375 m /S glyphshow
190.187500 0.234375 m /o glyphshow
199.976562 0.234375 m /l glyphshow
204.421875 0.234375 m /a glyphshow
214.226562 0.234375 m /r glyphshow
220.804688 0.234375 m /space glyphshow
225.890625 0.234375 m /I glyphshow
230.609375 0.234375 m /r glyphshow
236.937500 0.234375 m /r glyphshow
243.515625 0.234375 m /a glyphshow
253.320312 0.234375 m /d glyphshow
263.476562 0.234375 m /i glyphshow
267.921875 0.234375 m /a glyphshow
277.726562 0.234375 m /n glyphshow
287.867188 0.234375 m /c glyphshow
296.664062 0.234375 m /e glyphshow
grestore
1.000 setlinewidth
2 setlinecap
gsave
72 388.8 m
518.4 388.8 l
stroke
grestore
gsave
518.4 43.2 m
518.4 388.8 l
stroke
grestore
gsave
72 43.2 m
518.4 43.2 l
stroke
grestore
gsave
72 43.2 m
72 388.8 l
stroke
grestore
gsave
321.813 338.489 m
511.2 338.489 l
511.2 381.6 l
321.813 381.6 l
321.813 338.489 l
cl
gsave
1.000 setgray
fill
grestore
stroke
grestore
0.000 0.000 1.000 setrgbcolor
gsave
331.893 370.239 m
352.053 370.239 l
stroke
grestore
0.000 setgray
/DejaVuSans findfont
14.400 scalefont
setfont
gsave
367.893125 364.996250 translate
0.000000 rotate
0.000000 0.203125 m /S glyphshow
9.134674 0.203125 m /t glyphshow
14.777084 0.203125 m /a glyphshow
23.595551 0.203125 m /n glyphshow
32.716171 0.203125 m /d glyphshow
41.850845 0.203125 m /a glyphshow
50.669312 0.203125 m /r glyphshow
56.335770 0.203125 m /d glyphshow
65.470444 0.203125 m /space glyphshow
70.044800 0.203125 m /D glyphshow
81.125854 0.203125 m /e glyphshow
89.979462 0.203125 m /v glyphshow
98.495789 0.203125 m /i glyphshow
102.493958 0.203125 m /a glyphshow
111.312424 0.203125 m /t glyphshow
116.954834 0.203125 m /i glyphshow
120.953003 0.203125 m /o glyphshow
129.757416 0.203125 m /n glyphshow
grestore
2.000 setlinewidth
0.000 0.500 0.000 setrgbcolor
gsave
331.893 349.493 m
352.053 349.493 l
stroke
grestore
0.000 setgray
gsave
367.893125 344.249375 translate
0.000000 rotate
0.000000 0.203125 m /M glyphshow
12.416122 0.203125 m /o glyphshow
21.220535 0.203125 m /d glyphshow
30.355209 0.203125 m /e glyphshow
39.208817 0.203125 m /l glyphshow
grestore

end
showpage
