%!PS-Adobe-3.0 EPSF-3.0
%%Title: daily_arma_20_standarized_E_sacf.eps
%%Creator: matplotlib version 1.2.1, http://matplotlib.org/
%%CreationDate: Thu Nov 21 16:17:22 2013
%%Orientation: portrait
%%BoundingBox: 18 180 594 612
%%EndComments
%%BeginProlog
/mpldict 8 dict def
mpldict begin
/m { moveto } bind def
/l { lineto } bind def
/r { rlineto } bind def
/c { curveto } bind def
/cl { closepath } bind def
/box {
m
1 index 0 r
0 exch r
neg 0 r
cl
} bind def
/clipbox {
box
clip
newpath
} bind def
%!PS-Adobe-3.0 Resource-Font
%%Title: DejaVu Sans
%%Copyright: Copyright (c) 2003 by Bitstream, Inc. All Rights Reserved. Copyright (c) 2006 by Tavmjong Bah. All Rights Reserved. DejaVu changes are in public domain 
%%Creator: Converted from TrueType to type 3 by PPR
25 dict begin
/_d{bind def}bind def
/_m{moveto}_d
/_l{lineto}_d
/_cl{closepath eofill}_d
/_c{curveto}_d
/_sc{7 -1 roll{setcachedevice}{pop pop pop pop pop pop}ifelse}_d
/_e{exec}_d
/FontName /DejaVuSans def
/PaintType 0 def
/FontMatrix[.001 0 0 .001 0 0]def
/FontBBox[-1021 -415 1681 1167]def
/FontType 3 def
/Encoding [ /period /zero /one /two /three /four /five /six /eight /A /a /c /e /i /l /n /o /r /t /u ] def
/FontInfo 10 dict dup begin
/FamilyName (DejaVu Sans) def
/FullName (DejaVu Sans) def
/Notice (Copyright (c) 2003 by Bitstream, Inc. All Rights Reserved. Copyright (c) 2006 by Tavmjong Bah. All Rights Reserved. DejaVu changes are in public domain ) def
/Weight (Book) def
/Version (Version 2.33) def
/ItalicAngle 0.0 def
/isFixedPitch false def
/UnderlinePosition -130 def
/UnderlineThickness 90 def
end readonly def
/CharStrings 20 dict dup begin
/period{318 0 107 0 210 124 _sc
107 124 _m
210 124 _l
210 0 _l
107 0 _l
107 124 _l
_cl}_d
/zero{636 0 66 -13 570 742 _sc
318 664 _m
267 664 229 639 203 589 _c
177 539 165 464 165 364 _c
165 264 177 189 203 139 _c
229 89 267 64 318 64 _c
369 64 407 89 433 139 _c
458 189 471 264 471 364 _c
471 464 458 539 433 589 _c
407 639 369 664 318 664 _c
318 742 _m
399 742 461 709 505 645 _c
548 580 570 486 570 364 _c
570 241 548 147 505 83 _c
461 19 399 -13 318 -13 _c
236 -13 173 19 130 83 _c
87 147 66 241 66 364 _c
66 486 87 580 130 645 _c
173 709 236 742 318 742 _c
_cl}_d
/one{636 0 110 0 544 729 _sc
124 83 _m
285 83 _l
285 639 _l
110 604 _l
110 694 _l
284 729 _l
383 729 _l
383 83 _l
544 83 _l
544 0 _l
124 0 _l
124 83 _l
_cl}_d
/two{{636 0 73 0 536 742 _sc
192 83 _m
536 83 _l
536 0 _l
73 0 _l
73 83 _l
110 121 161 173 226 239 _c
290 304 331 346 348 365 _c
380 400 402 430 414 455 _c
426 479 433 504 433 528 _c
433 566 419 598 392 622 _c
365 646 330 659 286 659 _c
255 659 222 653 188 643 _c
154 632 117 616 78 594 _c
78 694 _l
118 710 155 722 189 730 _c
223 738 255 742 284 742 _c
}_e{359 742 419 723 464 685 _c
509 647 532 597 532 534 _c
532 504 526 475 515 449 _c
504 422 484 390 454 354 _c
446 344 420 317 376 272 _c
332 227 271 164 192 83 _c
_cl}_e}_d
/three{{636 0 76 -13 556 742 _sc
406 393 _m
453 383 490 362 516 330 _c
542 298 556 258 556 212 _c
556 140 531 84 482 45 _c
432 6 362 -13 271 -13 _c
240 -13 208 -10 176 -4 _c
144 1 110 10 76 22 _c
76 117 _l
103 101 133 89 166 81 _c
198 73 232 69 268 69 _c
330 69 377 81 409 105 _c
441 129 458 165 458 212 _c
458 254 443 288 413 312 _c
383 336 341 349 287 349 _c
}_e{202 349 _l
202 430 _l
291 430 _l
339 430 376 439 402 459 _c
428 478 441 506 441 543 _c
441 580 427 609 401 629 _c
374 649 336 659 287 659 _c
260 659 231 656 200 650 _c
169 644 135 635 98 623 _c
98 711 _l
135 721 170 729 203 734 _c
235 739 266 742 296 742 _c
370 742 429 725 473 691 _c
517 657 539 611 539 553 _c
539 513 527 479 504 451 _c
481 423 448 403 406 393 _c
_cl}_e}_d
/four{636 0 49 0 580 729 _sc
378 643 _m
129 254 _l
378 254 _l
378 643 _l
352 729 _m
476 729 _l
476 254 _l
580 254 _l
580 172 _l
476 172 _l
476 0 _l
378 0 _l
378 172 _l
49 172 _l
49 267 _l
352 729 _l
_cl}_d
/five{{636 0 77 -13 549 729 _sc
108 729 _m
495 729 _l
495 646 _l
198 646 _l
198 467 _l
212 472 227 476 241 478 _c
255 480 270 482 284 482 _c
365 482 429 459 477 415 _c
525 370 549 310 549 234 _c
549 155 524 94 475 51 _c
426 8 357 -13 269 -13 _c
238 -13 207 -10 175 -6 _c
143 -1 111 6 77 17 _c
77 116 _l
106 100 136 88 168 80 _c
199 72 232 69 267 69 _c
}_e{323 69 368 83 401 113 _c
433 143 450 183 450 234 _c
450 284 433 324 401 354 _c
368 384 323 399 267 399 _c
241 399 214 396 188 390 _c
162 384 135 375 108 363 _c
108 729 _l
_cl}_e}_d
/six{{636 0 70 -13 573 742 _sc
330 404 _m
286 404 251 388 225 358 _c
199 328 186 286 186 234 _c
186 181 199 139 225 109 _c
251 79 286 64 330 64 _c
374 64 409 79 435 109 _c
461 139 474 181 474 234 _c
474 286 461 328 435 358 _c
409 388 374 404 330 404 _c
526 713 _m
526 623 _l
501 635 476 644 451 650 _c
425 656 400 659 376 659 _c
310 659 260 637 226 593 _c
}_e{192 549 172 482 168 394 _c
187 422 211 444 240 459 _c
269 474 301 482 336 482 _c
409 482 467 459 509 415 _c
551 371 573 310 573 234 _c
573 159 550 99 506 54 _c
462 9 403 -13 330 -13 _c
246 -13 181 19 137 83 _c
92 147 70 241 70 364 _c
70 479 97 571 152 639 _c
206 707 280 742 372 742 _c
396 742 421 739 447 735 _c
472 730 498 723 526 713 _c
_cl}_e}_d
/eight{{636 0 68 -13 568 742 _sc
318 346 _m
271 346 234 333 207 308 _c
180 283 167 249 167 205 _c
167 161 180 126 207 101 _c
234 76 271 64 318 64 _c
364 64 401 76 428 102 _c
455 127 469 161 469 205 _c
469 249 455 283 429 308 _c
402 333 365 346 318 346 _c
219 388 _m
177 398 144 418 120 447 _c
96 476 85 511 85 553 _c
85 611 105 657 147 691 _c
188 725 245 742 318 742 _c
}_e{390 742 447 725 489 691 _c
530 657 551 611 551 553 _c
551 511 539 476 515 447 _c
491 418 459 398 417 388 _c
464 377 501 355 528 323 _c
554 291 568 251 568 205 _c
568 134 546 80 503 43 _c
459 5 398 -13 318 -13 _c
237 -13 175 5 132 43 _c
89 80 68 134 68 205 _c
68 251 81 291 108 323 _c
134 355 171 377 219 388 _c
183 544 _m
183 506 194 476 218 455 _c
}_e{242 434 275 424 318 424 _c
360 424 393 434 417 455 _c
441 476 453 506 453 544 _c
453 582 441 611 417 632 _c
393 653 360 664 318 664 _c
275 664 242 653 218 632 _c
194 611 183 582 183 544 _c
_cl}_e}_d
/A{684 0 8 0 676 729 _sc
342 632 _m
208 269 _l
476 269 _l
342 632 _l
286 729 _m
398 729 _l
676 0 _l
573 0 _l
507 187 _l
178 187 _l
112 0 _l
8 0 _l
286 729 _l
_cl}_d
/a{{613 0 60 -13 522 560 _sc
343 275 _m
270 275 220 266 192 250 _c
164 233 150 205 150 165 _c
150 133 160 107 181 89 _c
202 70 231 61 267 61 _c
317 61 357 78 387 114 _c
417 149 432 196 432 255 _c
432 275 _l
343 275 _l
522 312 _m
522 0 _l
432 0 _l
432 83 _l
411 49 385 25 355 10 _c
325 -5 287 -13 243 -13 _c
187 -13 142 2 109 33 _c
76 64 60 106 60 159 _c
}_e{60 220 80 266 122 298 _c
163 329 224 345 306 345 _c
432 345 _l
432 354 _l
432 395 418 427 391 450 _c
364 472 326 484 277 484 _c
245 484 215 480 185 472 _c
155 464 127 453 100 439 _c
100 522 _l
132 534 164 544 195 550 _c
226 556 256 560 286 560 _c
365 560 424 539 463 498 _c
502 457 522 395 522 312 _c
_cl}_e}_d
/c{{550 0 55 -13 488 560 _sc
488 526 _m
488 442 _l
462 456 437 466 411 473 _c
385 480 360 484 334 484 _c
276 484 230 465 198 428 _c
166 391 150 339 150 273 _c
150 206 166 154 198 117 _c
230 80 276 62 334 62 _c
360 62 385 65 411 72 _c
437 79 462 90 488 104 _c
488 21 _l
462 9 436 0 410 -5 _c
383 -10 354 -13 324 -13 _c
242 -13 176 12 128 64 _c
}_e{79 115 55 185 55 273 _c
55 362 79 432 128 483 _c
177 534 244 560 330 560 _c
358 560 385 557 411 551 _c
437 545 463 537 488 526 _c
_cl}_e}_d
/e{{615 0 55 -13 562 560 _sc
562 296 _m
562 252 _l
149 252 _l
153 190 171 142 205 110 _c
238 78 284 62 344 62 _c
378 62 412 66 444 74 _c
476 82 509 95 541 113 _c
541 28 _l
509 14 476 3 442 -3 _c
408 -9 373 -13 339 -13 _c
251 -13 182 12 131 62 _c
80 112 55 181 55 268 _c
55 357 79 428 127 481 _c
175 533 241 560 323 560 _c
397 560 455 536 498 489 _c
}_e{540 441 562 377 562 296 _c
472 322 _m
471 371 457 410 431 440 _c
404 469 368 484 324 484 _c
274 484 234 469 204 441 _c
174 413 156 373 152 322 _c
472 322 _l
_cl}_e}_d
/i{278 0 94 0 184 760 _sc
94 547 _m
184 547 _l
184 0 _l
94 0 _l
94 547 _l
94 760 _m
184 760 _l
184 646 _l
94 646 _l
94 760 _l
_cl}_d
/l{278 0 94 0 184 760 _sc
94 760 _m
184 760 _l
184 0 _l
94 0 _l
94 760 _l
_cl}_d
/n{634 0 91 0 549 560 _sc
549 330 _m
549 0 _l
459 0 _l
459 327 _l
459 379 448 417 428 443 _c
408 469 378 482 338 482 _c
289 482 251 466 223 435 _c
195 404 181 362 181 309 _c
181 0 _l
91 0 _l
91 547 _l
181 547 _l
181 462 _l
202 494 227 519 257 535 _c
286 551 320 560 358 560 _c
420 560 468 540 500 501 _c
532 462 549 405 549 330 _c
_cl}_d
/o{612 0 55 -13 557 560 _sc
306 484 _m
258 484 220 465 192 427 _c
164 389 150 338 150 273 _c
150 207 163 156 191 118 _c
219 80 257 62 306 62 _c
354 62 392 80 420 118 _c
448 156 462 207 462 273 _c
462 337 448 389 420 427 _c
392 465 354 484 306 484 _c
306 560 _m
384 560 445 534 490 484 _c
534 433 557 363 557 273 _c
557 183 534 113 490 63 _c
445 12 384 -13 306 -13 _c
227 -13 165 12 121 63 _c
77 113 55 183 55 273 _c
55 363 77 433 121 484 _c
165 534 227 560 306 560 _c
_cl}_d
/r{411 0 91 0 411 560 _sc
411 463 _m
401 469 390 473 378 476 _c
366 478 353 480 339 480 _c
288 480 249 463 222 430 _c
194 397 181 350 181 288 _c
181 0 _l
91 0 _l
91 547 _l
181 547 _l
181 462 _l
199 495 224 520 254 536 _c
284 552 321 560 365 560 _c
371 560 378 559 386 559 _c
393 558 401 557 411 555 _c
411 463 _l
_cl}_d
/t{392 0 27 0 368 702 _sc
183 702 _m
183 547 _l
368 547 _l
368 477 _l
183 477 _l
183 180 _l
183 135 189 106 201 94 _c
213 81 238 75 276 75 _c
368 75 _l
368 0 _l
276 0 _l
206 0 158 13 132 39 _c
106 65 93 112 93 180 _c
93 477 _l
27 477 _l
27 547 _l
93 547 _l
93 702 _l
183 702 _l
_cl}_d
/u{634 0 85 -13 543 560 _sc
85 216 _m
85 547 _l
175 547 _l
175 219 _l
175 167 185 129 205 103 _c
225 77 255 64 296 64 _c
344 64 383 79 411 110 _c
439 141 453 183 453 237 _c
453 547 _l
543 547 _l
543 0 _l
453 0 _l
453 84 _l
431 50 405 26 377 10 _c
348 -5 315 -13 277 -13 _c
214 -13 166 6 134 45 _c
101 83 85 140 85 216 _c
311 560 _m
311 560 _l
_cl}_d
end readonly def

/BuildGlyph
 {exch begin
 CharStrings exch
 2 copy known not{pop /.notdef}if
 true 3 1 roll get exec
 end}_d

/BuildChar {
 1 index /Encoding get exch get
 1 index /BuildGlyph get exec
}_d

FontName currentdict end definefont pop
end
%%EndProlog
mpldict begin
18 180 translate
576 432 0 0 clipbox
gsave
0 0 m
576 0 l
576 432 l
0 432 l
cl
1.000 setgray
fill
grestore
gsave
72 43.2 m
518.4 43.2 l
518.4 388.8 l
72 388.8 l
cl
1.000 setgray
fill
grestore
/p0_0 {
newpath
translate
92.2909 95.6981 m
92.2909 95.6981 l
99.0545 67.2016 l
105.818 65.2043 l
112.582 65.1166 l
119.345 65.0975 l
126.109 65.0597 l
132.873 65.02 l
139.636 64.7911 l
146.4 64.6997 l
153.164 64.4132 l
159.927 64.3524 l
166.691 64.338 l
173.455 64.3335 l
180.218 64.3325 l
186.982 64.238 l
193.745 64.0823 l
200.509 64.0449 l
207.273 64.0403 l
214.036 64.0325 l
220.8 64.0283 l
227.564 63.7 l
234.327 63.6944 l
241.091 63.5931 l
247.855 63.1645 l
254.618 63.1239 l
261.382 63.1062 l
268.145 63.1018 l
274.909 63.0703 l
281.673 62.6772 l
288.436 62.6549 l
295.2 62.5962 l
301.964 62.5608 l
308.727 62.4742 l
315.491 62.4051 l
322.255 62.4021 l
329.018 62.384 l
335.782 62.3085 l
342.545 62.3084 l
349.309 62.3082 l
356.073 62.2737 l
362.836 62.2737 l
369.6 62.2719 l
376.364 62.2602 l
383.127 62.2556 l
389.891 62.2321 l
396.655 62.2197 l
403.418 62.1705 l
410.182 61.9267 l
416.945 61.9255 l
423.709 61.8704 l
430.473 61.8693 l
437.236 61.4496 l
444 61.1704 l
450.764 61.155 l
457.527 61.1014 l
464.291 61.0518 l
471.055 61.0477 l
477.818 60.8234 l
484.582 60.6975 l
491.345 60.6969 l
498.109 60.5617 l
498.109 130.835 l
498.109 130.835 l
491.345 130.699 l
484.582 130.699 l
477.818 130.573 l
471.055 130.349 l
464.291 130.344 l
457.527 130.295 l
450.764 130.241 l
444 130.226 l
437.236 129.947 l
430.473 129.527 l
423.709 129.526 l
416.945 129.471 l
410.182 129.47 l
403.418 129.226 l
396.655 129.177 l
389.891 129.164 l
383.127 129.141 l
376.364 129.136 l
369.6 129.124 l
362.836 129.123 l
356.073 129.123 l
349.309 129.088 l
342.545 129.088 l
335.782 129.088 l
329.018 129.012 l
322.255 128.994 l
315.491 128.991 l
308.727 128.922 l
301.964 128.835 l
295.2 128.8 l
288.436 128.741 l
281.673 128.719 l
274.909 128.326 l
268.145 128.294 l
261.382 128.29 l
254.618 128.272 l
247.855 128.232 l
241.091 127.803 l
234.327 127.702 l
227.564 127.696 l
220.8 127.368 l
214.036 127.364 l
207.273 127.356 l
200.509 127.351 l
193.745 127.314 l
186.982 127.158 l
180.218 127.064 l
173.455 127.063 l
166.691 127.058 l
159.927 127.044 l
153.164 126.983 l
146.4 126.697 l
139.636 126.605 l
132.873 126.376 l
126.109 126.337 l
119.345 126.299 l
112.582 126.28 l
105.818 126.192 l
99.0545 124.195 l
92.2909 95.6981 l
cl
} bind def
1.000 setlinewidth
1 setlinejoin
0 setlinecap
[] 0 setdash
0.000 setgray
gsave
446.4 345.6 72 43.2 clipbox
0 0 p0_0
gsave
0.000 0.000 1.000 setrgbcolor
fill
grestore
stroke
grestore
/p1_0 {
newpath
translate
92.2909 95.6981 m
92.2909 373.091 l
} bind def
/p1_1 {
newpath
translate
99.0545 95.6981 m
99.0545 170.41 l
} bind def
/p1_2 {
newpath
translate
105.818 95.6981 m
105.818 111.633 l
} bind def
/p1_3 {
newpath
translate
112.582 95.6981 m
112.582 103.145 l
} bind def
/p1_4 {
newpath
translate
119.345 95.6981 m
119.345 106.167 l
} bind def
/p1_5 {
newpath
translate
126.109 95.6981 m
126.109 106.431 l
} bind def
/p1_6 {
newpath
translate
132.873 95.6981 m
132.873 69.8545 l
} bind def
/p1_7 {
newpath
translate
139.636 95.6981 m
139.636 79.3272 l
} bind def
/p1_8 {
newpath
translate
146.4 95.6981 m
146.4 66.6177 l
} bind def
/p1_9 {
newpath
translate
153.164 95.6981 m
153.164 82.2704 l
} bind def
/p1_a {
newpath
translate
159.927 95.6981 m
159.927 89.1543 l
} bind def
/p1_b {
newpath
translate
166.691 95.6981 m
166.691 99.3431 l
} bind def
/p1_c {
newpath
translate
173.455 95.6981 m
173.455 97.4581 l
} bind def
/p1_d {
newpath
translate
180.218 95.6981 m
180.218 78.9286 l
} bind def
/p1_e {
newpath
translate
186.982 95.6981 m
186.982 74.1268 l
} bind def
/p1_f {
newpath
translate
193.745 95.6981 m
193.745 106.289 l
} bind def
/p1_10 {
newpath
translate
200.509 95.6981 m
200.509 91.9882 l
} bind def
/p1_11 {
newpath
translate
207.273 95.6981 m
207.273 100.516 l
} bind def
/p1_12 {
newpath
translate
214.036 95.6981 m
214.036 99.2614 l
} bind def
/p1_13 {
newpath
translate
220.8 95.6981 m
220.8 64.2284 l
} bind def
/p1_14 {
newpath
translate
227.564 95.6981 m
227.564 91.5686 l
} bind def
/p1_15 {
newpath
translate
234.327 95.6981 m
234.327 113.239 l
} bind def
/p1_16 {
newpath
translate
241.091 95.6981 m
241.091 131.927 l
} bind def
/p1_17 {
newpath
translate
247.855 95.6981 m
247.855 106.888 l
} bind def
/p1_18 {
newpath
translate
254.618 95.6981 m
254.618 88.3057 l
} bind def
/p1_19 {
newpath
translate
261.382 95.6981 m
261.382 92.0281 l
} bind def
/p1_1a {
newpath
translate
268.145 95.6981 m
268.145 105.575 l
} bind def
/p1_1b {
newpath
translate
274.909 95.6981 m
274.909 130.663 l
} bind def
/p1_1c {
newpath
translate
281.673 95.6981 m
281.673 87.3499 l
} bind def
/p1_1d {
newpath
translate
288.436 95.6981 m
288.436 82.1324 l
} bind def
/p1_1e {
newpath
translate
295.2 95.6981 m
295.2 85.1588 l
} bind def
/p1_1f {
newpath
translate
301.964 95.6981 m
301.964 79.1993 l
} bind def
/p1_20 {
newpath
translate
308.727 95.6981 m
308.727 110.461 l
} bind def
/p1_21 {
newpath
translate
315.491 95.6981 m
315.491 98.7546 l
} bind def
/p1_22 {
newpath
translate
322.255 95.6981 m
322.255 88.1447 l
} bind def
/p1_23 {
newpath
translate
329.018 95.6981 m
329.018 80.2464 l
} bind def
/p1_24 {
newpath
translate
335.782 95.6981 m
335.782 95.3074 l
} bind def
/p1_25 {
newpath
translate
342.545 95.6981 m
342.545 96.4946 l
} bind def
/p1_26 {
newpath
translate
349.309 95.6981 m
349.309 85.2433 l
} bind def
/p1_27 {
newpath
translate
356.073 95.6981 m
356.073 95.714 l
} bind def
/p1_28 {
newpath
translate
362.836 95.6981 m
362.836 93.303 l
} bind def
/p1_29 {
newpath
translate
369.6 95.6981 m
369.6 89.6042 l
} bind def
/p1_2a {
newpath
translate
376.364 95.6981 m
376.364 99.4857 l
} bind def
/p1_2b {
newpath
translate
383.127 95.6981 m
383.127 87.0558 l
} bind def
/p1_2c {
newpath
translate
389.891 95.6981 m
389.891 101.959 l
} bind def
/p1_2d {
newpath
translate
396.655 95.6981 m
396.655 108.197 l
} bind def
/p1_2e {
newpath
translate
403.418 95.6981 m
403.418 67.8158 l
} bind def
/p1_2f {
newpath
translate
410.182 95.6981 m
410.182 97.6088 l
} bind def
/p1_30 {
newpath
translate
416.945 95.6981 m
416.945 108.989 l
} bind def
/p1_31 {
newpath
translate
423.709 95.6981 m
423.709 97.599 l
} bind def
/p1_32 {
newpath
translate
430.473 95.6981 m
430.473 58.9091 l
} bind def
/p1_33 {
newpath
translate
437.236 95.6981 m
437.236 65.5339 l
} bind def
/p1_34 {
newpath
translate
444 95.6981 m
444 88.6075 l
} bind def
/p1_35 {
newpath
translate
450.764 95.6981 m
450.764 82.4383 l
} bind def
/p1_36 {
newpath
translate
457.527 95.6981 m
457.527 82.9453 l
} bind def
/p1_37 {
newpath
translate
464.291 95.6981 m
464.291 99.3738 l
} bind def
/p1_38 {
newpath
translate
471.055 95.6981 m
471.055 122.881 l
} bind def
/p1_39 {
newpath
translate
477.818 95.6981 m
477.818 116.111 l
} bind def
/p1_3a {
newpath
translate
484.582 95.6981 m
484.582 97.0369 l
} bind def
/p1_3b {
newpath
translate
491.345 95.6981 m
491.345 116.899 l
} bind def
/p1_3c {
newpath
translate
498.109 95.6981 m
498.109 104.417 l
} bind def
gsave
446.4 345.6 72 43.2 clipbox
0 0 p1_0
stroke
grestore
gsave
446.4 345.6 72 43.2 clipbox
0 0 p1_1
stroke
grestore
gsave
446.4 345.6 72 43.2 clipbox
0 0 p1_2
stroke
grestore
gsave
446.4 345.6 72 43.2 clipbox
0 0 p1_3
stroke
grestore
gsave
446.4 345.6 72 43.2 clipbox
0 0 p1_4
stroke
grestore
gsave
446.4 345.6 72 43.2 clipbox
0 0 p1_5
stroke
grestore
gsave
446.4 345.6 72 43.2 clipbox
0 0 p1_6
stroke
grestore
gsave
446.4 345.6 72 43.2 clipbox
0 0 p1_7
stroke
grestore
gsave
446.4 345.6 72 43.2 clipbox
0 0 p1_8
stroke
grestore
gsave
446.4 345.6 72 43.2 clipbox
0 0 p1_9
stroke
grestore
gsave
446.4 345.6 72 43.2 clipbox
0 0 p1_a
stroke
grestore
gsave
446.4 345.6 72 43.2 clipbox
0 0 p1_b
stroke
grestore
gsave
446.4 345.6 72 43.2 clipbox
0 0 p1_c
stroke
grestore
gsave
446.4 345.6 72 43.2 clipbox
0 0 p1_d
stroke
grestore
gsave
446.4 345.6 72 43.2 clipbox
0 0 p1_e
stroke
grestore
gsave
446.4 345.6 72 43.2 clipbox
0 0 p1_f
stroke
grestore
gsave
446.4 345.6 72 43.2 clipbox
0 0 p1_10
stroke
grestore
gsave
446.4 345.6 72 43.2 clipbox
0 0 p1_11
stroke
grestore
gsave
446.4 345.6 72 43.2 clipbox
0 0 p1_12
stroke
grestore
gsave
446.4 345.6 72 43.2 clipbox
0 0 p1_13
stroke
grestore
gsave
446.4 345.6 72 43.2 clipbox
0 0 p1_14
stroke
grestore
gsave
446.4 345.6 72 43.2 clipbox
0 0 p1_15
stroke
grestore
gsave
446.4 345.6 72 43.2 clipbox
0 0 p1_16
stroke
grestore
gsave
446.4 345.6 72 43.2 clipbox
0 0 p1_17
stroke
grestore
gsave
446.4 345.6 72 43.2 clipbox
0 0 p1_18
stroke
grestore
gsave
446.4 345.6 72 43.2 clipbox
0 0 p1_19
stroke
grestore
gsave
446.4 345.6 72 43.2 clipbox
0 0 p1_1a
stroke
grestore
gsave
446.4 345.6 72 43.2 clipbox
0 0 p1_1b
stroke
grestore
gsave
446.4 345.6 72 43.2 clipbox
0 0 p1_1c
stroke
grestore
gsave
446.4 345.6 72 43.2 clipbox
0 0 p1_1d
stroke
grestore
gsave
446.4 345.6 72 43.2 clipbox
0 0 p1_1e
stroke
grestore
gsave
446.4 345.6 72 43.2 clipbox
0 0 p1_1f
stroke
grestore
gsave
446.4 345.6 72 43.2 clipbox
0 0 p1_20
stroke
grestore
gsave
446.4 345.6 72 43.2 clipbox
0 0 p1_21
stroke
grestore
gsave
446.4 345.6 72 43.2 clipbox
0 0 p1_22
stroke
grestore
gsave
446.4 345.6 72 43.2 clipbox
0 0 p1_23
stroke
grestore
gsave
446.4 345.6 72 43.2 clipbox
0 0 p1_24
stroke
grestore
gsave
446.4 345.6 72 43.2 clipbox
0 0 p1_25
stroke
grestore
gsave
446.4 345.6 72 43.2 clipbox
0 0 p1_26
stroke
grestore
gsave
446.4 345.6 72 43.2 clipbox
0 0 p1_27
stroke
grestore
gsave
446.4 345.6 72 43.2 clipbox
0 0 p1_28
stroke
grestore
gsave
446.4 345.6 72 43.2 clipbox
0 0 p1_29
stroke
grestore
gsave
446.4 345.6 72 43.2 clipbox
0 0 p1_2a
stroke
grestore
gsave
446.4 345.6 72 43.2 clipbox
0 0 p1_2b
stroke
grestore
gsave
446.4 345.6 72 43.2 clipbox
0 0 p1_2c
stroke
grestore
gsave
446.4 345.6 72 43.2 clipbox
0 0 p1_2d
stroke
grestore
gsave
446.4 345.6 72 43.2 clipbox
0 0 p1_2e
stroke
grestore
gsave
446.4 345.6 72 43.2 clipbox
0 0 p1_2f
stroke
grestore
gsave
446.4 345.6 72 43.2 clipbox
0 0 p1_30
stroke
grestore
gsave
446.4 345.6 72 43.2 clipbox
0 0 p1_31
stroke
grestore
gsave
446.4 345.6 72 43.2 clipbox
0 0 p1_32
stroke
grestore
gsave
446.4 345.6 72 43.2 clipbox
0 0 p1_33
stroke
grestore
gsave
446.4 345.6 72 43.2 clipbox
0 0 p1_34
stroke
grestore
gsave
446.4 345.6 72 43.2 clipbox
0 0 p1_35
stroke
grestore
gsave
446.4 345.6 72 43.2 clipbox
0 0 p1_36
stroke
grestore
gsave
446.4 345.6 72 43.2 clipbox
0 0 p1_37
stroke
grestore
gsave
446.4 345.6 72 43.2 clipbox
0 0 p1_38
stroke
grestore
gsave
446.4 345.6 72 43.2 clipbox
0 0 p1_39
stroke
grestore
gsave
446.4 345.6 72 43.2 clipbox
0 0 p1_3a
stroke
grestore
gsave
446.4 345.6 72 43.2 clipbox
0 0 p1_3b
stroke
grestore
gsave
446.4 345.6 72 43.2 clipbox
0 0 p1_3c
stroke
grestore
2 setlinecap
0.000 0.000 1.000 setrgbcolor
gsave
446.4 345.6 72 43.2 clipbox
72 95.6981 m
518.4 95.6981 l
stroke
grestore
0.500 setlinewidth
0 setlinecap
0.000 setgray
gsave
446.4 345.6 72 43.2 clipbox
/o {
gsave
newpath
translate
0.5 setlinewidth
1 setlinejoin
0 setlinecap
0 -2.5 m
0.663008 -2.5 1.29895 -2.23658 1.76777 -1.76777 c
2.23658 -1.29895 2.5 -0.663008 2.5 0 c
2.5 0.663008 2.23658 1.29895 1.76777 1.76777 c
1.29895 2.23658 0.663008 2.5 0 2.5 c
-0.663008 2.5 -1.29895 2.23658 -1.76777 1.76777 c
-2.23658 1.29895 -2.5 0.663008 -2.5 0 c
-2.5 -0.663008 -2.23658 -1.29895 -1.76777 -1.76777 c
-1.29895 -2.23658 -0.663008 -2.5 0 -2.5 c
cl
gsave
0.000 0.000 1.000 setrgbcolor
fill
grestore
stroke
grestore
} bind def
92.2909 373.091 o
99.0545 170.41 o
105.818 111.633 o
112.582 103.145 o
119.345 106.167 o
126.109 106.431 o
132.873 69.8545 o
139.636 79.3272 o
146.4 66.6177 o
153.164 82.2704 o
159.927 89.1543 o
166.691 99.3431 o
173.455 97.4581 o
180.218 78.9286 o
186.982 74.1268 o
193.745 106.289 o
200.509 91.9882 o
207.273 100.516 o
214.036 99.2614 o
220.8 64.2284 o
227.564 91.5686 o
234.327 113.239 o
241.091 131.927 o
247.855 106.888 o
254.618 88.3057 o
261.382 92.0281 o
268.145 105.575 o
274.909 130.663 o
281.673 87.3499 o
288.436 82.1324 o
295.2 85.1588 o
301.964 79.1993 o
308.727 110.461 o
315.491 98.7546 o
322.255 88.1447 o
329.018 80.2464 o
335.782 95.3074 o
342.545 96.4946 o
349.309 85.2433 o
356.073 95.714 o
362.836 93.303 o
369.6 89.6042 o
376.364 99.4857 o
383.127 87.0558 o
389.891 101.959 o
396.655 108.197 o
403.418 67.8158 o
410.182 97.6088 o
416.945 108.989 o
423.709 97.599 o
430.473 58.9091 o
437.236 65.5339 o
444 88.6075 o
450.764 82.4383 o
457.527 82.9453 o
464.291 99.3738 o
471.055 122.881 o
477.818 116.111 o
484.582 97.0369 o
491.345 116.899 o
498.109 104.417 o
grestore
gsave
/o {
gsave
newpath
translate
0.5 setlinewidth
1 setlinejoin
0 setlinecap
0 0 m
0 4 l
gsave
0.000 setgray
fill
grestore
stroke
grestore
} bind def
92.2909 43.2 o
grestore
gsave
/o {
gsave
newpath
translate
0.5 setlinewidth
1 setlinejoin
0 setlinecap
0 0 m
0 -4 l
gsave
0.000 setgray
fill
grestore
stroke
grestore
} bind def
92.2909 388.8 o
grestore
/DejaVuSans findfont
12.000 scalefont
setfont
gsave
89.267472 30.121875 translate
0.000000 rotate
0.000000 0.171875 m /zero glyphshow
grestore
gsave
/o {
gsave
newpath
translate
0.5 setlinewidth
1 setlinejoin
0 setlinecap
0 0 m
0 4 l
gsave
0.000 setgray
fill
grestore
stroke
grestore
} bind def
159.927 43.2 o
grestore
gsave
/o {
gsave
newpath
translate
0.5 setlinewidth
1 setlinejoin
0 setlinecap
0 0 m
0 -4 l
gsave
0.000 setgray
fill
grestore
stroke
grestore
} bind def
159.927 388.8 o
grestore
gsave
153.341335 30.121875 translate
0.000000 rotate
0.000000 0.171875 m /one glyphshow
7.634766 0.171875 m /zero glyphshow
grestore
gsave
/o {
gsave
newpath
translate
0.5 setlinewidth
1 setlinejoin
0 setlinecap
0 0 m
0 4 l
gsave
0.000 setgray
fill
grestore
stroke
grestore
} bind def
227.564 43.2 o
grestore
gsave
/o {
gsave
newpath
translate
0.5 setlinewidth
1 setlinejoin
0 setlinecap
0 0 m
0 -4 l
gsave
0.000 setgray
fill
grestore
stroke
grestore
} bind def
227.564 388.8 o
grestore
gsave
220.758949 30.121875 translate
0.000000 rotate
0.000000 0.171875 m /two glyphshow
7.634766 0.171875 m /zero glyphshow
grestore
gsave
/o {
gsave
newpath
translate
0.5 setlinewidth
1 setlinejoin
0 setlinecap
0 0 m
0 4 l
gsave
0.000 setgray
fill
grestore
stroke
grestore
} bind def
295.2 43.2 o
grestore
gsave
/o {
gsave
newpath
translate
0.5 setlinewidth
1 setlinejoin
0 setlinecap
0 0 m
0 -4 l
gsave
0.000 setgray
fill
grestore
stroke
grestore
} bind def
295.2 388.8 o
grestore
gsave
288.418750 30.121875 translate
0.000000 rotate
0.000000 0.171875 m /three glyphshow
7.634766 0.171875 m /zero glyphshow
grestore
gsave
/o {
gsave
newpath
translate
0.5 setlinewidth
1 setlinejoin
0 setlinecap
0 0 m
0 4 l
gsave
0.000 setgray
fill
grestore
stroke
grestore
} bind def
362.836 43.2 o
grestore
gsave
/o {
gsave
newpath
translate
0.5 setlinewidth
1 setlinejoin
0 setlinecap
0 0 m
0 -4 l
gsave
0.000 setgray
fill
grestore
stroke
grestore
} bind def
362.836 388.8 o
grestore
gsave
355.891051 30.121875 translate
0.000000 rotate
0.000000 0.171875 m /four glyphshow
7.634766 0.171875 m /zero glyphshow
grestore
gsave
/o {
gsave
newpath
translate
0.5 setlinewidth
1 setlinejoin
0 setlinecap
0 0 m
0 4 l
gsave
0.000 setgray
fill
grestore
stroke
grestore
} bind def
430.473 43.2 o
grestore
gsave
/o {
gsave
newpath
translate
0.5 setlinewidth
1 setlinejoin
0 setlinecap
0 0 m
0 -4 l
gsave
0.000 setgray
fill
grestore
stroke
grestore
} bind def
430.473 388.8 o
grestore
gsave
423.691477 30.121875 translate
0.000000 rotate
0.000000 0.171875 m /five glyphshow
7.634766 0.171875 m /zero glyphshow
grestore
gsave
/o {
gsave
newpath
translate
0.5 setlinewidth
1 setlinejoin
0 setlinecap
0 0 m
0 4 l
gsave
0.000 setgray
fill
grestore
stroke
grestore
} bind def
498.109 43.2 o
grestore
gsave
/o {
gsave
newpath
translate
0.5 setlinewidth
1 setlinejoin
0 setlinecap
0 0 m
0 -4 l
gsave
0.000 setgray
fill
grestore
stroke
grestore
} bind def
498.109 388.8 o
grestore
gsave
491.288778 30.121875 translate
0.000000 rotate
0.000000 0.171875 m /six glyphshow
7.634766 0.171875 m /zero glyphshow
grestore
gsave
/o {
gsave
newpath
translate
0.5 setlinewidth
1 setlinejoin
0 setlinecap
0 0 m
4 0 l
gsave
0.000 setgray
fill
grestore
stroke
grestore
} bind def
72 95.6981 o
grestore
gsave
/o {
gsave
newpath
translate
0.5 setlinewidth
1 setlinejoin
0 setlinecap
0 0 m
-4 0 l
gsave
0.000 setgray
fill
grestore
stroke
grestore
} bind def
518.4 95.6981 o
grestore
gsave
50.500000 91.159068 translate
0.000000 rotate
0.000000 0.171875 m /zero glyphshow
7.634766 0.171875 m /period glyphshow
11.449219 0.171875 m /zero glyphshow
grestore
gsave
/o {
gsave
newpath
translate
0.5 setlinewidth
1 setlinejoin
0 setlinecap
0 0 m
4 0 l
gsave
0.000 setgray
fill
grestore
stroke
grestore
} bind def
72 151.177 o
grestore
gsave
/o {
gsave
newpath
translate
0.5 setlinewidth
1 setlinejoin
0 setlinecap
0 0 m
-4 0 l
gsave
0.000 setgray
fill
grestore
stroke
grestore
} bind def
518.4 151.177 o
grestore
gsave
50.906250 146.637623 translate
0.000000 rotate
0.000000 0.171875 m /zero glyphshow
7.634766 0.171875 m /period glyphshow
11.449219 0.171875 m /two glyphshow
grestore
gsave
/o {
gsave
newpath
translate
0.5 setlinewidth
1 setlinejoin
0 setlinecap
0 0 m
4 0 l
gsave
0.000 setgray
fill
grestore
stroke
grestore
} bind def
72 206.655 o
grestore
gsave
/o {
gsave
newpath
translate
0.5 setlinewidth
1 setlinejoin
0 setlinecap
0 0 m
-4 0 l
gsave
0.000 setgray
fill
grestore
stroke
grestore
} bind def
518.4 206.655 o
grestore
gsave
50.375000 202.116179 translate
0.000000 rotate
0.000000 0.171875 m /zero glyphshow
7.634766 0.171875 m /period glyphshow
11.449219 0.171875 m /four glyphshow
grestore
gsave
/o {
gsave
newpath
translate
0.5 setlinewidth
1 setlinejoin
0 setlinecap
0 0 m
4 0 l
gsave
0.000 setgray
fill
grestore
stroke
grestore
} bind def
72 262.134 o
grestore
gsave
/o {
gsave
newpath
translate
0.5 setlinewidth
1 setlinejoin
0 setlinecap
0 0 m
-4 0 l
gsave
0.000 setgray
fill
grestore
stroke
grestore
} bind def
518.4 262.134 o
grestore
gsave
50.468750 257.594735 translate
0.000000 rotate
0.000000 0.171875 m /zero glyphshow
7.634766 0.171875 m /period glyphshow
11.449219 0.171875 m /six glyphshow
grestore
gsave
/o {
gsave
newpath
translate
0.5 setlinewidth
1 setlinejoin
0 setlinecap
0 0 m
4 0 l
gsave
0.000 setgray
fill
grestore
stroke
grestore
} bind def
72 317.612 o
grestore
gsave
/o {
gsave
newpath
translate
0.5 setlinewidth
1 setlinejoin
0 setlinecap
0 0 m
-4 0 l
gsave
0.000 setgray
fill
grestore
stroke
grestore
} bind def
518.4 317.612 o
grestore
gsave
50.531250 313.073291 translate
0.000000 rotate
0.000000 0.171875 m /zero glyphshow
7.634766 0.171875 m /period glyphshow
11.449219 0.171875 m /eight glyphshow
grestore
gsave
/o {
gsave
newpath
translate
0.5 setlinewidth
1 setlinejoin
0 setlinecap
0 0 m
4 0 l
gsave
0.000 setgray
fill
grestore
stroke
grestore
} bind def
72 373.091 o
grestore
gsave
/o {
gsave
newpath
translate
0.5 setlinewidth
1 setlinejoin
0 setlinecap
0 0 m
-4 0 l
gsave
0.000 setgray
fill
grestore
stroke
grestore
} bind def
518.4 373.091 o
grestore
gsave
51.015625 368.551847 translate
0.000000 rotate
0.000000 0.171875 m /one glyphshow
7.634766 0.171875 m /period glyphshow
11.449219 0.171875 m /zero glyphshow
grestore
1.000 setlinewidth
2 setlinecap
gsave
72 388.8 m
518.4 388.8 l
stroke
grestore
gsave
518.4 43.2 m
518.4 388.8 l
stroke
grestore
gsave
72 43.2 m
518.4 43.2 l
stroke
grestore
gsave
72 43.2 m
72 388.8 l
stroke
grestore
/DejaVuSans findfont
14.400 scalefont
setfont
gsave
240.629687 393.596875 translate
0.000000 rotate
0.000000 0.203125 m /A glyphshow
9.844360 0.203125 m /u glyphshow
18.964981 0.203125 m /t glyphshow
24.607391 0.203125 m /o glyphshow
33.411804 0.203125 m /c glyphshow
41.323837 0.203125 m /o glyphshow
50.128250 0.203125 m /r glyphshow
55.794708 0.203125 m /r glyphshow
61.336166 0.203125 m /e glyphshow
70.189774 0.203125 m /l glyphshow
74.187943 0.203125 m /a glyphshow
83.006409 0.203125 m /t glyphshow
88.648819 0.203125 m /i glyphshow
92.646988 0.203125 m /o glyphshow
101.451401 0.203125 m /n glyphshow
grestore

end
showpage
