%!PS-Adobe-3.0 EPSF-3.0
%%Title: daily_arma_20_residuals_E.eps
%%Creator: matplotlib version 1.2.1, http://matplotlib.org/
%%CreationDate: Thu Nov 21 16:17:23 2013
%%Orientation: portrait
%%BoundingBox: 18 180 594 612
%%EndComments
%%BeginProlog
/mpldict 8 dict def
mpldict begin
/m { moveto } bind def
/l { lineto } bind def
/r { rlineto } bind def
/c { curveto } bind def
/cl { closepath } bind def
/box {
m
1 index 0 r
0 exch r
neg 0 r
cl
} bind def
/clipbox {
box
clip
newpath
} bind def
%!PS-Adobe-3.0 Resource-Font
%%Title: DejaVu Sans
%%Copyright: Copyright (c) 2003 by Bitstream, Inc. All Rights Reserved. Copyright (c) 2006 by Tavmjong Bah. All Rights Reserved. DejaVu changes are in public domain 
%%Creator: Converted from TrueType to type 3 by PPR
25 dict begin
/_d{bind def}bind def
/_m{moveto}_d
/_l{lineto}_d
/_cl{closepath eofill}_d
/_c{curveto}_d
/_sc{7 -1 roll{setcachedevice}{pop pop pop pop pop pop}ifelse}_d
/_e{exec}_d
/FontName /DejaVuSans def
/PaintType 0 def
/FontMatrix[.001 0 0 .001 0 0]def
/FontBBox[-1021 -415 1681 1167]def
/FontType 3 def
/Encoding [ /zero /one /two /three /four /five /minus ] def
/FontInfo 10 dict dup begin
/FamilyName (DejaVu Sans) def
/FullName (DejaVu Sans) def
/Notice (Copyright (c) 2003 by Bitstream, Inc. All Rights Reserved. Copyright (c) 2006 by Tavmjong Bah. All Rights Reserved. DejaVu changes are in public domain ) def
/Weight (Book) def
/Version (Version 2.33) def
/ItalicAngle 0.0 def
/isFixedPitch false def
/UnderlinePosition -130 def
/UnderlineThickness 90 def
end readonly def
/CharStrings 7 dict dup begin
/zero{636 0 66 -13 570 742 _sc
318 664 _m
267 664 229 639 203 589 _c
177 539 165 464 165 364 _c
165 264 177 189 203 139 _c
229 89 267 64 318 64 _c
369 64 407 89 433 139 _c
458 189 471 264 471 364 _c
471 464 458 539 433 589 _c
407 639 369 664 318 664 _c
318 742 _m
399 742 461 709 505 645 _c
548 580 570 486 570 364 _c
570 241 548 147 505 83 _c
461 19 399 -13 318 -13 _c
236 -13 173 19 130 83 _c
87 147 66 241 66 364 _c
66 486 87 580 130 645 _c
173 709 236 742 318 742 _c
_cl}_d
/one{636 0 110 0 544 729 _sc
124 83 _m
285 83 _l
285 639 _l
110 604 _l
110 694 _l
284 729 _l
383 729 _l
383 83 _l
544 83 _l
544 0 _l
124 0 _l
124 83 _l
_cl}_d
/two{{636 0 73 0 536 742 _sc
192 83 _m
536 83 _l
536 0 _l
73 0 _l
73 83 _l
110 121 161 173 226 239 _c
290 304 331 346 348 365 _c
380 400 402 430 414 455 _c
426 479 433 504 433 528 _c
433 566 419 598 392 622 _c
365 646 330 659 286 659 _c
255 659 222 653 188 643 _c
154 632 117 616 78 594 _c
78 694 _l
118 710 155 722 189 730 _c
223 738 255 742 284 742 _c
}_e{359 742 419 723 464 685 _c
509 647 532 597 532 534 _c
532 504 526 475 515 449 _c
504 422 484 390 454 354 _c
446 344 420 317 376 272 _c
332 227 271 164 192 83 _c
_cl}_e}_d
/three{{636 0 76 -13 556 742 _sc
406 393 _m
453 383 490 362 516 330 _c
542 298 556 258 556 212 _c
556 140 531 84 482 45 _c
432 6 362 -13 271 -13 _c
240 -13 208 -10 176 -4 _c
144 1 110 10 76 22 _c
76 117 _l
103 101 133 89 166 81 _c
198 73 232 69 268 69 _c
330 69 377 81 409 105 _c
441 129 458 165 458 212 _c
458 254 443 288 413 312 _c
383 336 341 349 287 349 _c
}_e{202 349 _l
202 430 _l
291 430 _l
339 430 376 439 402 459 _c
428 478 441 506 441 543 _c
441 580 427 609 401 629 _c
374 649 336 659 287 659 _c
260 659 231 656 200 650 _c
169 644 135 635 98 623 _c
98 711 _l
135 721 170 729 203 734 _c
235 739 266 742 296 742 _c
370 742 429 725 473 691 _c
517 657 539 611 539 553 _c
539 513 527 479 504 451 _c
481 423 448 403 406 393 _c
_cl}_e}_d
/four{636 0 49 0 580 729 _sc
378 643 _m
129 254 _l
378 254 _l
378 643 _l
352 729 _m
476 729 _l
476 254 _l
580 254 _l
580 172 _l
476 172 _l
476 0 _l
378 0 _l
378 172 _l
49 172 _l
49 267 _l
352 729 _l
_cl}_d
/five{{636 0 77 -13 549 729 _sc
108 729 _m
495 729 _l
495 646 _l
198 646 _l
198 467 _l
212 472 227 476 241 478 _c
255 480 270 482 284 482 _c
365 482 429 459 477 415 _c
525 370 549 310 549 234 _c
549 155 524 94 475 51 _c
426 8 357 -13 269 -13 _c
238 -13 207 -10 175 -6 _c
143 -1 111 6 77 17 _c
77 116 _l
106 100 136 88 168 80 _c
199 72 232 69 267 69 _c
}_e{323 69 368 83 401 113 _c
433 143 450 183 450 234 _c
450 284 433 324 401 354 _c
368 384 323 399 267 399 _c
241 399 214 396 188 390 _c
162 384 135 375 108 363 _c
108 729 _l
_cl}_e}_d
/minus{838 0 106 272 732 355 _sc
106 355 _m
732 355 _l
732 272 _l
106 272 _l
106 355 _l
_cl}_d
end readonly def

/BuildGlyph
 {exch begin
 CharStrings exch
 2 copy known not{pop /.notdef}if
 true 3 1 roll get exec
 end}_d

/BuildChar {
 1 index /Encoding get exch get
 1 index /BuildGlyph get exec
}_d

FontName currentdict end definefont pop
end
%%EndProlog
mpldict begin
18 180 translate
576 432 0 0 clipbox
gsave
0 0 m
576 0 l
576 432 l
0 432 l
cl
1.000 setgray
fill
grestore
gsave
72 43.2 m
518.4 43.2 l
518.4 388.8 l
72 388.8 l
cl
1.000 setgray
fill
grestore
1.000 setlinewidth
1 setlinejoin
2 setlinecap
[] 0 setdash
0.000 0.000 1.000 setrgbcolor
gsave
446.4 345.6 72 43.2 clipbox
72 214.877 m
73.116 173.184 l
74.232 219.451 l
75.348 204.74 l
76.464 114.743 l
77.58 191.262 l
78.696 205.242 l
79.812 141.529 l
80.928 143.951 l
82.044 145.415 l
83.16 130.163 l
84.276 144.982 l
85.392 133.558 l
86.508 231.966 l
87.624 133.152 l
88.74 146.053 l
89.856 141.815 l
90.972 229.305 l
92.088 211.091 l
93.204 122.373 l
94.32 238.514 l
95.436 202.763 l
96.552 186.2 l
97.668 230.711 l
98.784 205.072 l
99.9 202.087 l
101.016 181.956 l
102.132 227.509 l
103.248 135.343 l
104.364 222.931 l
105.48 218.582 l
106.596 200.601 l
107.712 215.064 l
108.828 208.816 l
109.944 151.229 l
111.06 184.791 l
112.176 127.948 l
113.292 131.562 l
114.408 161.932 l
115.524 179.97 l
116.64 232.084 l
117.756 214.661 l
118.872 215.704 l
119.988 121.265 l
121.104 156.252 l
122.22 233.816 l
123.336 192.761 l
124.452 182.432 l
125.568 103.382 l
126.684 134.841 l
127.8 210.352 l
128.916 211.939 l
130.032 211.943 l
131.148 165.042 l
132.264 199.216 l
133.38 218.758 l
134.496 184.388 l
135.612 167.981 l
136.728 199.005 l
137.844 96.7823 l
138.96 120.393 l
140.076 139.751 l
141.192 228.205 l
142.308 147.872 l
143.424 112.302 l
144.54 246.632 l
145.656 163.308 l
146.772 128.232 l
147.888 234.617 l
149.004 159.645 l
150.12 100.365 l
151.236 138.869 l
152.352 246.896 l
153.468 211.879 l
154.584 195.233 l
155.7 83.6157 l
156.816 151.422 l
157.932 230.715 l
159.048 136.645 l
160.164 217.38 l
161.28 93.1313 l
162.396 116.346 l
163.512 161.013 l
164.628 218.263 l
165.744 158.928 l
166.86 123.431 l
167.976 232.794 l
169.092 209.904 l
170.208 217.018 l
171.324 178.876 l
172.44 224.625 l
173.556 209.891 l
174.672 174.783 l
175.788 76.5693 l
176.904 229.563 l
178.02 209.918 l
179.136 175.992 l
180.252 128.711 l
181.368 99.8217 l
182.484 238.252 l
183.6 128.574 l
184.716 110.981 l
185.832 121.092 l
186.948 158.378 l
188.064 185.975 l
189.18 149.705 l
190.296 229.759 l
191.412 144.803 l
192.528 192.298 l
193.644 115.756 l
194.76 222.352 l
195.876 211.521 l
196.992 143.192 l
198.108 230.546 l
199.224 154.427 l
200.34 205.848 l
201.456 87.028 l
202.572 183.077 l
203.688 109.254 l
204.804 213.228 l
205.92 181.611 l
207.036 209.142 l
208.152 157.613 l
209.268 142.076 l
210.384 112.312 l
211.5 111.125 l
212.616 236.744 l
213.732 122.941 l
214.848 208.468 l
215.964 171.146 l
217.08 178.863 l
218.196 190.849 l
219.312 179.759 l
220.428 145.006 l
221.544 198.032 l
222.66 139.046 l
223.776 179.153 l
224.892 92.6273 l
226.008 176.773 l
227.124 202.952 l
228.24 169.522 l
230.472 133.187 l
231.588 188.944 l
232.704 86.8415 l
233.82 152.843 l
234.936 207.457 l
236.052 194.1 l
237.168 119.471 l
238.284 200.514 l
239.4 160.353 l
240.516 162.295 l
241.632 183.904 l
242.748 173.869 l
243.864 200.782 l
244.98 204.811 l
246.096 202.213 l
247.212 194.441 l
248.328 194.641 l
249.444 182.403 l
250.56 141.212 l
251.676 154.513 l
252.792 177.921 l
253.908 180.334 l
255.024 198.163 l
256.14 114.362 l
257.256 200.211 l
258.372 211.389 l
259.488 193.355 l
260.604 198.754 l
261.72 195.045 l
262.836 166.328 l
263.952 79.0534 l
265.068 231.226 l
266.184 187.738 l
267.3 201.091 l
268.416 179.46 l
269.532 185.09 l
270.648 165.35 l
271.764 182.286 l
272.88 179.789 l
273.996 176.55 l
275.112 180.975 l
276.228 182.475 l
277.344 175.461 l
278.46 198.14 l
279.576 163.473 l
280.692 168.694 l
281.808 194.788 l
282.924 146.454 l
284.04 211.808 l
285.156 134.373 l
286.272 156.469 l
287.388 127.73 l
288.504 214.576 l
289.62 198.505 l
290.736 199.994 l
291.852 143.161 l
292.968 188.765 l
294.084 195.216 l
295.2 180.434 l
296.316 86.0068 l
297.432 194.557 l
298.548 207.671 l
299.664 159.266 l
300.78 173.121 l
301.896 181.535 l
303.012 201.674 l
304.128 150.984 l
305.244 167.605 l
306.36 187.752 l
307.476 181.481 l
308.592 207.527 l
309.708 174.522 l
310.824 113.861 l
311.94 186.782 l
313.056 100.26 l
314.172 146.561 l
315.288 110.51 l
316.404 95.301 l
317.52 232.053 l
318.636 184.067 l
319.752 203.862 l
320.868 199.682 l
321.984 166.083 l
323.1 201.315 l
324.216 188.439 l
325.332 157.977 l
326.448 151.201 l
327.564 182.578 l
328.68 123.829 l
329.796 161.99 l
330.912 194.708 l
332.028 197.165 l
333.144 182.967 l
334.26 197.198 l
335.376 185.069 l
336.492 185.152 l
337.608 181.444 l
338.724 171.829 l
339.84 161.126 l
340.956 124.162 l
342.072 212.977 l
343.188 205 l
345.42 94.0796 l
346.536 196.85 l
347.652 210.408 l
348.768 201.395 l
351 162.903 l
352.116 191.572 l
353.232 191.172 l
354.348 151.814 l
355.464 177.077 l
356.58 180.034 l
357.696 155.55 l
358.812 173.587 l
359.928 170.919 l
361.044 191.602 l
362.16 168.112 l
363.276 155.197 l
364.392 227.702 l
365.508 208.951 l
366.624 80.6495 l
367.74 235.238 l
368.856 96.0725 l
369.972 151.891 l
371.088 234.268 l
372.204 136.432 l
373.32 227.769 l
374.436 141.513 l
375.552 205.284 l
376.668 195.268 l
377.784 104.276 l
378.9 169.87 l
380.016 74.8356 l
381.132 177.942 l
382.248 158.622 l
383.364 230.814 l
384.48 199.038 l
385.596 197.395 l
386.712 179.198 l
387.828 209.771 l
388.944 167.64 l
390.06 208.315 l
391.176 123.73 l
392.292 190.479 l
393.408 214.888 l
394.524 207.478 l
395.64 191.922 l
396.756 215.909 l
397.872 204.978 l
398.988 203.337 l
400.104 349.092 l
401.22 303.649 l
402.336 62.3677 l
403.452 141.12 l
404.568 92.0884 l
405.684 126.978 l
406.8 107.902 l
407.916 135.321 l
409.032 110.541 l
410.148 125.174 l
411.264 117.049 l
412.38 156.542 l
413.496 169.815 l
414.612 203.761 l
415.728 131.041 l
416.844 172.951 l
417.96 223.359 l
419.076 208.328 l
420.192 209.73 l
421.308 152.189 l
422.424 112.241 l
423.54 125.562 l
424.656 221.989 l
425.772 121.072 l
426.888 117.613 l
428.004 224.142 l
429.12 117.029 l
430.236 191.086 l
431.352 132.334 l
432.468 135.887 l
433.584 228.169 l
434.7 154.396 l
435.816 114.534 l
436.932 149.172 l
438.048 225.369 l
439.164 179.777 l
440.28 167.522 l
441.396 108.844 l
442.512 147.12 l
443.628 136.992 l
444.744 194.892 l
445.86 116.48 l
446.976 175.538 l
448.092 220.266 l
449.208 133.281 l
450.324 219.691 l
451.44 128.269 l
452.556 133.583 l
453.672 180.822 l
454.788 197.125 l
455.904 184.706 l
457.02 109.117 l
458.136 220.019 l
459.252 183.31 l
460.368 186.729 l
461.484 181.667 l
462.6 190.908 l
463.716 204.109 l
464.832 203.388 l
465.948 115.312 l
467.064 188.362 l
468.18 124.851 l
469.296 189.367 l
470.412 215.211 l
471.528 201.452 l
472.644 191.337 l
473.76 117.063 l
474.876 154.761 l
475.992 142.183 l
477.108 145.554 l
477.108 145.554 l
stroke
grestore
0.500 setlinewidth
0 setlinecap
0.000 setgray
gsave
/o {
gsave
newpath
translate
0.5 setlinewidth
1 setlinejoin
0 setlinecap
0 0 m
0 4 l
gsave
0.000 setgray
fill
grestore
stroke
grestore
} bind def
72 43.2 o
grestore
gsave
/o {
gsave
newpath
translate
0.5 setlinewidth
1 setlinejoin
0 setlinecap
0 0 m
0 -4 l
gsave
0.000 setgray
fill
grestore
stroke
grestore
} bind def
72 388.8 o
grestore
/DejaVuSans findfont
12.000 scalefont
setfont
gsave
68.976562 30.121875 translate
0.000000 rotate
0.000000 0.171875 m /zero glyphshow
grestore
gsave
/o {
gsave
newpath
translate
0.5 setlinewidth
1 setlinejoin
0 setlinecap
0 0 m
0 4 l
gsave
0.000 setgray
fill
grestore
stroke
grestore
} bind def
127.8 43.2 o
grestore
gsave
/o {
gsave
newpath
translate
0.5 setlinewidth
1 setlinejoin
0 setlinecap
0 0 m
0 -4 l
gsave
0.000 setgray
fill
grestore
stroke
grestore
} bind def
127.8 388.8 o
grestore
gsave
121.018750 30.121875 translate
0.000000 rotate
0.000000 0.171875 m /five glyphshow
7.634766 0.171875 m /zero glyphshow
grestore
gsave
/o {
gsave
newpath
translate
0.5 setlinewidth
1 setlinejoin
0 setlinecap
0 0 m
0 4 l
gsave
0.000 setgray
fill
grestore
stroke
grestore
} bind def
183.6 43.2 o
grestore
gsave
/o {
gsave
newpath
translate
0.5 setlinewidth
1 setlinejoin
0 setlinecap
0 0 m
0 -4 l
gsave
0.000 setgray
fill
grestore
stroke
grestore
} bind def
183.6 388.8 o
grestore
gsave
173.193750 30.121875 translate
0.000000 rotate
0.000000 0.171875 m /one glyphshow
7.634766 0.171875 m /zero glyphshow
15.269531 0.171875 m /zero glyphshow
grestore
gsave
/o {
gsave
newpath
translate
0.5 setlinewidth
1 setlinejoin
0 setlinecap
0 0 m
0 4 l
gsave
0.000 setgray
fill
grestore
stroke
grestore
} bind def
239.4 43.2 o
grestore
gsave
/o {
gsave
newpath
translate
0.5 setlinewidth
1 setlinejoin
0 setlinecap
0 0 m
0 -4 l
gsave
0.000 setgray
fill
grestore
stroke
grestore
} bind def
239.4 388.8 o
grestore
gsave
228.993750 30.121875 translate
0.000000 rotate
0.000000 0.171875 m /one glyphshow
7.634766 0.171875 m /five glyphshow
15.269531 0.171875 m /zero glyphshow
grestore
gsave
/o {
gsave
newpath
translate
0.5 setlinewidth
1 setlinejoin
0 setlinecap
0 0 m
0 4 l
gsave
0.000 setgray
fill
grestore
stroke
grestore
} bind def
295.2 43.2 o
grestore
gsave
/o {
gsave
newpath
translate
0.5 setlinewidth
1 setlinejoin
0 setlinecap
0 0 m
0 -4 l
gsave
0.000 setgray
fill
grestore
stroke
grestore
} bind def
295.2 388.8 o
grestore
gsave
284.575000 30.121875 translate
0.000000 rotate
0.000000 0.171875 m /two glyphshow
7.634766 0.171875 m /zero glyphshow
15.269531 0.171875 m /zero glyphshow
grestore
gsave
/o {
gsave
newpath
translate
0.5 setlinewidth
1 setlinejoin
0 setlinecap
0 0 m
0 4 l
gsave
0.000 setgray
fill
grestore
stroke
grestore
} bind def
351 43.2 o
grestore
gsave
/o {
gsave
newpath
translate
0.5 setlinewidth
1 setlinejoin
0 setlinecap
0 0 m
0 -4 l
gsave
0.000 setgray
fill
grestore
stroke
grestore
} bind def
351 388.8 o
grestore
gsave
340.375000 30.121875 translate
0.000000 rotate
0.000000 0.171875 m /two glyphshow
7.634766 0.171875 m /five glyphshow
15.269531 0.171875 m /zero glyphshow
grestore
gsave
/o {
gsave
newpath
translate
0.5 setlinewidth
1 setlinejoin
0 setlinecap
0 0 m
0 4 l
gsave
0.000 setgray
fill
grestore
stroke
grestore
} bind def
406.8 43.2 o
grestore
gsave
/o {
gsave
newpath
translate
0.5 setlinewidth
1 setlinejoin
0 setlinecap
0 0 m
0 -4 l
gsave
0.000 setgray
fill
grestore
stroke
grestore
} bind def
406.8 388.8 o
grestore
gsave
396.198437 30.121875 translate
0.000000 rotate
0.000000 0.171875 m /three glyphshow
7.634766 0.171875 m /zero glyphshow
15.269531 0.171875 m /zero glyphshow
grestore
gsave
/o {
gsave
newpath
translate
0.5 setlinewidth
1 setlinejoin
0 setlinecap
0 0 m
0 4 l
gsave
0.000 setgray
fill
grestore
stroke
grestore
} bind def
462.6 43.2 o
grestore
gsave
/o {
gsave
newpath
translate
0.5 setlinewidth
1 setlinejoin
0 setlinecap
0 0 m
0 -4 l
gsave
0.000 setgray
fill
grestore
stroke
grestore
} bind def
462.6 388.8 o
grestore
gsave
451.998437 30.121875 translate
0.000000 rotate
0.000000 0.171875 m /three glyphshow
7.634766 0.171875 m /five glyphshow
15.269531 0.171875 m /zero glyphshow
grestore
gsave
/o {
gsave
newpath
translate
0.5 setlinewidth
1 setlinejoin
0 setlinecap
0 0 m
0 4 l
gsave
0.000 setgray
fill
grestore
stroke
grestore
} bind def
518.4 43.2 o
grestore
gsave
/o {
gsave
newpath
translate
0.5 setlinewidth
1 setlinejoin
0 setlinecap
0 0 m
0 -4 l
gsave
0.000 setgray
fill
grestore
stroke
grestore
} bind def
518.4 388.8 o
grestore
gsave
507.634375 30.121875 translate
0.000000 rotate
0.000000 0.171875 m /four glyphshow
7.634766 0.171875 m /zero glyphshow
15.269531 0.171875 m /zero glyphshow
grestore
gsave
/o {
gsave
newpath
translate
0.5 setlinewidth
1 setlinejoin
0 setlinecap
0 0 m
4 0 l
gsave
0.000 setgray
fill
grestore
stroke
grestore
} bind def
72 43.2 o
grestore
gsave
/o {
gsave
newpath
translate
0.5 setlinewidth
1 setlinejoin
0 setlinecap
0 0 m
-4 0 l
gsave
0.000 setgray
fill
grestore
stroke
grestore
} bind def
518.4 43.2 o
grestore
gsave
52.531250 38.660937 translate
0.000000 rotate
0.000000 0.171875 m /minus glyphshow
10.054688 0.171875 m /three glyphshow
grestore
gsave
/o {
gsave
newpath
translate
0.5 setlinewidth
1 setlinejoin
0 setlinecap
0 0 m
4 0 l
gsave
0.000 setgray
fill
grestore
stroke
grestore
} bind def
72 86.4 o
grestore
gsave
/o {
gsave
newpath
translate
0.5 setlinewidth
1 setlinejoin
0 setlinecap
0 0 m
-4 0 l
gsave
0.000 setgray
fill
grestore
stroke
grestore
} bind def
518.4 86.4 o
grestore
gsave
52.765625 81.946875 translate
0.000000 rotate
0.000000 0.000000 m /minus glyphshow
10.054688 0.000000 m /two glyphshow
grestore
gsave
/o {
gsave
newpath
translate
0.5 setlinewidth
1 setlinejoin
0 setlinecap
0 0 m
4 0 l
gsave
0.000 setgray
fill
grestore
stroke
grestore
} bind def
72 129.6 o
grestore
gsave
/o {
gsave
newpath
translate
0.5 setlinewidth
1 setlinejoin
0 setlinecap
0 0 m
-4 0 l
gsave
0.000 setgray
fill
grestore
stroke
grestore
} bind def
518.4 129.6 o
grestore
gsave
52.671875 125.225000 translate
0.000000 rotate
0.000000 0.000000 m /minus glyphshow
10.054688 0.000000 m /one glyphshow
grestore
gsave
/o {
gsave
newpath
translate
0.5 setlinewidth
1 setlinejoin
0 setlinecap
0 0 m
4 0 l
gsave
0.000 setgray
fill
grestore
stroke
grestore
} bind def
72 172.8 o
grestore
gsave
/o {
gsave
newpath
translate
0.5 setlinewidth
1 setlinejoin
0 setlinecap
0 0 m
-4 0 l
gsave
0.000 setgray
fill
grestore
stroke
grestore
} bind def
518.4 172.8 o
grestore
gsave
61.953125 168.260938 translate
0.000000 rotate
0.000000 0.171875 m /zero glyphshow
grestore
gsave
/o {
gsave
newpath
translate
0.5 setlinewidth
1 setlinejoin
0 setlinecap
0 0 m
4 0 l
gsave
0.000 setgray
fill
grestore
stroke
grestore
} bind def
72 216 o
grestore
gsave
/o {
gsave
newpath
translate
0.5 setlinewidth
1 setlinejoin
0 setlinecap
0 0 m
-4 0 l
gsave
0.000 setgray
fill
grestore
stroke
grestore
} bind def
518.4 216 o
grestore
gsave
62.781250 211.625000 translate
0.000000 rotate
0.000000 0.000000 m /one glyphshow
grestore
gsave
/o {
gsave
newpath
translate
0.5 setlinewidth
1 setlinejoin
0 setlinecap
0 0 m
4 0 l
gsave
0.000 setgray
fill
grestore
stroke
grestore
} bind def
72 259.2 o
grestore
gsave
/o {
gsave
newpath
translate
0.5 setlinewidth
1 setlinejoin
0 setlinecap
0 0 m
-4 0 l
gsave
0.000 setgray
fill
grestore
stroke
grestore
} bind def
518.4 259.2 o
grestore
gsave
62.437500 254.746875 translate
0.000000 rotate
0.000000 0.000000 m /two glyphshow
grestore
gsave
/o {
gsave
newpath
translate
0.5 setlinewidth
1 setlinejoin
0 setlinecap
0 0 m
4 0 l
gsave
0.000 setgray
fill
grestore
stroke
grestore
} bind def
72 302.4 o
grestore
gsave
/o {
gsave
newpath
translate
0.5 setlinewidth
1 setlinejoin
0 setlinecap
0 0 m
-4 0 l
gsave
0.000 setgray
fill
grestore
stroke
grestore
} bind def
518.4 302.4 o
grestore
gsave
62.250000 297.860938 translate
0.000000 rotate
0.000000 0.171875 m /three glyphshow
grestore
gsave
/o {
gsave
newpath
translate
0.5 setlinewidth
1 setlinejoin
0 setlinecap
0 0 m
4 0 l
gsave
0.000 setgray
fill
grestore
stroke
grestore
} bind def
72 345.6 o
grestore
gsave
/o {
gsave
newpath
translate
0.5 setlinewidth
1 setlinejoin
0 setlinecap
0 0 m
-4 0 l
gsave
0.000 setgray
fill
grestore
stroke
grestore
} bind def
518.4 345.6 o
grestore
gsave
61.625000 341.225000 translate
0.000000 rotate
0.000000 0.000000 m /four glyphshow
grestore
gsave
/o {
gsave
newpath
translate
0.5 setlinewidth
1 setlinejoin
0 setlinecap
0 0 m
4 0 l
gsave
0.000 setgray
fill
grestore
stroke
grestore
} bind def
72 388.8 o
grestore
gsave
/o {
gsave
newpath
translate
0.5 setlinewidth
1 setlinejoin
0 setlinecap
0 0 m
-4 0 l
gsave
0.000 setgray
fill
grestore
stroke
grestore
} bind def
518.4 388.8 o
grestore
gsave
62.328125 384.339063 translate
0.000000 rotate
0.000000 0.171875 m /five glyphshow
grestore
1.000 setlinewidth
2 setlinecap
gsave
72 388.8 m
518.4 388.8 l
stroke
grestore
gsave
518.4 43.2 m
518.4 388.8 l
stroke
grestore
gsave
72 43.2 m
518.4 43.2 l
stroke
grestore
gsave
72 43.2 m
72 388.8 l
stroke
grestore

end
showpage
