%!PS-Adobe-3.0 EPSF-3.0
%%Title: daily_arma_20_one_sample.eps
%%Creator: matplotlib version 1.2.1, http://matplotlib.org/
%%CreationDate: Thu Nov 21 16:17:24 2013
%%Orientation: portrait
%%BoundingBox: 18 180 594 612
%%EndComments
%%BeginProlog
/mpldict 8 dict def
mpldict begin
/m { moveto } bind def
/l { lineto } bind def
/r { rlineto } bind def
/c { curveto } bind def
/cl { closepath } bind def
/box {
m
1 index 0 r
0 exch r
neg 0 r
cl
} bind def
/clipbox {
box
clip
newpath
} bind def
%!PS-Adobe-3.0 Resource-Font
%%Title: DejaVu Sans
%%Copyright: Copyright (c) 2003 by Bitstream, Inc. All Rights Reserved. Copyright (c) 2006 by Tavmjong Bah. All Rights Reserved. DejaVu changes are in public domain 
%%Creator: Converted from TrueType to type 3 by PPR
25 dict begin
/_d{bind def}bind def
/_m{moveto}_d
/_l{lineto}_d
/_cl{closepath eofill}_d
/_c{curveto}_d
/_sc{7 -1 roll{setcachedevice}{pop pop pop pop pop pop}ifelse}_d
/_e{exec}_d
/FontName /DejaVuSans def
/PaintType 0 def
/FontMatrix[.001 0 0 .001 0 0]def
/FontBBox[-1021 -415 1681 1167]def
/FontType 3 def
/Encoding [ /space /zero /one /two /three /four /five /six /eight /D /I /R /S /Y /a /c /d /e /f /h /i /l /n /o /r /t /y /minus ] def
/FontInfo 10 dict dup begin
/FamilyName (DejaVu Sans) def
/FullName (DejaVu Sans) def
/Notice (Copyright (c) 2003 by Bitstream, Inc. All Rights Reserved. Copyright (c) 2006 by Tavmjong Bah. All Rights Reserved. DejaVu changes are in public domain ) def
/Weight (Book) def
/Version (Version 2.33) def
/ItalicAngle 0.0 def
/isFixedPitch false def
/UnderlinePosition -130 def
/UnderlineThickness 90 def
end readonly def
/CharStrings 28 dict dup begin
/space{318 0 0 0 0 0 _sc
}_d
/zero{636 0 66 -13 570 742 _sc
318 664 _m
267 664 229 639 203 589 _c
177 539 165 464 165 364 _c
165 264 177 189 203 139 _c
229 89 267 64 318 64 _c
369 64 407 89 433 139 _c
458 189 471 264 471 364 _c
471 464 458 539 433 589 _c
407 639 369 664 318 664 _c
318 742 _m
399 742 461 709 505 645 _c
548 580 570 486 570 364 _c
570 241 548 147 505 83 _c
461 19 399 -13 318 -13 _c
236 -13 173 19 130 83 _c
87 147 66 241 66 364 _c
66 486 87 580 130 645 _c
173 709 236 742 318 742 _c
_cl}_d
/one{636 0 110 0 544 729 _sc
124 83 _m
285 83 _l
285 639 _l
110 604 _l
110 694 _l
284 729 _l
383 729 _l
383 83 _l
544 83 _l
544 0 _l
124 0 _l
124 83 _l
_cl}_d
/two{{636 0 73 0 536 742 _sc
192 83 _m
536 83 _l
536 0 _l
73 0 _l
73 83 _l
110 121 161 173 226 239 _c
290 304 331 346 348 365 _c
380 400 402 430 414 455 _c
426 479 433 504 433 528 _c
433 566 419 598 392 622 _c
365 646 330 659 286 659 _c
255 659 222 653 188 643 _c
154 632 117 616 78 594 _c
78 694 _l
118 710 155 722 189 730 _c
223 738 255 742 284 742 _c
}_e{359 742 419 723 464 685 _c
509 647 532 597 532 534 _c
532 504 526 475 515 449 _c
504 422 484 390 454 354 _c
446 344 420 317 376 272 _c
332 227 271 164 192 83 _c
_cl}_e}_d
/three{{636 0 76 -13 556 742 _sc
406 393 _m
453 383 490 362 516 330 _c
542 298 556 258 556 212 _c
556 140 531 84 482 45 _c
432 6 362 -13 271 -13 _c
240 -13 208 -10 176 -4 _c
144 1 110 10 76 22 _c
76 117 _l
103 101 133 89 166 81 _c
198 73 232 69 268 69 _c
330 69 377 81 409 105 _c
441 129 458 165 458 212 _c
458 254 443 288 413 312 _c
383 336 341 349 287 349 _c
}_e{202 349 _l
202 430 _l
291 430 _l
339 430 376 439 402 459 _c
428 478 441 506 441 543 _c
441 580 427 609 401 629 _c
374 649 336 659 287 659 _c
260 659 231 656 200 650 _c
169 644 135 635 98 623 _c
98 711 _l
135 721 170 729 203 734 _c
235 739 266 742 296 742 _c
370 742 429 725 473 691 _c
517 657 539 611 539 553 _c
539 513 527 479 504 451 _c
481 423 448 403 406 393 _c
_cl}_e}_d
/four{636 0 49 0 580 729 _sc
378 643 _m
129 254 _l
378 254 _l
378 643 _l
352 729 _m
476 729 _l
476 254 _l
580 254 _l
580 172 _l
476 172 _l
476 0 _l
378 0 _l
378 172 _l
49 172 _l
49 267 _l
352 729 _l
_cl}_d
/five{{636 0 77 -13 549 729 _sc
108 729 _m
495 729 _l
495 646 _l
198 646 _l
198 467 _l
212 472 227 476 241 478 _c
255 480 270 482 284 482 _c
365 482 429 459 477 415 _c
525 370 549 310 549 234 _c
549 155 524 94 475 51 _c
426 8 357 -13 269 -13 _c
238 -13 207 -10 175 -6 _c
143 -1 111 6 77 17 _c
77 116 _l
106 100 136 88 168 80 _c
199 72 232 69 267 69 _c
}_e{323 69 368 83 401 113 _c
433 143 450 183 450 234 _c
450 284 433 324 401 354 _c
368 384 323 399 267 399 _c
241 399 214 396 188 390 _c
162 384 135 375 108 363 _c
108 729 _l
_cl}_e}_d
/six{{636 0 70 -13 573 742 _sc
330 404 _m
286 404 251 388 225 358 _c
199 328 186 286 186 234 _c
186 181 199 139 225 109 _c
251 79 286 64 330 64 _c
374 64 409 79 435 109 _c
461 139 474 181 474 234 _c
474 286 461 328 435 358 _c
409 388 374 404 330 404 _c
526 713 _m
526 623 _l
501 635 476 644 451 650 _c
425 656 400 659 376 659 _c
310 659 260 637 226 593 _c
}_e{192 549 172 482 168 394 _c
187 422 211 444 240 459 _c
269 474 301 482 336 482 _c
409 482 467 459 509 415 _c
551 371 573 310 573 234 _c
573 159 550 99 506 54 _c
462 9 403 -13 330 -13 _c
246 -13 181 19 137 83 _c
92 147 70 241 70 364 _c
70 479 97 571 152 639 _c
206 707 280 742 372 742 _c
396 742 421 739 447 735 _c
472 730 498 723 526 713 _c
_cl}_e}_d
/eight{{636 0 68 -13 568 742 _sc
318 346 _m
271 346 234 333 207 308 _c
180 283 167 249 167 205 _c
167 161 180 126 207 101 _c
234 76 271 64 318 64 _c
364 64 401 76 428 102 _c
455 127 469 161 469 205 _c
469 249 455 283 429 308 _c
402 333 365 346 318 346 _c
219 388 _m
177 398 144 418 120 447 _c
96 476 85 511 85 553 _c
85 611 105 657 147 691 _c
188 725 245 742 318 742 _c
}_e{390 742 447 725 489 691 _c
530 657 551 611 551 553 _c
551 511 539 476 515 447 _c
491 418 459 398 417 388 _c
464 377 501 355 528 323 _c
554 291 568 251 568 205 _c
568 134 546 80 503 43 _c
459 5 398 -13 318 -13 _c
237 -13 175 5 132 43 _c
89 80 68 134 68 205 _c
68 251 81 291 108 323 _c
134 355 171 377 219 388 _c
183 544 _m
183 506 194 476 218 455 _c
}_e{242 434 275 424 318 424 _c
360 424 393 434 417 455 _c
441 476 453 506 453 544 _c
453 582 441 611 417 632 _c
393 653 360 664 318 664 _c
275 664 242 653 218 632 _c
194 611 183 582 183 544 _c
_cl}_e}_d
/D{770 0 98 0 711 729 _sc
197 648 _m
197 81 _l
316 81 _l
416 81 490 103 537 149 _c
583 195 607 267 607 365 _c
607 463 583 534 537 580 _c
490 625 416 648 316 648 _c
197 648 _l
98 729 _m
301 729 _l
442 729 546 699 612 641 _c
678 582 711 490 711 365 _c
711 239 677 147 611 88 _c
545 29 441 0 301 0 _c
98 0 _l
98 729 _l
_cl}_d
/I{295 0 98 0 197 729 _sc
98 729 _m
197 729 _l
197 0 _l
98 0 _l
98 729 _l
_cl}_d
/R{{695 0 98 0 666 729 _sc
444 342 _m
465 334 486 319 506 296 _c
526 272 546 240 566 199 _c
666 0 _l
560 0 _l
467 187 _l
443 235 419 268 397 284 _c
374 300 343 308 304 308 _c
197 308 _l
197 0 _l
98 0 _l
98 729 _l
321 729 _l
404 729 466 711 507 677 _c
548 642 569 589 569 519 _c
569 473 558 434 537 404 _c
515 374 484 353 444 342 _c
197 648 _m
197 389 _l
321 389 _l
}_e{368 389 404 400 428 422 _c
452 444 465 476 465 519 _c
465 561 452 593 428 615 _c
404 637 368 648 321 648 _c
197 648 _l
_cl}_e}_d
/S{{635 0 66 -13 579 742 _sc
535 705 _m
535 609 _l
497 627 462 640 429 649 _c
395 657 363 662 333 662 _c
279 662 237 651 208 631 _c
179 610 165 580 165 542 _c
165 510 174 485 194 469 _c
213 452 250 439 304 429 _c
364 417 _l
437 403 491 378 526 343 _c
561 307 579 260 579 201 _c
579 130 555 77 508 41 _c
460 5 391 -13 300 -13 _c
265 -13 228 -9 189 -2 _c
}_e{150 5 110 16 69 32 _c
69 134 _l
109 111 148 94 186 83 _c
224 71 262 66 300 66 _c
356 66 399 77 430 99 _c
460 121 476 152 476 194 _c
476 230 465 258 443 278 _c
421 298 385 313 335 323 _c
275 335 _l
201 349 148 372 115 404 _c
82 435 66 478 66 534 _c
66 598 88 649 134 686 _c
179 723 242 742 322 742 _c
356 742 390 739 426 733 _c
461 727 497 717 535 705 _c
}_e{_cl}_e}_d
/Y{611 0 -1 0 613 729 _sc
-1 729 _m
104 729 _l
306 429 _l
507 729 _l
613 729 _l
355 347 _l
355 0 _l
256 0 _l
256 347 _l
-1 729 _l
_cl}_d
/a{{613 0 60 -13 522 560 _sc
343 275 _m
270 275 220 266 192 250 _c
164 233 150 205 150 165 _c
150 133 160 107 181 89 _c
202 70 231 61 267 61 _c
317 61 357 78 387 114 _c
417 149 432 196 432 255 _c
432 275 _l
343 275 _l
522 312 _m
522 0 _l
432 0 _l
432 83 _l
411 49 385 25 355 10 _c
325 -5 287 -13 243 -13 _c
187 -13 142 2 109 33 _c
76 64 60 106 60 159 _c
}_e{60 220 80 266 122 298 _c
163 329 224 345 306 345 _c
432 345 _l
432 354 _l
432 395 418 427 391 450 _c
364 472 326 484 277 484 _c
245 484 215 480 185 472 _c
155 464 127 453 100 439 _c
100 522 _l
132 534 164 544 195 550 _c
226 556 256 560 286 560 _c
365 560 424 539 463 498 _c
502 457 522 395 522 312 _c
_cl}_e}_d
/c{{550 0 55 -13 488 560 _sc
488 526 _m
488 442 _l
462 456 437 466 411 473 _c
385 480 360 484 334 484 _c
276 484 230 465 198 428 _c
166 391 150 339 150 273 _c
150 206 166 154 198 117 _c
230 80 276 62 334 62 _c
360 62 385 65 411 72 _c
437 79 462 90 488 104 _c
488 21 _l
462 9 436 0 410 -5 _c
383 -10 354 -13 324 -13 _c
242 -13 176 12 128 64 _c
}_e{79 115 55 185 55 273 _c
55 362 79 432 128 483 _c
177 534 244 560 330 560 _c
358 560 385 557 411 551 _c
437 545 463 537 488 526 _c
_cl}_e}_d
/d{{635 0 55 -13 544 760 _sc
454 464 _m
454 760 _l
544 760 _l
544 0 _l
454 0 _l
454 82 _l
435 49 411 25 382 10 _c
353 -5 319 -13 279 -13 _c
213 -13 159 13 117 65 _c
75 117 55 187 55 273 _c
55 359 75 428 117 481 _c
159 533 213 560 279 560 _c
319 560 353 552 382 536 _c
411 520 435 496 454 464 _c
148 273 _m
148 207 161 155 188 117 _c
215 79 253 61 301 61 _c
}_e{348 61 385 79 413 117 _c
440 155 454 207 454 273 _c
454 339 440 390 413 428 _c
385 466 348 485 301 485 _c
253 485 215 466 188 428 _c
161 390 148 339 148 273 _c
_cl}_e}_d
/e{{615 0 55 -13 562 560 _sc
562 296 _m
562 252 _l
149 252 _l
153 190 171 142 205 110 _c
238 78 284 62 344 62 _c
378 62 412 66 444 74 _c
476 82 509 95 541 113 _c
541 28 _l
509 14 476 3 442 -3 _c
408 -9 373 -13 339 -13 _c
251 -13 182 12 131 62 _c
80 112 55 181 55 268 _c
55 357 79 428 127 481 _c
175 533 241 560 323 560 _c
397 560 455 536 498 489 _c
}_e{540 441 562 377 562 296 _c
472 322 _m
471 371 457 410 431 440 _c
404 469 368 484 324 484 _c
274 484 234 469 204 441 _c
174 413 156 373 152 322 _c
472 322 _l
_cl}_e}_d
/f{352 0 23 0 371 760 _sc
371 760 _m
371 685 _l
285 685 _l
253 685 230 678 218 665 _c
205 652 199 629 199 595 _c
199 547 _l
347 547 _l
347 477 _l
199 477 _l
199 0 _l
109 0 _l
109 477 _l
23 477 _l
23 547 _l
109 547 _l
109 585 _l
109 645 123 690 151 718 _c
179 746 224 760 286 760 _c
371 760 _l
_cl}_d
/h{634 0 91 0 549 760 _sc
549 330 _m
549 0 _l
459 0 _l
459 327 _l
459 379 448 417 428 443 _c
408 469 378 482 338 482 _c
289 482 251 466 223 435 _c
195 404 181 362 181 309 _c
181 0 _l
91 0 _l
91 760 _l
181 760 _l
181 462 _l
202 494 227 519 257 535 _c
286 551 320 560 358 560 _c
420 560 468 540 500 501 _c
532 462 549 405 549 330 _c
_cl}_d
/i{278 0 94 0 184 760 _sc
94 547 _m
184 547 _l
184 0 _l
94 0 _l
94 547 _l
94 760 _m
184 760 _l
184 646 _l
94 646 _l
94 760 _l
_cl}_d
/l{278 0 94 0 184 760 _sc
94 760 _m
184 760 _l
184 0 _l
94 0 _l
94 760 _l
_cl}_d
/n{634 0 91 0 549 560 _sc
549 330 _m
549 0 _l
459 0 _l
459 327 _l
459 379 448 417 428 443 _c
408 469 378 482 338 482 _c
289 482 251 466 223 435 _c
195 404 181 362 181 309 _c
181 0 _l
91 0 _l
91 547 _l
181 547 _l
181 462 _l
202 494 227 519 257 535 _c
286 551 320 560 358 560 _c
420 560 468 540 500 501 _c
532 462 549 405 549 330 _c
_cl}_d
/o{612 0 55 -13 557 560 _sc
306 484 _m
258 484 220 465 192 427 _c
164 389 150 338 150 273 _c
150 207 163 156 191 118 _c
219 80 257 62 306 62 _c
354 62 392 80 420 118 _c
448 156 462 207 462 273 _c
462 337 448 389 420 427 _c
392 465 354 484 306 484 _c
306 560 _m
384 560 445 534 490 484 _c
534 433 557 363 557 273 _c
557 183 534 113 490 63 _c
445 12 384 -13 306 -13 _c
227 -13 165 12 121 63 _c
77 113 55 183 55 273 _c
55 363 77 433 121 484 _c
165 534 227 560 306 560 _c
_cl}_d
/r{411 0 91 0 411 560 _sc
411 463 _m
401 469 390 473 378 476 _c
366 478 353 480 339 480 _c
288 480 249 463 222 430 _c
194 397 181 350 181 288 _c
181 0 _l
91 0 _l
91 547 _l
181 547 _l
181 462 _l
199 495 224 520 254 536 _c
284 552 321 560 365 560 _c
371 560 378 559 386 559 _c
393 558 401 557 411 555 _c
411 463 _l
_cl}_d
/t{392 0 27 0 368 702 _sc
183 702 _m
183 547 _l
368 547 _l
368 477 _l
183 477 _l
183 180 _l
183 135 189 106 201 94 _c
213 81 238 75 276 75 _c
368 75 _l
368 0 _l
276 0 _l
206 0 158 13 132 39 _c
106 65 93 112 93 180 _c
93 477 _l
27 477 _l
27 547 _l
93 547 _l
93 702 _l
183 702 _l
_cl}_d
/y{592 0 30 -207 562 547 _sc
322 -50 _m
296 -114 271 -157 247 -177 _c
223 -197 191 -207 151 -207 _c
79 -207 _l
79 -132 _l
132 -132 _l
156 -132 175 -126 189 -114 _c
203 -102 218 -75 235 -31 _c
251 9 _l
30 547 _l
125 547 _l
296 119 _l
467 547 _l
562 547 _l
322 -50 _l
_cl}_d
/minus{838 0 106 272 732 355 _sc
106 355 _m
732 355 _l
732 272 _l
106 272 _l
106 355 _l
_cl}_d
end readonly def

/BuildGlyph
 {exch begin
 CharStrings exch
 2 copy known not{pop /.notdef}if
 true 3 1 roll get exec
 end}_d

/BuildChar {
 1 index /Encoding get exch get
 1 index /BuildGlyph get exec
}_d

FontName currentdict end definefont pop
end
%%EndProlog
mpldict begin
18 180 translate
576 432 0 0 clipbox
gsave
0 0 m
576 0 l
576 432 l
0 432 l
cl
1.000 setgray
fill
grestore
gsave
72 43.2 m
518.4 43.2 l
518.4 388.8 l
72 388.8 l
cl
1.000 setgray
fill
grestore
1.000 setlinewidth
1 setlinejoin
2 setlinecap
[] 0 setdash
0.000 0.000 1.000 setrgbcolor
gsave
446.4 345.6 72 43.2 clipbox
72 113.316 m
73.116 115.566 l
74.232 129.892 l
75.348 126.069 l
76.464 128.77 l
77.58 130.271 l
78.696 130.217 l
79.812 121.043 l
80.928 123.045 l
82.044 132.029 l
83.16 128.152 l
84.276 107.145 l
85.392 118.287 l
86.508 126.004 l
87.624 128.547 l
88.74 115.071 l
89.856 105.432 l
90.972 133.768 l
92.088 124.642 l
93.204 106.775 l
94.32 114.518 l
95.436 106.62 l
96.552 104.109 l
97.668 135.279 l
98.784 112.371 l
99.9 107.443 l
101.016 135.866 l
102.132 141.357 l
103.248 129.653 l
104.364 125.781 l
105.48 119.181 l
106.596 131.067 l
107.712 119.483 l
108.828 115.021 l
109.944 117.983 l
111.06 140.155 l
112.176 108.756 l
113.292 107.301 l
114.408 134.77 l
115.524 148.66 l
116.64 106.102 l
117.756 148.554 l
118.872 148.168 l
119.988 115.263 l
121.104 112.189 l
122.22 118.145 l
123.336 141.086 l
124.452 141.828 l
125.568 148.441 l
126.684 153.976 l
127.8 151.67 l
128.916 109.829 l
130.032 118.48 l
131.148 107.636 l
132.264 119.207 l
133.38 156.475 l
134.496 154.524 l
135.612 149.087 l
136.728 130.814 l
137.844 150.738 l
138.96 109.667 l
140.076 110.94 l
141.192 118.383 l
142.308 140.737 l
143.424 154.117 l
144.54 158.93 l
145.656 127.315 l
146.772 149.158 l
147.888 165.34 l
149.004 164.238 l
150.12 154.467 l
151.236 124.627 l
152.352 163.948 l
153.468 157.492 l
154.584 156.726 l
155.7 162.298 l
156.816 164.133 l
157.932 159.61 l
159.048 131.333 l
160.164 165.11 l
162.396 150.855 l
163.512 115.636 l
164.628 121.48 l
165.744 161.806 l
166.86 140.026 l
167.976 156.409 l
169.092 176.341 l
170.208 162.7 l
171.324 130.249 l
172.44 139.317 l
173.556 141.842 l
174.672 174.12 l
175.788 166.418 l
176.904 179.486 l
178.02 178.924 l
179.136 184.337 l
180.252 167.697 l
181.368 180.853 l
182.484 184.185 l
183.6 174.018 l
184.716 184.697 l
185.832 183.439 l
188.064 118.203 l
189.18 131.741 l
190.296 138.332 l
191.412 170.563 l
192.528 167.215 l
193.644 164.998 l
194.76 113.258 l
195.876 166.821 l
196.992 174.28 l
198.108 186.664 l
199.224 169.75 l
200.34 132.595 l
201.456 163.216 l
202.572 176.13 l
203.688 123.803 l
204.804 148.292 l
205.92 115.449 l
207.036 129.428 l
208.152 146.361 l
209.268 169.864 l
210.384 175.998 l
211.5 147.679 l
212.616 132.058 l
213.732 120.318 l
214.848 177.141 l
215.964 162.232 l
217.08 198.294 l
218.196 187.31 l
219.312 124.69 l
220.428 194.693 l
221.544 197.666 l
222.66 196.642 l
223.776 200.222 l
224.892 197.018 l
226.008 198.087 l
228.24 186.529 l
229.356 169.221 l
230.472 201.595 l
231.588 200.437 l
232.704 197.765 l
233.82 193.934 l
234.936 168.118 l
236.052 193.553 l
237.168 185.179 l
238.284 190.617 l
239.4 189.477 l
240.516 112.27 l
242.748 189.256 l
243.864 186.283 l
244.98 191.674 l
246.096 203.319 l
247.212 201.639 l
248.328 199.474 l
249.444 200.237 l
250.56 269.512 l
251.676 354.578 l
252.792 368.933 l
253.908 293.733 l
255.024 183.112 l
256.14 196.895 l
257.256 200.046 l
258.372 174.736 l
259.488 193.924 l
260.604 193.724 l
261.72 193.3 l
262.836 197.47 l
263.952 161.209 l
265.068 190.967 l
266.184 173.871 l
267.3 181.653 l
268.416 207.428 l
269.532 201.986 l
270.648 200.6 l
271.764 191.221 l
272.88 154.943 l
273.996 179.815 l
275.112 164.793 l
276.228 191.593 l
277.344 188.45 l
278.46 191.625 l
279.576 195.601 l
280.692 193.722 l
281.808 184.657 l
282.924 193.44 l
284.04 177.859 l
285.156 156.682 l
286.272 189.095 l
288.504 167.759 l
289.62 176.863 l
291.852 191.54 l
292.968 187.677 l
294.084 164.822 l
295.2 147.96 l
296.316 183.67 l
297.432 178.214 l
298.548 145.277 l
299.664 173.447 l
300.78 147.752 l
301.896 181.913 l
303.012 142.479 l
304.128 171.649 l
305.244 183.876 l
306.36 166.26 l
307.476 178.833 l
308.592 174.772 l
309.708 187.69 l
310.824 178.064 l
311.94 190.04 l
313.056 162.394 l
314.172 192.415 l
315.288 194.37 l
316.404 187.02 l
317.52 149.683 l
318.636 138.829 l
319.752 164.46 l
320.868 184.828 l
321.984 141.683 l
323.1 111.18 l
324.216 159.816 l
325.332 171.523 l
326.448 118.639 l
327.564 187.682 l
328.68 178.276 l
329.796 167.446 l
330.912 164.06 l
332.028 177.322 l
333.144 182.669 l
334.26 114.395 l
335.376 131.179 l
336.492 173.007 l
337.608 119.275 l
338.724 176.074 l
339.84 179.803 l
340.956 174.521 l
342.072 176.897 l
343.188 164.38 l
344.304 112.312 l
345.42 135.444 l
346.536 171.739 l
347.652 164.592 l
348.768 156.185 l
349.884 176.062 l
351 138.592 l
352.116 174.936 l
353.232 164.464 l
354.348 174.233 l
355.464 174.144 l
356.58 173.134 l
357.696 143.128 l
358.812 170.26 l
359.928 170.606 l
361.044 163.879 l
362.16 145.91 l
363.276 166.681 l
364.392 165.484 l
365.508 160.584 l
366.624 119.76 l
367.74 163.029 l
368.856 164.089 l
369.972 239.985 l
371.088 307.942 l
372.204 305.45 l
374.436 150.055 l
375.552 160.743 l
376.668 158.447 l
377.784 137.732 l
378.9 159.42 l
380.016 115.645 l
381.132 146.09 l
382.248 114.032 l
383.364 144.768 l
384.48 146.022 l
385.596 158.396 l
386.712 143.476 l
387.828 154.287 l
388.944 153.386 l
390.06 149.902 l
391.176 106.171 l
392.292 114.31 l
393.408 152.077 l
394.524 149.045 l
395.64 121.187 l
396.756 118.506 l
397.872 117.092 l
398.988 142.332 l
400.104 148.631 l
401.22 107.553 l
402.336 114.699 l
403.452 140.824 l
404.568 120.939 l
405.684 143.896 l
406.8 146.356 l
407.916 131.766 l
409.032 144.851 l
410.148 125.672 l
411.264 134.606 l
412.38 128.475 l
413.496 141.164 l
414.612 110.676 l
415.728 138.834 l
416.844 113.359 l
417.96 113.348 l
419.076 113.004 l
420.192 110.261 l
421.308 123.979 l
422.424 119.559 l
423.54 124.432 l
424.656 134.373 l
425.772 138.353 l
426.888 135.748 l
428.004 129.055 l
429.12 134.486 l
430.236 134.177 l
431.352 131.282 l
432.468 120.911 l
433.584 121.189 l
434.7 119.667 l
435.816 124.446 l
436.932 116.825 l
439.164 131.07 l
440.28 117.887 l
441.396 131.411 l
442.512 132.282 l
444.744 127.057 l
445.86 116.186 l
446.976 120.022 l
448.092 116.65 l
449.208 123.977 l
450.324 129.833 l
451.44 114.765 l
452.556 109.288 l
453.672 114.046 l
454.788 103.463 l
455.904 104.843 l
457.02 130.867 l
458.136 130.54 l
459.252 129.702 l
460.368 126.404 l
461.484 102.336 l
462.6 105.501 l
463.716 107.833 l
464.832 106.687 l
465.948 110.349 l
467.064 102.52 l
468.18 126.959 l
469.296 129.554 l
470.412 117.136 l
471.528 106.462 l
472.644 109.345 l
473.76 106.164 l
474.876 107.862 l
475.992 105.969 l
477.108 108.798 l
478.224 129.849 l
479.34 108.07 l
479.34 108.07 l
stroke
grestore
2.000 setlinewidth
1.000 0.000 0.000 setrgbcolor
gsave
446.4 345.6 72 43.2 clipbox
72 113.316 m
73.116 93.0317 l
74.232 102.479 l
75.348 139.533 l
76.464 130.434 l
77.58 124.932 l
78.696 133.753 l
79.812 124.953 l
80.928 144.212 l
82.044 131.664 l
83.16 114.054 l
84.276 106.355 l
86.508 118.048 l
87.624 140.769 l
88.74 137.269 l
89.856 124.727 l
92.088 107.925 l
93.204 139.494 l
94.32 130.325 l
95.436 139.382 l
96.552 112.585 l
97.668 136.551 l
98.784 119.087 l
99.9 123.13 l
101.016 116.947 l
102.132 136.524 l
103.248 127.633 l
104.364 107.916 l
105.48 108.295 l
106.596 139.429 l
107.712 113.397 l
108.828 122.974 l
109.944 121.404 l
111.06 106.101 l
112.176 135.628 l
113.292 117.844 l
114.408 117.444 l
115.524 129.325 l
116.64 146.741 l
117.756 136.826 l
119.988 111.997 l
121.104 153.115 l
122.22 160.591 l
124.452 141.684 l
125.568 145.986 l
126.684 146.386 l
127.8 161.397 l
128.916 148.206 l
130.032 166.802 l
131.148 171.731 l
132.264 116.115 l
133.38 152.075 l
134.496 152.22 l
135.612 150.867 l
136.728 146.858 l
137.844 149.515 l
138.96 140.133 l
140.076 112.653 l
141.192 107.766 l
142.308 144.138 l
143.424 119.08 l
144.54 117.892 l
145.656 119.065 l
146.772 156.932 l
147.888 128.502 l
149.004 132.876 l
150.12 174.599 l
151.236 140.445 l
152.352 160.302 l
153.468 159.83 l
154.584 143.802 l
155.7 124.628 l
156.816 126.753 l
157.932 146.524 l
159.048 176.105 l
160.164 160.479 l
161.28 120.205 l
162.396 134.346 l
163.512 161.527 l
164.628 164.068 l
165.744 179.783 l
166.86 135.689 l
167.976 154.67 l
169.092 161.421 l
170.208 181.524 l
171.324 150.4 l
172.44 185.559 l
173.556 122.718 l
174.672 156.327 l
175.788 113.856 l
176.904 138.495 l
178.02 138.12 l
179.136 118.487 l
180.252 111.15 l
181.368 183.69 l
182.484 128.441 l
183.6 100.062 l
184.716 155.218 l
185.832 159.203 l
186.948 150.291 l
188.064 119.243 l
189.18 187.513 l
190.296 184.696 l
191.412 153.023 l
192.528 137.59 l
193.644 133.429 l
196.992 199.814 l
198.108 205.04 l
199.224 171.758 l
200.34 144.006 l
201.456 127.611 l
202.572 174.287 l
203.688 199.811 l
204.804 143.88 l
205.92 112.087 l
207.036 161.888 l
208.152 151.737 l
209.268 165.876 l
210.384 183.831 l
211.5 205.253 l
212.616 189.092 l
213.732 130.285 l
214.848 206.66 l
215.964 171.136 l
217.08 183.037 l
218.196 214.951 l
219.312 217.949 l
220.428 202.967 l
221.544 174.651 l
222.66 163.109 l
223.776 126.295 l
224.892 189.406 l
226.008 200.399 l
227.124 181.422 l
228.24 195.036 l
229.356 192.053 l
230.472 154.418 l
231.588 185.392 l
232.704 128.414 l
233.82 168.886 l
234.936 134.843 l
236.052 194.377 l
237.168 196.561 l
238.284 203.693 l
239.4 136.02 l
240.516 121.91 l
241.632 175.94 l
242.748 211.587 l
243.864 128.957 l
244.98 133.982 l
246.096 184.597 l
247.212 150.87 l
248.328 176.786 l
249.444 163.505 l
250.56 156.534 l
251.676 135.149 l
252.792 199.89 l
253.908 180.741 l
255.024 199.725 l
256.14 165.438 l
257.256 136.125 l
258.372 191.912 l
259.488 120.761 l
260.604 140.733 l
261.72 167.472 l
262.836 181.519 l
263.952 178.69 l
265.068 157.466 l
266.184 150.048 l
267.3 148.499 l
268.416 196.056 l
269.532 227.765 l
270.648 188.806 l
271.764 184.427 l
272.88 204.079 l
273.996 193.65 l
275.112 178.807 l
276.228 172.495 l
277.344 191.234 l
278.46 197.804 l
279.576 155.239 l
280.692 120.377 l
281.808 202.366 l
282.924 147.368 l
284.04 200.937 l
285.156 139.475 l
286.272 144.434 l
287.388 195.668 l
288.504 197.565 l
289.62 182.026 l
290.736 190.01 l
291.852 159.505 l
292.968 202.396 l
294.084 188.1 l
295.2 196.771 l
296.316 151.685 l
297.432 187.421 l
298.548 183.399 l
299.664 210.324 l
300.78 196.601 l
301.896 137.214 l
303.012 167.278 l
304.128 177.122 l
305.244 200.124 l
306.36 157.252 l
307.476 135.516 l
308.592 192.443 l
309.708 167.173 l
310.824 153.249 l
311.94 145.233 l
313.056 173.539 l
314.172 188.385 l
315.288 169.769 l
316.404 161.026 l
317.52 149.5 l
318.636 125.589 l
319.752 145.56 l
320.868 196.206 l
321.984 204.17 l
323.1 140.067 l
324.216 168.408 l
325.332 188.036 l
326.448 147.678 l
327.564 151.316 l
328.68 178.77 l
329.796 159.277 l
330.912 120.95 l
332.028 158.578 l
333.144 158.823 l
334.26 173.446 l
335.376 154.646 l
336.492 143.847 l
337.608 182.672 l
338.724 178.961 l
339.84 162.502 l
340.956 152.792 l
342.072 165.05 l
343.188 178.752 l
344.304 184.444 l
345.42 158.881 l
346.536 186.341 l
347.652 184.479 l
348.768 146.034 l
349.884 155.794 l
351 155.072 l
352.116 148.369 l
353.232 171.735 l
354.348 185.216 l
355.464 191.474 l
356.58 180.759 l
357.696 165.316 l
358.812 147.772 l
359.928 136.907 l
361.044 162.301 l
362.16 172.844 l
363.276 163.996 l
364.392 143.51 l
365.508 154.12 l
366.624 149.872 l
367.74 146.464 l
368.856 160.371 l
369.972 162.194 l
371.088 178.407 l
372.204 160.529 l
373.32 157.194 l
374.436 143.012 l
375.552 163.949 l
376.668 130.99 l
377.784 158.886 l
378.9 167.808 l
380.016 160.932 l
381.132 169.961 l
382.248 123.971 l
383.364 133.423 l
384.48 147.546 l
386.712 105.658 l
387.828 142.345 l
388.944 121.403 l
390.06 153.504 l
391.176 141.112 l
392.292 156.887 l
393.408 118.217 l
394.524 132.871 l
395.64 126.455 l
396.756 114.381 l
397.872 116.614 l
400.104 124.911 l
401.22 144.237 l
402.336 159.882 l
403.452 144.192 l
405.684 127.353 l
406.8 129.993 l
407.916 128.291 l
409.032 121.882 l
410.148 113.11 l
411.264 100.718 l
412.38 140.714 l
413.496 138.895 l
414.612 134.708 l
415.728 109.442 l
416.844 135.827 l
417.96 151.191 l
419.076 146.991 l
420.192 115.173 l
421.308 98.3642 l
422.424 136.477 l
423.54 130.786 l
424.656 122.546 l
425.772 129.676 l
426.888 112.611 l
428.004 129.836 l
429.12 106.002 l
430.236 126.73 l
431.352 128.543 l
432.468 114.019 l
433.584 125.772 l
434.7 140.841 l
435.816 111.096 l
436.932 122.473 l
438.048 130.294 l
439.164 127.962 l
440.28 120.092 l
441.396 114.498 l
442.512 126.156 l
443.628 102.913 l
444.744 100.042 l
445.86 115.139 l
446.976 102.803 l
448.092 98.8251 l
449.208 125.836 l
450.324 125.115 l
451.44 117.387 l
453.672 122.644 l
454.788 129.952 l
455.904 120.546 l
457.02 119.056 l
458.136 93.7173 l
459.252 99.9861 l
460.368 119.572 l
461.484 113.841 l
462.6 101.177 l
463.716 113.819 l
464.832 110.345 l
465.948 124.981 l
467.064 129.861 l
468.18 108.031 l
469.296 131.01 l
470.412 99.7925 l
471.528 93.8978 l
472.644 133.883 l
473.76 142.116 l
474.876 112.77 l
475.992 97.1505 l
477.108 123.982 l
477.108 123.982 l
stroke
grestore
0.500 setlinewidth
0 setlinecap
0.000 setgray
gsave
/o {
gsave
newpath
translate
0.5 setlinewidth
1 setlinejoin
0 setlinecap
0 0 m
0 4 l
gsave
0.000 setgray
fill
grestore
stroke
grestore
} bind def
72 43.2 o
grestore
gsave
/o {
gsave
newpath
translate
0.5 setlinewidth
1 setlinejoin
0 setlinecap
0 0 m
0 -4 l
gsave
0.000 setgray
fill
grestore
stroke
grestore
} bind def
72 388.8 o
grestore
/DejaVuSans findfont
12.000 scalefont
setfont
gsave
68.976562 30.121875 translate
0.000000 rotate
0.000000 0.171875 m /zero glyphshow
grestore
gsave
/o {
gsave
newpath
translate
0.5 setlinewidth
1 setlinejoin
0 setlinecap
0 0 m
0 4 l
gsave
0.000 setgray
fill
grestore
stroke
grestore
} bind def
127.8 43.2 o
grestore
gsave
/o {
gsave
newpath
translate
0.5 setlinewidth
1 setlinejoin
0 setlinecap
0 0 m
0 -4 l
gsave
0.000 setgray
fill
grestore
stroke
grestore
} bind def
127.8 388.8 o
grestore
gsave
121.018750 30.121875 translate
0.000000 rotate
0.000000 0.171875 m /five glyphshow
7.634766 0.171875 m /zero glyphshow
grestore
gsave
/o {
gsave
newpath
translate
0.5 setlinewidth
1 setlinejoin
0 setlinecap
0 0 m
0 4 l
gsave
0.000 setgray
fill
grestore
stroke
grestore
} bind def
183.6 43.2 o
grestore
gsave
/o {
gsave
newpath
translate
0.5 setlinewidth
1 setlinejoin
0 setlinecap
0 0 m
0 -4 l
gsave
0.000 setgray
fill
grestore
stroke
grestore
} bind def
183.6 388.8 o
grestore
gsave
173.193750 30.121875 translate
0.000000 rotate
0.000000 0.171875 m /one glyphshow
7.634766 0.171875 m /zero glyphshow
15.269531 0.171875 m /zero glyphshow
grestore
gsave
/o {
gsave
newpath
translate
0.5 setlinewidth
1 setlinejoin
0 setlinecap
0 0 m
0 4 l
gsave
0.000 setgray
fill
grestore
stroke
grestore
} bind def
239.4 43.2 o
grestore
gsave
/o {
gsave
newpath
translate
0.5 setlinewidth
1 setlinejoin
0 setlinecap
0 0 m
0 -4 l
gsave
0.000 setgray
fill
grestore
stroke
grestore
} bind def
239.4 388.8 o
grestore
gsave
228.993750 30.121875 translate
0.000000 rotate
0.000000 0.171875 m /one glyphshow
7.634766 0.171875 m /five glyphshow
15.269531 0.171875 m /zero glyphshow
grestore
gsave
/o {
gsave
newpath
translate
0.5 setlinewidth
1 setlinejoin
0 setlinecap
0 0 m
0 4 l
gsave
0.000 setgray
fill
grestore
stroke
grestore
} bind def
295.2 43.2 o
grestore
gsave
/o {
gsave
newpath
translate
0.5 setlinewidth
1 setlinejoin
0 setlinecap
0 0 m
0 -4 l
gsave
0.000 setgray
fill
grestore
stroke
grestore
} bind def
295.2 388.8 o
grestore
gsave
284.575000 30.121875 translate
0.000000 rotate
0.000000 0.171875 m /two glyphshow
7.634766 0.171875 m /zero glyphshow
15.269531 0.171875 m /zero glyphshow
grestore
gsave
/o {
gsave
newpath
translate
0.5 setlinewidth
1 setlinejoin
0 setlinecap
0 0 m
0 4 l
gsave
0.000 setgray
fill
grestore
stroke
grestore
} bind def
351 43.2 o
grestore
gsave
/o {
gsave
newpath
translate
0.5 setlinewidth
1 setlinejoin
0 setlinecap
0 0 m
0 -4 l
gsave
0.000 setgray
fill
grestore
stroke
grestore
} bind def
351 388.8 o
grestore
gsave
340.375000 30.121875 translate
0.000000 rotate
0.000000 0.171875 m /two glyphshow
7.634766 0.171875 m /five glyphshow
15.269531 0.171875 m /zero glyphshow
grestore
gsave
/o {
gsave
newpath
translate
0.5 setlinewidth
1 setlinejoin
0 setlinecap
0 0 m
0 4 l
gsave
0.000 setgray
fill
grestore
stroke
grestore
} bind def
406.8 43.2 o
grestore
gsave
/o {
gsave
newpath
translate
0.5 setlinewidth
1 setlinejoin
0 setlinecap
0 0 m
0 -4 l
gsave
0.000 setgray
fill
grestore
stroke
grestore
} bind def
406.8 388.8 o
grestore
gsave
396.198437 30.121875 translate
0.000000 rotate
0.000000 0.171875 m /three glyphshow
7.634766 0.171875 m /zero glyphshow
15.269531 0.171875 m /zero glyphshow
grestore
gsave
/o {
gsave
newpath
translate
0.5 setlinewidth
1 setlinejoin
0 setlinecap
0 0 m
0 4 l
gsave
0.000 setgray
fill
grestore
stroke
grestore
} bind def
462.6 43.2 o
grestore
gsave
/o {
gsave
newpath
translate
0.5 setlinewidth
1 setlinejoin
0 setlinecap
0 0 m
0 -4 l
gsave
0.000 setgray
fill
grestore
stroke
grestore
} bind def
462.6 388.8 o
grestore
gsave
451.998437 30.121875 translate
0.000000 rotate
0.000000 0.171875 m /three glyphshow
7.634766 0.171875 m /five glyphshow
15.269531 0.171875 m /zero glyphshow
grestore
gsave
/o {
gsave
newpath
translate
0.5 setlinewidth
1 setlinejoin
0 setlinecap
0 0 m
0 4 l
gsave
0.000 setgray
fill
grestore
stroke
grestore
} bind def
518.4 43.2 o
grestore
gsave
/o {
gsave
newpath
translate
0.5 setlinewidth
1 setlinejoin
0 setlinecap
0 0 m
0 -4 l
gsave
0.000 setgray
fill
grestore
stroke
grestore
} bind def
518.4 388.8 o
grestore
gsave
507.634375 30.121875 translate
0.000000 rotate
0.000000 0.171875 m /four glyphshow
7.634766 0.171875 m /zero glyphshow
15.269531 0.171875 m /zero glyphshow
grestore
/DejaVuSans findfont
16.000 scalefont
setfont
gsave
249.637500 9.637500 translate
0.000000 rotate
0.000000 3.328125 m /D glyphshow
12.320312 3.328125 m /a glyphshow
22.125000 3.328125 m /y glyphshow
31.593750 3.328125 m /space glyphshow
36.679688 3.328125 m /o glyphshow
46.468750 3.328125 m /f glyphshow
52.101562 3.328125 m /space glyphshow
57.187500 3.328125 m /Y glyphshow
64.835938 3.328125 m /e glyphshow
74.679688 3.328125 m /a glyphshow
84.484375 3.328125 m /r glyphshow
grestore
gsave
/o {
gsave
newpath
translate
0.5 setlinewidth
1 setlinejoin
0 setlinecap
0 0 m
4 0 l
gsave
0.000 setgray
fill
grestore
stroke
grestore
} bind def
72 43.2 o
grestore
gsave
/o {
gsave
newpath
translate
0.5 setlinewidth
1 setlinejoin
0 setlinecap
0 0 m
-4 0 l
gsave
0.000 setgray
fill
grestore
stroke
grestore
} bind def
518.4 43.2 o
grestore
/DejaVuSans findfont
12.000 scalefont
setfont
gsave
21.796875 38.660937 translate
0.000000 rotate
0.000000 0.171875 m /minus glyphshow
10.054688 0.171875 m /two glyphshow
17.689453 0.171875 m /zero glyphshow
25.324219 0.171875 m /zero glyphshow
32.958984 0.171875 m /zero glyphshow
40.593750 0.171875 m /zero glyphshow
grestore
gsave
/o {
gsave
newpath
translate
0.5 setlinewidth
1 setlinejoin
0 setlinecap
0 0 m
4 0 l
gsave
0.000 setgray
fill
grestore
stroke
grestore
} bind def
72 100.8 o
grestore
gsave
/o {
gsave
newpath
translate
0.5 setlinewidth
1 setlinejoin
0 setlinecap
0 0 m
-4 0 l
gsave
0.000 setgray
fill
grestore
stroke
grestore
} bind def
518.4 100.8 o
grestore
gsave
61.953125 96.260937 translate
0.000000 rotate
0.000000 0.171875 m /zero glyphshow
grestore
gsave
/o {
gsave
newpath
translate
0.5 setlinewidth
1 setlinejoin
0 setlinecap
0 0 m
4 0 l
gsave
0.000 setgray
fill
grestore
stroke
grestore
} bind def
72 158.4 o
grestore
gsave
/o {
gsave
newpath
translate
0.5 setlinewidth
1 setlinejoin
0 setlinecap
0 0 m
-4 0 l
gsave
0.000 setgray
fill
grestore
stroke
grestore
} bind def
518.4 158.4 o
grestore
gsave
31.468750 153.860938 translate
0.000000 rotate
0.000000 0.171875 m /two glyphshow
7.634766 0.171875 m /zero glyphshow
15.269531 0.171875 m /zero glyphshow
22.904297 0.171875 m /zero glyphshow
30.539062 0.171875 m /zero glyphshow
grestore
gsave
/o {
gsave
newpath
translate
0.5 setlinewidth
1 setlinejoin
0 setlinecap
0 0 m
4 0 l
gsave
0.000 setgray
fill
grestore
stroke
grestore
} bind def
72 216 o
grestore
gsave
/o {
gsave
newpath
translate
0.5 setlinewidth
1 setlinejoin
0 setlinecap
0 0 m
-4 0 l
gsave
0.000 setgray
fill
grestore
stroke
grestore
} bind def
518.4 216 o
grestore
gsave
31.187500 211.460938 translate
0.000000 rotate
0.000000 0.171875 m /four glyphshow
7.634766 0.171875 m /zero glyphshow
15.269531 0.171875 m /zero glyphshow
22.904297 0.171875 m /zero glyphshow
30.539062 0.171875 m /zero glyphshow
grestore
gsave
/o {
gsave
newpath
translate
0.5 setlinewidth
1 setlinejoin
0 setlinecap
0 0 m
4 0 l
gsave
0.000 setgray
fill
grestore
stroke
grestore
} bind def
72 273.6 o
grestore
gsave
/o {
gsave
newpath
translate
0.5 setlinewidth
1 setlinejoin
0 setlinecap
0 0 m
-4 0 l
gsave
0.000 setgray
fill
grestore
stroke
grestore
} bind def
518.4 273.6 o
grestore
gsave
31.437500 269.060938 translate
0.000000 rotate
0.000000 0.171875 m /six glyphshow
7.634766 0.171875 m /zero glyphshow
15.269531 0.171875 m /zero glyphshow
22.904297 0.171875 m /zero glyphshow
30.539062 0.171875 m /zero glyphshow
grestore
gsave
/o {
gsave
newpath
translate
0.5 setlinewidth
1 setlinejoin
0 setlinecap
0 0 m
4 0 l
gsave
0.000 setgray
fill
grestore
stroke
grestore
} bind def
72 331.2 o
grestore
gsave
/o {
gsave
newpath
translate
0.5 setlinewidth
1 setlinejoin
0 setlinecap
0 0 m
-4 0 l
gsave
0.000 setgray
fill
grestore
stroke
grestore
} bind def
518.4 331.2 o
grestore
gsave
31.406250 326.660937 translate
0.000000 rotate
0.000000 0.171875 m /eight glyphshow
7.634766 0.171875 m /zero glyphshow
15.269531 0.171875 m /zero glyphshow
22.904297 0.171875 m /zero glyphshow
30.539062 0.171875 m /zero glyphshow
grestore
gsave
/o {
gsave
newpath
translate
0.5 setlinewidth
1 setlinejoin
0 setlinecap
0 0 m
4 0 l
gsave
0.000 setgray
fill
grestore
stroke
grestore
} bind def
72 388.8 o
grestore
gsave
/o {
gsave
newpath
translate
0.5 setlinewidth
1 setlinejoin
0 setlinecap
0 0 m
-4 0 l
gsave
0.000 setgray
fill
grestore
stroke
grestore
} bind def
518.4 388.8 o
grestore
gsave
24.265625 384.260938 translate
0.000000 rotate
0.000000 0.171875 m /one glyphshow
7.634766 0.171875 m /zero glyphshow
15.269531 0.171875 m /zero glyphshow
22.904297 0.171875 m /zero glyphshow
30.539062 0.171875 m /zero glyphshow
38.173828 0.171875 m /zero glyphshow
grestore
/DejaVuSans findfont
16.000 scalefont
setfont
gsave
16.796875 153.156250 translate
90.000000 rotate
0.000000 0.234375 m /S glyphshow
10.156250 0.234375 m /o glyphshow
19.945312 0.234375 m /l glyphshow
24.390625 0.234375 m /a glyphshow
34.195312 0.234375 m /r glyphshow
40.773438 0.234375 m /space glyphshow
45.859375 0.234375 m /I glyphshow
50.578125 0.234375 m /r glyphshow
56.906250 0.234375 m /r glyphshow
63.484375 0.234375 m /a glyphshow
73.289062 0.234375 m /d glyphshow
83.445312 0.234375 m /i glyphshow
87.890625 0.234375 m /a glyphshow
97.695312 0.234375 m /n glyphshow
107.835938 0.234375 m /c glyphshow
116.632812 0.234375 m /e glyphshow
grestore
1.000 setlinewidth
2 setlinecap
gsave
72 388.8 m
518.4 388.8 l
stroke
grestore
gsave
518.4 43.2 m
518.4 388.8 l
stroke
grestore
gsave
72 43.2 m
518.4 43.2 l
stroke
grestore
gsave
72 43.2 m
72 388.8 l
stroke
grestore
gsave
356.423 335.786 m
511.2 335.786 l
511.2 381.6 l
356.423 381.6 l
356.423 335.786 l
cl
gsave
1.000 setgray
fill
grestore
stroke
grestore
0.000 0.000 1.000 setrgbcolor
gsave
366.503 370.239 m
386.663 370.239 l
stroke
grestore
0.000 setgray
/DejaVuSans findfont
14.400 scalefont
setfont
gsave
402.502500 364.996250 translate
0.000000 rotate
0.000000 0.203125 m /R glyphshow
9.373947 0.203125 m /e glyphshow
18.227554 0.203125 m /a glyphshow
27.046021 0.203125 m /l glyphshow
31.044189 0.203125 m /space glyphshow
35.618546 0.203125 m /Y glyphshow
42.533905 0.203125 m /e glyphshow
51.387512 0.203125 m /a glyphshow
60.205978 0.203125 m /r glyphshow
grestore
2.000 setlinewidth
1.000 0.000 0.000 setrgbcolor
gsave
366.503 349.493 m
386.663 349.493 l
stroke
grestore
0.000 setgray
gsave
402.502500 341.546250 translate
0.000000 rotate
0.000000 2.906250 m /S glyphshow
9.134674 2.906250 m /y glyphshow
17.651001 2.906250 m /n glyphshow
26.771622 2.906250 m /t glyphshow
32.414032 2.906250 m /h glyphshow
41.534653 2.906250 m /e glyphshow
50.388260 2.906250 m /t glyphshow
56.030670 2.906250 m /i glyphshow
60.028839 2.906250 m /c glyphshow
67.940872 2.906250 m /space glyphshow
72.515228 2.906250 m /Y glyphshow
79.430588 2.906250 m /e glyphshow
88.284195 2.906250 m /a glyphshow
97.102661 2.906250 m /r glyphshow
grestore

end
showpage
