%!PS-Adobe-3.0 EPSF-3.0
%%Title: daily_arma_20_standarized_E_qqplot.eps
%%Creator: matplotlib version 1.2.1, http://matplotlib.org/
%%CreationDate: Thu Nov 21 16:17:23 2013
%%Orientation: portrait
%%BoundingBox: 18 180 594 612
%%EndComments
%%BeginProlog
/mpldict 8 dict def
mpldict begin
/m { moveto } bind def
/l { lineto } bind def
/r { rlineto } bind def
/c { curveto } bind def
/cl { closepath } bind def
/box {
m
1 index 0 r
0 exch r
neg 0 r
cl
} bind def
/clipbox {
box
clip
newpath
} bind def
%!PS-Adobe-3.0 Resource-Font
%%Title: DejaVu Sans
%%Copyright: Copyright (c) 2003 by Bitstream, Inc. All Rights Reserved. Copyright (c) 2006 by Tavmjong Bah. All Rights Reserved. DejaVu changes are in public domain 
%%Creator: Converted from TrueType to type 3 by PPR
25 dict begin
/_d{bind def}bind def
/_m{moveto}_d
/_l{lineto}_d
/_cl{closepath eofill}_d
/_c{curveto}_d
/_sc{7 -1 roll{setcachedevice}{pop pop pop pop pop pop}ifelse}_d
/_e{exec}_d
/FontName /DejaVuSans def
/PaintType 0 def
/FontMatrix[.001 0 0 .001 0 0]def
/FontBBox[-1021 -415 1681 1167]def
/FontType 3 def
/Encoding [ /space /zero /one /two /three /four /five /Q /S /T /a /c /e /h /i /l /m /n /o /p /r /s /t /u /minus ] def
/FontInfo 10 dict dup begin
/FamilyName (DejaVu Sans) def
/FullName (DejaVu Sans) def
/Notice (Copyright (c) 2003 by Bitstream, Inc. All Rights Reserved. Copyright (c) 2006 by Tavmjong Bah. All Rights Reserved. DejaVu changes are in public domain ) def
/Weight (Book) def
/Version (Version 2.33) def
/ItalicAngle 0.0 def
/isFixedPitch false def
/UnderlinePosition -130 def
/UnderlineThickness 90 def
end readonly def
/CharStrings 25 dict dup begin
/space{318 0 0 0 0 0 _sc
}_d
/zero{636 0 66 -13 570 742 _sc
318 664 _m
267 664 229 639 203 589 _c
177 539 165 464 165 364 _c
165 264 177 189 203 139 _c
229 89 267 64 318 64 _c
369 64 407 89 433 139 _c
458 189 471 264 471 364 _c
471 464 458 539 433 589 _c
407 639 369 664 318 664 _c
318 742 _m
399 742 461 709 505 645 _c
548 580 570 486 570 364 _c
570 241 548 147 505 83 _c
461 19 399 -13 318 -13 _c
236 -13 173 19 130 83 _c
87 147 66 241 66 364 _c
66 486 87 580 130 645 _c
173 709 236 742 318 742 _c
_cl}_d
/one{636 0 110 0 544 729 _sc
124 83 _m
285 83 _l
285 639 _l
110 604 _l
110 694 _l
284 729 _l
383 729 _l
383 83 _l
544 83 _l
544 0 _l
124 0 _l
124 83 _l
_cl}_d
/two{{636 0 73 0 536 742 _sc
192 83 _m
536 83 _l
536 0 _l
73 0 _l
73 83 _l
110 121 161 173 226 239 _c
290 304 331 346 348 365 _c
380 400 402 430 414 455 _c
426 479 433 504 433 528 _c
433 566 419 598 392 622 _c
365 646 330 659 286 659 _c
255 659 222 653 188 643 _c
154 632 117 616 78 594 _c
78 694 _l
118 710 155 722 189 730 _c
223 738 255 742 284 742 _c
}_e{359 742 419 723 464 685 _c
509 647 532 597 532 534 _c
532 504 526 475 515 449 _c
504 422 484 390 454 354 _c
446 344 420 317 376 272 _c
332 227 271 164 192 83 _c
_cl}_e}_d
/three{{636 0 76 -13 556 742 _sc
406 393 _m
453 383 490 362 516 330 _c
542 298 556 258 556 212 _c
556 140 531 84 482 45 _c
432 6 362 -13 271 -13 _c
240 -13 208 -10 176 -4 _c
144 1 110 10 76 22 _c
76 117 _l
103 101 133 89 166 81 _c
198 73 232 69 268 69 _c
330 69 377 81 409 105 _c
441 129 458 165 458 212 _c
458 254 443 288 413 312 _c
383 336 341 349 287 349 _c
}_e{202 349 _l
202 430 _l
291 430 _l
339 430 376 439 402 459 _c
428 478 441 506 441 543 _c
441 580 427 609 401 629 _c
374 649 336 659 287 659 _c
260 659 231 656 200 650 _c
169 644 135 635 98 623 _c
98 711 _l
135 721 170 729 203 734 _c
235 739 266 742 296 742 _c
370 742 429 725 473 691 _c
517 657 539 611 539 553 _c
539 513 527 479 504 451 _c
481 423 448 403 406 393 _c
_cl}_e}_d
/four{636 0 49 0 580 729 _sc
378 643 _m
129 254 _l
378 254 _l
378 643 _l
352 729 _m
476 729 _l
476 254 _l
580 254 _l
580 172 _l
476 172 _l
476 0 _l
378 0 _l
378 172 _l
49 172 _l
49 267 _l
352 729 _l
_cl}_d
/five{{636 0 77 -13 549 729 _sc
108 729 _m
495 729 _l
495 646 _l
198 646 _l
198 467 _l
212 472 227 476 241 478 _c
255 480 270 482 284 482 _c
365 482 429 459 477 415 _c
525 370 549 310 549 234 _c
549 155 524 94 475 51 _c
426 8 357 -13 269 -13 _c
238 -13 207 -10 175 -6 _c
143 -1 111 6 77 17 _c
77 116 _l
106 100 136 88 168 80 _c
199 72 232 69 267 69 _c
}_e{323 69 368 83 401 113 _c
433 143 450 183 450 234 _c
450 284 433 324 401 354 _c
368 384 323 399 267 399 _c
241 399 214 396 188 390 _c
162 384 135 375 108 363 _c
108 729 _l
_cl}_e}_d
/Q{{787 0 56 -128 731 742 _sc
394 662 _m
322 662 265 635 223 582 _c
181 528 160 456 160 364 _c
160 272 181 199 223 146 _c
265 92 322 66 394 66 _c
465 66 522 92 564 146 _c
606 199 627 272 627 364 _c
627 456 606 528 564 582 _c
522 635 465 662 394 662 _c
532 13 _m
662 -128 _l
543 -128 _l
435 -11 _l
424 -11 416 -12 410 -12 _c
404 -12 399 -13 394 -13 _c
291 -13 209 21 148 89 _c
}_e{86 157 56 248 56 364 _c
56 479 86 571 148 639 _c
209 707 291 742 394 742 _c
496 742 577 707 639 639 _c
700 571 731 479 731 364 _c
731 279 714 206 680 146 _c
646 86 596 41 532 13 _c
_cl}_e}_d
/S{{635 0 66 -13 579 742 _sc
535 705 _m
535 609 _l
497 627 462 640 429 649 _c
395 657 363 662 333 662 _c
279 662 237 651 208 631 _c
179 610 165 580 165 542 _c
165 510 174 485 194 469 _c
213 452 250 439 304 429 _c
364 417 _l
437 403 491 378 526 343 _c
561 307 579 260 579 201 _c
579 130 555 77 508 41 _c
460 5 391 -13 300 -13 _c
265 -13 228 -9 189 -2 _c
}_e{150 5 110 16 69 32 _c
69 134 _l
109 111 148 94 186 83 _c
224 71 262 66 300 66 _c
356 66 399 77 430 99 _c
460 121 476 152 476 194 _c
476 230 465 258 443 278 _c
421 298 385 313 335 323 _c
275 335 _l
201 349 148 372 115 404 _c
82 435 66 478 66 534 _c
66 598 88 649 134 686 _c
179 723 242 742 322 742 _c
356 742 390 739 426 733 _c
461 727 497 717 535 705 _c
}_e{_cl}_e}_d
/T{611 0 -2 0 614 729 _sc
-2 729 _m
614 729 _l
614 646 _l
355 646 _l
355 0 _l
256 0 _l
256 646 _l
-2 646 _l
-2 729 _l
_cl}_d
/a{{613 0 60 -13 522 560 _sc
343 275 _m
270 275 220 266 192 250 _c
164 233 150 205 150 165 _c
150 133 160 107 181 89 _c
202 70 231 61 267 61 _c
317 61 357 78 387 114 _c
417 149 432 196 432 255 _c
432 275 _l
343 275 _l
522 312 _m
522 0 _l
432 0 _l
432 83 _l
411 49 385 25 355 10 _c
325 -5 287 -13 243 -13 _c
187 -13 142 2 109 33 _c
76 64 60 106 60 159 _c
}_e{60 220 80 266 122 298 _c
163 329 224 345 306 345 _c
432 345 _l
432 354 _l
432 395 418 427 391 450 _c
364 472 326 484 277 484 _c
245 484 215 480 185 472 _c
155 464 127 453 100 439 _c
100 522 _l
132 534 164 544 195 550 _c
226 556 256 560 286 560 _c
365 560 424 539 463 498 _c
502 457 522 395 522 312 _c
_cl}_e}_d
/c{{550 0 55 -13 488 560 _sc
488 526 _m
488 442 _l
462 456 437 466 411 473 _c
385 480 360 484 334 484 _c
276 484 230 465 198 428 _c
166 391 150 339 150 273 _c
150 206 166 154 198 117 _c
230 80 276 62 334 62 _c
360 62 385 65 411 72 _c
437 79 462 90 488 104 _c
488 21 _l
462 9 436 0 410 -5 _c
383 -10 354 -13 324 -13 _c
242 -13 176 12 128 64 _c
}_e{79 115 55 185 55 273 _c
55 362 79 432 128 483 _c
177 534 244 560 330 560 _c
358 560 385 557 411 551 _c
437 545 463 537 488 526 _c
_cl}_e}_d
/e{{615 0 55 -13 562 560 _sc
562 296 _m
562 252 _l
149 252 _l
153 190 171 142 205 110 _c
238 78 284 62 344 62 _c
378 62 412 66 444 74 _c
476 82 509 95 541 113 _c
541 28 _l
509 14 476 3 442 -3 _c
408 -9 373 -13 339 -13 _c
251 -13 182 12 131 62 _c
80 112 55 181 55 268 _c
55 357 79 428 127 481 _c
175 533 241 560 323 560 _c
397 560 455 536 498 489 _c
}_e{540 441 562 377 562 296 _c
472 322 _m
471 371 457 410 431 440 _c
404 469 368 484 324 484 _c
274 484 234 469 204 441 _c
174 413 156 373 152 322 _c
472 322 _l
_cl}_e}_d
/h{634 0 91 0 549 760 _sc
549 330 _m
549 0 _l
459 0 _l
459 327 _l
459 379 448 417 428 443 _c
408 469 378 482 338 482 _c
289 482 251 466 223 435 _c
195 404 181 362 181 309 _c
181 0 _l
91 0 _l
91 760 _l
181 760 _l
181 462 _l
202 494 227 519 257 535 _c
286 551 320 560 358 560 _c
420 560 468 540 500 501 _c
532 462 549 405 549 330 _c
_cl}_d
/i{278 0 94 0 184 760 _sc
94 547 _m
184 547 _l
184 0 _l
94 0 _l
94 547 _l
94 760 _m
184 760 _l
184 646 _l
94 646 _l
94 760 _l
_cl}_d
/l{278 0 94 0 184 760 _sc
94 760 _m
184 760 _l
184 0 _l
94 0 _l
94 760 _l
_cl}_d
/m{{974 0 91 0 889 560 _sc
520 442 _m
542 482 569 511 600 531 _c
631 550 668 560 711 560 _c
767 560 811 540 842 500 _c
873 460 889 403 889 330 _c
889 0 _l
799 0 _l
799 327 _l
799 379 789 418 771 444 _c
752 469 724 482 686 482 _c
639 482 602 466 575 435 _c
548 404 535 362 535 309 _c
535 0 _l
445 0 _l
445 327 _l
445 379 435 418 417 444 _c
398 469 369 482 331 482 _c
}_e{285 482 248 466 221 435 _c
194 404 181 362 181 309 _c
181 0 _l
91 0 _l
91 547 _l
181 547 _l
181 462 _l
201 495 226 520 255 536 _c
283 552 317 560 357 560 _c
397 560 430 550 458 530 _c
486 510 506 480 520 442 _c
_cl}_e}_d
/n{634 0 91 0 549 560 _sc
549 330 _m
549 0 _l
459 0 _l
459 327 _l
459 379 448 417 428 443 _c
408 469 378 482 338 482 _c
289 482 251 466 223 435 _c
195 404 181 362 181 309 _c
181 0 _l
91 0 _l
91 547 _l
181 547 _l
181 462 _l
202 494 227 519 257 535 _c
286 551 320 560 358 560 _c
420 560 468 540 500 501 _c
532 462 549 405 549 330 _c
_cl}_d
/o{612 0 55 -13 557 560 _sc
306 484 _m
258 484 220 465 192 427 _c
164 389 150 338 150 273 _c
150 207 163 156 191 118 _c
219 80 257 62 306 62 _c
354 62 392 80 420 118 _c
448 156 462 207 462 273 _c
462 337 448 389 420 427 _c
392 465 354 484 306 484 _c
306 560 _m
384 560 445 534 490 484 _c
534 433 557 363 557 273 _c
557 183 534 113 490 63 _c
445 12 384 -13 306 -13 _c
227 -13 165 12 121 63 _c
77 113 55 183 55 273 _c
55 363 77 433 121 484 _c
165 534 227 560 306 560 _c
_cl}_d
/p{{635 0 91 -207 580 560 _sc
181 82 _m
181 -207 _l
91 -207 _l
91 547 _l
181 547 _l
181 464 _l
199 496 223 520 252 536 _c
281 552 316 560 356 560 _c
422 560 476 533 518 481 _c
559 428 580 359 580 273 _c
580 187 559 117 518 65 _c
476 13 422 -13 356 -13 _c
316 -13 281 -5 252 10 _c
223 25 199 49 181 82 _c
487 273 _m
487 339 473 390 446 428 _c
418 466 381 485 334 485 _c
}_e{286 485 249 466 222 428 _c
194 390 181 339 181 273 _c
181 207 194 155 222 117 _c
249 79 286 61 334 61 _c
381 61 418 79 446 117 _c
473 155 487 207 487 273 _c
_cl}_e}_d
/r{411 0 91 0 411 560 _sc
411 463 _m
401 469 390 473 378 476 _c
366 478 353 480 339 480 _c
288 480 249 463 222 430 _c
194 397 181 350 181 288 _c
181 0 _l
91 0 _l
91 547 _l
181 547 _l
181 462 _l
199 495 224 520 254 536 _c
284 552 321 560 365 560 _c
371 560 378 559 386 559 _c
393 558 401 557 411 555 _c
411 463 _l
_cl}_d
/s{{521 0 54 -13 472 560 _sc
443 531 _m
443 446 _l
417 458 391 468 364 475 _c
336 481 308 485 279 485 _c
234 485 200 478 178 464 _c
156 450 145 430 145 403 _c
145 382 153 366 169 354 _c
185 342 217 330 265 320 _c
296 313 _l
360 299 405 279 432 255 _c
458 230 472 195 472 151 _c
472 100 452 60 412 31 _c
372 1 316 -13 246 -13 _c
216 -13 186 -10 154 -5 _c
}_e{122 0 89 8 54 20 _c
54 113 _l
87 95 120 82 152 74 _c
184 65 216 61 248 61 _c
290 61 323 68 346 82 _c
368 96 380 117 380 144 _c
380 168 371 187 355 200 _c
339 213 303 226 247 238 _c
216 245 _l
160 257 119 275 95 299 _c
70 323 58 356 58 399 _c
58 450 76 490 112 518 _c
148 546 200 560 268 560 _c
301 560 332 557 362 552 _c
391 547 418 540 443 531 _c
}_e{_cl}_e}_d
/t{392 0 27 0 368 702 _sc
183 702 _m
183 547 _l
368 547 _l
368 477 _l
183 477 _l
183 180 _l
183 135 189 106 201 94 _c
213 81 238 75 276 75 _c
368 75 _l
368 0 _l
276 0 _l
206 0 158 13 132 39 _c
106 65 93 112 93 180 _c
93 477 _l
27 477 _l
27 547 _l
93 547 _l
93 702 _l
183 702 _l
_cl}_d
/u{634 0 85 -13 543 560 _sc
85 216 _m
85 547 _l
175 547 _l
175 219 _l
175 167 185 129 205 103 _c
225 77 255 64 296 64 _c
344 64 383 79 411 110 _c
439 141 453 183 453 237 _c
453 547 _l
543 547 _l
543 0 _l
453 0 _l
453 84 _l
431 50 405 26 377 10 _c
348 -5 315 -13 277 -13 _c
214 -13 166 6 134 45 _c
101 83 85 140 85 216 _c
311 560 _m
311 560 _l
_cl}_d
/minus{838 0 106 272 732 355 _sc
106 355 _m
732 355 _l
732 272 _l
106 272 _l
106 355 _l
_cl}_d
end readonly def

/BuildGlyph
 {exch begin
 CharStrings exch
 2 copy known not{pop /.notdef}if
 true 3 1 roll get exec
 end}_d

/BuildChar {
 1 index /Encoding get exch get
 1 index /BuildGlyph get exec
}_d

FontName currentdict end definefont pop
end
%%EndProlog
mpldict begin
18 180 translate
576 432 0 0 clipbox
gsave
0 0 m
576 0 l
576 432 l
0 432 l
cl
1.000 setgray
fill
grestore
gsave
72 43.2 m
518.4 43.2 l
518.4 388.8 l
72 388.8 l
cl
1.000 setgray
fill
grestore
0.500 setlinewidth
1 setlinejoin
0 setlinecap
[] 0 setdash
0.000 setgray
gsave
446.4 345.6 72 43.2 clipbox
/o {
gsave
newpath
translate
0.5 setlinewidth
1 setlinejoin
0 setlinecap
0 -3 m
0.795609 -3 1.55874 -2.6839 2.12132 -2.12132 c
2.6839 -1.55874 3 -0.795609 3 0 c
3 0.795609 2.6839 1.55874 2.12132 2.12132 c
1.55874 2.6839 0.795609 3 0 3 c
-0.795609 3 -1.55874 2.6839 -2.12132 2.12132 c
-2.6839 1.55874 -3 0.795609 -3 0 c
-3 -0.795609 -2.6839 -1.55874 -2.12132 -2.12132 c
-1.55874 -2.6839 -0.795609 -3 0 -3 c
cl
gsave
0.000 0.000 1.000 setrgbcolor
fill
grestore
stroke
grestore
} bind def
88.5609 93.6094 o
105.926 105.263 o
116.712 106.884 o
124.691 109.206 o
131.088 110.698 o
136.461 113.47 o
141.116 115.705 o
145.235 116.485 o
148.94 116.66 o
152.315 121.39 o
155.418 121.893 o
158.296 122.365 o
160.983 123.251 o
163.505 124.393 o
165.885 125.114 o
168.139 125.777 o
170.282 128.618 o
172.326 129.028 o
174.282 129.126 o
176.157 131.946 o
177.959 132.782 o
179.696 136.17 o
181.371 137.051 o
182.991 137.307 o
184.559 137.435 o
186.08 138.609 o
187.556 138.637 o
188.991 139.049 o
190.388 139.183 o
191.748 140.226 o
193.075 140.283 o
194.37 140.293 o
195.636 141.741 o
196.873 142.209 o
198.084 142.37 o
199.269 142.565 o
200.43 143.097 o
201.569 143.512 o
202.687 144.064 o
203.783 144.189 o
204.861 144.702 o
205.92 144.721 o
206.96 144.733 o
207.984 145.248 o
208.992 146.985 o
209.984 147.846 o
210.961 148.481 o
211.924 148.5 o
212.873 148.661 o
213.809 149.697 o
214.733 150.228 o
215.644 150.686 o
216.543 150.965 o
217.431 151.058 o
218.308 151.369 o
219.174 152.013 o
220.03 152.315 o
220.876 152.678 o
221.713 154.001 o
222.541 154.704 o
223.36 154.908 o
224.17 155.174 o
224.972 155.208 o
225.765 155.493 o
226.551 155.621 o
227.33 156.978 o
228.101 157.799 o
228.864 158.286 o
229.621 159.008 o
230.371 159.772 o
231.115 159.805 o
231.852 159.893 o
232.583 160.152 o
233.308 160.175 o
234.028 160.913 o
234.741 161.351 o
235.449 161.8 o
236.152 161.82 o
236.85 162.329 o
237.542 162.839 o
238.23 163.038 o
238.912 163.362 o
239.59 165.116 o
240.263 165.281 o
240.932 165.941 o
241.597 167.22 o
242.257 167.306 o
242.913 167.587 o
243.565 167.602 o
244.213 167.869 o
244.857 168.114 o
245.498 168.213 o
246.135 169.127 o
246.768 169.157 o
247.398 169.866 o
248.024 170.663 o
248.647 170.829 o
249.267 170.852 o
249.884 171.234 o
250.497 171.365 o
251.108 171.831 o
251.715 172.206 o
252.32 172.305 o
252.922 172.829 o
253.521 173.531 o
254.117 173.781 o
254.711 174.746 o
255.302 175.244 o
255.891 176.44 o
256.477 176.642 o
257.061 176.668 o
257.643 176.669 o
258.222 176.849 o
258.799 177.216 o
259.374 177.288 o
259.947 177.566 o
260.517 178.177 o
261.086 179.629 o
261.652 179.658 o
262.217 179.738 o
262.78 179.97 o
263.341 180.378 o
263.9 180.708 o
264.457 181.364 o
265.013 181.567 o
265.567 181.635 o
266.119 182.636 o
266.67 182.977 o
267.219 183.352 o
267.766 183.579 o
268.313 183.865 o
268.857 184.181 o
269.401 184.536 o
269.943 185.198 o
270.483 185.814 o
271.022 185.92 o
271.56 186.673 o
272.097 186.728 o
272.633 187.012 o
273.167 187.581 o
273.7 187.959 o
274.233 188.113 o
274.764 189.58 o
275.294 189.868 o
275.823 190.553 o
276.351 190.782 o
276.878 191.898 o
277.404 191.976 o
277.93 192.008 o
278.454 192.327 o
278.978 192.45 o
279.501 192.993 o
280.023 193.767 o
280.544 194.041 o
281.065 194.093 o
281.584 195.074 o
282.104 195.286 o
282.622 195.924 o
283.14 196.972 o
283.658 197.132 o
284.175 197.19 o
284.691 197.567 o
285.207 197.831 o
285.722 198.441 o
286.237 198.685 o
286.751 199.319 o
287.265 199.39 o
287.779 199.815 o
288.292 200.337 o
288.805 200.546 o
289.318 200.829 o
289.83 201.619 o
290.343 201.638 o
290.855 202.499 o
291.366 202.511 o
291.878 202.77 o
292.389 202.812 o
292.9 203.057 o
293.412 203.336 o
293.923 203.353 o
294.434 203.365 o
294.945 203.534 o
295.455 203.593 o
295.966 203.874 o
296.477 203.967 o
296.988 204.329 o
297.5 204.473 o
298.011 204.912 o
298.522 204.946 o
299.034 204.996 o
299.545 205.02 o
300.057 205.067 o
300.57 205.12 o
301.082 205.39 o
301.595 205.698 o
302.108 205.808 o
302.621 205.835 o
303.135 205.875 o
303.649 205.971 o
304.163 206.334 o
304.678 206.438 o
305.193 206.655 o
305.709 207.211 o
306.225 207.363 o
306.742 207.663 o
307.26 207.96 o
307.778 208.04 o
308.296 208.299 o
308.816 208.32 o
309.335 208.377 o
309.856 209.146 o
310.377 209.357 o
310.899 209.851 o
311.422 209.901 o
311.946 210.794 o
312.47 210.807 o
312.996 211.378 o
313.522 211.449 o
314.049 211.755 o
314.577 211.921 o
315.106 212.317 o
315.636 213.356 o
316.167 213.702 o
316.7 213.757 o
317.233 213.923 o
317.767 214.004 o
318.303 214.088 o
318.84 214.159 o
319.378 214.378 o
319.917 214.406 o
320.457 214.705 o
320.999 215.057 o
321.543 215.489 o
322.087 216.045 o
322.634 216.741 o
323.181 217.06 o
323.73 217.168 o
324.281 217.246 o
324.833 217.309 o
325.387 217.384 o
325.943 217.481 o
326.5 217.624 o
327.059 217.784 o
327.62 217.8 o
328.183 217.832 o
328.748 219.311 o
329.314 219.568 o
329.883 219.606 o
330.453 219.636 o
331.026 219.821 o
331.601 220.416 o
332.178 220.517 o
332.757 220.538 o
333.339 220.858 o
333.923 221.091 o
334.509 221.325 o
335.098 221.356 o
335.689 221.523 o
336.283 221.958 o
336.879 222.25 o
337.478 222.452 o
338.08 222.736 o
338.685 222.817 o
339.292 222.987 o
339.903 223.276 o
340.516 223.485 o
341.133 223.559 o
341.753 223.612 o
342.376 223.821 o
343.002 224.207 o
343.632 224.325 o
344.265 224.838 o
344.902 225.015 o
345.543 225.375 o
346.187 225.422 o
346.835 225.771 o
347.487 225.866 o
348.143 226.096 o
348.803 226.686 o
349.468 226.753 o
350.137 226.909 o
350.81 226.93 o
351.488 226.997 o
352.17 227.155 o
352.858 227.195 o
353.55 227.722 o
354.248 229.226 o
354.951 229.245 o
355.659 229.291 o
356.372 229.426 o
357.092 230.028 o
357.817 230.04 o
358.548 230.171 o
359.285 230.496 o
360.029 230.622 o
360.779 230.801 o
361.536 231.351 o
362.299 231.389 o
363.07 231.501 o
363.849 231.513 o
364.635 231.526 o
365.428 231.932 o
366.23 231.984 o
367.04 232.622 o
367.859 232.901 o
368.687 233.024 o
369.524 233.293 o
370.37 233.359 o
371.226 233.415 o
372.092 233.418 o
372.969 234.385 o
373.857 234.62 o
374.756 235.88 o
375.667 235.96 o
376.591 236.161 o
377.527 236.172 o
378.476 236.336 o
379.439 236.473 o
380.416 236.934 o
381.408 237.126 o
382.416 238.162 o
383.44 238.501 o
384.48 239.326 o
385.539 239.625 o
386.617 239.789 o
387.713 240.437 o
388.831 240.661 o
389.97 240.968 o
391.131 241.199 o
392.316 242.809 o
393.527 243.148 o
394.764 243.689 o
396.03 244.089 o
397.325 244.822 o
398.652 245.273 o
400.012 245.968 o
401.409 247.969 o
402.844 248.149 o
404.32 248.212 o
405.841 248.585 o
407.409 248.619 o
409.029 249.647 o
410.704 249.888 o
412.441 250.072 o
414.243 250.807 o
416.118 250.962 o
418.074 250.965 o
420.118 251.058 o
422.261 251.443 o
424.515 252.135 o
426.895 252.216 o
429.417 252.244 o
432.104 252.909 o
434.982 253.864 o
438.085 254.286 o
441.46 254.613 o
445.165 255.193 o
449.284 256.601 o
453.939 258.01 o
459.312 258.255 o
465.709 265.843 o
473.688 266.09 o
484.474 319.138 o
501.839 361.614 o
grestore
1.000 setlinewidth
2 setlinecap
1.000 0.000 0.000 setrgbcolor
gsave
446.4 345.6 72 43.2 clipbox
88.5609 79.4621 m
501.839 313.831 l
501.839 313.831 l
stroke
grestore
0.500 setlinewidth
0 setlinecap
0.000 setgray
gsave
/o {
gsave
newpath
translate
0.5 setlinewidth
1 setlinejoin
0 setlinecap
0 0 m
0 4 l
gsave
0.000 setgray
fill
grestore
stroke
grestore
} bind def
72 43.2 o
grestore
gsave
/o {
gsave
newpath
translate
0.5 setlinewidth
1 setlinejoin
0 setlinecap
0 0 m
0 -4 l
gsave
0.000 setgray
fill
grestore
stroke
grestore
} bind def
72 388.8 o
grestore
/DejaVuSans findfont
12.000 scalefont
setfont
gsave
64.265625 30.121875 translate
0.000000 rotate
0.000000 0.171875 m /minus glyphshow
10.054688 0.171875 m /three glyphshow
grestore
gsave
/o {
gsave
newpath
translate
0.5 setlinewidth
1 setlinejoin
0 setlinecap
0 0 m
0 4 l
gsave
0.000 setgray
fill
grestore
stroke
grestore
} bind def
146.4 43.2 o
grestore
gsave
/o {
gsave
newpath
translate
0.5 setlinewidth
1 setlinejoin
0 setlinecap
0 0 m
0 -4 l
gsave
0.000 setgray
fill
grestore
stroke
grestore
} bind def
146.4 388.8 o
grestore
gsave
138.782813 30.293750 translate
0.000000 rotate
0.000000 0.000000 m /minus glyphshow
10.054688 0.000000 m /two glyphshow
grestore
gsave
/o {
gsave
newpath
translate
0.5 setlinewidth
1 setlinejoin
0 setlinecap
0 0 m
0 4 l
gsave
0.000 setgray
fill
grestore
stroke
grestore
} bind def
220.8 43.2 o
grestore
gsave
/o {
gsave
newpath
translate
0.5 setlinewidth
1 setlinejoin
0 setlinecap
0 0 m
0 -4 l
gsave
0.000 setgray
fill
grestore
stroke
grestore
} bind def
220.8 388.8 o
grestore
gsave
213.135938 30.450000 translate
0.000000 rotate
0.000000 0.000000 m /minus glyphshow
10.054688 0.000000 m /one glyphshow
grestore
gsave
/o {
gsave
newpath
translate
0.5 setlinewidth
1 setlinejoin
0 setlinecap
0 0 m
0 4 l
gsave
0.000 setgray
fill
grestore
stroke
grestore
} bind def
295.2 43.2 o
grestore
gsave
/o {
gsave
newpath
translate
0.5 setlinewidth
1 setlinejoin
0 setlinecap
0 0 m
0 -4 l
gsave
0.000 setgray
fill
grestore
stroke
grestore
} bind def
295.2 388.8 o
grestore
gsave
292.176562 30.121875 translate
0.000000 rotate
0.000000 0.171875 m /zero glyphshow
grestore
gsave
/o {
gsave
newpath
translate
0.5 setlinewidth
1 setlinejoin
0 setlinecap
0 0 m
0 4 l
gsave
0.000 setgray
fill
grestore
stroke
grestore
} bind def
369.6 43.2 o
grestore
gsave
/o {
gsave
newpath
translate
0.5 setlinewidth
1 setlinejoin
0 setlinecap
0 0 m
0 -4 l
gsave
0.000 setgray
fill
grestore
stroke
grestore
} bind def
369.6 388.8 o
grestore
gsave
366.990625 30.450000 translate
0.000000 rotate
0.000000 0.000000 m /one glyphshow
grestore
gsave
/o {
gsave
newpath
translate
0.5 setlinewidth
1 setlinejoin
0 setlinecap
0 0 m
0 4 l
gsave
0.000 setgray
fill
grestore
stroke
grestore
} bind def
444 43.2 o
grestore
gsave
/o {
gsave
newpath
translate
0.5 setlinewidth
1 setlinejoin
0 setlinecap
0 0 m
0 -4 l
gsave
0.000 setgray
fill
grestore
stroke
grestore
} bind def
444 388.8 o
grestore
gsave
441.218750 30.293750 translate
0.000000 rotate
0.000000 0.000000 m /two glyphshow
grestore
gsave
/o {
gsave
newpath
translate
0.5 setlinewidth
1 setlinejoin
0 setlinecap
0 0 m
0 4 l
gsave
0.000 setgray
fill
grestore
stroke
grestore
} bind def
518.4 43.2 o
grestore
gsave
/o {
gsave
newpath
translate
0.5 setlinewidth
1 setlinejoin
0 setlinecap
0 0 m
0 -4 l
gsave
0.000 setgray
fill
grestore
stroke
grestore
} bind def
518.4 388.8 o
grestore
gsave
515.525000 30.121875 translate
0.000000 rotate
0.000000 0.171875 m /three glyphshow
grestore
gsave
231.520312 14.450000 translate
0.000000 rotate
0.000000 1.546875 m /T glyphshow
7.330078 1.546875 m /h glyphshow
14.935547 1.546875 m /e glyphshow
22.318359 1.546875 m /o glyphshow
29.660156 1.546875 m /r glyphshow
34.343750 1.546875 m /e glyphshow
41.726562 1.546875 m /t glyphshow
46.431641 1.546875 m /i glyphshow
49.765625 1.546875 m /c glyphshow
56.363281 1.546875 m /a glyphshow
63.716797 1.546875 m /l glyphshow
67.050781 1.546875 m /space glyphshow
70.865234 1.546875 m /Q glyphshow
80.310547 1.546875 m /u glyphshow
87.916016 1.546875 m /a glyphshow
95.269531 1.546875 m /n glyphshow
102.875000 1.546875 m /t glyphshow
107.580078 1.546875 m /i glyphshow
110.914062 1.546875 m /l glyphshow
114.248047 1.546875 m /e glyphshow
121.630859 1.546875 m /s glyphshow
grestore
gsave
/o {
gsave
newpath
translate
0.5 setlinewidth
1 setlinejoin
0 setlinecap
0 0 m
4 0 l
gsave
0.000 setgray
fill
grestore
stroke
grestore
} bind def
72 43.2 o
grestore
gsave
/o {
gsave
newpath
translate
0.5 setlinewidth
1 setlinejoin
0 setlinecap
0 0 m
-4 0 l
gsave
0.000 setgray
fill
grestore
stroke
grestore
} bind def
518.4 43.2 o
grestore
gsave
52.234375 38.825000 translate
0.000000 rotate
0.000000 0.000000 m /minus glyphshow
10.054688 0.000000 m /four glyphshow
grestore
gsave
/o {
gsave
newpath
translate
0.5 setlinewidth
1 setlinejoin
0 setlinecap
0 0 m
4 0 l
gsave
0.000 setgray
fill
grestore
stroke
grestore
} bind def
72 81.6 o
grestore
gsave
/o {
gsave
newpath
translate
0.5 setlinewidth
1 setlinejoin
0 setlinecap
0 0 m
-4 0 l
gsave
0.000 setgray
fill
grestore
stroke
grestore
} bind def
518.4 81.6 o
grestore
gsave
52.531250 77.060937 translate
0.000000 rotate
0.000000 0.171875 m /minus glyphshow
10.054688 0.171875 m /three glyphshow
grestore
gsave
/o {
gsave
newpath
translate
0.5 setlinewidth
1 setlinejoin
0 setlinecap
0 0 m
4 0 l
gsave
0.000 setgray
fill
grestore
stroke
grestore
} bind def
72 120 o
grestore
gsave
/o {
gsave
newpath
translate
0.5 setlinewidth
1 setlinejoin
0 setlinecap
0 0 m
-4 0 l
gsave
0.000 setgray
fill
grestore
stroke
grestore
} bind def
518.4 120 o
grestore
gsave
52.765625 115.546875 translate
0.000000 rotate
0.000000 0.000000 m /minus glyphshow
10.054688 0.000000 m /two glyphshow
grestore
gsave
/o {
gsave
newpath
translate
0.5 setlinewidth
1 setlinejoin
0 setlinecap
0 0 m
4 0 l
gsave
0.000 setgray
fill
grestore
stroke
grestore
} bind def
72 158.4 o
grestore
gsave
/o {
gsave
newpath
translate
0.5 setlinewidth
1 setlinejoin
0 setlinecap
0 0 m
-4 0 l
gsave
0.000 setgray
fill
grestore
stroke
grestore
} bind def
518.4 158.4 o
grestore
gsave
52.671875 154.025000 translate
0.000000 rotate
0.000000 0.000000 m /minus glyphshow
10.054688 0.000000 m /one glyphshow
grestore
gsave
/o {
gsave
newpath
translate
0.5 setlinewidth
1 setlinejoin
0 setlinecap
0 0 m
4 0 l
gsave
0.000 setgray
fill
grestore
stroke
grestore
} bind def
72 196.8 o
grestore
gsave
/o {
gsave
newpath
translate
0.5 setlinewidth
1 setlinejoin
0 setlinecap
0 0 m
-4 0 l
gsave
0.000 setgray
fill
grestore
stroke
grestore
} bind def
518.4 196.8 o
grestore
gsave
61.953125 192.260937 translate
0.000000 rotate
0.000000 0.171875 m /zero glyphshow
grestore
gsave
/o {
gsave
newpath
translate
0.5 setlinewidth
1 setlinejoin
0 setlinecap
0 0 m
4 0 l
gsave
0.000 setgray
fill
grestore
stroke
grestore
} bind def
72 235.2 o
grestore
gsave
/o {
gsave
newpath
translate
0.5 setlinewidth
1 setlinejoin
0 setlinecap
0 0 m
-4 0 l
gsave
0.000 setgray
fill
grestore
stroke
grestore
} bind def
518.4 235.2 o
grestore
gsave
62.781250 230.825000 translate
0.000000 rotate
0.000000 0.000000 m /one glyphshow
grestore
gsave
/o {
gsave
newpath
translate
0.5 setlinewidth
1 setlinejoin
0 setlinecap
0 0 m
4 0 l
gsave
0.000 setgray
fill
grestore
stroke
grestore
} bind def
72 273.6 o
grestore
gsave
/o {
gsave
newpath
translate
0.5 setlinewidth
1 setlinejoin
0 setlinecap
0 0 m
-4 0 l
gsave
0.000 setgray
fill
grestore
stroke
grestore
} bind def
518.4 273.6 o
grestore
gsave
62.437500 269.146875 translate
0.000000 rotate
0.000000 0.000000 m /two glyphshow
grestore
gsave
/o {
gsave
newpath
translate
0.5 setlinewidth
1 setlinejoin
0 setlinecap
0 0 m
4 0 l
gsave
0.000 setgray
fill
grestore
stroke
grestore
} bind def
72 312 o
grestore
gsave
/o {
gsave
newpath
translate
0.5 setlinewidth
1 setlinejoin
0 setlinecap
0 0 m
-4 0 l
gsave
0.000 setgray
fill
grestore
stroke
grestore
} bind def
518.4 312 o
grestore
gsave
62.250000 307.460938 translate
0.000000 rotate
0.000000 0.171875 m /three glyphshow
grestore
gsave
/o {
gsave
newpath
translate
0.5 setlinewidth
1 setlinejoin
0 setlinecap
0 0 m
4 0 l
gsave
0.000 setgray
fill
grestore
stroke
grestore
} bind def
72 350.4 o
grestore
gsave
/o {
gsave
newpath
translate
0.5 setlinewidth
1 setlinejoin
0 setlinecap
0 0 m
-4 0 l
gsave
0.000 setgray
fill
grestore
stroke
grestore
} bind def
518.4 350.4 o
grestore
gsave
61.625000 346.025000 translate
0.000000 rotate
0.000000 0.000000 m /four glyphshow
grestore
gsave
/o {
gsave
newpath
translate
0.5 setlinewidth
1 setlinejoin
0 setlinecap
0 0 m
4 0 l
gsave
0.000 setgray
fill
grestore
stroke
grestore
} bind def
72 388.8 o
grestore
gsave
/o {
gsave
newpath
translate
0.5 setlinewidth
1 setlinejoin
0 setlinecap
0 0 m
-4 0 l
gsave
0.000 setgray
fill
grestore
stroke
grestore
} bind def
518.4 388.8 o
grestore
gsave
62.328125 384.339062 translate
0.000000 rotate
0.000000 0.171875 m /five glyphshow
grestore
gsave
47.234375 163.359375 translate
90.000000 rotate
0.000000 2.500000 m /S glyphshow
7.617188 2.500000 m /a glyphshow
14.970703 2.500000 m /m glyphshow
26.660156 2.500000 m /p glyphshow
34.277344 2.500000 m /l glyphshow
37.611328 2.500000 m /e glyphshow
44.994141 2.500000 m /space glyphshow
48.808594 2.500000 m /Q glyphshow
58.253906 2.500000 m /u glyphshow
65.859375 2.500000 m /a glyphshow
73.212891 2.500000 m /n glyphshow
80.818359 2.500000 m /t glyphshow
85.523438 2.500000 m /i glyphshow
88.857422 2.500000 m /l glyphshow
92.191406 2.500000 m /e glyphshow
99.574219 2.500000 m /s glyphshow
grestore
1.000 setlinewidth
2 setlinecap
gsave
72 388.8 m
518.4 388.8 l
stroke
grestore
gsave
518.4 43.2 m
518.4 388.8 l
stroke
grestore
gsave
72 43.2 m
518.4 43.2 l
stroke
grestore
gsave
72 43.2 m
72 388.8 l
stroke
grestore

end
showpage
