%!PS-Adobe-3.0 EPSF-3.0
%%Title: /home/ebilionis/work/solar/tests/E0.eps
%%Creator: matplotlib version 1.2.1, http://matplotlib.org/
%%CreationDate: Tue Nov 26 10:16:03 2013
%%Orientation: portrait
%%BoundingBox: 13 175 598 616
%%EndComments
%%BeginProlog
/mpldict 10 dict def
mpldict begin
/m { moveto } bind def
/l { lineto } bind def
/r { rlineto } bind def
/c { curveto } bind def
/cl { closepath } bind def
/box {
m
1 index 0 r
0 exch r
neg 0 r
cl
} bind def
/clipbox {
box
clip
newpath
} bind def
%!PS-Adobe-3.0 Resource-Font
%%Title: cmr10
%%Copyright: Copyright (C) 1994, Basil K. Malyshev. All Rights Reserved.012BaKoMa Fonts Collection, Level-B.
%%Creator: Converted from TrueType to type 3 by PPR
25 dict begin
/_d{bind def}bind def
/_m{moveto}_d
/_l{lineto}_d
/_cl{closepath eofill}_d
/_c{curveto}_d
/_sc{7 -1 roll{setcachedevice}{pop pop pop pop pop pop}ifelse}_d
/_e{exec}_d
/FontName /Cmr10 def
/PaintType 0 def
/FontMatrix[.001 0 0 .001 0 0]def
/FontBBox[-44 -250 1009 750]def
/FontType 3 def
/Encoding [ /zero /two /parenright /parenleft ] def
/FontInfo 10 dict dup begin
/FamilyName (cmr10) def
/FullName (cmr10) def
/Notice (Copyright (C) 1994, Basil K. Malyshev. All Rights Reserved.012BaKoMa Fonts Collection, Level-B. ) def
/Weight (Regular) def
/Version (1.1/12-Nov-94) def
/ItalicAngle 0.0 def
/isFixedPitch false def
/UnderlinePosition -133 def
/UnderlineThickness 20 def
end readonly def
/CharStrings 4 dict dup begin
/zero{{500 0 39 -21 460 666 _sc
250 -21 _m
168 -21 112 12 83 79 _c
53 146 39 226 39 319 _c
39 377 44 431 55 482 _c
65 533 86 576 118 612 _c
149 648 193 666 250 666 _c
294 666 330 655 358 634 _c
386 612 407 585 422 551 _c
436 517 446 480 452 441 _c
457 402 460 361 460 319 _c
460 261 454 208 444 158 _c
433 108 412 65 381 31 _c
350 -3 306 -21 250 -21 _c
250 4 _m
}_e{287 4 315 23 333 61 _c
351 99 362 141 366 187 _c
370 233 373 283 373 335 _c
373 385 370 431 366 473 _c
362 515 351 554 333 588 _c
315 622 287 640 250 640 _c
212 640 184 622 166 588 _c
148 554 136 515 132 473 _c
128 431 126 385 126 335 _c
126 297 126 262 128 230 _c
130 197 135 163 143 128 _c
151 93 163 64 181 40 _c
198 16 221 4 250 4 _c
_cl}_e}_d
/two{{500 0 50 0 449 666 _sc
50 0 _m
50 27 _l
50 28 50 30 52 32 _c
207 204 _l
230 229 249 250 264 268 _c
278 285 293 305 307 327 _c
321 349 333 372 341 396 _c
349 419 354 444 354 470 _c
354 497 349 523 339 548 _c
329 573 314 593 294 608 _c
274 623 249 631 221 631 _c
192 631 166 622 143 605 _c
119 587 103 565 94 537 _c
96 537 100 538 105 538 _c
}_e{119 538 132 533 143 523 _c
153 513 159 500 159 484 _c
159 468 153 455 143 445 _c
132 434 119 429 105 429 _c
89 429 76 434 66 445 _c
55 456 50 469 50 484 _c
50 508 54 532 64 554 _c
73 576 86 595 104 613 _c
122 630 142 643 164 652 _c
186 661 210 666 236 666 _c
274 666 309 658 342 642 _c
375 626 401 603 420 573 _c
439 543 449 509 449 470 _c
}_e{449 441 442 414 430 388 _c
417 362 401 338 381 317 _c
361 295 336 271 305 244 _c
274 217 254 199 244 190 _c
131 81 _l
227 81 _l
274 81 313 81 345 82 _c
377 82 394 84 396 86 _c
404 94 412 125 420 178 _c
449 178 _l
421 0 _l
50 0 _l
_cl}_e}_d
/parenright{{388 0 56 -249 291 750 _sc
65 -249 _m
59 -249 56 -246 56 -240 _c
56 -237 56 -235 58 -234 _c
172 -122 229 38 229 250 _c
229 462 172 623 60 733 _c
57 734 56 737 56 741 _c
56 743 57 745 59 747 _c
61 749 63 750 65 750 _c
74 750 _l
76 750 77 749 79 748 _c
127 710 167 664 199 610 _c
231 556 254 498 269 437 _c
283 376 291 314 291 250 _c
291 202 287 156 279 110 _c
}_e{271 64 258 20 241 -24 _c
223 -68 201 -108 175 -146 _c
148 -184 116 -217 79 -247 _c
77 -248 76 -249 74 -249 _c
65 -249 _l
_cl}_e}_d
/parenleft{{388 0 97 -249 332 750 _sc
310 -247 _m
272 -217 240 -184 214 -146 _c
187 -108 165 -67 148 -25 _c
131 17 118 62 110 109 _c
101 155 97 202 97 250 _c
97 298 101 345 110 392 _c
118 438 131 483 149 527 _c
166 570 188 611 215 649 _c
242 687 274 720 310 748 _c
310 749 311 750 315 750 _c
324 750 _l
326 750 327 749 329 747 _c
331 745 332 743 332 741 _c
332 738 331 736 330 735 _c
}_e{297 703 270 668 248 632 _c
226 596 209 557 196 516 _c
183 474 174 432 168 388 _c
162 344 159 298 159 250 _c
159 38 215 -122 329 -232 _c
331 -234 332 -236 332 -240 _c
332 -242 331 -244 329 -246 _c
327 -248 326 -249 324 -249 _c
315 -249 _l
311 -249 310 -248 310 -247 _c
_cl}_e}_d
end readonly def

/BuildGlyph
 {exch begin
 CharStrings exch
 2 copy known not{pop /.notdef}if
 true 3 1 roll get exec
 end}_d

/BuildChar {
 1 index /Encoding get exch get
 1 index /BuildGlyph get exec
}_d

FontName currentdict end definefont pop
%!PS-Adobe-3.0 Resource-Font
%%Title: DejaVu Sans
%%Copyright: Copyright (c) 2003 by Bitstream, Inc. All Rights Reserved. Copyright (c) 2006 by Tavmjong Bah. All Rights Reserved. DejaVu changes are in public domain 
%%Creator: Converted from TrueType to type 3 by PPR
25 dict begin
/_d{bind def}bind def
/_m{moveto}_d
/_l{lineto}_d
/_cl{closepath eofill}_d
/_c{curveto}_d
/_sc{7 -1 roll{setcachedevice}{pop pop pop pop pop pop}ifelse}_d
/_e{exec}_d
/FontName /DejaVuSans def
/PaintType 0 def
/FontMatrix[.001 0 0 .001 0 0]def
/FontBBox[-1021 -415 1681 1167]def
/FontType 3 def
/Encoding [ /space /zero /one /two /three /four /five /six /seven /eight /nine /D /J /M /S /a /e /n /p /t /y ] def
/FontInfo 10 dict dup begin
/FamilyName (DejaVu Sans) def
/FullName (DejaVu Sans) def
/Notice (Copyright (c) 2003 by Bitstream, Inc. All Rights Reserved. Copyright (c) 2006 by Tavmjong Bah. All Rights Reserved. DejaVu changes are in public domain ) def
/Weight (Book) def
/Version (Version 2.33) def
/ItalicAngle 0.0 def
/isFixedPitch false def
/UnderlinePosition -130 def
/UnderlineThickness 90 def
end readonly def
/CharStrings 21 dict dup begin
/space{318 0 0 0 0 0 _sc
}_d
/zero{636 0 66 -13 570 742 _sc
318 664 _m
267 664 229 639 203 589 _c
177 539 165 464 165 364 _c
165 264 177 189 203 139 _c
229 89 267 64 318 64 _c
369 64 407 89 433 139 _c
458 189 471 264 471 364 _c
471 464 458 539 433 589 _c
407 639 369 664 318 664 _c
318 742 _m
399 742 461 709 505 645 _c
548 580 570 486 570 364 _c
570 241 548 147 505 83 _c
461 19 399 -13 318 -13 _c
236 -13 173 19 130 83 _c
87 147 66 241 66 364 _c
66 486 87 580 130 645 _c
173 709 236 742 318 742 _c
_cl}_d
/one{636 0 110 0 544 729 _sc
124 83 _m
285 83 _l
285 639 _l
110 604 _l
110 694 _l
284 729 _l
383 729 _l
383 83 _l
544 83 _l
544 0 _l
124 0 _l
124 83 _l
_cl}_d
/two{{636 0 73 0 536 742 _sc
192 83 _m
536 83 _l
536 0 _l
73 0 _l
73 83 _l
110 121 161 173 226 239 _c
290 304 331 346 348 365 _c
380 400 402 430 414 455 _c
426 479 433 504 433 528 _c
433 566 419 598 392 622 _c
365 646 330 659 286 659 _c
255 659 222 653 188 643 _c
154 632 117 616 78 594 _c
78 694 _l
118 710 155 722 189 730 _c
223 738 255 742 284 742 _c
}_e{359 742 419 723 464 685 _c
509 647 532 597 532 534 _c
532 504 526 475 515 449 _c
504 422 484 390 454 354 _c
446 344 420 317 376 272 _c
332 227 271 164 192 83 _c
_cl}_e}_d
/three{{636 0 76 -13 556 742 _sc
406 393 _m
453 383 490 362 516 330 _c
542 298 556 258 556 212 _c
556 140 531 84 482 45 _c
432 6 362 -13 271 -13 _c
240 -13 208 -10 176 -4 _c
144 1 110 10 76 22 _c
76 117 _l
103 101 133 89 166 81 _c
198 73 232 69 268 69 _c
330 69 377 81 409 105 _c
441 129 458 165 458 212 _c
458 254 443 288 413 312 _c
383 336 341 349 287 349 _c
}_e{202 349 _l
202 430 _l
291 430 _l
339 430 376 439 402 459 _c
428 478 441 506 441 543 _c
441 580 427 609 401 629 _c
374 649 336 659 287 659 _c
260 659 231 656 200 650 _c
169 644 135 635 98 623 _c
98 711 _l
135 721 170 729 203 734 _c
235 739 266 742 296 742 _c
370 742 429 725 473 691 _c
517 657 539 611 539 553 _c
539 513 527 479 504 451 _c
481 423 448 403 406 393 _c
_cl}_e}_d
/four{636 0 49 0 580 729 _sc
378 643 _m
129 254 _l
378 254 _l
378 643 _l
352 729 _m
476 729 _l
476 254 _l
580 254 _l
580 172 _l
476 172 _l
476 0 _l
378 0 _l
378 172 _l
49 172 _l
49 267 _l
352 729 _l
_cl}_d
/five{{636 0 77 -13 549 729 _sc
108 729 _m
495 729 _l
495 646 _l
198 646 _l
198 467 _l
212 472 227 476 241 478 _c
255 480 270 482 284 482 _c
365 482 429 459 477 415 _c
525 370 549 310 549 234 _c
549 155 524 94 475 51 _c
426 8 357 -13 269 -13 _c
238 -13 207 -10 175 -6 _c
143 -1 111 6 77 17 _c
77 116 _l
106 100 136 88 168 80 _c
199 72 232 69 267 69 _c
}_e{323 69 368 83 401 113 _c
433 143 450 183 450 234 _c
450 284 433 324 401 354 _c
368 384 323 399 267 399 _c
241 399 214 396 188 390 _c
162 384 135 375 108 363 _c
108 729 _l
_cl}_e}_d
/six{{636 0 70 -13 573 742 _sc
330 404 _m
286 404 251 388 225 358 _c
199 328 186 286 186 234 _c
186 181 199 139 225 109 _c
251 79 286 64 330 64 _c
374 64 409 79 435 109 _c
461 139 474 181 474 234 _c
474 286 461 328 435 358 _c
409 388 374 404 330 404 _c
526 713 _m
526 623 _l
501 635 476 644 451 650 _c
425 656 400 659 376 659 _c
310 659 260 637 226 593 _c
}_e{192 549 172 482 168 394 _c
187 422 211 444 240 459 _c
269 474 301 482 336 482 _c
409 482 467 459 509 415 _c
551 371 573 310 573 234 _c
573 159 550 99 506 54 _c
462 9 403 -13 330 -13 _c
246 -13 181 19 137 83 _c
92 147 70 241 70 364 _c
70 479 97 571 152 639 _c
206 707 280 742 372 742 _c
396 742 421 739 447 735 _c
472 730 498 723 526 713 _c
_cl}_e}_d
/seven{636 0 82 0 551 729 _sc
82 729 _m
551 729 _l
551 687 _l
286 0 _l
183 0 _l
432 646 _l
82 646 _l
82 729 _l
_cl}_d
/eight{{636 0 68 -13 568 742 _sc
318 346 _m
271 346 234 333 207 308 _c
180 283 167 249 167 205 _c
167 161 180 126 207 101 _c
234 76 271 64 318 64 _c
364 64 401 76 428 102 _c
455 127 469 161 469 205 _c
469 249 455 283 429 308 _c
402 333 365 346 318 346 _c
219 388 _m
177 398 144 418 120 447 _c
96 476 85 511 85 553 _c
85 611 105 657 147 691 _c
188 725 245 742 318 742 _c
}_e{390 742 447 725 489 691 _c
530 657 551 611 551 553 _c
551 511 539 476 515 447 _c
491 418 459 398 417 388 _c
464 377 501 355 528 323 _c
554 291 568 251 568 205 _c
568 134 546 80 503 43 _c
459 5 398 -13 318 -13 _c
237 -13 175 5 132 43 _c
89 80 68 134 68 205 _c
68 251 81 291 108 323 _c
134 355 171 377 219 388 _c
183 544 _m
183 506 194 476 218 455 _c
}_e{242 434 275 424 318 424 _c
360 424 393 434 417 455 _c
441 476 453 506 453 544 _c
453 582 441 611 417 632 _c
393 653 360 664 318 664 _c
275 664 242 653 218 632 _c
194 611 183 582 183 544 _c
_cl}_e}_d
/nine{{636 0 63 -13 566 742 _sc
110 15 _m
110 105 _l
134 93 159 84 185 78 _c
210 72 235 69 260 69 _c
324 69 374 90 408 134 _c
442 178 462 244 468 334 _c
448 306 424 284 396 269 _c
367 254 335 247 300 247 _c
226 247 168 269 126 313 _c
84 357 63 417 63 494 _c
63 568 85 628 129 674 _c
173 719 232 742 306 742 _c
390 742 455 709 499 645 _c
543 580 566 486 566 364 _c
}_e{566 248 538 157 484 89 _c
429 21 356 -13 264 -13 _c
239 -13 214 -10 189 -6 _c
163 -2 137 5 110 15 _c
306 324 _m
350 324 385 339 411 369 _c
437 399 450 441 450 494 _c
450 546 437 588 411 618 _c
385 648 350 664 306 664 _c
262 664 227 648 201 618 _c
175 588 162 546 162 494 _c
162 441 175 399 201 369 _c
227 339 262 324 306 324 _c
_cl}_e}_d
/D{770 0 98 0 711 729 _sc
197 648 _m
197 81 _l
316 81 _l
416 81 490 103 537 149 _c
583 195 607 267 607 365 _c
607 463 583 534 537 580 _c
490 625 416 648 316 648 _c
197 648 _l
98 729 _m
301 729 _l
442 729 546 699 612 641 _c
678 582 711 490 711 365 _c
711 239 677 147 611 88 _c
545 29 441 0 301 0 _c
98 0 _l
98 729 _l
_cl}_d
/J{295 0 -51 -199 197 729 _sc
98 729 _m
197 729 _l
197 51 _l
197 -36 180 -99 147 -139 _c
113 -179 60 -199 -13 -199 _c
-51 -199 _l
-51 -116 _l
-20 -116 _l
22 -116 53 -103 71 -79 _c
89 -55 98 -11 98 51 _c
98 729 _l
_cl}_d
/M{863 0 98 0 765 729 _sc
98 729 _m
245 729 _l
431 233 _l
618 729 _l
765 729 _l
765 0 _l
669 0 _l
669 640 _l
481 140 _l
382 140 _l
194 640 _l
194 0 _l
98 0 _l
98 729 _l
_cl}_d
/S{{635 0 66 -13 579 742 _sc
535 705 _m
535 609 _l
497 627 462 640 429 649 _c
395 657 363 662 333 662 _c
279 662 237 651 208 631 _c
179 610 165 580 165 542 _c
165 510 174 485 194 469 _c
213 452 250 439 304 429 _c
364 417 _l
437 403 491 378 526 343 _c
561 307 579 260 579 201 _c
579 130 555 77 508 41 _c
460 5 391 -13 300 -13 _c
265 -13 228 -9 189 -2 _c
}_e{150 5 110 16 69 32 _c
69 134 _l
109 111 148 94 186 83 _c
224 71 262 66 300 66 _c
356 66 399 77 430 99 _c
460 121 476 152 476 194 _c
476 230 465 258 443 278 _c
421 298 385 313 335 323 _c
275 335 _l
201 349 148 372 115 404 _c
82 435 66 478 66 534 _c
66 598 88 649 134 686 _c
179 723 242 742 322 742 _c
356 742 390 739 426 733 _c
461 727 497 717 535 705 _c
}_e{_cl}_e}_d
/a{{613 0 60 -13 522 560 _sc
343 275 _m
270 275 220 266 192 250 _c
164 233 150 205 150 165 _c
150 133 160 107 181 89 _c
202 70 231 61 267 61 _c
317 61 357 78 387 114 _c
417 149 432 196 432 255 _c
432 275 _l
343 275 _l
522 312 _m
522 0 _l
432 0 _l
432 83 _l
411 49 385 25 355 10 _c
325 -5 287 -13 243 -13 _c
187 -13 142 2 109 33 _c
76 64 60 106 60 159 _c
}_e{60 220 80 266 122 298 _c
163 329 224 345 306 345 _c
432 345 _l
432 354 _l
432 395 418 427 391 450 _c
364 472 326 484 277 484 _c
245 484 215 480 185 472 _c
155 464 127 453 100 439 _c
100 522 _l
132 534 164 544 195 550 _c
226 556 256 560 286 560 _c
365 560 424 539 463 498 _c
502 457 522 395 522 312 _c
_cl}_e}_d
/e{{615 0 55 -13 562 560 _sc
562 296 _m
562 252 _l
149 252 _l
153 190 171 142 205 110 _c
238 78 284 62 344 62 _c
378 62 412 66 444 74 _c
476 82 509 95 541 113 _c
541 28 _l
509 14 476 3 442 -3 _c
408 -9 373 -13 339 -13 _c
251 -13 182 12 131 62 _c
80 112 55 181 55 268 _c
55 357 79 428 127 481 _c
175 533 241 560 323 560 _c
397 560 455 536 498 489 _c
}_e{540 441 562 377 562 296 _c
472 322 _m
471 371 457 410 431 440 _c
404 469 368 484 324 484 _c
274 484 234 469 204 441 _c
174 413 156 373 152 322 _c
472 322 _l
_cl}_e}_d
/n{634 0 91 0 549 560 _sc
549 330 _m
549 0 _l
459 0 _l
459 327 _l
459 379 448 417 428 443 _c
408 469 378 482 338 482 _c
289 482 251 466 223 435 _c
195 404 181 362 181 309 _c
181 0 _l
91 0 _l
91 547 _l
181 547 _l
181 462 _l
202 494 227 519 257 535 _c
286 551 320 560 358 560 _c
420 560 468 540 500 501 _c
532 462 549 405 549 330 _c
_cl}_d
/p{{635 0 91 -207 580 560 _sc
181 82 _m
181 -207 _l
91 -207 _l
91 547 _l
181 547 _l
181 464 _l
199 496 223 520 252 536 _c
281 552 316 560 356 560 _c
422 560 476 533 518 481 _c
559 428 580 359 580 273 _c
580 187 559 117 518 65 _c
476 13 422 -13 356 -13 _c
316 -13 281 -5 252 10 _c
223 25 199 49 181 82 _c
487 273 _m
487 339 473 390 446 428 _c
418 466 381 485 334 485 _c
}_e{286 485 249 466 222 428 _c
194 390 181 339 181 273 _c
181 207 194 155 222 117 _c
249 79 286 61 334 61 _c
381 61 418 79 446 117 _c
473 155 487 207 487 273 _c
_cl}_e}_d
/t{392 0 27 0 368 702 _sc
183 702 _m
183 547 _l
368 547 _l
368 477 _l
183 477 _l
183 180 _l
183 135 189 106 201 94 _c
213 81 238 75 276 75 _c
368 75 _l
368 0 _l
276 0 _l
206 0 158 13 132 39 _c
106 65 93 112 93 180 _c
93 477 _l
27 477 _l
27 547 _l
93 547 _l
93 702 _l
183 702 _l
_cl}_d
/y{592 0 30 -207 562 547 _sc
322 -50 _m
296 -114 271 -157 247 -177 _c
223 -197 191 -207 151 -207 _c
79 -207 _l
79 -132 _l
132 -132 _l
156 -132 175 -126 189 -114 _c
203 -102 218 -75 235 -31 _c
251 9 _l
30 547 _l
125 547 _l
296 119 _l
467 547 _l
562 547 _l
322 -50 _l
_cl}_d
end readonly def

/BuildGlyph
 {exch begin
 CharStrings exch
 2 copy known not{pop /.notdef}if
 true 3 1 roll get exec
 end}_d

/BuildChar {
 1 index /Encoding get exch get
 1 index /BuildGlyph get exec
}_d

FontName currentdict end definefont pop
%!PS-Adobe-3.0 Resource-Font
%%Title: cmmi10
%%Copyright: Copyright (C) 1994, Basil K. Malyshev. All Rights Reserved.012BaKoMa Fonts Collection, Level-B.
%%Creator: Converted from TrueType to type 3 by PPR
25 dict begin
/_d{bind def}bind def
/_m{moveto}_d
/_l{lineto}_d
/_cl{closepath eofill}_d
/_c{curveto}_d
/_sc{7 -1 roll{setcachedevice}{pop pop pop pop pop pop}ifelse}_d
/_e{exec}_d
/FontName /Cmmi10 def
/PaintType 0 def
/FontMatrix[.001 0 0 .001 0 0]def
/FontBBox[-34 -250 1048 750]def
/FontType 3 def
/Encoding [ /t /m /W /slash /E ] def
/FontInfo 10 dict dup begin
/FamilyName (cmmi10) def
/FullName (cmmi10) def
/Notice (Copyright (C) 1994, Basil K. Malyshev. All Rights Reserved.012BaKoMa Fonts Collection, Level-B. ) def
/Weight (Regular) def
/Version (1.1/12-Nov-94) def
/ItalicAngle 0.0 def
/isFixedPitch false def
/UnderlinePosition -133 def
/UnderlineThickness 20 def
end readonly def
/CharStrings 5 dict dup begin
/t{{361 0 22 -10 330 626 _sc
62 81 _m
62 91 63 100 65 109 _c
137 396 _l
32 396 _l
25 396 22 400 22 409 _c
24 423 29 431 35 431 _c
146 431 _l
186 594 _l
188 602 193 610 201 616 _c
209 622 218 626 228 626 _c
236 626 243 623 249 618 _c
255 613 258 606 258 598 _c
258 596 257 594 257 593 _c
257 592 257 591 257 590 _c
217 431 _l
320 431 _l
326 431 330 426 330 418 _c
}_e{330 416 329 414 328 410 _c
327 406 326 402 324 400 _c
322 397 320 396 317 396 _c
208 396 _l
136 107 _l
131 88 129 72 129 58 _c
129 29 138 15 158 15 _c
187 15 213 28 236 56 _c
258 84 276 114 288 147 _c
290 151 293 153 296 153 _c
308 153 _l
310 153 312 152 314 150 _c
316 148 317 146 317 144 _c
317 142 316 141 316 141 _c
301 101 280 65 252 35 _c
}_e{224 5 192 -10 156 -10 _c
129 -10 107 -1 89 15 _c
71 32 62 54 62 81 _c
_cl}_e}_d
/m{{878 0 27 -10 851 442 _sc
77 17 _m
77 21 77 24 78 26 _c
153 324 _l
157 342 160 359 160 373 _c
160 401 150 416 131 416 _c
110 416 94 403 84 378 _c
74 353 64 322 55 284 _c
55 282 54 280 52 279 _c
50 278 48 278 47 278 _c
35 278 _l
33 278 31 279 29 281 _c
27 283 27 286 27 288 _c
34 317 41 342 48 362 _c
54 382 65 400 79 417 _c
}_e{93 433 110 442 132 442 _c
156 442 178 434 198 418 _c
217 402 227 382 227 358 _c
247 384 270 404 297 419 _c
323 434 352 442 382 442 _c
413 442 440 434 463 418 _c
486 402 498 379 498 349 _c
518 378 542 401 570 417 _c
597 433 627 442 660 442 _c
694 442 722 432 743 414 _c
764 395 775 368 775 334 _c
775 306 768 273 756 235 _c
744 196 729 153 711 105 _c
}_e{701 81 697 61 697 45 _c
697 25 704 15 720 15 _c
746 15 767 29 785 57 _c
802 85 814 115 822 147 _c
824 151 826 153 830 153 _c
842 153 _l
844 153 846 152 848 150 _c
850 148 851 146 851 144 _c
851 143 850 142 850 141 _c
840 103 824 68 802 37 _c
780 5 752 -10 718 -10 _c
694 -10 674 -2 658 13 _c
641 29 633 48 633 72 _c
633 83 635 96 641 111 _c
}_e{659 161 675 205 688 245 _c
700 284 707 319 707 349 _c
707 367 703 383 696 396 _c
688 409 676 416 658 416 _c
622 416 590 404 563 382 _c
536 360 513 330 494 294 _c
492 287 491 282 491 279 _c
427 22 _l
424 12 419 5 411 -1 _c
403 -7 394 -10 385 -10 _c
377 -10 370 -7 364 -3 _c
358 1 355 8 355 17 _c
355 21 355 24 356 26 _c
420 281 _l
426 308 430 331 430 349 _c
}_e{430 367 426 383 418 396 _c
410 409 398 416 380 416 _c
355 416 332 410 312 400 _c
292 389 274 375 259 357 _c
243 339 229 318 217 294 _c
149 22 _l
147 12 142 5 134 -1 _c
126 -7 117 -10 107 -10 _c
99 -10 92 -7 86 -3 _c
80 1 77 8 77 17 _c
_cl}_e}_d
/W{{944 0 54 -21 1048 683 _sc
178 -10 _m
132 626 _l
129 636 121 642 109 644 _c
97 646 82 648 64 648 _c
57 648 54 652 54 661 _c
56 669 58 675 60 678 _c
61 681 65 683 71 683 _c
309 683 _l
315 683 319 678 319 670 _c
316 655 312 648 306 648 _c
252 648 224 638 221 620 _c
257 115 _l
507 551 _l
502 626 _l
500 636 492 642 480 644 _c
467 646 452 648 434 648 _c
}_e{427 648 424 652 424 661 _c
426 669 427 675 429 678 _c
430 681 434 683 441 683 _c
679 683 _l
685 683 689 678 689 670 _c
688 668 687 665 687 661 _c
686 657 685 654 683 652 _c
681 649 679 648 676 648 _c
622 648 593 638 591 620 _c
591 613 _l
627 115 _l
899 590 _l
903 597 905 604 905 611 _c
905 624 898 633 885 639 _c
871 645 856 648 840 648 _c
833 648 830 652 830 661 _c
}_e{831 666 832 670 833 673 _c
833 676 835 678 837 680 _c
839 682 843 683 847 683 _c
1038 683 _l
1044 683 1048 678 1048 670 _c
1047 668 1046 665 1045 661 _c
1044 657 1043 653 1041 651 _c
1039 649 1037 648 1035 648 _c
987 648 951 626 927 583 _c
925 581 924 580 924 580 _c
585 -10 _l
581 -17 576 -21 568 -21 _c
560 -21 _l
552 -21 548 -17 548 -10 _c
510 504 _l
216 -10 _l
}_e{210 -17 204 -21 198 -21 _c
190 -21 _l
182 -21 178 -17 178 -10 _c
_cl}_e}_d
/slash{500 0 56 -249 443 750 _sc
56 -229 _m
56 -227 56 -225 57 -225 _c
405 738 _l
406 742 408 745 412 747 _c
415 749 419 750 423 750 _c
429 750 433 748 437 744 _c
441 740 443 736 443 730 _c
443 726 _l
95 -237 _l
91 -245 84 -249 76 -249 _c
70 -249 66 -247 62 -243 _c
58 -239 56 -234 56 -229 _c
_cl}_d
/E{{738 0 37 0 764 683 _sc
47 0 _m
40 0 37 4 37 13 _c
37 15 38 18 39 22 _c
40 26 41 29 43 31 _c
45 33 47 35 50 35 _c
90 35 119 37 135 42 _c
143 44 150 53 154 69 _c
291 618 _l
292 624 293 629 293 632 _c
293 639 289 643 281 644 _c
268 646 244 648 209 648 _c
202 648 199 652 199 661 _c
199 663 200 666 201 670 _c
202 674 203 677 205 679 _c
}_e{207 681 209 683 212 683 _c
754 683 _l
760 683 764 678 764 670 _c
740 463 _l
740 461 738 459 736 457 _c
734 455 732 454 730 454 _c
721 454 _l
714 454 711 458 711 467 _c
715 499 717 523 717 539 _c
717 565 712 586 703 601 _c
693 616 681 627 666 633 _c
651 639 634 643 616 645 _c
598 647 574 648 544 648 _c
430 648 _l
412 648 400 646 394 643 _c
388 640 382 630 378 614 _c
}_e{318 372 _l
396 372 _l
430 372 455 374 473 379 _c
490 383 504 393 514 408 _c
524 423 533 447 541 480 _c
541 482 542 484 544 486 _c
546 488 548 489 551 489 _c
560 489 _l
566 489 570 484 570 476 _c
508 229 _l
506 223 503 220 498 220 _c
489 220 _l
482 220 479 224 479 233 _c
485 259 489 279 489 292 _c
489 311 480 323 462 329 _c
444 334 421 337 392 337 _c
309 337 _l
}_e{241 65 _l
238 57 237 49 237 43 _c
237 37 248 35 271 35 _c
392 35 _l
440 35 479 38 509 46 _c
539 54 563 66 583 82 _c
603 98 620 119 634 145 _c
648 170 666 207 687 256 _c
688 260 691 262 696 262 _c
705 262 _l
707 262 710 260 712 258 _c
714 256 715 253 715 251 _c
715 249 714 248 714 247 _c
611 6 _l
609 2 607 0 603 0 _c
47 0 _l
_cl}_e}_d
end readonly def

/BuildGlyph
 {exch begin
 CharStrings exch
 2 copy known not{pop /.notdef}if
 true 3 1 roll get exec
 end}_d

/BuildChar {
 1 index /Encoding get exch get
 1 index /BuildGlyph get exec
}_d

FontName currentdict end definefont pop
end
%%EndProlog
mpldict begin
13.5 175.5 translate
585 441 0 0 clipbox
gsave
0 0 m
585 0 l
585 441 l
0 441 l
cl
1.000 setgray
fill
grestore
gsave
73.125 88.2 m
526.5 88.2 l
526.5 396.9 l
73.125 396.9 l
cl
1.000 setgray
fill
grestore
2.000 setlinewidth
1 setlinejoin
0 setlinecap
[6 6] 0 setdash
1.000 0.000 0.000 setrgbcolor
gsave
453.4 308.7 73.12 88.2 clipbox
73.0697 236.754 m
526.739 236.754 l
526.739 236.754 l
stroke
grestore
2 setlinecap
[] 0 setdash
0.000 0.000 1.000 setrgbcolor
gsave
453.4 308.7 73.12 88.2 clipbox
73.0697 102.27 m
74.1165 104.583 l
75.5123 108.33 l
76.908 112.786 l
78.6527 119.12 l
80.7463 127.489 l
82.84 136.799 l
84.5846 145.514 l
86.6783 157.207 l
89.8187 176.386 l
93.657 201.105 l
96.4485 220.515 l
103.776 272.556 l
109.708 312.879 l
112.151 327.585 l
114.593 340.821 l
117.385 354.654 l
119.129 362.336 l
120.525 367.657 l
121.921 372.165 l
123.317 375.883 l
124.712 378.911 l
126.108 381.39 l
127.155 382.912 l
128.202 384.087 l
128.9 384.637 l
129.598 384.978 l
130.295 385.097 l
130.993 384.987 l
131.691 384.648 l
132.389 384.084 l
133.436 382.835 l
134.483 381.16 l
135.878 378.404 l
137.274 375.15 l
138.67 371.337 l
140.117 366.77 l
141.512 361.462 l
143.257 353.743 l
145.351 343.211 l
148.142 327.979 l
150.585 313.508 l
153.027 297.6 l
157.563 265.893 l
165.24 211.538 l
168.032 192.479 l
171.172 172.715 l
174.661 152.055 l
176.755 140.754 l
178.5 132.388 l
180.244 124.968 l
182.338 117.057 l
184.432 110.003 l
185.827 105.927 l
187.223 102.546 l
188.27 100.51 l
189.317 98.8998 l
190.364 97.6843 l
191.41 96.8155 l
192.457 96.2302 l
193.504 95.8871 l
194.551 95.8018 l
195.249 95.9175 l
195.947 96.1968 l
196.644 96.6556 l
197.342 97.3048 l
198.389 98.6437 l
199.436 100.413 l
200.483 102.587 l
201.879 106.009 l
203.623 110.907 l
205.368 116.442 l
207.113 122.841 l
208.857 130.269 l
210.602 138.704 l
213.045 151.715 l
216.185 169.602 l
218.628 184.8 l
221.419 203.738 l
236.423 308.055 l
239.913 329.151 l
242.355 342.912 l
244.1 351.693 l
245.845 359.338 l
247.589 365.919 l
249.334 371.628 l
251.079 376.595 l
252.474 379.907 l
253.521 381.876 l
254.568 383.342 l
255.266 384.035 l
255.964 384.503 l
256.662 384.758 l
257.36 384.811 l
258.057 384.68 l
259.104 384.186 l
260.151 383.383 l
261.198 382.283 l
262.245 380.837 l
263.292 378.972 l
264.338 376.636 l
265.385 373.812 l
266.781 369.32 l
268.526 362.691 l
270.619 353.72 l
272.713 343.869 l
274.806 332.807 l
276.9 320.399 l
279.692 302.324 l
284.926 266.958 l
289.113 236.718 l
292.602 212.188 l
297.487 179.767 l
300.279 162.276 l
302.373 150.496 l
304.815 138.191 l
307.258 127.004 l
309.351 118.34 l
310.747 113.315 l
312.143 109.028 l
313.539 105.453 l
314.934 102.496 l
316.33 100.044 l
317.726 98.0266 l
318.773 96.8292 l
319.819 95.9792 l
320.517 95.6411 l
321.215 95.4999 l
321.913 95.5597 l
322.611 95.8145 l
323.309 96.2576 l
324.356 97.2479 l
325.402 98.5799 l
326.798 100.781 l
328.194 103.405 l
329.59 106.527 l
330.985 110.298 l
332.381 114.796 l
333.777 119.995 l
335.522 127.327 l
337.964 138.603 l
340.407 150.915 l
342.5 162.7 l
344.943 177.885 l
349.828 210.228 l
353.317 234.525 l
359.947 281.607 l
365.181 316.06 l
367.624 330.89 l
369.717 342.128 l
371.811 352.121 l
373.905 361.143 l
375.649 367.907 l
377.045 372.603 l
378.441 376.466 l
379.488 378.786 l
380.535 380.644 l
381.581 382.088 l
382.628 383.169 l
383.675 383.932 l
384.722 384.392 l
385.42 384.515 l
386.118 384.468 l
386.815 384.226 l
387.513 383.767 l
388.211 383.08 l
389.258 381.617 l
390.305 379.662 l
391.352 377.261 l
392.747 373.479 l
394.492 368.033 l
396.237 361.846 l
397.981 354.684 l
399.726 346.386 l
401.82 335.093 l
404.96 316.539 l
408.101 296.787 l
410.892 277.654 l
421.709 201.438 l
424.85 180.405 l
427.292 165.602 l
430.433 148.032 l
432.875 135.38 l
434.62 127.291 l
436.365 120.286 l
438.109 114.261 l
439.854 109.009 l
441.599 104.42 l
442.994 101.287 l
444.041 99.3581 l
445.088 97.8628 l
446.135 96.8223 l
447.182 96.2096 l
448.228 95.9733 l
449.275 96.0635 l
450.322 96.4341 l
451.369 97.0576 l
452.416 97.9472 l
453.462 99.1549 l
454.509 100.754 l
455.556 102.789 l
456.603 105.261 l
457.999 109.171 l
459.743 114.861 l
461.837 122.539 l
463.931 131.132 l
465.675 139.285 l
467.769 150.343 l
470.56 166.644 l
474.399 190.432 l
477.19 209.237 l
491.497 308.942 l
493.939 323.73 l
496.731 339.18 l
499.173 351.625 l
500.918 359.57 l
502.314 365.074 l
503.709 369.764 l
505.105 373.745 l
506.501 377.135 l
507.897 379.99 l
509.292 382.291 l
510.339 383.578 l
511.037 384.18 l
511.735 384.554 l
512.433 384.69 l
513.131 384.589 l
513.829 384.267 l
514.527 383.739 l
515.573 382.606 l
516.62 381.112 l
518.016 378.635 l
519.412 375.628 l
520.807 371.992 l
522.203 367.573 l
523.599 362.321 l
525.344 354.734 l
526.739 348.043 l
526.739 348.043 l
stroke
grestore
0.500 setlinewidth
0 setlinecap
[1 3] 0 setdash
0.000 setgray
gsave
453.4 308.7 73.12 88.2 clipbox
86.6746 88.2 m
86.6746 396.9 l
stroke
grestore
[] 0 setdash
gsave
/o {
gsave
newpath
translate
0.5 setlinewidth
1 setlinejoin
0 setlinecap
0 0 m
0 4 l
gsave
0.000 setgray
fill
grestore
stroke
grestore
} bind def
86.6746 88.2 o
grestore
gsave
/o {
gsave
newpath
translate
0.5 setlinewidth
1 setlinejoin
0 setlinecap
0 0 m
0 -4 l
gsave
0.000 setgray
fill
grestore
stroke
grestore
} bind def
86.6746 396.9 o
grestore
/DejaVuSans findfont
12.000 scalefont
setfont
gsave
38.204281 46.337523 translate
30.000000 rotate
0.000000 2.500000 m /S glyphshow
7.617188 2.500000 m /e glyphshow
15.000000 2.500000 m /p glyphshow
22.617188 2.500000 m /space glyphshow
26.431641 2.500000 m /one glyphshow
34.066406 2.500000 m /nine glyphshow
41.701172 2.500000 m /nine glyphshow
49.335938 2.500000 m /five glyphshow
grestore
[1 3] 0 setdash
gsave
453.4 308.7 73.12 88.2 clipbox
129.245 88.2 m
129.245 396.9 l
stroke
grestore
[] 0 setdash
gsave
/o {
gsave
newpath
translate
0.5 setlinewidth
1 setlinejoin
0 setlinecap
0 0 m
0 4 l
gsave
0.000 setgray
fill
grestore
stroke
grestore
} bind def
129.245 88.2 o
grestore
gsave
/o {
gsave
newpath
translate
0.5 setlinewidth
1 setlinejoin
0 setlinecap
0 0 m
0 -4 l
gsave
0.000 setgray
fill
grestore
stroke
grestore
} bind def
129.245 396.9 o
grestore
gsave
83.562176 48.028088 translate
30.000000 rotate
0.000000 2.406250 m /J glyphshow
3.539062 2.406250 m /a glyphshow
10.892578 2.406250 m /n glyphshow
18.498047 2.406250 m /space glyphshow
22.312500 2.406250 m /one glyphshow
29.947266 2.406250 m /nine glyphshow
37.582031 2.406250 m /nine glyphshow
45.216797 2.406250 m /six glyphshow
grestore
[1 3] 0 setdash
gsave
453.4 308.7 73.12 88.2 clipbox
171.466 88.2 m
171.466 396.9 l
stroke
grestore
[] 0 setdash
gsave
/o {
gsave
newpath
translate
0.5 setlinewidth
1 setlinejoin
0 setlinecap
0 0 m
0 4 l
gsave
0.000 setgray
fill
grestore
stroke
grestore
} bind def
171.466 88.2 o
grestore
gsave
/o {
gsave
newpath
translate
0.5 setlinewidth
1 setlinejoin
0 setlinecap
0 0 m
0 -4 l
gsave
0.000 setgray
fill
grestore
stroke
grestore
} bind def
171.466 396.9 o
grestore
gsave
120.858096 45.103148 translate
30.000000 rotate
0.000000 2.500000 m /M glyphshow
10.353516 2.500000 m /a glyphshow
17.707031 2.500000 m /y glyphshow
24.808594 2.500000 m /space glyphshow
28.623047 2.500000 m /one glyphshow
36.257812 2.500000 m /nine glyphshow
43.892578 2.500000 m /nine glyphshow
51.527344 2.500000 m /six glyphshow
grestore
[1 3] 0 setdash
gsave
453.4 308.7 73.12 88.2 clipbox
214.386 88.2 m
214.386 396.9 l
stroke
grestore
[] 0 setdash
gsave
/o {
gsave
newpath
translate
0.5 setlinewidth
1 setlinejoin
0 setlinecap
0 0 m
0 4 l
gsave
0.000 setgray
fill
grestore
stroke
grestore
} bind def
214.386 88.2 o
grestore
gsave
/o {
gsave
newpath
translate
0.5 setlinewidth
1 setlinejoin
0 setlinecap
0 0 m
0 -4 l
gsave
0.000 setgray
fill
grestore
stroke
grestore
} bind def
214.386 396.9 o
grestore
gsave
165.671841 46.196898 translate
30.000000 rotate
0.000000 2.500000 m /S glyphshow
7.617188 2.500000 m /e glyphshow
15.000000 2.500000 m /p glyphshow
22.617188 2.500000 m /space glyphshow
26.431641 2.500000 m /one glyphshow
34.066406 2.500000 m /nine glyphshow
41.701172 2.500000 m /nine glyphshow
49.335938 2.500000 m /six glyphshow
grestore
[1 3] 0 setdash
gsave
453.4 308.7 73.12 88.2 clipbox
256.956 88.2 m
256.956 396.9 l
stroke
grestore
[] 0 setdash
gsave
/o {
gsave
newpath
translate
0.5 setlinewidth
1 setlinejoin
0 setlinecap
0 0 m
0 4 l
gsave
0.000 setgray
fill
grestore
stroke
grestore
} bind def
256.956 88.2 o
grestore
gsave
/o {
gsave
newpath
translate
0.5 setlinewidth
1 setlinejoin
0 setlinecap
0 0 m
0 -4 l
gsave
0.000 setgray
fill
grestore
stroke
grestore
} bind def
256.956 396.9 o
grestore
gsave
211.503344 48.160900 translate
30.000000 rotate
0.000000 2.406250 m /J glyphshow
3.539062 2.406250 m /a glyphshow
10.892578 2.406250 m /n glyphshow
18.498047 2.406250 m /space glyphshow
22.312500 2.406250 m /one glyphshow
29.947266 2.406250 m /nine glyphshow
37.582031 2.406250 m /nine glyphshow
45.216797 2.406250 m /seven glyphshow
grestore
[1 3] 0 setdash
gsave
453.4 308.7 73.12 88.2 clipbox
298.829 88.2 m
298.829 396.9 l
stroke
grestore
[] 0 setdash
gsave
/o {
gsave
newpath
translate
0.5 setlinewidth
1 setlinejoin
0 setlinecap
0 0 m
0 4 l
gsave
0.000 setgray
fill
grestore
stroke
grestore
} bind def
298.829 88.2 o
grestore
gsave
/o {
gsave
newpath
translate
0.5 setlinewidth
1 setlinejoin
0 setlinecap
0 0 m
0 -4 l
gsave
0.000 setgray
fill
grestore
stroke
grestore
} bind def
298.829 396.9 o
grestore
gsave
248.450326 45.235960 translate
30.000000 rotate
0.000000 2.500000 m /M glyphshow
10.353516 2.500000 m /a glyphshow
17.707031 2.500000 m /y glyphshow
24.808594 2.500000 m /space glyphshow
28.623047 2.500000 m /one glyphshow
36.257812 2.500000 m /nine glyphshow
43.892578 2.500000 m /nine glyphshow
51.527344 2.500000 m /seven glyphshow
grestore
[1 3] 0 setdash
gsave
453.4 308.7 73.12 88.2 clipbox
341.748 88.2 m
341.748 396.9 l
stroke
grestore
[] 0 setdash
gsave
/o {
gsave
newpath
translate
0.5 setlinewidth
1 setlinejoin
0 setlinecap
0 0 m
0 4 l
gsave
0.000 setgray
fill
grestore
stroke
grestore
} bind def
341.748 88.2 o
grestore
gsave
/o {
gsave
newpath
translate
0.5 setlinewidth
1 setlinejoin
0 setlinecap
0 0 m
0 -4 l
gsave
0.000 setgray
fill
grestore
stroke
grestore
} bind def
341.748 396.9 o
grestore
gsave
293.264070 46.329710 translate
30.000000 rotate
0.000000 2.500000 m /S glyphshow
7.617188 2.500000 m /e glyphshow
15.000000 2.500000 m /p glyphshow
22.617188 2.500000 m /space glyphshow
26.431641 2.500000 m /one glyphshow
34.066406 2.500000 m /nine glyphshow
41.701172 2.500000 m /nine glyphshow
49.335938 2.500000 m /seven glyphshow
grestore
[1 3] 0 setdash
gsave
453.4 308.7 73.12 88.2 clipbox
384.318 88.2 m
384.318 396.9 l
stroke
grestore
[] 0 setdash
gsave
/o {
gsave
newpath
translate
0.5 setlinewidth
1 setlinejoin
0 setlinecap
0 0 m
0 4 l
gsave
0.000 setgray
fill
grestore
stroke
grestore
} bind def
384.318 88.2 o
grestore
gsave
/o {
gsave
newpath
translate
0.5 setlinewidth
1 setlinejoin
0 setlinecap
0 0 m
0 -4 l
gsave
0.000 setgray
fill
grestore
stroke
grestore
} bind def
384.318 396.9 o
grestore
gsave
338.689624 48.059338 translate
30.000000 rotate
0.000000 2.406250 m /J glyphshow
3.539062 2.406250 m /a glyphshow
10.892578 2.406250 m /n glyphshow
18.498047 2.406250 m /space glyphshow
22.312500 2.406250 m /one glyphshow
29.947266 2.406250 m /nine glyphshow
37.582031 2.406250 m /nine glyphshow
45.216797 2.406250 m /eight glyphshow
grestore
[1 3] 0 setdash
gsave
453.4 308.7 73.12 88.2 clipbox
426.191 88.2 m
426.191 396.9 l
stroke
grestore
[] 0 setdash
gsave
/o {
gsave
newpath
translate
0.5 setlinewidth
1 setlinejoin
0 setlinecap
0 0 m
0 4 l
gsave
0.000 setgray
fill
grestore
stroke
grestore
} bind def
426.191 88.2 o
grestore
gsave
/o {
gsave
newpath
translate
0.5 setlinewidth
1 setlinejoin
0 setlinecap
0 0 m
0 -4 l
gsave
0.000 setgray
fill
grestore
stroke
grestore
} bind def
426.191 396.9 o
grestore
gsave
375.636606 45.134398 translate
30.000000 rotate
0.000000 2.500000 m /M glyphshow
10.353516 2.500000 m /a glyphshow
17.707031 2.500000 m /y glyphshow
24.808594 2.500000 m /space glyphshow
28.623047 2.500000 m /one glyphshow
36.257812 2.500000 m /nine glyphshow
43.892578 2.500000 m /nine glyphshow
51.527344 2.500000 m /eight glyphshow
grestore
[1 3] 0 setdash
gsave
453.4 308.7 73.12 88.2 clipbox
469.11 88.2 m
469.11 396.9 l
stroke
grestore
[] 0 setdash
gsave
/o {
gsave
newpath
translate
0.5 setlinewidth
1 setlinejoin
0 setlinecap
0 0 m
0 4 l
gsave
0.000 setgray
fill
grestore
stroke
grestore
} bind def
469.11 88.2 o
grestore
gsave
/o {
gsave
newpath
translate
0.5 setlinewidth
1 setlinejoin
0 setlinecap
0 0 m
0 -4 l
gsave
0.000 setgray
fill
grestore
stroke
grestore
} bind def
469.11 396.9 o
grestore
gsave
420.450351 46.228148 translate
30.000000 rotate
0.000000 2.500000 m /S glyphshow
7.617188 2.500000 m /e glyphshow
15.000000 2.500000 m /p glyphshow
22.617188 2.500000 m /space glyphshow
26.431641 2.500000 m /one glyphshow
34.066406 2.500000 m /nine glyphshow
41.701172 2.500000 m /nine glyphshow
49.335938 2.500000 m /eight glyphshow
grestore
[1 3] 0 setdash
gsave
453.4 308.7 73.12 88.2 clipbox
511.681 88.2 m
511.681 396.9 l
stroke
grestore
[] 0 setdash
gsave
/o {
gsave
newpath
translate
0.5 setlinewidth
1 setlinejoin
0 setlinecap
0 0 m
0 4 l
gsave
0.000 setgray
fill
grestore
stroke
grestore
} bind def
511.681 88.2 o
grestore
gsave
/o {
gsave
newpath
translate
0.5 setlinewidth
1 setlinejoin
0 setlinecap
0 0 m
0 -4 l
gsave
0.000 setgray
fill
grestore
stroke
grestore
} bind def
511.681 396.9 o
grestore
gsave
466.065348 48.067150 translate
30.000000 rotate
0.000000 2.406250 m /J glyphshow
3.539062 2.406250 m /a glyphshow
10.892578 2.406250 m /n glyphshow
18.498047 2.406250 m /space glyphshow
22.312500 2.406250 m /one glyphshow
29.947266 2.406250 m /nine glyphshow
37.582031 2.406250 m /nine glyphshow
45.216797 2.406250 m /nine glyphshow
grestore
/DejaVuSans findfont
16.000 scalefont
setfont
gsave
281.890625 28.196898 translate
0.000000 rotate
0.000000 0.234375 m /D glyphshow
12.320312 0.234375 m /a glyphshow
22.125000 0.234375 m /t glyphshow
28.398438 0.234375 m /e glyphshow
grestore
[1 3] 0 setdash
gsave
453.4 308.7 73.12 88.2 clipbox
73.125 88.2 m
526.5 88.2 l
stroke
grestore
[] 0 setdash
gsave
/o {
gsave
newpath
translate
0.5 setlinewidth
1 setlinejoin
0 setlinecap
0 0 m
4 0 l
gsave
0.000 setgray
fill
grestore
stroke
grestore
} bind def
73.125 88.2 o
grestore
gsave
/o {
gsave
newpath
translate
0.5 setlinewidth
1 setlinejoin
0 setlinecap
0 0 m
-4 0 l
gsave
0.000 setgray
fill
grestore
stroke
grestore
} bind def
526.5 88.2 o
grestore
/DejaVuSans findfont
12.000 scalefont
setfont
gsave
40.671875 83.660937 translate
0.000000 rotate
0.000000 0.171875 m /one glyphshow
7.634766 0.171875 m /three glyphshow
15.269531 0.171875 m /two glyphshow
22.904297 0.171875 m /zero glyphshow
grestore
[1 3] 0 setdash
gsave
453.4 308.7 73.12 88.2 clipbox
73.125 151.414 m
526.5 151.414 l
stroke
grestore
[] 0 setdash
gsave
/o {
gsave
newpath
translate
0.5 setlinewidth
1 setlinejoin
0 setlinecap
0 0 m
4 0 l
gsave
0.000 setgray
fill
grestore
stroke
grestore
} bind def
73.125 151.414 o
grestore
gsave
/o {
gsave
newpath
translate
0.5 setlinewidth
1 setlinejoin
0 setlinecap
0 0 m
-4 0 l
gsave
0.000 setgray
fill
grestore
stroke
grestore
} bind def
526.5 151.414 o
grestore
gsave
40.671875 146.875326 translate
0.000000 rotate
0.000000 0.171875 m /one glyphshow
7.634766 0.171875 m /three glyphshow
15.269531 0.171875 m /four glyphshow
22.904297 0.171875 m /zero glyphshow
grestore
[1 3] 0 setdash
gsave
453.4 308.7 73.12 88.2 clipbox
73.125 214.629 m
526.5 214.629 l
stroke
grestore
[] 0 setdash
gsave
/o {
gsave
newpath
translate
0.5 setlinewidth
1 setlinejoin
0 setlinecap
0 0 m
4 0 l
gsave
0.000 setgray
fill
grestore
stroke
grestore
} bind def
73.125 214.629 o
grestore
gsave
/o {
gsave
newpath
translate
0.5 setlinewidth
1 setlinejoin
0 setlinecap
0 0 m
-4 0 l
gsave
0.000 setgray
fill
grestore
stroke
grestore
} bind def
526.5 214.629 o
grestore
gsave
40.671875 210.089714 translate
0.000000 rotate
0.000000 0.171875 m /one glyphshow
7.634766 0.171875 m /three glyphshow
15.269531 0.171875 m /six glyphshow
22.904297 0.171875 m /zero glyphshow
grestore
[1 3] 0 setdash
gsave
453.4 308.7 73.12 88.2 clipbox
73.125 277.843 m
526.5 277.843 l
stroke
grestore
[] 0 setdash
gsave
/o {
gsave
newpath
translate
0.5 setlinewidth
1 setlinejoin
0 setlinecap
0 0 m
4 0 l
gsave
0.000 setgray
fill
grestore
stroke
grestore
} bind def
73.125 277.843 o
grestore
gsave
/o {
gsave
newpath
translate
0.5 setlinewidth
1 setlinejoin
0 setlinecap
0 0 m
-4 0 l
gsave
0.000 setgray
fill
grestore
stroke
grestore
} bind def
526.5 277.843 o
grestore
gsave
40.671875 273.304102 translate
0.000000 rotate
0.000000 0.171875 m /one glyphshow
7.634766 0.171875 m /three glyphshow
15.269531 0.171875 m /eight glyphshow
22.904297 0.171875 m /zero glyphshow
grestore
[1 3] 0 setdash
gsave
453.4 308.7 73.12 88.2 clipbox
73.125 341.058 m
526.5 341.058 l
stroke
grestore
[] 0 setdash
gsave
/o {
gsave
newpath
translate
0.5 setlinewidth
1 setlinejoin
0 setlinecap
0 0 m
4 0 l
gsave
0.000 setgray
fill
grestore
stroke
grestore
} bind def
73.125 341.058 o
grestore
gsave
/o {
gsave
newpath
translate
0.5 setlinewidth
1 setlinejoin
0 setlinecap
0 0 m
-4 0 l
gsave
0.000 setgray
fill
grestore
stroke
grestore
} bind def
526.5 341.058 o
grestore
gsave
40.671875 336.518490 translate
0.000000 rotate
0.000000 0.171875 m /one glyphshow
7.634766 0.171875 m /four glyphshow
15.269531 0.171875 m /zero glyphshow
22.904297 0.171875 m /zero glyphshow
grestore
gsave
35.671875 202.050000 translate
90.000000 rotate
/Cmmi10 findfont
16.0 scalefont
setfont
0.000000 5.738125 moveto
/E glyphshow

/Cmr10 findfont
11.2 scalefont
setfont
11.804688 1.656625 moveto
/zero glyphshow

/Cmr10 findfont
16.0 scalefont
setfont
19.804688 5.738125 moveto
/parenleft glyphshow

/Cmmi10 findfont
16.0 scalefont
setfont
26.015625 5.738125 moveto
/W glyphshow

41.117188 5.738125 moveto
/slash glyphshow

49.117188 5.738125 moveto
/m glyphshow

/Cmr10 findfont
11.2 scalefont
setfont
63.164062 12.540625 moveto
/two glyphshow

/Cmr10 findfont
16.0 scalefont
setfont
73.885063 5.738125 moveto
/parenright glyphshow


grestore
1.000 setlinewidth
2 setlinecap
gsave
73.125 396.9 m
526.5 396.9 l
stroke
grestore
gsave
526.5 88.2 m
526.5 396.9 l
stroke
grestore
gsave
73.125 88.2 m
526.5 88.2 l
stroke
grestore
gsave
73.125 88.2 m
73.125 396.9 l
stroke
grestore
gsave
391.9 333.788 m
518.5 333.788 l
518.5 388.9 l
391.9 388.9 l
391.9 333.788 l
cl
gsave
1.000 setgray
fill
grestore
stroke
grestore
2.000 setlinewidth
0 setlinecap
[6 6] 0 setdash
1.000 0.000 0.000 setrgbcolor
gsave
403.1 375.944 m
425.5 375.944 l
stroke
grestore
0.000 setgray
gsave
443.100000 365.343750 translate
0.000000 rotate
/DejaVuSans findfont
16.0 scalefont
setfont
0.000000 5.328125 moveto
/M glyphshow

13.804688 5.328125 moveto
/e glyphshow

23.648438 5.328125 moveto
/a glyphshow

33.453125 5.328125 moveto
/n glyphshow

43.593750 5.328125 moveto
/space glyphshow

/Cmmi10 findfont
16.0 scalefont
setfont
48.679688 5.328125 moveto
/E glyphshow

/Cmr10 findfont
11.2 scalefont
setfont
60.484375 1.246625 moveto
/zero glyphshow


grestore
2 setlinecap
[] 0 setdash
0.000 0.000 1.000 setrgbcolor
gsave
403.1 350.788 m
425.5 350.788 l
stroke
grestore
0.000 setgray
gsave
443.100000 340.187500 translate
0.000000 rotate
/Cmmi10 findfont
16.0 scalefont
setfont
0.000000 5.000000 moveto
/E glyphshow

/Cmr10 findfont
11.2 scalefont
setfont
11.804688 0.918500 moveto
/zero glyphshow

/Cmr10 findfont
16.0 scalefont
setfont
19.804688 5.000000 moveto
/parenleft glyphshow

/Cmmi10 findfont
16.0 scalefont
setfont
26.015625 5.000000 moveto
/t glyphshow

/Cmr10 findfont
16.0 scalefont
setfont
31.789062 5.000000 moveto
/parenright glyphshow


grestore

end
showpage
