%!PS-Adobe-3.0 EPSF-3.0
%%Title: hourly_standarized_E_sacf.eps
%%Creator: matplotlib version 1.2.1, http://matplotlib.org/
%%CreationDate: Fri Nov 22 11:38:45 2013
%%Orientation: portrait
%%BoundingBox: 18 180 594 612
%%EndComments
%%BeginProlog
/mpldict 8 dict def
mpldict begin
/m { moveto } bind def
/l { lineto } bind def
/r { rlineto } bind def
/c { curveto } bind def
/cl { closepath } bind def
/box {
m
1 index 0 r
0 exch r
neg 0 r
cl
} bind def
/clipbox {
box
clip
newpath
} bind def
%!PS-Adobe-3.0 Resource-Font
%%Title: DejaVu Sans
%%Copyright: Copyright (c) 2003 by Bitstream, Inc. All Rights Reserved. Copyright (c) 2006 by Tavmjong Bah. All Rights Reserved. DejaVu changes are in public domain 
%%Creator: Converted from TrueType to type 3 by PPR
25 dict begin
/_d{bind def}bind def
/_m{moveto}_d
/_l{lineto}_d
/_cl{closepath eofill}_d
/_c{curveto}_d
/_sc{7 -1 roll{setcachedevice}{pop pop pop pop pop pop}ifelse}_d
/_e{exec}_d
/FontName /DejaVuSans def
/PaintType 0 def
/FontMatrix[.001 0 0 .001 0 0]def
/FontBBox[-1021 -415 1681 1167]def
/FontType 3 def
/Encoding [ /period /zero /one /two /three /four /five /six /eight /A /a /c /e /i /l /n /o /r /t /u ] def
/FontInfo 10 dict dup begin
/FamilyName (DejaVu Sans) def
/FullName (DejaVu Sans) def
/Notice (Copyright (c) 2003 by Bitstream, Inc. All Rights Reserved. Copyright (c) 2006 by Tavmjong Bah. All Rights Reserved. DejaVu changes are in public domain ) def
/Weight (Book) def
/Version (Version 2.33) def
/ItalicAngle 0.0 def
/isFixedPitch false def
/UnderlinePosition -130 def
/UnderlineThickness 90 def
end readonly def
/CharStrings 20 dict dup begin
/period{318 0 107 0 210 124 _sc
107 124 _m
210 124 _l
210 0 _l
107 0 _l
107 124 _l
_cl}_d
/zero{636 0 66 -13 570 742 _sc
318 664 _m
267 664 229 639 203 589 _c
177 539 165 464 165 364 _c
165 264 177 189 203 139 _c
229 89 267 64 318 64 _c
369 64 407 89 433 139 _c
458 189 471 264 471 364 _c
471 464 458 539 433 589 _c
407 639 369 664 318 664 _c
318 742 _m
399 742 461 709 505 645 _c
548 580 570 486 570 364 _c
570 241 548 147 505 83 _c
461 19 399 -13 318 -13 _c
236 -13 173 19 130 83 _c
87 147 66 241 66 364 _c
66 486 87 580 130 645 _c
173 709 236 742 318 742 _c
_cl}_d
/one{636 0 110 0 544 729 _sc
124 83 _m
285 83 _l
285 639 _l
110 604 _l
110 694 _l
284 729 _l
383 729 _l
383 83 _l
544 83 _l
544 0 _l
124 0 _l
124 83 _l
_cl}_d
/two{{636 0 73 0 536 742 _sc
192 83 _m
536 83 _l
536 0 _l
73 0 _l
73 83 _l
110 121 161 173 226 239 _c
290 304 331 346 348 365 _c
380 400 402 430 414 455 _c
426 479 433 504 433 528 _c
433 566 419 598 392 622 _c
365 646 330 659 286 659 _c
255 659 222 653 188 643 _c
154 632 117 616 78 594 _c
78 694 _l
118 710 155 722 189 730 _c
223 738 255 742 284 742 _c
}_e{359 742 419 723 464 685 _c
509 647 532 597 532 534 _c
532 504 526 475 515 449 _c
504 422 484 390 454 354 _c
446 344 420 317 376 272 _c
332 227 271 164 192 83 _c
_cl}_e}_d
/three{{636 0 76 -13 556 742 _sc
406 393 _m
453 383 490 362 516 330 _c
542 298 556 258 556 212 _c
556 140 531 84 482 45 _c
432 6 362 -13 271 -13 _c
240 -13 208 -10 176 -4 _c
144 1 110 10 76 22 _c
76 117 _l
103 101 133 89 166 81 _c
198 73 232 69 268 69 _c
330 69 377 81 409 105 _c
441 129 458 165 458 212 _c
458 254 443 288 413 312 _c
383 336 341 349 287 349 _c
}_e{202 349 _l
202 430 _l
291 430 _l
339 430 376 439 402 459 _c
428 478 441 506 441 543 _c
441 580 427 609 401 629 _c
374 649 336 659 287 659 _c
260 659 231 656 200 650 _c
169 644 135 635 98 623 _c
98 711 _l
135 721 170 729 203 734 _c
235 739 266 742 296 742 _c
370 742 429 725 473 691 _c
517 657 539 611 539 553 _c
539 513 527 479 504 451 _c
481 423 448 403 406 393 _c
_cl}_e}_d
/four{636 0 49 0 580 729 _sc
378 643 _m
129 254 _l
378 254 _l
378 643 _l
352 729 _m
476 729 _l
476 254 _l
580 254 _l
580 172 _l
476 172 _l
476 0 _l
378 0 _l
378 172 _l
49 172 _l
49 267 _l
352 729 _l
_cl}_d
/five{{636 0 77 -13 549 729 _sc
108 729 _m
495 729 _l
495 646 _l
198 646 _l
198 467 _l
212 472 227 476 241 478 _c
255 480 270 482 284 482 _c
365 482 429 459 477 415 _c
525 370 549 310 549 234 _c
549 155 524 94 475 51 _c
426 8 357 -13 269 -13 _c
238 -13 207 -10 175 -6 _c
143 -1 111 6 77 17 _c
77 116 _l
106 100 136 88 168 80 _c
199 72 232 69 267 69 _c
}_e{323 69 368 83 401 113 _c
433 143 450 183 450 234 _c
450 284 433 324 401 354 _c
368 384 323 399 267 399 _c
241 399 214 396 188 390 _c
162 384 135 375 108 363 _c
108 729 _l
_cl}_e}_d
/six{{636 0 70 -13 573 742 _sc
330 404 _m
286 404 251 388 225 358 _c
199 328 186 286 186 234 _c
186 181 199 139 225 109 _c
251 79 286 64 330 64 _c
374 64 409 79 435 109 _c
461 139 474 181 474 234 _c
474 286 461 328 435 358 _c
409 388 374 404 330 404 _c
526 713 _m
526 623 _l
501 635 476 644 451 650 _c
425 656 400 659 376 659 _c
310 659 260 637 226 593 _c
}_e{192 549 172 482 168 394 _c
187 422 211 444 240 459 _c
269 474 301 482 336 482 _c
409 482 467 459 509 415 _c
551 371 573 310 573 234 _c
573 159 550 99 506 54 _c
462 9 403 -13 330 -13 _c
246 -13 181 19 137 83 _c
92 147 70 241 70 364 _c
70 479 97 571 152 639 _c
206 707 280 742 372 742 _c
396 742 421 739 447 735 _c
472 730 498 723 526 713 _c
_cl}_e}_d
/eight{{636 0 68 -13 568 742 _sc
318 346 _m
271 346 234 333 207 308 _c
180 283 167 249 167 205 _c
167 161 180 126 207 101 _c
234 76 271 64 318 64 _c
364 64 401 76 428 102 _c
455 127 469 161 469 205 _c
469 249 455 283 429 308 _c
402 333 365 346 318 346 _c
219 388 _m
177 398 144 418 120 447 _c
96 476 85 511 85 553 _c
85 611 105 657 147 691 _c
188 725 245 742 318 742 _c
}_e{390 742 447 725 489 691 _c
530 657 551 611 551 553 _c
551 511 539 476 515 447 _c
491 418 459 398 417 388 _c
464 377 501 355 528 323 _c
554 291 568 251 568 205 _c
568 134 546 80 503 43 _c
459 5 398 -13 318 -13 _c
237 -13 175 5 132 43 _c
89 80 68 134 68 205 _c
68 251 81 291 108 323 _c
134 355 171 377 219 388 _c
183 544 _m
183 506 194 476 218 455 _c
}_e{242 434 275 424 318 424 _c
360 424 393 434 417 455 _c
441 476 453 506 453 544 _c
453 582 441 611 417 632 _c
393 653 360 664 318 664 _c
275 664 242 653 218 632 _c
194 611 183 582 183 544 _c
_cl}_e}_d
/A{684 0 8 0 676 729 _sc
342 632 _m
208 269 _l
476 269 _l
342 632 _l
286 729 _m
398 729 _l
676 0 _l
573 0 _l
507 187 _l
178 187 _l
112 0 _l
8 0 _l
286 729 _l
_cl}_d
/a{{613 0 60 -13 522 560 _sc
343 275 _m
270 275 220 266 192 250 _c
164 233 150 205 150 165 _c
150 133 160 107 181 89 _c
202 70 231 61 267 61 _c
317 61 357 78 387 114 _c
417 149 432 196 432 255 _c
432 275 _l
343 275 _l
522 312 _m
522 0 _l
432 0 _l
432 83 _l
411 49 385 25 355 10 _c
325 -5 287 -13 243 -13 _c
187 -13 142 2 109 33 _c
76 64 60 106 60 159 _c
}_e{60 220 80 266 122 298 _c
163 329 224 345 306 345 _c
432 345 _l
432 354 _l
432 395 418 427 391 450 _c
364 472 326 484 277 484 _c
245 484 215 480 185 472 _c
155 464 127 453 100 439 _c
100 522 _l
132 534 164 544 195 550 _c
226 556 256 560 286 560 _c
365 560 424 539 463 498 _c
502 457 522 395 522 312 _c
_cl}_e}_d
/c{{550 0 55 -13 488 560 _sc
488 526 _m
488 442 _l
462 456 437 466 411 473 _c
385 480 360 484 334 484 _c
276 484 230 465 198 428 _c
166 391 150 339 150 273 _c
150 206 166 154 198 117 _c
230 80 276 62 334 62 _c
360 62 385 65 411 72 _c
437 79 462 90 488 104 _c
488 21 _l
462 9 436 0 410 -5 _c
383 -10 354 -13 324 -13 _c
242 -13 176 12 128 64 _c
}_e{79 115 55 185 55 273 _c
55 362 79 432 128 483 _c
177 534 244 560 330 560 _c
358 560 385 557 411 551 _c
437 545 463 537 488 526 _c
_cl}_e}_d
/e{{615 0 55 -13 562 560 _sc
562 296 _m
562 252 _l
149 252 _l
153 190 171 142 205 110 _c
238 78 284 62 344 62 _c
378 62 412 66 444 74 _c
476 82 509 95 541 113 _c
541 28 _l
509 14 476 3 442 -3 _c
408 -9 373 -13 339 -13 _c
251 -13 182 12 131 62 _c
80 112 55 181 55 268 _c
55 357 79 428 127 481 _c
175 533 241 560 323 560 _c
397 560 455 536 498 489 _c
}_e{540 441 562 377 562 296 _c
472 322 _m
471 371 457 410 431 440 _c
404 469 368 484 324 484 _c
274 484 234 469 204 441 _c
174 413 156 373 152 322 _c
472 322 _l
_cl}_e}_d
/i{278 0 94 0 184 760 _sc
94 547 _m
184 547 _l
184 0 _l
94 0 _l
94 547 _l
94 760 _m
184 760 _l
184 646 _l
94 646 _l
94 760 _l
_cl}_d
/l{278 0 94 0 184 760 _sc
94 760 _m
184 760 _l
184 0 _l
94 0 _l
94 760 _l
_cl}_d
/n{634 0 91 0 549 560 _sc
549 330 _m
549 0 _l
459 0 _l
459 327 _l
459 379 448 417 428 443 _c
408 469 378 482 338 482 _c
289 482 251 466 223 435 _c
195 404 181 362 181 309 _c
181 0 _l
91 0 _l
91 547 _l
181 547 _l
181 462 _l
202 494 227 519 257 535 _c
286 551 320 560 358 560 _c
420 560 468 540 500 501 _c
532 462 549 405 549 330 _c
_cl}_d
/o{612 0 55 -13 557 560 _sc
306 484 _m
258 484 220 465 192 427 _c
164 389 150 338 150 273 _c
150 207 163 156 191 118 _c
219 80 257 62 306 62 _c
354 62 392 80 420 118 _c
448 156 462 207 462 273 _c
462 337 448 389 420 427 _c
392 465 354 484 306 484 _c
306 560 _m
384 560 445 534 490 484 _c
534 433 557 363 557 273 _c
557 183 534 113 490 63 _c
445 12 384 -13 306 -13 _c
227 -13 165 12 121 63 _c
77 113 55 183 55 273 _c
55 363 77 433 121 484 _c
165 534 227 560 306 560 _c
_cl}_d
/r{411 0 91 0 411 560 _sc
411 463 _m
401 469 390 473 378 476 _c
366 478 353 480 339 480 _c
288 480 249 463 222 430 _c
194 397 181 350 181 288 _c
181 0 _l
91 0 _l
91 547 _l
181 547 _l
181 462 _l
199 495 224 520 254 536 _c
284 552 321 560 365 560 _c
371 560 378 559 386 559 _c
393 558 401 557 411 555 _c
411 463 _l
_cl}_d
/t{392 0 27 0 368 702 _sc
183 702 _m
183 547 _l
368 547 _l
368 477 _l
183 477 _l
183 180 _l
183 135 189 106 201 94 _c
213 81 238 75 276 75 _c
368 75 _l
368 0 _l
276 0 _l
206 0 158 13 132 39 _c
106 65 93 112 93 180 _c
93 477 _l
27 477 _l
27 547 _l
93 547 _l
93 702 _l
183 702 _l
_cl}_d
/u{634 0 85 -13 543 560 _sc
85 216 _m
85 547 _l
175 547 _l
175 219 _l
175 167 185 129 205 103 _c
225 77 255 64 296 64 _c
344 64 383 79 411 110 _c
439 141 453 183 453 237 _c
453 547 _l
543 547 _l
543 0 _l
453 0 _l
453 84 _l
431 50 405 26 377 10 _c
348 -5 315 -13 277 -13 _c
214 -13 166 6 134 45 _c
101 83 85 140 85 216 _c
311 560 _m
311 560 _l
_cl}_d
end readonly def

/BuildGlyph
 {exch begin
 CharStrings exch
 2 copy known not{pop /.notdef}if
 true 3 1 roll get exec
 end}_d

/BuildChar {
 1 index /Encoding get exch get
 1 index /BuildGlyph get exec
}_d

FontName currentdict end definefont pop
end
%%EndProlog
mpldict begin
18 180 translate
576 432 0 0 clipbox
gsave
0 0 m
576 0 l
576 432 l
0 432 l
cl
1.000 setgray
fill
grestore
gsave
72 43.2 m
518.4 43.2 l
518.4 388.8 l
72 388.8 l
cl
1.000 setgray
fill
grestore
/p0_0 {
newpath
translate
92.2909 72.7622 m
92.2909 72.7622 l
99.0545 66.473 l
105.818 62.8724 l
112.582 61.116 l
119.345 60.1876 l
126.109 59.7174 l
132.873 59.4974 l
139.636 59.4065 l
146.4 59.3738 l
153.164 59.3633 l
159.927 59.3596 l
166.691 59.3578 l
173.455 59.3565 l
180.218 59.3555 l
186.982 59.3547 l
193.745 59.3542 l
200.509 59.3535 l
207.273 59.3519 l
214.036 59.3462 l
220.8 59.3316 l
227.564 59.304 l
234.327 59.2637 l
241.091 59.2122 l
247.855 59.1457 l
254.618 59.0662 l
261.382 58.9959 l
268.145 58.9518 l
274.909 58.9311 l
281.673 58.9235 l
288.436 58.921 l
295.2 58.9207 l
301.964 58.9207 l
308.727 58.9203 l
315.491 58.9194 l
322.255 58.9185 l
329.018 58.9181 l
335.782 58.918 l
342.545 58.918 l
349.309 58.9179 l
356.073 58.9177 l
362.836 58.9175 l
369.6 58.9173 l
376.364 58.9173 l
383.127 58.9168 l
389.891 58.9158 l
396.655 58.9149 l
403.418 58.9146 l
410.182 58.9142 l
416.945 58.913 l
423.709 58.912 l
430.473 58.9119 l
437.236 58.9119 l
444 58.9113 l
450.764 58.9108 l
457.527 58.9106 l
464.291 58.9105 l
471.055 58.9103 l
477.818 58.9098 l
484.582 58.9093 l
491.345 58.9091 l
498.109 58.9091 l
498.109 86.6152 l
498.109 86.6152 l
491.345 86.6152 l
484.582 86.615 l
477.818 86.6145 l
471.055 86.6141 l
464.291 86.6138 l
457.527 86.6137 l
450.764 86.6135 l
444 86.613 l
437.236 86.6125 l
430.473 86.6124 l
423.709 86.6123 l
416.945 86.6113 l
410.182 86.6102 l
403.418 86.6098 l
396.655 86.6094 l
389.891 86.6086 l
383.127 86.6075 l
376.364 86.607 l
369.6 86.607 l
362.836 86.6069 l
356.073 86.6066 l
349.309 86.6064 l
342.545 86.6064 l
335.782 86.6063 l
329.018 86.6062 l
322.255 86.6058 l
315.491 86.6049 l
308.727 86.6041 l
301.964 86.6036 l
295.2 86.6036 l
288.436 86.6033 l
281.673 86.6009 l
274.909 86.5932 l
268.145 86.5726 l
261.382 86.5285 l
254.618 86.4581 l
247.855 86.3786 l
241.091 86.3121 l
234.327 86.2606 l
227.564 86.2203 l
220.8 86.1927 l
214.036 86.1781 l
207.273 86.1725 l
200.509 86.1708 l
193.745 86.1702 l
186.982 86.1696 l
180.218 86.1689 l
173.455 86.1678 l
166.691 86.1665 l
159.927 86.1648 l
153.164 86.1611 l
146.4 86.1506 l
139.636 86.1178 l
132.873 86.027 l
126.109 85.8069 l
119.345 85.3367 l
112.582 84.4083 l
105.818 82.6519 l
99.0545 79.0513 l
92.2909 72.7622 l
cl
} bind def
1.000 setlinewidth
1 setlinejoin
0 setlinecap
[] 0 setdash
0.000 setgray
gsave
446.4 345.6 72 43.2 clipbox
0 0 p0_0
gsave
0.000 0.000 1.000 setrgbcolor
fill
grestore
stroke
grestore
/p1_0 {
newpath
translate
92.2909 72.7622 m
92.2909 373.091 l
} bind def
/p1_1 {
newpath
translate
99.0545 72.7622 m
99.0545 330.482 l
} bind def
/p1_2 {
newpath
translate
105.818 72.7622 m
105.818 280.436 l
} bind def
/p1_3 {
newpath
translate
112.582 72.7622 m
112.582 232.884 l
} bind def
/p1_4 {
newpath
translate
119.345 72.7622 m
119.345 189.958 l
} bind def
/p1_5 {
newpath
translate
126.109 72.7622 m
126.109 154.01 l
} bind def
/p1_6 {
newpath
translate
132.873 72.7622 m
132.873 125.274 l
} bind def
/p1_7 {
newpath
translate
139.636 72.7622 m
139.636 104.378 l
} bind def
/p1_8 {
newpath
translate
146.4 72.7622 m
146.4 90.6459 l
} bind def
/p1_9 {
newpath
translate
153.164 72.7622 m
153.164 83.4133 l
} bind def
/p1_a {
newpath
translate
159.927 72.7622 m
159.927 80.1428 l
} bind def
/p1_b {
newpath
translate
166.691 72.7622 m
166.691 79.038 l
} bind def
/p1_c {
newpath
translate
173.455 72.7622 m
173.455 78.4254 l
} bind def
/p1_d {
newpath
translate
180.218 72.7622 m
180.218 77.5393 l
} bind def
/p1_e {
newpath
translate
186.982 72.7622 m
186.982 76.8349 l
} bind def
/p1_f {
newpath
translate
193.745 72.7622 m
193.745 77.1462 l
} bind def
/p1_10 {
newpath
translate
200.509 72.7622 m
200.509 79.8845 l
} bind def
/p1_11 {
newpath
translate
207.273 72.7622 m
207.273 85.9383 l
} bind def
/p1_12 {
newpath
translate
214.036 72.7622 m
214.036 93.9113 l
} bind def
/p1_13 {
newpath
translate
220.8 72.7622 m
220.8 101.828 l
} bind def
/p1_14 {
newpath
translate
227.564 72.7622 m
227.564 107.97 l
} bind def
/p1_15 {
newpath
translate
234.327 72.7622 m
234.327 112.603 l
} bind def
/p1_16 {
newpath
translate
241.091 72.7622 m
241.091 118.152 l
} bind def
/p1_17 {
newpath
translate
247.855 72.7622 m
247.855 122.522 l
} bind def
/p1_18 {
newpath
translate
254.618 72.7622 m
254.618 119.694 l
} bind def
/p1_19 {
newpath
translate
261.382 72.7622 m
261.382 110.002 l
} bind def
/p1_1a {
newpath
translate
268.145 72.7622 m
268.145 98.288 l
} bind def
/p1_1b {
newpath
translate
274.909 72.7622 m
274.909 88.2773 l
} bind def
/p1_1c {
newpath
translate
281.673 72.7622 m
281.673 81.5371 l
} bind def
/p1_1d {
newpath
translate
288.436 72.7622 m
288.436 75.7324 l
} bind def
/p1_1e {
newpath
translate
295.2 72.7622 m
295.2 72.1847 l
} bind def
/p1_1f {
newpath
translate
301.964 72.7622 m
301.964 69.0184 l
} bind def
/p1_20 {
newpath
translate
308.727 72.7622 m
308.727 67.4927 l
} bind def
/p1_21 {
newpath
translate
315.491 72.7622 m
315.491 67.4212 l
} bind def
/p1_22 {
newpath
translate
322.255 72.7622 m
322.255 69.1973 l
} bind def
/p1_23 {
newpath
translate
329.018 72.7622 m
329.018 71.091 l
} bind def
/p1_24 {
newpath
translate
335.782 72.7622 m
335.782 71.7765 l
} bind def
/p1_25 {
newpath
translate
342.545 72.7622 m
342.545 71.3583 l
} bind def
/p1_26 {
newpath
translate
349.309 72.7622 m
349.309 70.3497 l
} bind def
/p1_27 {
newpath
translate
356.073 72.7622 m
356.073 69.8817 l
} bind def
/p1_28 {
newpath
translate
362.836 72.7622 m
362.836 70.8147 l
} bind def
/p1_29 {
newpath
translate
369.6 72.7622 m
369.6 73.9611 l
} bind def
/p1_2a {
newpath
translate
376.364 72.7622 m
376.364 76.7813 l
} bind def
/p1_2b {
newpath
translate
383.127 72.7622 m
383.127 78.4073 l
} bind def
/p1_2c {
newpath
translate
389.891 72.7622 m
389.891 77.9803 l
} bind def
/p1_2d {
newpath
translate
396.655 72.7622 m
396.655 76.0765 l
} bind def
/p1_2e {
newpath
translate
403.418 72.7622 m
403.418 76.3578 l
} bind def
/p1_2f {
newpath
translate
410.182 72.7622 m
410.182 78.7904 l
} bind def
/p1_30 {
newpath
translate
416.945 72.7622 m
416.945 78.4104 l
} bind def
/p1_31 {
newpath
translate
423.709 72.7622 m
423.709 74.291 l
} bind def
/p1_32 {
newpath
translate
430.473 72.7622 m
430.473 71.2008 l
} bind def
/p1_33 {
newpath
translate
437.236 72.7622 m
437.236 68.5404 l
} bind def
/p1_34 {
newpath
translate
444 72.7622 m
444 69.0101 l
} bind def
/p1_35 {
newpath
translate
450.764 72.7622 m
450.764 70.2718 l
} bind def
/p1_36 {
newpath
translate
457.527 72.7622 m
457.527 70.5934 l
} bind def
/p1_37 {
newpath
translate
464.291 72.7622 m
464.291 70.175 l
} bind def
/p1_38 {
newpath
translate
471.055 72.7622 m
471.055 68.9001 l
} bind def
/p1_39 {
newpath
translate
477.818 72.7622 m
477.818 68.8924 l
} bind def
/p1_3a {
newpath
translate
484.582 72.7622 m
484.582 70.1807 l
} bind def
/p1_3b {
newpath
translate
491.345 72.7622 m
491.345 71.6913 l
} bind def
/p1_3c {
newpath
translate
498.109 72.7622 m
498.109 72.3514 l
} bind def
gsave
446.4 345.6 72 43.2 clipbox
0 0 p1_0
stroke
grestore
gsave
446.4 345.6 72 43.2 clipbox
0 0 p1_1
stroke
grestore
gsave
446.4 345.6 72 43.2 clipbox
0 0 p1_2
stroke
grestore
gsave
446.4 345.6 72 43.2 clipbox
0 0 p1_3
stroke
grestore
gsave
446.4 345.6 72 43.2 clipbox
0 0 p1_4
stroke
grestore
gsave
446.4 345.6 72 43.2 clipbox
0 0 p1_5
stroke
grestore
gsave
446.4 345.6 72 43.2 clipbox
0 0 p1_6
stroke
grestore
gsave
446.4 345.6 72 43.2 clipbox
0 0 p1_7
stroke
grestore
gsave
446.4 345.6 72 43.2 clipbox
0 0 p1_8
stroke
grestore
gsave
446.4 345.6 72 43.2 clipbox
0 0 p1_9
stroke
grestore
gsave
446.4 345.6 72 43.2 clipbox
0 0 p1_a
stroke
grestore
gsave
446.4 345.6 72 43.2 clipbox
0 0 p1_b
stroke
grestore
gsave
446.4 345.6 72 43.2 clipbox
0 0 p1_c
stroke
grestore
gsave
446.4 345.6 72 43.2 clipbox
0 0 p1_d
stroke
grestore
gsave
446.4 345.6 72 43.2 clipbox
0 0 p1_e
stroke
grestore
gsave
446.4 345.6 72 43.2 clipbox
0 0 p1_f
stroke
grestore
gsave
446.4 345.6 72 43.2 clipbox
0 0 p1_10
stroke
grestore
gsave
446.4 345.6 72 43.2 clipbox
0 0 p1_11
stroke
grestore
gsave
446.4 345.6 72 43.2 clipbox
0 0 p1_12
stroke
grestore
gsave
446.4 345.6 72 43.2 clipbox
0 0 p1_13
stroke
grestore
gsave
446.4 345.6 72 43.2 clipbox
0 0 p1_14
stroke
grestore
gsave
446.4 345.6 72 43.2 clipbox
0 0 p1_15
stroke
grestore
gsave
446.4 345.6 72 43.2 clipbox
0 0 p1_16
stroke
grestore
gsave
446.4 345.6 72 43.2 clipbox
0 0 p1_17
stroke
grestore
gsave
446.4 345.6 72 43.2 clipbox
0 0 p1_18
stroke
grestore
gsave
446.4 345.6 72 43.2 clipbox
0 0 p1_19
stroke
grestore
gsave
446.4 345.6 72 43.2 clipbox
0 0 p1_1a
stroke
grestore
gsave
446.4 345.6 72 43.2 clipbox
0 0 p1_1b
stroke
grestore
gsave
446.4 345.6 72 43.2 clipbox
0 0 p1_1c
stroke
grestore
gsave
446.4 345.6 72 43.2 clipbox
0 0 p1_1d
stroke
grestore
gsave
446.4 345.6 72 43.2 clipbox
0 0 p1_1e
stroke
grestore
gsave
446.4 345.6 72 43.2 clipbox
0 0 p1_1f
stroke
grestore
gsave
446.4 345.6 72 43.2 clipbox
0 0 p1_20
stroke
grestore
gsave
446.4 345.6 72 43.2 clipbox
0 0 p1_21
stroke
grestore
gsave
446.4 345.6 72 43.2 clipbox
0 0 p1_22
stroke
grestore
gsave
446.4 345.6 72 43.2 clipbox
0 0 p1_23
stroke
grestore
gsave
446.4 345.6 72 43.2 clipbox
0 0 p1_24
stroke
grestore
gsave
446.4 345.6 72 43.2 clipbox
0 0 p1_25
stroke
grestore
gsave
446.4 345.6 72 43.2 clipbox
0 0 p1_26
stroke
grestore
gsave
446.4 345.6 72 43.2 clipbox
0 0 p1_27
stroke
grestore
gsave
446.4 345.6 72 43.2 clipbox
0 0 p1_28
stroke
grestore
gsave
446.4 345.6 72 43.2 clipbox
0 0 p1_29
stroke
grestore
gsave
446.4 345.6 72 43.2 clipbox
0 0 p1_2a
stroke
grestore
gsave
446.4 345.6 72 43.2 clipbox
0 0 p1_2b
stroke
grestore
gsave
446.4 345.6 72 43.2 clipbox
0 0 p1_2c
stroke
grestore
gsave
446.4 345.6 72 43.2 clipbox
0 0 p1_2d
stroke
grestore
gsave
446.4 345.6 72 43.2 clipbox
0 0 p1_2e
stroke
grestore
gsave
446.4 345.6 72 43.2 clipbox
0 0 p1_2f
stroke
grestore
gsave
446.4 345.6 72 43.2 clipbox
0 0 p1_30
stroke
grestore
gsave
446.4 345.6 72 43.2 clipbox
0 0 p1_31
stroke
grestore
gsave
446.4 345.6 72 43.2 clipbox
0 0 p1_32
stroke
grestore
gsave
446.4 345.6 72 43.2 clipbox
0 0 p1_33
stroke
grestore
gsave
446.4 345.6 72 43.2 clipbox
0 0 p1_34
stroke
grestore
gsave
446.4 345.6 72 43.2 clipbox
0 0 p1_35
stroke
grestore
gsave
446.4 345.6 72 43.2 clipbox
0 0 p1_36
stroke
grestore
gsave
446.4 345.6 72 43.2 clipbox
0 0 p1_37
stroke
grestore
gsave
446.4 345.6 72 43.2 clipbox
0 0 p1_38
stroke
grestore
gsave
446.4 345.6 72 43.2 clipbox
0 0 p1_39
stroke
grestore
gsave
446.4 345.6 72 43.2 clipbox
0 0 p1_3a
stroke
grestore
gsave
446.4 345.6 72 43.2 clipbox
0 0 p1_3b
stroke
grestore
gsave
446.4 345.6 72 43.2 clipbox
0 0 p1_3c
stroke
grestore
2 setlinecap
0.000 0.000 1.000 setrgbcolor
gsave
446.4 345.6 72 43.2 clipbox
72 72.7622 m
518.4 72.7622 l
stroke
grestore
0.500 setlinewidth
0 setlinecap
0.000 setgray
gsave
446.4 345.6 72 43.2 clipbox
/o {
gsave
newpath
translate
0.5 setlinewidth
1 setlinejoin
0 setlinecap
0 -2.5 m
0.663008 -2.5 1.29895 -2.23658 1.76777 -1.76777 c
2.23658 -1.29895 2.5 -0.663008 2.5 0 c
2.5 0.663008 2.23658 1.29895 1.76777 1.76777 c
1.29895 2.23658 0.663008 2.5 0 2.5 c
-0.663008 2.5 -1.29895 2.23658 -1.76777 1.76777 c
-2.23658 1.29895 -2.5 0.663008 -2.5 0 c
-2.5 -0.663008 -2.23658 -1.29895 -1.76777 -1.76777 c
-1.29895 -2.23658 -0.663008 -2.5 0 -2.5 c
cl
gsave
0.000 0.000 1.000 setrgbcolor
fill
grestore
stroke
grestore
} bind def
92.2909 373.091 o
99.0545 330.482 o
105.818 280.436 o
112.582 232.884 o
119.345 189.958 o
126.109 154.01 o
132.873 125.274 o
139.636 104.378 o
146.4 90.6459 o
153.164 83.4133 o
159.927 80.1428 o
166.691 79.038 o
173.455 78.4254 o
180.218 77.5393 o
186.982 76.8349 o
193.745 77.1462 o
200.509 79.8845 o
207.273 85.9383 o
214.036 93.9113 o
220.8 101.828 o
227.564 107.97 o
234.327 112.603 o
241.091 118.152 o
247.855 122.522 o
254.618 119.694 o
261.382 110.002 o
268.145 98.288 o
274.909 88.2773 o
281.673 81.5371 o
288.436 75.7324 o
295.2 72.1847 o
301.964 69.0184 o
308.727 67.4927 o
315.491 67.4212 o
322.255 69.1973 o
329.018 71.091 o
335.782 71.7765 o
342.545 71.3583 o
349.309 70.3497 o
356.073 69.8817 o
362.836 70.8147 o
369.6 73.9611 o
376.364 76.7813 o
383.127 78.4073 o
389.891 77.9803 o
396.655 76.0765 o
403.418 76.3578 o
410.182 78.7904 o
416.945 78.4104 o
423.709 74.291 o
430.473 71.2008 o
437.236 68.5404 o
444 69.0101 o
450.764 70.2718 o
457.527 70.5934 o
464.291 70.175 o
471.055 68.9001 o
477.818 68.8924 o
484.582 70.1807 o
491.345 71.6913 o
498.109 72.3514 o
grestore
gsave
/o {
gsave
newpath
translate
0.5 setlinewidth
1 setlinejoin
0 setlinecap
0 0 m
0 4 l
gsave
0.000 setgray
fill
grestore
stroke
grestore
} bind def
92.2909 43.2 o
grestore
gsave
/o {
gsave
newpath
translate
0.5 setlinewidth
1 setlinejoin
0 setlinecap
0 0 m
0 -4 l
gsave
0.000 setgray
fill
grestore
stroke
grestore
} bind def
92.2909 388.8 o
grestore
/DejaVuSans findfont
12.000 scalefont
setfont
gsave
89.267472 30.121875 translate
0.000000 rotate
0.000000 0.171875 m /zero glyphshow
grestore
gsave
/o {
gsave
newpath
translate
0.5 setlinewidth
1 setlinejoin
0 setlinecap
0 0 m
0 4 l
gsave
0.000 setgray
fill
grestore
stroke
grestore
} bind def
159.927 43.2 o
grestore
gsave
/o {
gsave
newpath
translate
0.5 setlinewidth
1 setlinejoin
0 setlinecap
0 0 m
0 -4 l
gsave
0.000 setgray
fill
grestore
stroke
grestore
} bind def
159.927 388.8 o
grestore
gsave
153.341335 30.121875 translate
0.000000 rotate
0.000000 0.171875 m /one glyphshow
7.634766 0.171875 m /zero glyphshow
grestore
gsave
/o {
gsave
newpath
translate
0.5 setlinewidth
1 setlinejoin
0 setlinecap
0 0 m
0 4 l
gsave
0.000 setgray
fill
grestore
stroke
grestore
} bind def
227.564 43.2 o
grestore
gsave
/o {
gsave
newpath
translate
0.5 setlinewidth
1 setlinejoin
0 setlinecap
0 0 m
0 -4 l
gsave
0.000 setgray
fill
grestore
stroke
grestore
} bind def
227.564 388.8 o
grestore
gsave
220.758949 30.121875 translate
0.000000 rotate
0.000000 0.171875 m /two glyphshow
7.634766 0.171875 m /zero glyphshow
grestore
gsave
/o {
gsave
newpath
translate
0.5 setlinewidth
1 setlinejoin
0 setlinecap
0 0 m
0 4 l
gsave
0.000 setgray
fill
grestore
stroke
grestore
} bind def
295.2 43.2 o
grestore
gsave
/o {
gsave
newpath
translate
0.5 setlinewidth
1 setlinejoin
0 setlinecap
0 0 m
0 -4 l
gsave
0.000 setgray
fill
grestore
stroke
grestore
} bind def
295.2 388.8 o
grestore
gsave
288.418750 30.121875 translate
0.000000 rotate
0.000000 0.171875 m /three glyphshow
7.634766 0.171875 m /zero glyphshow
grestore
gsave
/o {
gsave
newpath
translate
0.5 setlinewidth
1 setlinejoin
0 setlinecap
0 0 m
0 4 l
gsave
0.000 setgray
fill
grestore
stroke
grestore
} bind def
362.836 43.2 o
grestore
gsave
/o {
gsave
newpath
translate
0.5 setlinewidth
1 setlinejoin
0 setlinecap
0 0 m
0 -4 l
gsave
0.000 setgray
fill
grestore
stroke
grestore
} bind def
362.836 388.8 o
grestore
gsave
355.891051 30.121875 translate
0.000000 rotate
0.000000 0.171875 m /four glyphshow
7.634766 0.171875 m /zero glyphshow
grestore
gsave
/o {
gsave
newpath
translate
0.5 setlinewidth
1 setlinejoin
0 setlinecap
0 0 m
0 4 l
gsave
0.000 setgray
fill
grestore
stroke
grestore
} bind def
430.473 43.2 o
grestore
gsave
/o {
gsave
newpath
translate
0.5 setlinewidth
1 setlinejoin
0 setlinecap
0 0 m
0 -4 l
gsave
0.000 setgray
fill
grestore
stroke
grestore
} bind def
430.473 388.8 o
grestore
gsave
423.691477 30.121875 translate
0.000000 rotate
0.000000 0.171875 m /five glyphshow
7.634766 0.171875 m /zero glyphshow
grestore
gsave
/o {
gsave
newpath
translate
0.5 setlinewidth
1 setlinejoin
0 setlinecap
0 0 m
0 4 l
gsave
0.000 setgray
fill
grestore
stroke
grestore
} bind def
498.109 43.2 o
grestore
gsave
/o {
gsave
newpath
translate
0.5 setlinewidth
1 setlinejoin
0 setlinecap
0 0 m
0 -4 l
gsave
0.000 setgray
fill
grestore
stroke
grestore
} bind def
498.109 388.8 o
grestore
gsave
491.288778 30.121875 translate
0.000000 rotate
0.000000 0.171875 m /six glyphshow
7.634766 0.171875 m /zero glyphshow
grestore
gsave
/o {
gsave
newpath
translate
0.5 setlinewidth
1 setlinejoin
0 setlinecap
0 0 m
4 0 l
gsave
0.000 setgray
fill
grestore
stroke
grestore
} bind def
72 72.7622 o
grestore
gsave
/o {
gsave
newpath
translate
0.5 setlinewidth
1 setlinejoin
0 setlinecap
0 0 m
-4 0 l
gsave
0.000 setgray
fill
grestore
stroke
grestore
} bind def
518.4 72.7622 o
grestore
gsave
50.500000 68.223106 translate
0.000000 rotate
0.000000 0.171875 m /zero glyphshow
7.634766 0.171875 m /period glyphshow
11.449219 0.171875 m /zero glyphshow
grestore
gsave
/o {
gsave
newpath
translate
0.5 setlinewidth
1 setlinejoin
0 setlinecap
0 0 m
4 0 l
gsave
0.000 setgray
fill
grestore
stroke
grestore
} bind def
72 132.828 o
grestore
gsave
/o {
gsave
newpath
translate
0.5 setlinewidth
1 setlinejoin
0 setlinecap
0 0 m
-4 0 l
gsave
0.000 setgray
fill
grestore
stroke
grestore
} bind def
518.4 132.828 o
grestore
gsave
50.906250 128.288854 translate
0.000000 rotate
0.000000 0.171875 m /zero glyphshow
7.634766 0.171875 m /period glyphshow
11.449219 0.171875 m /two glyphshow
grestore
gsave
/o {
gsave
newpath
translate
0.5 setlinewidth
1 setlinejoin
0 setlinecap
0 0 m
4 0 l
gsave
0.000 setgray
fill
grestore
stroke
grestore
} bind def
72 192.894 o
grestore
gsave
/o {
gsave
newpath
translate
0.5 setlinewidth
1 setlinejoin
0 setlinecap
0 0 m
-4 0 l
gsave
0.000 setgray
fill
grestore
stroke
grestore
} bind def
518.4 192.894 o
grestore
gsave
50.375000 188.354602 translate
0.000000 rotate
0.000000 0.171875 m /zero glyphshow
7.634766 0.171875 m /period glyphshow
11.449219 0.171875 m /four glyphshow
grestore
gsave
/o {
gsave
newpath
translate
0.5 setlinewidth
1 setlinejoin
0 setlinecap
0 0 m
4 0 l
gsave
0.000 setgray
fill
grestore
stroke
grestore
} bind def
72 252.959 o
grestore
gsave
/o {
gsave
newpath
translate
0.5 setlinewidth
1 setlinejoin
0 setlinecap
0 0 m
-4 0 l
gsave
0.000 setgray
fill
grestore
stroke
grestore
} bind def
518.4 252.959 o
grestore
gsave
50.468750 248.420350 translate
0.000000 rotate
0.000000 0.171875 m /zero glyphshow
7.634766 0.171875 m /period glyphshow
11.449219 0.171875 m /six glyphshow
grestore
gsave
/o {
gsave
newpath
translate
0.5 setlinewidth
1 setlinejoin
0 setlinecap
0 0 m
4 0 l
gsave
0.000 setgray
fill
grestore
stroke
grestore
} bind def
72 313.025 o
grestore
gsave
/o {
gsave
newpath
translate
0.5 setlinewidth
1 setlinejoin
0 setlinecap
0 0 m
-4 0 l
gsave
0.000 setgray
fill
grestore
stroke
grestore
} bind def
518.4 313.025 o
grestore
gsave
50.531250 308.486098 translate
0.000000 rotate
0.000000 0.171875 m /zero glyphshow
7.634766 0.171875 m /period glyphshow
11.449219 0.171875 m /eight glyphshow
grestore
gsave
/o {
gsave
newpath
translate
0.5 setlinewidth
1 setlinejoin
0 setlinecap
0 0 m
4 0 l
gsave
0.000 setgray
fill
grestore
stroke
grestore
} bind def
72 373.091 o
grestore
gsave
/o {
gsave
newpath
translate
0.5 setlinewidth
1 setlinejoin
0 setlinecap
0 0 m
-4 0 l
gsave
0.000 setgray
fill
grestore
stroke
grestore
} bind def
518.4 373.091 o
grestore
gsave
51.015625 368.551847 translate
0.000000 rotate
0.000000 0.171875 m /one glyphshow
7.634766 0.171875 m /period glyphshow
11.449219 0.171875 m /zero glyphshow
grestore
1.000 setlinewidth
2 setlinecap
gsave
72 388.8 m
518.4 388.8 l
stroke
grestore
gsave
518.4 43.2 m
518.4 388.8 l
stroke
grestore
gsave
72 43.2 m
518.4 43.2 l
stroke
grestore
gsave
72 43.2 m
72 388.8 l
stroke
grestore
/DejaVuSans findfont
14.400 scalefont
setfont
gsave
240.629687 393.596875 translate
0.000000 rotate
0.000000 0.203125 m /A glyphshow
9.844360 0.203125 m /u glyphshow
18.964981 0.203125 m /t glyphshow
24.607391 0.203125 m /o glyphshow
33.411804 0.203125 m /c glyphshow
41.323837 0.203125 m /o glyphshow
50.128250 0.203125 m /r glyphshow
55.794708 0.203125 m /r glyphshow
61.336166 0.203125 m /e glyphshow
70.189774 0.203125 m /l glyphshow
74.187943 0.203125 m /a glyphshow
83.006409 0.203125 m /t glyphshow
88.648819 0.203125 m /i glyphshow
92.646988 0.203125 m /o glyphshow
101.451401 0.203125 m /n glyphshow
grestore

end
showpage
