%!PS-Adobe-3.0 EPSF-3.0
%%Title: hourly_residuals_E.eps
%%Creator: matplotlib version 1.2.1, http://matplotlib.org/
%%CreationDate: Fri Nov 22 11:38:56 2013
%%Orientation: portrait
%%BoundingBox: 18 180 594 612
%%EndComments
%%BeginProlog
/mpldict 8 dict def
mpldict begin
/m { moveto } bind def
/l { lineto } bind def
/r { rlineto } bind def
/c { curveto } bind def
/cl { closepath } bind def
/box {
m
1 index 0 r
0 exch r
neg 0 r
cl
} bind def
/clipbox {
box
clip
newpath
} bind def
%!PS-Adobe-3.0 Resource-Font
%%Title: DejaVu Sans
%%Copyright: Copyright (c) 2003 by Bitstream, Inc. All Rights Reserved. Copyright (c) 2006 by Tavmjong Bah. All Rights Reserved. DejaVu changes are in public domain 
%%Creator: Converted from TrueType to type 3 by PPR
25 dict begin
/_d{bind def}bind def
/_m{moveto}_d
/_l{lineto}_d
/_cl{closepath eofill}_d
/_c{curveto}_d
/_sc{7 -1 roll{setcachedevice}{pop pop pop pop pop pop}ifelse}_d
/_e{exec}_d
/FontName /DejaVuSans def
/PaintType 0 def
/FontMatrix[.001 0 0 .001 0 0]def
/FontBBox[-1021 -415 1681 1167]def
/FontType 3 def
/Encoding [ /zero /one /two /three /four /five /minus ] def
/FontInfo 10 dict dup begin
/FamilyName (DejaVu Sans) def
/FullName (DejaVu Sans) def
/Notice (Copyright (c) 2003 by Bitstream, Inc. All Rights Reserved. Copyright (c) 2006 by Tavmjong Bah. All Rights Reserved. DejaVu changes are in public domain ) def
/Weight (Book) def
/Version (Version 2.33) def
/ItalicAngle 0.0 def
/isFixedPitch false def
/UnderlinePosition -130 def
/UnderlineThickness 90 def
end readonly def
/CharStrings 7 dict dup begin
/zero{636 0 66 -13 570 742 _sc
318 664 _m
267 664 229 639 203 589 _c
177 539 165 464 165 364 _c
165 264 177 189 203 139 _c
229 89 267 64 318 64 _c
369 64 407 89 433 139 _c
458 189 471 264 471 364 _c
471 464 458 539 433 589 _c
407 639 369 664 318 664 _c
318 742 _m
399 742 461 709 505 645 _c
548 580 570 486 570 364 _c
570 241 548 147 505 83 _c
461 19 399 -13 318 -13 _c
236 -13 173 19 130 83 _c
87 147 66 241 66 364 _c
66 486 87 580 130 645 _c
173 709 236 742 318 742 _c
_cl}_d
/one{636 0 110 0 544 729 _sc
124 83 _m
285 83 _l
285 639 _l
110 604 _l
110 694 _l
284 729 _l
383 729 _l
383 83 _l
544 83 _l
544 0 _l
124 0 _l
124 83 _l
_cl}_d
/two{{636 0 73 0 536 742 _sc
192 83 _m
536 83 _l
536 0 _l
73 0 _l
73 83 _l
110 121 161 173 226 239 _c
290 304 331 346 348 365 _c
380 400 402 430 414 455 _c
426 479 433 504 433 528 _c
433 566 419 598 392 622 _c
365 646 330 659 286 659 _c
255 659 222 653 188 643 _c
154 632 117 616 78 594 _c
78 694 _l
118 710 155 722 189 730 _c
223 738 255 742 284 742 _c
}_e{359 742 419 723 464 685 _c
509 647 532 597 532 534 _c
532 504 526 475 515 449 _c
504 422 484 390 454 354 _c
446 344 420 317 376 272 _c
332 227 271 164 192 83 _c
_cl}_e}_d
/three{{636 0 76 -13 556 742 _sc
406 393 _m
453 383 490 362 516 330 _c
542 298 556 258 556 212 _c
556 140 531 84 482 45 _c
432 6 362 -13 271 -13 _c
240 -13 208 -10 176 -4 _c
144 1 110 10 76 22 _c
76 117 _l
103 101 133 89 166 81 _c
198 73 232 69 268 69 _c
330 69 377 81 409 105 _c
441 129 458 165 458 212 _c
458 254 443 288 413 312 _c
383 336 341 349 287 349 _c
}_e{202 349 _l
202 430 _l
291 430 _l
339 430 376 439 402 459 _c
428 478 441 506 441 543 _c
441 580 427 609 401 629 _c
374 649 336 659 287 659 _c
260 659 231 656 200 650 _c
169 644 135 635 98 623 _c
98 711 _l
135 721 170 729 203 734 _c
235 739 266 742 296 742 _c
370 742 429 725 473 691 _c
517 657 539 611 539 553 _c
539 513 527 479 504 451 _c
481 423 448 403 406 393 _c
_cl}_e}_d
/four{636 0 49 0 580 729 _sc
378 643 _m
129 254 _l
378 254 _l
378 643 _l
352 729 _m
476 729 _l
476 254 _l
580 254 _l
580 172 _l
476 172 _l
476 0 _l
378 0 _l
378 172 _l
49 172 _l
49 267 _l
352 729 _l
_cl}_d
/five{{636 0 77 -13 549 729 _sc
108 729 _m
495 729 _l
495 646 _l
198 646 _l
198 467 _l
212 472 227 476 241 478 _c
255 480 270 482 284 482 _c
365 482 429 459 477 415 _c
525 370 549 310 549 234 _c
549 155 524 94 475 51 _c
426 8 357 -13 269 -13 _c
238 -13 207 -10 175 -6 _c
143 -1 111 6 77 17 _c
77 116 _l
106 100 136 88 168 80 _c
199 72 232 69 267 69 _c
}_e{323 69 368 83 401 113 _c
433 143 450 183 450 234 _c
450 284 433 324 401 354 _c
368 384 323 399 267 399 _c
241 399 214 396 188 390 _c
162 384 135 375 108 363 _c
108 729 _l
_cl}_e}_d
/minus{838 0 106 272 732 355 _sc
106 355 _m
732 355 _l
732 272 _l
106 272 _l
106 355 _l
_cl}_d
end readonly def

/BuildGlyph
 {exch begin
 CharStrings exch
 2 copy known not{pop /.notdef}if
 true 3 1 roll get exec
 end}_d

/BuildChar {
 1 index /Encoding get exch get
 1 index /BuildGlyph get exec
}_d

FontName currentdict end definefont pop
end
%%EndProlog
mpldict begin
18 180 translate
576 432 0 0 clipbox
gsave
0 0 m
576 0 l
576 432 l
0 432 l
cl
1.000 setgray
fill
grestore
gsave
72 43.2 m
518.4 43.2 l
518.4 388.8 l
72 388.8 l
cl
1.000 setgray
fill
grestore
1.000 setlinewidth
1 setlinejoin
2 setlinecap
[] 0 setdash
0.000 0.000 1.000 setrgbcolor
gsave
446.4 345.6 72 43.2 clipbox
108.109 238.935 m
144.317 261.824 l
72 233.648 l
108.208 240.314 l
108.01 235.063 l
72.0992 231.741 l
180.426 247.976 l
108.307 236.615 l
75.0752 230.333 l
180.624 252.879 l
73.984 232.561 l
144.515 248.887 l
107.91 231.811 l
216.733 238.294 l
72.7936 271.433 l
72.5952 236.97 l
74.3808 233.619 l
180.525 221.364 l
72.992 254.65 l
77.1584 238.919 l
144.218 266.067 l
72.2976 235.195 l
80.5312 234.123 l
73.6864 241.808 l
101.76 219.716 l
73.488 222.618 l
74.0832 234.631 l
72.8928 227.477 l
77.3568 236.987 l
73.5872 226.604 l
74.976 236.981 l
73.8848 232.299 l
76.96 232.168 l
104.934 232.81 l
74.1824 236.152 l
74.2816 235.68 l
72.3968 238.923 l
77.2576 240.408 l
79.44 235.119 l
109.101 254.43 l
107.117 237.167 l
103.744 244.748 l
106.026 229.164 l
73.2896 261.958 l
102.851 234.629 l
76.2656 232.34 l
80.3328 240.824 l
114.458 232.93 l
112.474 232.373 l
77.952 242.537 l
79.7376 236.988 l
144.416 250.24 l
79.3408 232.117 l
78.8448 234.569 l
79.6384 240.416 l
76.3648 232.573 l
76.5632 236.083 l
252.842 232.592 l
72.1984 232.281 l
111.283 207.07 l
78.1504 229.971 l
76.464 234.6 l
78.2496 220.594 l
110.192 231 l
77.456 231.462 l
109.002 245.436 l
78.0512 239.133 l
73.0912 262.783 l
105.827 240.337 l
113.366 238.384 l
75.3728 261.51 l
75.1744 230.423 l
74.8768 240.397 l
78.5472 237.007 l
81.8208 235.098 l
76.0672 241.39 l
76.1664 235.976 l
101.958 245.432 l
107.018 240.806 l
102.752 235.322 l
81.6224 231.602 l
72.496 240.385 l
97.8912 234.327 l
101.859 235.243 l
109.2 237.183 l
110.291 231.812 l
75.7696 248.876 l
105.926 236.674 l
75.6704 201.184 l
102.058 244.958 l
105.331 232.557 l
79.8368 231.995 l
144.118 233.989 l
105.133 235.254 l
81.1264 232.599 l
81.92 238.918 l
83.7056 235.874 l
105.034 234.242 l
84.1024 232.026 l
104.835 233.129 l
84.0032 231.532 l
92.4352 240.734 l
216.931 233.575 l
76.8608 231.754 l
103.446 240.358 l
102.653 234.27 l
80.0352 254.722 l
91.7408 228.661 l
77.0592 235.141 l
82.912 246.527 l
96.9984 220.734 l
74.5792 232.223 l
73.1904 198.64 l
216.832 235.005 l
85.2928 236.266 l
88.5664 235.138 l
107.811 231.029 l
253.04 234.432 l
101.661 210.06 l
111.581 245.417 l
81.424 235.406 l
98.3872 231.849 l
97.0976 238.558 l
82.7136 219.771 l
93.0304 232.688 l
106.422 222.014 l
75.8688 233.079 l
82.416 211.452 l
82.8128 238.412 l
83.5072 232.615 l
78.6464 232.4 l
101.462 211.074 l
84.9952 235.618 l
76.7616 233.524 l
103.843 254.486 l
88.9632 235.055 l
103.942 263.666 l
83.6064 234.506 l
100.371 235.39 l
94.0224 236.891 l
82.0192 240.421 l
109.498 237.668 l
110.886 219.298 l
105.43 231.062 l
84.896 227.533 l
252.941 233.132 l
96.8992 210.843 l
107.216 233.188 l
104.339 231.09 l
95.2128 236.737 l
180.723 209.725 l
88.2688 232.649 l
110.39 235.075 l
109.894 235.121 l
114.259 239.127 l
81.2256 234.537 l
100.57 232.693 l
103.05 231.099 l
92.0384 219.522 l
98.1888 232.765 l
97.3952 244.727 l
90.848 235.666 l
98.8832 228.345 l
117.037 234.925 l
106.125 228.77 l
106.323 217.19 l
91.4432 238.919 l
80.2336 245.728 l
86.384 231.465 l
111.085 211.943 l
100.966 238.927 l
113.664 240.427 l
98.288 231.185 l
78.944 236.014 l
93.6256 231.892 l
95.0144 243.369 l
87.9712 240.197 l
216.634 241.768 l
110.787 228.034 l
80.432 232.526 l
114.358 233.491 l
77.7536 248.368 l
80.6304 229.4 l
99.1808 219.495 l
92.9312 232.742 l
98.784 236.82 l
101.264 228.136 l
120.013 238.948 l
111.184 231.294 l
77.8528 243.208 l
90.6496 232.668 l
101.165 236.776 l
101.066 240.375 l
87.872 227.65 l
94.2208 225.769 l
85.9872 234.476 l
82.6144 209.559 l
112.275 235.055 l
108.406 227.969 l
74.6784 235.167 l
119.914 235.152 l
93.7248 235.04 l
114.557 234.138 l
116.64 239.511 l
118.326 199.898 l
88.368 234.445 l
73.7856 236.493 l
99.776 243.235 l
112.672 231.816 l
99.6768 246.462 l
119.219 232.997 l
110.589 240.288 l
79.936 258.01 l
89.36 229.83 l
104.637 237.331 l
116.045 245.437 l
96.7008 209.736 l
81.3248 235.944 l
115.251 238.943 l
102.95 232.624 l
143.722 235.484 l
216.534 242.965 l
89.0624 238.918 l
89.856 241.507 l
74.48 231.835 l
109.696 232.868 l
85.5904 239.113 l
84.2016 235.081 l
95.1136 239.936 l
88.7648 231.401 l
99.0816 225.055 l
103.248 235.044 l
111.382 238.898 l
116.442 219.094 l
85.6896 237.133 l
80.8288 244.685 l
110.093 232.432 l
93.824 238.921 l
117.434 231.836 l
86.5824 235.067 l
112.573 230.975 l
85.1936 248.106 l
288.95 237.784 l
105.232 234.549 l
106.819 245.034 l
110.986 211.846 l
80.928 236.421 l
92.336 236.749 l
115.549 228.55 l
103.645 229.649 l
78.448 239.327 l
90.7488 234.415 l
83.408 232.495 l
83.408 232.495 l
83.408 232.495 l
115.846 240.898 l
145.309 234.936 l
148.682 239.426 l
113.962 227.573 l
114.16 235.838 l
73.3888 233.832 l
104.042 251.095 l
112.176 234.163 l
86.88 236.962 l
119.318 234.089 l
114.755 234.24 l
89.9552 229.824 l
129.338 231.95 l
97.1968 238.441 l
121.005 221.627 l
109.597 233.269 l
89.5584 221.634 l
83.3088 236.147 l
92.5344 243.693 l
91.84 224.314 l
289.347 269.968 l
79.5392 238.918 l
106.72 228.917 l
94.7168 235.585 l
100.669 231.14 l
102.157 244.106 l
90.0544 232.229 l
91.9392 218.929 l
96.6016 218.233 l
87.5744 240.242 l
150.666 231.065 l
118.822 245.928 l
101.363 219.576 l
83.1104 240.423 l
117.93 227.883 l
88.4672 235.735 l
94.4192 214.133 l
107.514 235.187 l
102.454 233.021 l
177.35 232.516 l
91.1456 231.341 l
86.0864 235.805 l
113.466 305.196 l
121.898 234.024 l
183.798 232.733 l
100.074 232.952 l
99.28 194.929 l
100.272 234.298 l
113.267 233.833 l
105.629 235.052 l
106.522 233.804 l
96.2048 238.922 l
123.088 249.13 l
99.8752 240.822 l
94.6176 225.589 l
107.414 234.215 l
81.5232 233.339 l
90.9472 235.051 l
122.294 235.176 l
148.781 234.789 l
115.946 247.373 l
253.139 236.204 l
99.5776 244.746 l
127.949 245.583 l
125.171 227.893 l
92.2368 231.428 l
85.4912 232.96 l
139.952 272.905 l
118.227 220.404 l
105.728 238.932 l
94.9152 240.648 l
112.374 234.315 l
122.592 236.152 l
130.33 247.322 l
127.651 266.189 l
127.254 240.02 l
90.2528 237.676 l
118.128 228.633 l
182.608 228.94 l
85.888 232.631 l
132.115 235.735 l
126.659 233.888 l
111.978 233.355 l
109.398 240.54 l
132.413 263.39 l
88.1696 232.626 l
163.462 210.508 l
79.1424 233.431 l
142.63 226.944 l
102.256 241.163 l
154.534 248.443 l
83.0112 247.721 l
112.771 235.091 l
98.5856 238.924 l
80.1344 246.561 l
82.2176 228.536 l
81.0272 232.441 l
126.957 231.92 l
325.258 255.194 l
117.334 230.936 l
149.872 224.728 l
178.342 236.96 l
127.85 243.373 l
93.5264 231.285 l
183.699 233.409 l
123.782 240.018 l
95.4112 232.71 l
180.326 246.004 l
178.442 229.139 l
179.83 232.075 l
150.17 233.524 l
114.061 228.856 l
85.392 230.774 l
145.011 217.516 l
108.902 226.596 l
90.1536 249.367 l
142.035 251.35 l
79.2416 231.676 l
165.248 238.821 l
148.979 261.481 l
96.5024 228.254 l
84.4992 236.976 l
144.912 225.373 l
96.0064 231.869 l
95.312 232.809 l
101.562 208.978 l
76.6624 235.588 l
149.277 247.588 l
93.9232 240.412 l
160.982 210.556 l
92.1376 204.533 l
289.05 234.96 l
126.858 230.902 l
289.248 243.73 l
121.997 232.167 l
84.6976 237.932 l
157.213 235.696 l
86.1856 235.227 l
127.155 238.952 l
155.526 232.483 l
147.094 234.416 l
85.0944 231.838 l
127.056 235.232 l
87.2768 302.464 l
97.9904 235.458 l
94.1216 228.9 l
87.376 241.999 l
179.533 238.661 l
150.963 238.912 l
109.795 234.189 l
115.152 235.109 l
92.832 236.569 l
109.994 234.392 l
122.89 204.365 l
120.906 247.303 l
123.187 228.121 l
98.4864 235.037 l
289.149 228.715 l
87.1776 227.106 l
132.81 221.486 l
185.882 234.26 l
151.757 245.061 l
128.643 234.101 l
177.251 238.13 l
155.03 233.787 l
108.803 203.497 l
111.878 237.801 l
143.622 232.198 l
90.352 241.476 l
147.293 205.306 l
95.9072 231.233 l
109.299 234.478 l
72.6944 231.375 l
143.821 238.936 l
149.574 237.471 l
163.264 225.278 l
121.302 228.908 l
115.35 240.227 l
89.2608 236.943 l
86.6816 238.918 l
155.427 231.136 l
128.445 234.402 l
108.704 221.007 l
119.12 233.615 l
78.3488 230.577 l
180.227 243.601 l
163.363 222.753 l
151.162 234.632 l
89.7568 190.498 l
92.6336 240.901 l
110.49 238.938 l
123.386 197.716 l
123.882 233.858 l
87.4752 231.499 l
95.6096 235.527 l
125.965 210.664 l
181.219 233.636 l
128.147 235.661 l
128.742 233.144 l
91.344 235.046 l
171.299 224.7 l
128.842 233.997 l
82.5152 213.081 l
91.5424 240.419 l
104.24 243.333 l
182.509 247.6 l
97.5936 236.401 l
85.7888 232.552 l
79.0432 235.497 l
137.472 245.718 l
91.6416 236.92 l
135.686 240.059 l
163.859 257.836 l
113.069 236.482 l
102.554 232.783 l
141.341 235.443 l
158.205 239.061 l
94.32 214.458 l
124.477 230.905 l
107.613 234.469 l
150.566 231.812 l
185.981 233.617 l
128.246 225.589 l
87.6736 234.399 l
87.7728 220.259 l
156.221 234.223 l
140.944 233.516 l
115.053 231.824 l
78.7456 232.585 l
140.845 234.315 l
144.019 235.088 l
143.92 239.584 l
105.53 231.815 l
122.195 231.871 l
159.693 233.71 l
99.4784 236.656 l
104.538 225.909 l
97.6928 232.873 l
168.422 247.154 l
172.688 244.25 l
125.072 230.662 l
220.006 237.763 l
134.099 232.02 l
138.762 230.942 l
103.546 236.727 l
125.27 242.658 l
96.4032 236.858 l
146.499 231.671 l
84.3008 238.917 l
129.238 230.903 l
135.885 233.264 l
103.149 231.822 l
152.848 233.249 l
142.134 235.886 l
219.907 236.963 l
147.789 233.479 l
164.95 231.311 l
124.675 235.203 l
118.922 240.091 l
106.224 219.358 l
138.662 231.913 l
156.122 231.186 l
186.378 231.851 l
92.7328 240.629 l
110.688 236.551 l
139.754 225 l
179.434 236.185 l
171.894 232.901 l
141.142 230.96 l
138.166 234.563 l
173.779 242.154 l
98.0896 234.794 l
131.818 235.296 l
88.864 231.951 l
106.918 241.043 l
108.605 215.454 l
86.2848 233.163 l
129.04 233.822 l
160.09 231.775 l
159.594 235.447 l
91.0464 232.997 l
144.614 247.129 l
182.707 228.309 l
94.816 242.41 l
121.402 240.423 l
158.8 224.15 l
137.67 247.147 l
183.005 219.658 l
104.141 230.783 l
154.138 210.423 l
154.733 240.608 l
140.646 233.348 l
153.344 238.901 l
159.395 241.725 l
165.546 230.225 l
146.003 232.25 l
171.498 236.578 l
98.6848 240.39 l
158.106 238.874 l
107.315 232.839 l
161.379 231.679 l
179.93 269.167 l
115.45 236.407 l
121.203 237.949 l
253.238 237.456 l
140.25 232.932 l
129.635 239.968 l
156.717 219.885 l
170.704 248.835 l
132.214 229.416 l
162.867 238.841 l
120.41 262.829 l
117.83 236.327 l
117.632 238.946 l
126.362 233.106 l
175.664 240.303 l
130.429 241.077 l
113.168 228.711 l
165.843 226.078 l
178.838 233.647 l
139.654 212.503 l
137.968 233.581 l
161.28 220.51 l
361.466 241.591 l
158.403 225.153 l
325.555 251.793 l
143.027 233.391 l
160.883 218.526 l
147.194 249.97 l
116.938 234.113 l
179.632 237.994 l
126.064 235.037 l
116.342 226.639 l
120.806 245.98 l
77.6544 256.274 l
152.253 233.388 l
154.832 235.387 l
125.766 248.733 l
160.586 238.959 l
146.995 258.776 l
167.43 232.828 l
152.154 215.491 l
82.1184 236.984 l
161.974 235.871 l
83.8048 235.316 l
192.925 238.017 l
173.878 236.845 l
177.053 236.136 l
176.16 240.492 l
130.131 238.801 l
139.357 227.31 l
125.37 255.95 l
185.485 225.67 l
175.763 232.115 l
180.128 250.686 l
141.539 239.658 l
206.813 230.249 l
75.5712 209.964 l
163.165 227.053 l
151.459 259.645 l
129.536 238.952 l
131.52 232.006 l
129.933 272.539 l
99.9744 236.695 l
145.507 233.857 l
124.774 238.951 l
157.808 231.176 l
100.173 232.758 l
175.565 223.927 l
97.792 232.733 l
199.472 262.9 l
136.48 232.06 l
115.747 268.069 l
119.616 232.215 l
133.306 240.191 l
131.421 233.757 l
178.045 257.469 l
126.163 240.263 l
174.176 233.586 l
175.267 218.475 l
142.928 234.82 l
153.146 232.421 l
141.738 232.572 l
152.054 230.118 l
199.67 226.737 l
183.898 231.843 l
169.91 235.989 l
106.621 232.771 l
130.726 235.621 l
112.97 240.259 l
214.65 232.96 l
134.397 239.855 l
203.638 234.303 l
95.5104 234.356 l
206.912 228.695 l
88.6656 233.079 l
206.118 269.833 l
145.21 242.302 l
156.618 247.156 l
153.84 245.688 l
130.627 216.406 l
240.938 232.506 l
174.573 233.058 l
116.243 234.075 l
205.622 236.706 l
133.603 233.954 l
89.6576 240.719 l
176.259 236.338 l
159.99 233.107 l
131.718 231.984 l
163.562 226.904 l
131.123 233.183 l
180.029 273.325 l
100.867 235.039 l
90.5504 232.673 l
156.32 226.26 l
155.13 233.983 l
215.443 228.45 l
132.512 240.834 l
117.731 240.192 l
118.624 235.362 l
125.568 209.956 l
129.437 235.263 l
199.571 227.934 l
233.994 233.591 l
175.168 228.102 l
150.368 234.091 l
120.112 240.154 l
361.763 261.536 l
128.346 215.109 l
188.163 236.721 l
98.9824 223.901 l
168.125 260.244 l
247.286 239.368 l
156.816 240.438 l
150.467 233.299 l
134.694 236.716 l
162.768 235.844 l
141.043 231.888 l
84.7968 234.599 l
184.195 236.283 l
210.781 222.914 l
168.323 249.12 l
325.357 252.827 l
181.616 231.715 l
149.773 222.315 l
108.506 219.132 l
148.285 231.034 l
218.122 204.624 l
165.942 241.696 l
180.922 242.486 l
207.507 233.044 l
87.0784 228.198 l
204.73 241.436 l
227.347 228.825 l
252.742 232.783 l
122.493 240.112 l
159.792 233.755 l
194.413 248.806 l
141.44 238.941 l
97.296 247.813 l
206.714 247.139 l
93.4272 232.917 l
132.016 239.913 l
133.107 210.696 l
139.555 223.025 l
175.466 178.076 l
361.366 244.485 l
397.971 233.948 l
188.461 233.326 l
174.672 236.087 l
200.266 233.576 l
125.866 250.099 l
123.584 233.473 l
178.144 241.849 l
93.328 234.964 l
177.946 235.607 l
182.906 261.522 l
191.139 231.995 l
143.523 230.982 l
250.461 232.571 l
136.877 235.493 l
113.565 247.541 l
139.456 229.965 l
137.77 223.967 l
189.354 223.228 l
325.654 247.036 l
124.179 234.735 l
171.597 233.954 l
153.245 235.657 l
211.971 239.542 l
178.739 234.105 l
140.349 244.058 l
137.274 247.259 l
114.954 230.953 l
213.558 206.941 l
164.058 241.056 l
142.432 271.545 l
138.96 235.404 l
135.984 233.934 l
123.286 250.493 l
202.15 231.45 l
243.021 235.768 l
157.907 232.548 l
163.066 233.755 l
146.102 235.525 l
146.598 271.908 l
280.419 223.349 l
102.355 236.731 l
184.79 243.404 l
140.746 233.894 l
165.446 233.583 l
186.477 233.474 l
142.829 241.573 l
289.446 267.649 l
211.872 241.231 l
222.09 233.1 l
177.549 220.072 l
246.89 238.057 l
136.678 238.948 l
196.794 254.936 l
144.714 243.327 l
121.501 233.82 l
89.1616 240.423 l
120.211 236.242 l
165.05 232.755 l
223.776 240.037 l
141.638 235.229 l
124.576 231.894 l
271.392 241.05 l
124.278 233.955 l
125.469 267.886 l
96.1056 235.037 l
189.056 238.51 l
207.606 232.516 l
175.069 227.54 l
138.266 233.306 l
221.098 229.44 l
173.68 223.72 l
118.426 214.327 l
192.429 291.287 l
171.398 242.672 l
259.389 244.29 l
242.426 232.858 l
258.198 231.491 l
203.738 276.128 l
224.272 232.466 l
282.701 251.474 l
155.725 238.888 l
188.064 241.084 l
128.544 240.58 l
213.162 221.926 l
146.301 239.507 l
171.2 216.024 l
216.435 250.373 l
149.178 249.461 l
171.002 239.557 l
162.371 233.062 l
263.158 216.52 l
172.787 279.025 l
181.914 238.626 l
270.202 225.109 l
260.182 234.76 l
166.438 218.191 l
170.803 247.008 l
259.29 210.752 l
161.776 235.723 l
176.557 233.54 l
199.77 246.544 l
152.55 233.57 l
118.525 230.232 l
242.326 234.83 l
187.37 202.628 l
231.018 241.889 l
147.987 234.145 l
174.374 231.79 l
133.008 252.133 l
131.917 238.952 l
325.456 252.314 l
192.826 242.5 l
161.677 251.264 l
160.387 235.796 l
82.3168 222.552 l
178.541 239.631 l
84.5984 229.923 l
97.4944 241.516 l
223.181 201.846 l
145.408 233.435 l
77.5552 259.979 l
263.258 214.661 l
193.421 231.929 l
154.336 215.986 l
116.838 232.963 l
181.021 237.371 l
147.59 240.01 l
188.362 233.608 l
168.026 271.01 l
238.656 232.747 l
172.093 231.47 l
89.4592 233.307 l
181.418 232.763 l
177.45 223.824 l
152.65 233.804 l
182.013 237.854 l
221.792 232.892 l
195.901 232.146 l
132.611 254.624 l
243.914 232.903 l
135.587 233.591 l
131.619 230.908 l
113.862 218.674 l
147.392 224.804 l
130.032 260.791 l
165.347 238.743 l
186.08 233.367 l
149.674 228.406 l
251.651 206.885 l
142.333 210.749 l
277.542 265.836 l
181.12 234.156 l
151.36 262.896 l
194.71 247.544 l
143.325 233.459 l
122.394 238.95 l
201.754 244.272 l
119.715 230.922 l
170.605 249.098 l
273.872 243.076 l
194.611 247.101 l
283.494 237.888 l
99.3792 216.442 l
207.21 239.198 l
286.669 235.075 l
258.099 236.37 l
173.581 219.981 l
122.79 283.74 l
120.608 250.068 l
213.658 225.75 l
177.152 238.693 l
157.51 233.931 l
137.075 282.266 l
178.938 233.495 l
169.117 236.427 l
174.87 238.261 l
247.187 230.903 l
162.47 231.772 l
95.808 232.84 l
433.782 233.114 l
137.174 266.178 l
123.485 239.241 l
211.078 313.06 l
273.971 237.055 l
124.874 240.068 l
104.736 238.621 l
215.84 206.715 l
325.853 229.463 l
148.086 233.351 l
150.864 235.612 l
153.939 217.917 l
179.731 232.332 l
223.974 235.203 l
207.706 232.117 l
124.378 232.123 l
230.621 306.201 l
116.739 233.578 l
86.9792 229.461 l
133.802 233.695 l
200.762 234.015 l
182.806 189.416 l
139.059 238.945 l
215.741 198.897 l
192.528 261.723 l
141.936 257.481 l
318.909 221.803 l
260.381 237.54 l
135.786 234.444 l
145.805 231.845 l
140.448 238.61 l
361.862 231.692 l
294.406 191.328 l
162.57 231.263 l
198.282 232.225 l
137.571 224.433 l
247.584 235.335 l
202.051 226.214 l
171.994 231.782 l
313.75 194.983 l
169.018 243.021 l
183.203 229.491 l
187.469 235.679 l
277.642 257.429 l
223.875 239.367 l
233.101 246.376 l
231.613 233.49 l
96.304 240.402 l
121.798 234.797 l
131.222 233.975 l
153.642 233.066 l
116.541 236.643 l
297.382 223.576 l
197.19 241.543 l
206.218 255.425 l
187.965 244.231 l
198.182 231.984 l
192.33 174.329 l
232.109 228.528 l
216.336 244.615 l
283.792 233.01 l
325.754 243.373 l
167.53 235.94 l
93.1296 234.385 l
277.146 235.526 l
233.002 225.289 l
190.445 239.924 l
176.061 240.623 l
230.819 241.066 l
227.05 237.082 l
74.7776 238.921 l
183.104 244.388 l
288.653 234.268 l
172.291 236.038 l
196.893 246.392 l
164.157 235.358 l
151.856 237.478 l
288.851 237.69 l
235.68 236.879 l
225.661 244.236 l
164.454 233.806 l
83.2096 240.785 l
324.96 249.846 l
201.654 239.681 l
195.802 231.956 l
214.154 243.896 l
206.317 223.964 l
395.789 236.035 l
174.474 231.528 l
161.181 207.881 l
164.256 240.166 l
232.01 234.022 l
226.653 232.466 l
138.067 240.784 l
188.957 236.38 l
147.69 235.163 l
212.368 232.493 l
107.712 232.493 l
124.08 234.042 l
203.936 248.459 l
193.718 236.476 l
184.691 234.951 l
397.475 212.781 l
157.61 233.152 l
223.28 304.153 l
168.621 238.818 l
184.294 238.59 l
165.149 235.892 l
218.221 208.727 l
262.266 232.827 l
199.075 257.444 l
126.758 232.081 l
261.174 241.112 l
316.627 240.018 l
241.83 205.022 l
228.637 241.119 l
204.63 218.393 l
153.542 234.468 l
259.488 239.637 l
385.77 236.135 l
157.312 233.663 l
260.48 236.269 l
203.837 270.238 l
189.949 222.147 l
132.71 252.706 l
282.403 220.655 l
146.896 263.439 l
175.366 243.236 l
349.562 236.691 l
212.17 233.569 l
201.456 187.405 l
204.234 245.075 l
256.214 258.698 l
196 233.831 l
164.752 233.02 l
257.206 243.167 l
167.232 231.773 l
263.555 189.081 l
224.371 232.419 l
129.834 235.003 l
170.506 259.945 l
245.798 232.933 l
189.85 213.243 l
193.024 234.42 l
164.851 231.771 l
197.786 234.53 l
174.077 233.671 l
234.49 228.832 l
138.365 233.914 l
266.829 236.699 l
221.99 232.371 l
144.813 238.399 l
361.962 238.036 l
120.31 229.539 l
359.581 242.639 l
222.883 201.825 l
220.502 289.621 l
361.565 237.584 l
136.976 238.955 l
114.656 234.99 l
91.2448 231.92 l
191.238 233.65 l
180.822 221.434 l
112.87 238.94 l
185.584 230.983 l
280.122 268.831 l
185.286 214.31 l
137.373 231.561 l
170.902 244.058 l
267.226 233.564 l
224.768 237.615 l
211.376 240.536 l
112.077 232.899 l
137.869 220.509 l
213.062 228.733 l
241.434 237.034 l
183.997 231.782 l
84.4 240.424 l
189.453 214.96 l
254.131 182.013 l
323.174 194.576 l
284.685 293.993 l
330.714 195.07 l
154.237 241.895 l
226.157 240.574 l
231.91 237.378 l
250.56 233.064 l
241.731 223.504 l
271.293 222.289 l
121.699 234.065 l
169.414 233.68 l
322.678 231.702 l
242.922 240.338 l
268.019 220.432 l
209.789 233.568 l
208.896 161.999 l
88.0704 237.286 l
228.736 235.382 l
119.418 234.861 l
86.7808 240.425 l
283.395 243.395 l
164.653 233.778 l
173.978 234.004 l
150.07 235.453 l
197.091 247.808 l
325.158 265.294 l
179.334 233.22 l
326.845 237.661 l
138.464 234.372 l
263.654 215.407 l
209.293 234.755 l
146.4 234.942 l
128.941 234.611 l
250.659 234.324 l
235.184 262.07 l
271.69 234.118 l
142.73 228.955 l
181.715 233.303 l
135.19 287.691 l
290.736 234.531 l
167.629 238.8 l
239.946 208.185 l
267.325 235.093 l
220.304 231.534 l
187.072 210.159 l
133.901 231.972 l
197.984 233.175 l
203.539 230.046 l
280.32 244.275 l
172.986 249.902 l
118.723 250.392 l
189.651 212.504 l
224.867 234.662 l
176.458 233.659 l
183.6 233.626 l
243.12 233.715 l
193.917 237.093 l
185.782 237.258 l
157.114 241.046 l
225.859 233.657 l
211.674 238.806 l
165.744 218.691 l
232.208 236.688 l
190.048 248.537 l
190.742 233.6 l
159.098 236.582 l
134.496 235.617 l
295.498 234.649 l
248.179 232.998 l
269.21 237.075 l
354.918 241.425 l
156.915 225.22 l
307.6 233.44 l
115.648 258.057 l
151.658 246.494 l
286.966 288.395 l
259.984 232.664 l
187.171 202.3 l
316.726 243.622 l
150.765 232.361 l
254.33 180.08 l
431.997 223.414 l
223.082 181.178 l
252.445 240.005 l
219.709 233.006 l
124.973 236.056 l
126.461 234.019 l
261.075 227.484 l
280.518 252.887 l
204.333 240.296 l
184.493 231.87 l
230.918 230.055 l
188.758 231.922 l
310.179 237.03 l
250.957 236.664 l
238.259 235.621 l
303.632 226.643 l
350.95 231.568 l
86.4832 231.987 l
238.358 233.675 l
138.861 232.103 l
297.283 236.069 l
368.112 171.362 l
217.725 235.275 l
233.894 232.631 l
111.779 239.764 l
231.117 235.451 l
136.778 239.793 l
247.088 260.232 l
315.933 185.008 l
331.904 232.693 l
164.355 235.934 l
188.56 232.676 l
145.606 234.201 l
320.397 194.954 l
271.491 242.545 l
358.886 118.234 l
226.058 241.958 l
202.448 238.81 l
263.754 243.623 l
83.904 233.25 l
218.816 245.567 l
239.846 219.436 l
278.634 241.664 l
268.317 214.653 l
167.133 232.978 l
157.014 230.241 l
161.578 247.376 l
287.066 263.374 l
236.771 233.581 l
191.536 237.253 l
283.594 234.39 l
227.446 257.289 l
249.568 245.435 l
254.429 269.075 l
299.366 244.372 l
255.123 232.789 l
194.81 233.171 l
205.92 230.097 l
158.701 211.489 l
286.173 233.047 l
198.678 236.759 l
213.36 197.201 l
220.106 235.074 l
258.992 235.719 l
158.006 235.749 l
246.691 244.166 l
134 230.916 l
111.68 236.079 l
306.41 197.996 l
241.93 213.919 l
260.579 231.25 l
153.443 239.251 l
249.965 234.85 l
299.962 226.706 l
299.862 215.72 l
243.418 232.869 l
147.491 235.877 l
155.328 231.789 l
429.12 235.396 l
127.552 277.876 l
260.282 236.51 l
253.635 215.911 l
361.168 241.854 l
288.554 233.089 l
219.411 232.913 l
247.782 236.032 l
260.083 233.343 l
268.118 194.381 l
288.256 238.085 l
246.989 242.141 l
366.922 236.444 l
197.587 241.342 l
205.523 234.203 l
163.958 225.744 l
209.987 232.478 l
155.229 233.2 l
320.893 246.462 l
136.579 235.366 l
229.133 232.522 l
201.158 230.226 l
259.587 240.299 l
197.488 220.936 l
332.003 224.734 l
139.258 235.364 l
196.298 236.928 l
186.973 222.44 l
241.533 233.131 l
214.451 234.936 l
198.976 270.389 l
339.939 177.406 l
170.109 238.511 l
282.006 229.197 l
216.038 215.041 l
245.501 233.738 l
194.016 230.949 l
168.522 245.446 l
292.125 247.319 l
267.424 236.814 l
217.13 232.476 l
397.773 242.29 l
138.563 233.574 l
165.645 226.993 l
322.579 220.845 l
314.742 233.571 l
200.563 232.014 l
323.274 133.928 l
224.173 232.872 l
290.637 238.074 l
158.304 234.123 l
263.456 185.879 l
150.269 233.821 l
257.107 233.575 l
289.843 246.588 l
166.934 233.711 l
240.144 245.933 l
190.941 232.65 l
259.19 301.555 l
358.589 221.031 l
141.242 232.149 l
248.278 234.216 l
395.888 238.583 l
266.73 241.45 l
307.501 233.335 l
303.037 236.729 l
250.163 236.13 l
166.538 218.975 l
159.197 240.791 l
174.97 232.737 l
176.854 231.588 l
122.691 235.204 l
151.261 234.432 l
94.5184 218.107 l
153.046 231.099 l
433.981 237.945 l
356.208 221.598 l
227.248 234.451 l
256.512 245.607 l
225.76 239.305 l
269.408 232.862 l
397.376 216.079 l
214.848 232.236 l
152.451 235.48 l
392.912 239.209 l
361.664 170.281 l
268.218 214.084 l
368.211 192.388 l
344.403 214.442 l
164.554 233.725 l
191.834 230.605 l
363.053 266.022 l
358.49 250.073 l
318.71 249.502 l
146.202 238.929 l
319.008 236.27 l
327.242 227.8 l
322.778 287.269 l
257.405 233.883 l
230.522 193.244 l
266.432 256.831 l
199.373 180.123 l
204.531 218.506 l
184.989 254.078 l
176.656 232.829 l
302.938 234.742 l
231.811 237.157 l
236.176 232.485 l
254.528 257.118 l
130.925 239.615 l
159.296 242.164 l
336.17 233.916 l
303.533 235.018 l
131.322 234.55 l
201.952 255.067 l
286.371 235.982 l
289.645 255.286 l
354.819 245.789 l
276.947 237.211 l
114.854 232.318 l
175.962 237.505 l
181.318 233.451 l
277.443 288.058 l
215.939 202.27 l
372.378 230.442 l
240.838 232.786 l
135.091 230.731 l
202.845 232.546 l
154.931 233.616 l
327.539 222.983 l
186.874 231.579 l
309.882 233.372 l
281.907 235.303 l
236.672 237.21 l
206.416 223.28 l
100.768 231.834 l
284.586 233.014 l
134.794 240.478 l
298.474 237.825 l
232.406 235.23 l
217.626 237.834 l
394.102 239.474 l
207.11 237.245 l
250.858 237.426 l
310.08 234.97 l
194.115 230.34 l
236.87 227.172 l
121.6 233.033 l
243.814 236.944 l
470.387 243.197 l
130.23 245.624 l
274.566 237.113 l
260.976 255.718 l
246.096 237.364 l
313.651 249.265 l
305.418 236.831 l
199.968 242.369 l
303.731 202.738 l
262.166 233.895 l
234.886 253.767 l
288.355 234.475 l
211.475 242.012 l
173.283 241.857 l
349.462 252.418 l
278.534 251.546 l
196.595 267.454 l
200.464 232.563 l
126.262 234.002 l
161.478 239.627 l
121.104 214.791 l
172.39 238.75 l
197.686 238.628 l
471.478 226.107 l
176.358 234.054 l
419.597 235.619 l
117.533 235.129 l
147.888 233.838 l
457.789 237.425 l
313.354 216.188 l
194.314 257.615 l
296.589 256.071 l
387.158 244.305 l
247.981 232.778 l
203.242 236.661 l
355.216 234.103 l
224.669 237.043 l
324.464 237.578 l
198.48 236.57 l
205.325 232.081 l
117.235 232.265 l
210.682 228.952 l
236.474 235.489 l
238.16 240.239 l
325.952 236.661 l
152.352 240.587 l
271.789 232.865 l
135.29 227.738 l
272.781 223.085 l
219.51 232.471 l
324.762 233.097 l
358.986 317.42 l
169.315 233.697 l
160.685 233.942 l
267.821 225.083 l
174.275 232.864 l
349.661 294.849 l
305.616 237.839 l
95.7088 234.879 l
210.384 236.795 l
299.565 242.607 l
391.126 238.618 l
242.029 201.075 l
176.755 231.8 l
294.902 245.099 l
290.538 244.62 l
169.712 231.415 l
196.198 238.372 l
155.923 234.298 l
268.416 234.449 l
192.726 221.934 l
249.469 241.077 l
339.84 59.4647 l
433.485 244.906 l
219.312 233.58 l
304.227 246.428 l
162.074 233.758 l
161.082 205.713 l
140.547 234.544 l
191.04 231.905 l
195.107 223.567 l
145.706 233.404 l
324.563 238.89 l
383.389 238.419 l
116.144 239.172 l
258.496 220.324 l
432.096 222.808 l
224.966 227.441 l
185.088 252.465 l
238.954 237.264 l
186.675 238.551 l
391.027 236.086 l
222.288 237.003 l
362.259 234.03 l
345.594 233.889 l
273.475 185.776 l
283.098 213.404 l
172.192 232.98 l
282.8 247.508 l
308.989 252.645 l
192.032 247.504 l
295.696 233.218 l
326.051 217.29 l
225.264 197.696 l
244.112 268.589 l
313.85 238.617 l
212.269 232.987 l
433.683 233.384 l
154.435 251.26 l
253.536 224.251 l
322.282 237.808 l
374.957 227.242 l
244.31 259.41 l
250.758 236.102 l
184.394 237.71 l
134.198 235.33 l
204.035 248.371 l
280.221 247.359 l
262.563 234.871 l
122.096 230.912 l
219.808 234.786 l
279.229 235.65 l
351.05 227.143 l
242.525 255.42 l
251.254 221.332 l
207.309 234.765 l
149.376 246.593 l
208.301 229.873 l
235.581 227.339 l
490.029 240.949 l
369.203 242.01 l
133.405 234.341 l
172.589 232.952 l
307.898 238.386 l
181.517 231.827 l
296.688 291.461 l
213.757 225.046 l
353.53 214.619 l
132.314 249.93 l
295.2 245.643 l
387.059 238.382 l
80.7296 219.182 l
341.427 232.14 l
279.725 230.592 l
295.795 234.506 l
267.92 220.394 l
161.875 239.059 l
172.886 247.656 l
246.195 236.852 l
328.333 229.563 l
356.506 192.317 l
295.398 237.92 l
221.494 240.41 l
326.944 238.952 l
355.018 236.208 l
296.093 237.817 l
326.746 235.457 l
269.805 236.914 l
313.254 203.304 l
169.613 231.776 l
175.862 249.234 l
208.003 236.751 l
209.69 234.822 l
356.605 256.76 l
380.611 223.342 l
136.083 234.431 l
284.189 237.755 l
221.693 233.586 l
283.296 232.081 l
465.328 226.432 l
421.978 235.566 l
197.29 229.919 l
158.602 213.076 l
248.675 232.44 l
127.75 242.601 l
250.362 232.78 l
178.64 237.228 l
170.208 233.161 l
134.893 254.794 l
266.928 234.032 l
398.17 236.006 l
311.171 167.883 l
299.664 237.626 l
193.222 233.248 l
209.59 238.751 l
350.851 237.502 l
141.837 263.537 l
306.509 216.627 l
421.68 237.182 l
132.909 222.458 l
320 233.36 l
222.189 234.885 l
235.779 241.327 l
185.386 241.146 l
173.382 241.575 l
304.426 271.959 l
313.056 218.612 l
205.821 236.23 l
142.531 216.315 l
221.395 237.246 l
184.89 244.418 l
210.88 219.766 l
269.904 237.639 l
185.187 236.193 l
134.992 218.888 l
168.918 223.111 l
201.555 326.053 l
433.187 233.409 l
210.186 232.643 l
207.408 233.569 l
450.547 234.852 l
220.403 255.006 l
250.064 242.848 l
217.923 221.859 l
221.891 232.467 l
248.08 232.552 l
247.386 222.356 l
173.482 225.93 l
277.046 237.702 l
224.074 233.594 l
506.198 268.861 l
494.493 252.1 l
328.73 240.365 l
255.718 236.469 l
270.102 230.304 l
249.766 221.919 l
398.07 233.894 l
234.589 267.808 l
472.173 237.835 l
457.888 238.057 l
209.888 233.039 l
249.37 267.471 l
403.626 253.846 l
276.054 265.213 l
468.205 235.702 l
302.64 234.834 l
282.899 238.817 l
482.192 225.713 l
494.394 237.716 l
396.186 229.583 l
368.31 215.275 l
219.114 238.778 l
226.355 235.273 l
225.165 211.214 l
152.749 234.036 l
75.968 239.462 l
296.39 229.989 l
191.933 283.758 l
230.72 206.401 l
269.11 243.878 l
209.392 232.786 l
341.03 235.793 l
196.496 240.073 l
209.491 240.453 l
232.605 194.648 l
304.326 237.99 l
294.307 172.634 l
245.997 235.898 l
240.739 233.694 l
214.352 238.163 l
252.544 236.069 l
212.467 232.194 l
381.802 236.774 l
338.749 238.033 l
358.787 298.255 l
231.712 235.287 l
248.774 225.783 l
385.869 244.235 l
312.957 225.984 l
247.485 213.326 l
299.466 250.573 l
387.258 256.849 l
205.722 238.156 l
287.165 257.744 l
219.213 235.069 l
283.99 235.872 l
305.219 233.395 l
190.842 233.286 l
243.318 232.52 l
310.477 233.872 l
189.552 203.062 l
278.237 189.187 l
287.859 221.908 l
314.842 235.117 l
167.926 238.043 l
240.045 240.545 l
254.726 227.542 l
391.226 239.39 l
349.264 215.516 l
229.629 234.242 l
448.861 271.735 l
377.635 249.502 l
148.483 235.568 l
389.738 358.635 l
414.736 233.578 l
262.365 232.692 l
276.65 232.89 l
287.958 212.666 l
148.384 232.304 l
173.085 248.347 l
245.699 232.535 l
470.486 248.197 l
309.683 239.542 l
191.437 238.466 l
254.032 228.432 l
148.582 238.921 l
331.21 235.615 l
361.267 247.687 l
169.811 232.903 l
216.237 235.806 l
208.4 248.805 l
286.768 228.809 l
264.944 234.985 l
315.734 181.678 l
162.173 233.74 l
234.787 250.294 l
308.195 226.711 l
276.451 234.212 l
290.339 211.062 l
393.606 239.36 l
154.634 230.403 l
187.568 229.066 l
433.584 236.93 l
274.864 229.777 l
302.541 238.147 l
209.194 265.31 l
338.451 233.803 l
193.619 233.74 l
198.381 233.922 l
448.96 241.203 l
252.643 233.819 l
430.31 205.707 l
189.75 218.275 l
276.55 232.924 l
288.752 236.092 l
211.277 256.573 l
380.71 241.073 l
378.726 243.693 l
75.2736 242.973 l
414.339 232.261 l
453.722 242.712 l
323.373 284.276 l
441.024 235.096 l
188.659 231.882 l
208.995 300.515 l
226.752 232.47 l
243.517 234.004 l
322.381 233.229 l
394.698 223.853 l
193.123 233.593 l
222.685 254.879 l
196.397 230.757 l
367.418 239.517 l
257.702 233.271 l
274.467 235.427 l
440.925 232.926 l
274.368 233.794 l
318.611 297.307 l
485.069 247.076 l
331.606 237.819 l
245.402 235.975 l
399.955 250.519 l
470.189 264.025 l
276.154 219.812 l
305.318 234.819 l
346.685 240.494 l
327.738 207.641 l
323.571 209.56 l
392.416 319.071 l
235.085 238.726 l
359.978 234.126 l
405.014 237.013 l
239.053 237.123 l
131.024 234.139 l
235.382 218.314 l
228.24 231.46 l
362.061 242.977 l
344.502 237.851 l
421.581 244.526 l
457.69 234.675 l
405.51 239.174 l
191.734 238.377 l
380.413 235.474 l
256.115 268.332 l
310.774 243.387 l
322.877 272.714 l
159.891 233.879 l
241.334 237.298 l
217.526 236.922 l
377.04 236.911 l
345.197 239.702 l
332.102 222.73 l
435.27 235.112 l
347.379 225.409 l
267.523 237.615 l
262.861 236.166 l
200.861 236.616 l
235.283 193.746 l
279.13 233.95 l
149.078 260.745 l
379.917 251.961 l
195.702 232.604 l
439.437 251.206 l
151.558 250.521 l
341.626 261.557 l
220.899 263.45 l
204.928 234.706 l
220.701 231.652 l
313.453 197.712 l
167.331 231.362 l
291.034 234.347 l
469.395 232.674 l
453.821 105.275 l
485.168 240.194 l
317.322 237.314 l
249.171 262.576 l
291.43 234.843 l
221.594 235.197 l
268.515 293.149 l
362.458 236.103 l
225.462 209.379 l
162.272 233.828 l
207.904 234.299 l
270.301 244.962 l
349.958 255.446 l
346.09 237.577 l
286.57 237.77 l
182.112 232.145 l
238.557 232.495 l
208.499 265.169 l
179.136 231.813 l
214.253 241.82 l
416.621 251.102 l
351.149 219.064 l
413.645 212.41 l
237.962 246.807 l
389.837 245.921 l
343.709 237.611 l
469.99 226.877 l
314.445 238.951 l
322.182 238.826 l
363.747 202.214 l
234.688 271.43 l
506 255.397 l
277.741 249.658 l
266.333 242.89 l
316.528 260.608 l
333.987 237.893 l
504.413 235.946 l
156.518 274.674 l
196.992 244.823 l
489.93 238.125 l
217.328 232.913 l
293.414 234.427 l
226.95 235.085 l
282.304 250.783 l
190.246 248.405 l
272.88 266.527 l
139.853 222.505 l
482.093 212.763 l
214.749 232.484 l
324.266 233.736 l
246.79 256.884 l
146.698 235.045 l
233.2 243.658 l
403.13 239.216 l
342.618 227.396 l
266.63 239.386 l
505.107 232.225 l
367.616 230.532 l
231.315 232.824 l
307.699 234.895 l
370.096 221.093 l
320.794 255.495 l
196.099 236.523 l
362.16 236.383 l
232.704 207.4 l
342.518 238.5 l
244.211 275.759 l
281.213 234.312 l
450.646 237.576 l
163.76 224.153 l
231.216 233.627 l
291.331 237.796 l
489.334 255.062 l
184.592 230.085 l
281.114 237.451 l
142.234 241.898 l
93.2288 235.596 l
189.254 231.361 l
236.97 231.383 l
341.526 227.075 l
213.955 242.624 l
148.186 231.827 l
371.286 244.215 l
263.357 219.698 l
327.837 325.313 l
210.979 226.876 l
129.139 232.042 l
236.275 232.688 l
343.808 231.999 l
342.717 218.28 l
305.914 218.101 l
212.566 232.731 l
255.024 233.85 l
239.152 233.358 l
493.997 224.41 l
136.282 231.942 l
362.954 235.145 l
200.067 237.7 l
200.96 238.269 l
312.362 233.527 l
140.051 223.25 l
151.955 236.446 l
260.778 266.217 l
365.136 237.215 l
166.141 214.735 l
286.272 234.188 l
414.934 238.328 l
486.557 234.019 l
227.942 248.961 l
313.155 219.275 l
498.461 234.055 l
411.165 201.577 l
374.659 236.976 l
151.062 239.341 l
208.202 236.046 l
160.486 238.858 l
235.978 233.657 l
119.814 231.852 l
258 237.513 l
276.749 233.872 l
221.296 224.034 l
323.472 265.624 l
357.894 239.473 l
385.67 229.206 l
253.338 236.567 l
226.851 233.293 l
364.938 238.553 l
327.341 235.48 l
231.514 232.576 l
414.637 233.737 l
227.843 249.534 l
470.883 244.869 l
418.01 193.362 l
387.357 249.056 l
255.322 233.201 l
362.854 231.038 l
372.278 237.039 l
312.858 233.746 l
263.853 217.604 l
113.763 231.82 l
298.374 238.051 l
202.944 232.047 l
237.862 224.356 l
359.482 216.211 l
233.597 233.641 l
120.707 248.275 l
158.502 223.491 l
286.074 233.029 l
149.971 241.625 l
393.706 236.402 l
318.115 228.428 l
336.07 233.771 l
296.787 246.042 l
376.048 240.625 l
439.734 234.277 l
240.442 241.38 l
368.806 149.159 l
287.76 236.68 l
414.438 245.775 l
187.766 248.409 l
330.019 214.469 l
465.427 240.191 l
404.717 246.13 l
379.52 230.093 l
469.693 237.2 l
239.648 190.186 l
148.88 232.524 l
360.374 237.321 l
217.824 228.143 l
330.614 234.362 l
367.219 236.135 l
335.773 243.02 l
440.826 233.239 l
270.698 248.826 l
261.67 251.508 l
168.224 250.376 l
382.893 177.721 l
396.384 252.098 l
401.642 176.418 l
433.286 235.655 l
276.848 235.539 l
376.147 243.435 l
158.998 234.779 l
394.499 194.394 l
211.574 207.265 l
143.226 234.257 l
408.586 271.233 l
189.155 237.41 l
220.602 255.85 l
439.536 248.261 l
229.034 232.468 l
352.141 255.257 l
210.582 235.859 l
300.854 237.831 l
498.56 226.438 l
249.072 276.447 l
430.112 245.891 l
435.965 237.304 l
439.338 267.173 l
407.792 238.443 l
363.946 224.673 l
413.744 261.392 l
167.034 233.728 l
348.272 238.273 l
220.8 238.484 l
226.454 233.603 l
324.861 227.125 l
249.27 242.102 l
307.005 233.442 l
302.838 233.351 l
307.997 237.84 l
134.595 230.046 l
475.942 234.608 l
300.16 239.054 l
237.664 297.842 l
159.494 239.558 l
316.429 238.083 l
327.638 224.379 l
394.598 294.659 l
316.032 198.342 l
246.592 280.073 l
475.645 246.049 l
406.006 259.515 l
272.979 242.495 l
430.41 196.318 l
346.387 255.563 l
273.078 239.55 l
229.43 237.146 l
407.494 233.836 l
278.733 237.167 l
338.848 239.217 l
267.027 232.845 l
167.728 238.629 l
477.926 240.476 l
240.342 246.844 l
254.826 242.924 l
366.624 240.761 l
154.038 216.51 l
270.499 263.431 l
330.813 232.936 l
269.309 234.075 l
266.531 243.23 l
290.438 232.289 l
293.018 238.528 l
271.094 236.571 l
281.014 242.475 l
496.278 237.541 l
412.256 233.767 l
369.302 236.54 l
321.786 233.56 l
282.502 288.714 l
453.126 238.148 l
493.898 226.775 l
134.298 238.951 l
300.656 236.626 l
126.56 234.672 l
228.042 246.284 l
377.437 263.852 l
240.243 248.45 l
395.69 233.93 l
352.934 236.002 l
404.915 244.257 l
304.525 256.595 l
344.602 185.067 l
309.286 228.259 l
230.026 185.986 l
210.086 232.159 l
297.482 231.201 l
218.419 232.11 l
335.872 241.705 l
294.506 194.333 l
333.888 235.636 l
425.45 203.406 l
394.797 125.067 l
362.358 234.133 l
283.197 217.68 l
410.47 227.87 l
485.267 246.029 l
464.138 225.494 l
478.026 254.043 l
309.981 233.484 l
210.483 238.034 l
103.347 238.929 l
146.797 227.59 l
460.07 234.618 l
143.424 231.865 l
90.4512 236.424 l
171.696 233.684 l
337.558 245.33 l
306.31 195.228 l
258.794 174.164 l
355.414 238.415 l
397.078 211.228 l
452.928 234.792 l
296.886 244.304 l
378.528 225.266 l
289.744 253.776 l
350.355 233.939 l
441.718 251.578 l
345.494 235.988 l
391.424 229.781 l
357.498 234 l
286.47 237.596 l
358.192 222.954 l
227.149 237.538 l
173.184 246.694 l
416.918 236.906 l
419.101 225.886 l
462.848 226.908 l
332.995 246.487 l
287.264 249.252 l
466.518 234.001 l
149.475 242.784 l
334.582 233.239 l
488.838 237.699 l
123.981 233.069 l
491.517 231.483 l
418.902 233.927 l
256.81 238.66 l
261.968 243.399 l
257.504 232.796 l
238.755 233.795 l
425.35 190.983 l
296.291 228.129 l
200.662 232.305 l
386.563 236.63 l
270.896 241.901 l
396.979 213.115 l
333.491 240.088 l
355.117 233.982 l
320.298 203.692 l
332.598 207.121 l
434.278 228.286 l
257.306 236.451 l
356.704 237.096 l
498.064 231.729 l
244.707 250.111 l
369.104 244.41 l
445.29 229.949 l
465.923 241.842 l
202.746 233.106 l
377.536 251.337 l
316.33 190.867 l
300.557 234.664 l
374.262 234.126 l
486.755 242.362 l
378.429 215.412 l
264.845 233.469 l
234.192 237.193 l
300.259 234.771 l
235.482 238.761 l
184.096 233.388 l
469.891 234.148 l
457.987 234.359 l
432.394 253.302 l
492.112 249.781 l
162.966 238.853 l
461.856 226.12 l
242.128 235.215 l
257.008 216.914 l
501.635 238.901 l
136.182 233.633 l
252.048 244.038 l
310.278 238.465 l
294.704 220.877 l
262.067 236.688 l
244.906 231.524 l
498.858 263.391 l
264.646 232.83 l
293.315 233.174 l
335.475 228.638 l
274.666 237.682 l
358.39 300.71 l
384.678 256.689 l
239.35 218.254 l
431.798 235.09 l
249.667 229.519 l
393.011 243.857 l
421.184 226.154 l
177.747 205.039 l
301.35 262.614 l
473.958 242.812 l
487.549 238.695 l
350.256 236.121 l
318.81 207.07 l
278.138 220.548 l
123.683 232.632 l
439.139 239.097 l
469.494 232.211 l
471.677 237.562 l
470.09 240.084 l
255.421 234.541 l
403.526 257.749 l
306.112 203.975 l
429.715 255.884 l
297.978 233.19 l
128.048 243.589 l
489.136 240.19 l
281.61 235.761 l
429.814 253.852 l
344.205 266.666 l
366.128 302.29 l
257.603 232.638 l
305.814 226.571 l
429.219 238.048 l
233.398 239.522 l
274.17 232.902 l
310.378 237.84 l
205.424 232.471 l
195.008 218.628 l
255.818 231.731 l
474.851 242.835 l
435.171 247.443 l
118.029 228.471 l
365.632 209.316 l
246.493 275.336 l
222.586 229.245 l
253.933 249.544 l
315.635 198.18 l
340.435 249.275 l
404.816 233.351 l
412.752 235.746 l
256.016 261.665 l
343.411 235.84 l
482.291 234.444 l
194.512 244.793 l
452.829 232.623 l
400.054 241.33 l
310.874 258.767 l
188.262 234.313 l
193.322 232.626 l
220.205 228.551 l
385.472 218.174 l
360.771 259.027 l
233.299 240.965 l
210.285 234.395 l
449.059 241.575 l
439.834 227.512 l
378.032 333.835 l
293.514 236.308 l
304.723 245.758 l
453.622 243.445 l
386.464 239.441 l
242.227 209.115 l
219.014 242.848 l
469.792 237.866 l
199.274 203.993 l
183.302 240.541 l
223.677 239.92 l
100.47 234.711 l
352.339 232.981 l
261.77 213.491 l
458.781 221.275 l
427.334 218.977 l
342.221 251.955 l
485.962 238.14 l
279.626 229.393 l
247.882 233.763 l
230.323 244.35 l
157.709 231.781 l
197.389 217.638 l
363.251 295.108 l
412.653 239.037 l
346.586 298.314 l
271.194 202.124 l
233.696 232.812 l
319.107 244.27 l
213.459 183.991 l
302.243 232.057 l
319.802 238.758 l
158.899 218.74 l
284.486 220.771 l
318.214 208.86 l
415.728 175.017 l
291.133 236.2 l
423.565 259.26 l
401.939 323.353 l
498.659 231.426 l
367.517 237.159 l
182.31 284.89 l
431.699 238.618 l
394.202 223.096 l
251.75 197.616 l
287.363 259.243 l
399.856 231.84 l
451.341 244.822 l
345.891 238.198 l
260.678 228.873 l
449.853 224.632 l
455.309 234.733 l
265.44 223.433 l
304.128 178.566 l
315.139 237.833 l
367.021 234.051 l
346.288 227.468 l
321.686 235.352 l
504.016 251.129 l
284.288 235.19 l
319.206 239.592 l
417.514 235.578 l
275.558 221.734 l
331.011 242.147 l
253.734 206.14 l
314.643 233.448 l
490.723 237.213 l
393.904 226.741 l
421.085 253.488 l
309.386 214.651 l
449.754 230.677 l
338.352 235.808 l
255.619 237.485 l
475.744 238.879 l
490.326 226.9 l
186.576 236.332 l
416.819 241.507 l
335.078 253.283 l
343.213 233.862 l
206.515 231.486 l
295.299 241.689 l
217.427 234.687 l
459.971 232.433 l
404.32 240.658 l
312.659 238.542 l
402.237 229.151 l
268.813 227.916 l
444 259.317 l
314.941 237.222 l
432.195 208.272 l
367.814 215.1 l
489.037 226.798 l
353.629 220.077 l
363.152 209.494 l
223.478 232.027 l
269.606 233.64 l
418.803 320.675 l
249.866 215.612 l
357.398 236.286 l
486.854 257.146 l
301.946 198.661 l
282.106 236.126 l
339.741 322.495 l
283.891 234.109 l
298.176 234.585 l
427.434 221.917 l
367.715 222.081 l
416.125 188.546 l
274.269 232.853 l
266.234 212.756 l
258.298 229.488 l
280.022 248.011 l
207.805 232.556 l
206.614 221.615 l
501.536 242.015 l
354.323 266.606 l
455.805 215.051 l
370.79 173.342 l
300.061 243.647 l
263.952 270.97 l
416.72 245.908 l
475.347 242.433 l
135.488 239.267 l
449.258 245.787 l
187.866 242.959 l
202.646 233.573 l
243.715 237.331 l
470.586 241.333 l
292.026 262.993 l
499.056 239.711 l
340.336 233.129 l
289.546 252.792 l
399.062 218.499 l
303.136 238.222 l
306.013 207.716 l
336.467 239.17 l
354.621 253.206 l
291.629 238.279 l
419.299 237.653 l
399.261 223.475 l
329.92 215.456 l
152.947 231.799 l
494.294 241.122 l
270.598 264.535 l
193.52 232.069 l
324.166 233.597 l
166.835 233.855 l
277.84 254.466 l
370.195 211.632 l
281.312 232.974 l
317.222 235.188 l
413.248 234.553 l
177.846 228.819 l
224.57 234.985 l
299.763 225.948 l
432.592 202.046 l
351.347 258.63 l
293.613 237.873 l
305.517 238.305 l
244.608 249.48 l
441.123 237.786 l
446.678 243.324 l
431.501 235.338 l
309.782 235.025 l
489.731 241.957 l
252.246 242.877 l
279.526 235.415 l
340.832 233.833 l
331.408 233.849 l
212.765 236.838 l
270.797 244.389 l
280.915 242.911 l
494.89 186.197 l
488.938 234.017 l
201.357 261.101 l
401.344 237.637 l
185.683 241.691 l
270.4 259.061 l
274.765 235.636 l
167.827 233.365 l
186.774 237.562 l
365.434 215.223 l
335.574 217.34 l
396.582 241.76 l
204.432 230.178 l
234.986 264.488 l
438.147 233.063 l
434.675 226.4 l
478.125 234.812 l
392.813 232.83 l
395.59 233.971 l
446.579 242.385 l
489.83 240.785 l
477.232 234.306 l
484.474 253.89 l
331.11 240.784 l
401.84 238.897 l
323.67 254.622 l
435.469 229.025 l
332.301 186.706 l
268.912 225.373 l
453.523 205.408 l
214.947 232.821 l
237.763 184.15 l
409.082 351.556 l
393.507 238.602 l
475.546 243.431 l
217.03 232.936 l
502.627 236.884 l
347.974 233.937 l
437.75 257.723 l
403.229 236.079 l
421.482 233.651 l
417.613 227.563 l
321.984 235.326 l
484.771 246.032 l
349.165 186.192 l
334.086 239.12 l
458.186 238.923 l
349.76 241.583 l
414.24 227.576 l
405.411 238.477 l
186.278 231.862 l
257.802 234.65 l
205.226 232.53 l
389.142 233.84 l
455.11 232.947 l
312.064 238.907 l
336.368 237.965 l
395.987 239.328 l
333.69 233.738 l
360.573 234.363 l
466.618 248.85 l
191.338 236.428 l
406.8 274.286 l
241.037 232.808 l
468.304 276.721 l
182.211 250.864 l
356.307 294.289 l
481.795 234.034 l
494.195 249.119 l
297.68 244.237 l
411.562 276.585 l
342.122 249.768 l
251.155 225.002 l
502.726 232.236 l
218.618 240.218 l
392.019 247.201 l
292.522 223.372 l
145.904 231.006 l
304.029 259.337 l
357.597 234.116 l
487.946 250.827 l
376.941 239.506 l
310.675 234.448 l
284.784 265.977 l
490.822 232.353 l
251.949 238.121 l
485.862 237.711 l
262.662 236.612 l
403.923 239.594 l
430.806 223.747 l
469.296 238.388 l
462.947 222.887 l
445.984 238.297 l
486.259 234.102 l
506.099 217.373 l
414.835 235.721 l
480.307 183.641 l
204.134 247.613 l
373.072 239.08 l
143.126 233.875 l
264.448 236.636 l
445.885 237.68 l
392.714 217.873 l
245.898 234.11 l
321.091 203.191 l
339.542 248.669 l
427.235 225.753 l
272.285 237.661 l
468.006 246.352 l
410.867 173.163 l
480.506 216.293 l
383.488 243.843 l
403.328 229.22 l
381.405 234.087 l
422.474 241.051 l
389.242 262.197 l
429.021 233.237 l
301.45 243.543 l
96.8 208.482 l
399.459 218.345 l
229.926 239.415 l
469.098 225.38 l
359.085 168.581 l
348.47 237.541 l
493.104 236.984 l
371.981 236.153 l
359.878 234.016 l
337.261 252.223 l
450.845 234.508 l
297.184 239.835 l
487.45 277.007 l
448.464 234.589 l
333.392 244.042 l
347.875 236.041 l
177.648 217.435 l
485.664 236.906 l
408.189 226.437 l
482.787 201.056 l
405.312 235.899 l
407.594 233.727 l
423.366 236.906 l
360.672 268.544 l
502.131 157.489 l
241.632 225.655 l
228.438 216.458 l
343.51 238.16 l
233.498 235.472 l
419.696 238.241 l
457.293 243.07 l
495.584 232.301 l
280.816 221.725 l
265.242 236.063 l
494.79 247.416 l
288.157 244.716 l
330.416 289.755 l
454.515 252.043 l
256.413 247.783 l
335.178 249.407 l
317.619 233.489 l
376.842 238.639 l
348.57 231.713 l
294.01 222.838 l
327.936 229.357 l
457.392 237.43 l
246.294 232.672 l
441.818 246.418 l
474.554 237.807 l
426.144 253.402 l
336.864 259.451 l
328.035 175.294 l
197.885 233.581 l
484.573 271.381 l
421.779 233.61 l
481.002 246.79 l
375.354 279.979 l
275.658 300.944 l
346.982 252.988 l
290.042 241.838 l
343.61 239.301 l
202.547 234.65 l
463.344 240.374 l
376.246 247.601 l
338.947 237.672 l
352.835 234.063 l
271.888 232.821 l
450.349 233.043 l
487.251 242.333 l
445.686 232.8 l
133.206 236.48 l
272.086 235.316 l
351.942 239.191 l
471.379 220.338 l
457.59 232.493 l
195.504 233.586 l
253.834 226.737 l
369.798 239.519 l
272.384 235.744 l
446.282 245.501 l
446.282 245.501 l
446.282 245.501 l
241.136 233.899 l
245.005 220.448 l
481.894 225.623 l
413.149 189.618 l
359.68 242.651 l
374.56 239.514 l
402.832 233.815 l
254.925 236.347 l
198.579 238.321 l
381.901 229.98 l
458.682 365.533 l
477.034 234.067 l
331.706 239.067 l
299.267 249.069 l
482.688 199.127 l
166.042 269.295 l
403.824 242.053 l
194.909 233.62 l
271.59 236.989 l
413.05 219.654 l
307.402 234.961 l
487.648 240.638 l
346.486 222.36 l
384.976 247.194 l
302.739 233.261 l
379.718 260.297 l
397.277 236.927 l
390.829 234.009 l
408.486 261.151 l
304.822 241.137 l
394.995 278.736 l
461.757 248.075 l
227.546 276.962 l
379.619 234.098 l
340.038 353.021 l
279.824 289.426 l
251.552 204.646 l
401.741 240.583 l
275.459 201.105 l
452.63 237.403 l
486.656 226.641 l
356.109 253.952 l
377.238 233.513 l
279.328 237.309 l
300.458 233.306 l
133.504 233.223 l
271.987 233.716 l
160.189 231.218 l
377.734 253.616 l
506.298 207.517 l
320.198 217.612 l
284.387 228.801 l
447.77 243.609 l
247.683 242.759 l
425.549 126.908 l
223.379 205.41 l
467.907 247.032 l
331.309 233.704 l
215.642 206.759 l
398.963 191.834 l
403.427 237.269 l
242.624 238.118 l
333.293 240.52 l
248.874 224.889 l
399.757 228.246 l
339.245 246.949 l
439.635 241.522 l
276.253 244.111 l
467.709 231.767 l
442.413 245.357 l
441.222 238.401 l
398.467 236.242 l
389.936 239.676 l
447.968 233.092 l
283.693 232.976 l
321.389 228.351 l
352.042 221.977 l
313.552 169.177 l
326.448 235.482 l
418.406 243.425 l
360.275 239.489 l
347.082 238.751 l
374.461 238.629 l
291.827 212.878 l
358.291 239.613 l
445.786 234.974 l
454.614 234.314 l
215.046 234.589 l
308.89 272.672 l
471.181 235.337 l
439.238 257.395 l
506.397 253.556 l
192.23 199.331 l
481.994 220.019 l
378.826 236.7 l
380.512 194.101 l
265.837 178.335 l
396.086 236.323 l
432.89 268.771 l
296.192 234.607 l
364.243 248.91 l
295.597 233.156 l
382.992 289.781 l
402.931 235.937 l
303.334 234.244 l
490.128 242.186 l
421.382 221.346 l
375.75 247.845 l
352.736 233.987 l
438.643 235.157 l
244.013 228.189 l
206.019 263.052 l
339.146 225.839 l
293.91 228.007 l
267.722 230.519 l
502.826 231.683 l
171.795 233.632 l
258.694 268.258 l
153.741 250.687 l
388.051 246.571 l
344.106 259.131 l
383.587 236.734 l
369.501 234.138 l
370.592 221.083 l
383.686 234.048 l
182.41 252.194 l
335.277 245.298 l
349.363 218.711 l
439.04 228.869 l
488.739 236.948 l
460.467 227.217 l
256.71 231.578 l
375.155 220.639 l
341.229 239.261 l
156.022 227.963 l
339.443 292.14 l
226.256 239.149 l
371.386 243.222 l
285.677 238.488 l
488.64 234.068 l
448.762 243.785 l
400.749 239.256 l
433.088 217.102 l
505.504 237.717 l
251.056 232.205 l
245.6 232.779 l
418.605 309.506 l
248.477 237.395 l
314.048 233.498 l
321.29 245.91 l
449.456 242.765 l
339.046 232.28 l
461.955 231.771 l
415.133 235.662 l
317.024 233.485 l
221.197 227.769 l
203.043 232.387 l
225.066 223.109 l
229.827 248.456 l
426.64 233.297 l
234.39 233.803 l
323.77 238.7 l
288.058 228.295 l
474.355 234.306 l
417.216 235.671 l
330.118 296.222 l
456.698 269.761 l
505.802 233.697 l
392.515 245.421 l
486.458 237.709 l
276.352 237.396 l
495.882 236.896 l
227.744 249.997 l
452.531 242.084 l
378.925 234.061 l
319.603 235.258 l
319.603 235.258 l
319.603 235.258 l
471.875 232.159 l
244.806 241.071 l
265.142 237.591 l
478.621 234.575 l
453.424 216.42 l
485.466 209.035 l
470.784 247.381 l
317.123 233.613 l
462.352 232.376 l
178.243 238.411 l
384.778 281.028 l
285.478 243.282 l
366.227 265.964 l
205.126 233.074 l
318.512 183.458 l
309.088 242.945 l
265.638 202.41 l
429.914 246.939 l
380.81 239.589 l
452.234 217.354 l
396.88 206.276 l
500.346 232.256 l
497.568 243.718 l
303.93 201.322 l
176.954 233.138 l
277.245 229.661 l
333.59 235.674 l
428.624 242.905 l
305.021 234.863 l
348.173 235.928 l
275.261 195.946 l
406.304 186.881 l
319.405 233.523 l
462.65 237.974 l
405.907 248.902 l
411.363 241.516 l
394.003 237.079 l
411.76 239.928 l
338.55 233.947 l
418.704 140.968 l
275.856 171.992 l
470.288 253.206 l
214.55 233.572 l
451.837 202.966 l
287.562 241.1 l
282.602 247.178 l
488.442 232.382 l
423.466 223.035 l
251.85 228.703 l
452.73 232.945 l
382.595 204.656 l
160.784 224.873 l
204.829 239.127 l
388.944 236.555 l
314.147 230.153 l
329.722 222.704 l
473.859 233.114 l
246.394 228.474 l
492.013 236.459 l
443.008 243.274 l
496.675 237.242 l
485.763 231.118 l
422.672 254.282 l
300.358 233.225 l
375.949 225.804 l
337.955 228.018 l
495.981 237.687 l
256.314 252.139 l
385.373 234.101 l
487.747 238.468 l
235.878 235.567 l
269.011 227.831 l
237.366 300.725 l
294.605 209.999 l
199.174 240.489 l
422.771 244.98 l
373.766 217.605 l
480.605 147.332 l
166.24 242.464 l
436.064 233.336 l
357.994 237.37 l
371.782 234.062 l
490.922 231.818 l
315.834 239.543 l
434.08 238.563 l
409.974 233.679 l
359.184 256.102 l
410.074 235.815 l
242.822 241.89 l
359.779 236.338 l
373.469 242.34 l
365.83 199.27 l
374.064 236.586 l
362.656 239.502 l
264.15 249.59 l
396.285 233.865 l
412.157 237.084 l
446.48 254.655 l
347.478 218.672 l
334.384 226.774 l
500.643 236.875 l
432.493 284.608 l
409.379 212.167 l
483.482 241.984 l
311.667 255.571 l
337.062 257.362 l
382.397 248.418 l
331.805 237.744 l
427.136 228.075 l
349.859 197.722 l
468.998 240.937 l
454.218 213.047 l
291.728 269.117 l
456.896 227.566 l
228.339 218.524 l
477.728 242.902 l
476.042 228.907 l
497.965 232.281 l
133.702 234.49 l
245.104 213.417 l
407.693 235.858 l
504.909 237.778 l
334.682 202.107 l
329.622 225.088 l
449.952 229.868 l
496.576 252.106 l
445.587 233.141 l
430.906 250.247 l
451.142 256.781 l
377.834 207.537 l
431.898 227.155 l
312.56 237.127 l
360.87 256.08 l
426.045 263.163 l
354.422 217.549 l
360.474 231.066 l
415.629 212.321 l
443.603 238.349 l
435.667 224.809 l
363.45 247.929 l
412.454 235.769 l
444.397 250.515 l
418.307 264.811 l
354.72 223.8 l
263.059 222.982 l
422.573 255.976 l
443.802 227.722 l
229.331 235.186 l
462.253 232.806 l
347.181 229.343 l
460.368 234.31 l
216.138 229.097 l
393.805 229.539 l
423.069 239.637 l
371.683 236.51 l
376.544 234.064 l
484.97 246.639 l
468.899 236.811 l
365.93 223.695 l
433.882 235.278 l
329.821 244.434 l
286.867 234.133 l
301.747 144.887 l
291.926 219.919 l
203.44 236.411 l
309.187 238.737 l
282.998 238.328 l
378.627 239.204 l
273.178 243.477 l
461.36 262.999 l
264.25 230.77 l
395.293 236.421 l
261.472 258.75 l
338.65 235.743 l
436.262 235.218 l
424.656 235.33 l
273.376 231.174 l
406.602 232.692 l
340.634 240.246 l
458.285 243.455 l
477.133 227.214 l
265.738 195.473 l
312.758 237.837 l
427.93 241.171 l
287.462 244.756 l
399.36 240.657 l
357.299 242.768 l
504.115 184.575 l
475.843 240.828 l
425.648 221.766 l
332.202 222.345 l
438.445 233.288 l
395.094 275.784 l
318.413 326.16 l
455.507 238.102 l
417.414 238.938 l
477.629 243.745 l
430.707 213.774 l
300.954 234.366 l
475.248 238.34 l
498.163 233.96 l
262.96 231.008 l
315.437 216.633 l
327.44 234.402 l
480.902 237.651 l
368.707 287.65 l
336.666 232.419 l
448.365 238.246 l
239.549 206.089 l
334.285 232.557 l
460.963 243.885 l
448.563 226.997 l
381.504 236.169 l
379.818 256.744 l
375.056 263.149 l
357.696 236.057 l
420.49 229.291 l
376.643 234.116 l
317.421 238.689 l
336.269 235.691 l
422.275 235.412 l
413.843 219.728 l
375.254 180.693 l
237.069 221.132 l
190.147 244.062 l
384.877 248.706 l
412.851 228.249 l
272.682 213.285 l
423.168 245.411 l
408.387 212.81 l
496.08 234.039 l
292.323 232.713 l
310.973 204.04 l
443.702 234.721 l
344.006 238.846 l
285.776 242.965 l
430.211 196.628 l
374.362 236.157 l
237.466 210.695 l
312.163 235.09 l
311.766 240.559 l
505.405 236.865 l
455.904 204.845 l
387.754 261.91 l
494.691 232.704 l
190.643 234.367 l
338.154 242.393 l
505.603 234.128 l
311.866 236.419 l
481.299 232.48 l
313.949 284.355 l
350.554 235.963 l
340.931 233.976 l
373.171 250.702 l
280.717 189.311 l
401.245 226.095 l
505.702 226.55 l
336.566 237.698 l
386.96 253.304 l
388.547 234.021 l
322.48 225.593 l
501.238 232.896 l
438.346 237.309 l
418.109 230.548 l
292.819 237.46 l
373.27 255.005 l
368.608 282.717 l
445.091 228.571 l
388.448 234.024 l
277.344 230.173 l
285.28 283.2 l
372.874 249.507 l
290.24 222.877 l
337.757 237.828 l
345.693 234.028 l
424.458 238.147 l
241.235 235.693 l
217.229 232.279 l
232.506 200.43 l
494.989 228.796 l
332.499 217.087 l
491.814 241.526 l
381.306 234.056 l
302.342 238.763 l
298.771 239.809 l
493.798 226.447 l
503.818 284.352 l
355.811 227.604 l
402.336 215.07 l
501.834 197.46 l
212.864 237.97 l
450.746 238.216 l
232.803 221.93 l
353.827 197.811 l
450.944 227.424 l
372.576 270.39 l
355.91 217.278 l
382.496 251.691 l
444.694 243.003 l
459.773 236.936 l
230.125 283.796 l
272.186 237.014 l
461.558 133.652 l
410.669 211.002 l
386.762 232.893 l
364.541 236.38 l
478.522 225.43 l
475.446 240.614 l
455.011 236.882 l
170.406 272.77 l
432.79 220.725 l
366.525 214.838 l
337.856 219.042 l
467.808 253.091 l
389.341 132.046 l
284.982 253.084 l
278.931 232.948 l
480.704 227.902 l
492.211 225.854 l
296.986 245.47 l
195.306 238.449 l
398.666 220.884 l
425.946 256.388 l
468.701 197.816 l
402.534 244.849 l
499.552 194.258 l
383.091 227.958 l
225.958 251.358 l
504.71 218.681 l
187.667 231.662 l
348.867 204.463 l
491.418 226.573 l
307.104 242.163 l
265.043 236.713 l
273.674 222.711 l
425.747 251.863 l
371.882 234.133 l
215.245 237.903 l
447.373 185.209 l
413.546 309.796 l
314.246 244.891 l
492.509 240.04 l
485.366 230.16 l
450.448 232.675 l
436.163 233.052 l
309.485 218.14 l
443.306 232.863 l
472.074 237.161 l
423.862 234.157 l
425.152 218.045 l
250.262 233.79 l
431.104 241.373 l
473.264 237.785 l
476.736 234.261 l
458.483 186.079 l
471.082 243.161 l
381.702 239.483 l
260.877 266.004 l
212.07 234.879 l
377.139 230.18 l
285.379 203.911 l
168.819 216.319 l
385.174 218.833 l
500.544 233.94 l
403.725 246.133 l
169.514 232.939 l
333.194 238.291 l
431.402 233.176 l
270.995 245.38 l
378.131 186.894 l
407.395 236.875 l
473.76 224.714 l
504.214 198.469 l
465.229 225.771 l
226.554 232.854 l
415.926 155.954 l
292.918 241.731 l
343.312 234.003 l
404.618 211.363 l
293.811 234.726 l
451.242 241.312 l
122.989 284.746 l
416.026 273.621 l
244.509 249.001 l
253.437 231.969 l
275.36 217.483 l
240.64 235.681 l
302.045 302.583 l
471.578 242.804 l
351.843 224.43 l
179.037 232.795 l
494.096 266.089 l
444.794 244.706 l
329.226 237.742 l
505.008 237.163 l
345.296 238.524 l
270.003 235.852 l
308.394 219.91 l
406.106 251.596 l
501.734 253.302 l
477.827 237.182 l
456.499 287.209 l
238.854 235.591 l
382.794 268.833 l
411.264 230.137 l
273.574 263.321 l
481.498 234.177 l
423.763 221.158 l
420.291 218.742 l
304.922 239.114 l
460.666 250.677 l
501.04 234.728 l
452.432 236.704 l
434.774 315.079 l
499.155 242.562 l
356.902 230.495 l
290.934 233.131 l
466.32 325.694 l
358.688 233.883 l
203.142 234.109 l
423.267 243.28 l
166.339 266.369 l
332.797 252.496 l
255.52 236.307 l
346.784 248.789 l
463.542 233.511 l
484.077 237.722 l
314.346 243.342 l
234.291 237.294 l
372.675 261.952 l
332.896 228.831 l
391.622 269.963 l
166.736 236.1 l
179.235 231.651 l
464.038 235.435 l
119.021 237.653 l
456.301 286.987 l
469.594 234.403 l
398.368 239.293 l
395.194 227.808 l
379.421 236.844 l
493.302 231.786 l
366.426 212.124 l
486.061 232.413 l
297.085 226.436 l
337.658 250.12 l
495.286 230.666 l
360.97 252.962 l
421.878 233.414 l
215.344 235.473 l
437.651 206.385 l
500.941 226.356 l
437.155 275.682 l
365.731 221.899 l
303.235 237.836 l
407.99 235.913 l
376.445 236.566 l
472.57 251.687 l
342.32 245.002 l
451.936 277.224 l
464.534 237.178 l
440.131 291.581 l
380.214 171.29 l
444.198 237.833 l
405.61 235.997 l
236.077 232.801 l
321.488 242.188 l
296.49 239.758 l
239.251 225.852 l
500.842 234.075 l
499.354 257.223 l
301.251 274.002 l
414.538 236.914 l
412.554 238.369 l
304.624 199.017 l
218.915 231.604 l
384.083 239.462 l
265.341 230.764 l
354.522 232.734 l
239.747 209.934 l
170.307 237.609 l
505.306 233.908 l
278.038 259.493 l
458.88 244.787 l
321.19 233.686 l
437.949 232.548 l
377.933 182.248 l
275.955 238.671 l
491.616 244.911 l
357.101 220.193 l
419.2 243.179 l
385.571 227.38 l
481.696 237.739 l
335.376 240.148 l
416.522 255.377 l
75.472 255.627 l
473.462 235.41 l
367.914 202.028 l
496.179 226.283 l
212.963 235.668 l
171.101 228.107 l
493.501 236.91 l
496.378 245.44 l
218.717 245.179 l
371.187 252.547 l
328.134 247.535 l
386.662 229.943 l
311.965 244.087 l
350.454 234.07 l
356.803 262.768 l
224.47 233.196 l
451.539 192.171 l
351.546 233.162 l
484.374 226.965 l
448.266 237.628 l
482.39 159.728 l
410.272 239.084 l
366.326 222.815 l
342.816 220.838 l
489.235 250.003 l
320.099 225.384 l
460.17 237.377 l
442.214 242.198 l
479.514 227.044 l
232.902 261.716 l
279.923 263.293 l
314.544 235.155 l
292.422 213.585 l
454.416 229.513 l
248.973 239.468 l
446.083 234.654 l
293.712 237.807 l
503.917 233.73 l
451.738 229.912 l
472.768 242.703 l
488.144 228.962 l
424.358 235.511 l
341.824 254.784 l
382.298 230.368 l
369.898 237.1 l
330.317 209.064 l
338.054 219.012 l
467.312 237.242 l
264.349 242.845 l
466.419 154.599 l
295.002 249.056 l
486.954 232.563 l
440.032 211.478 l
491.914 241.58 l
381.603 238.624 l
275.062 216.678 l
454.912 245.142 l
215.146 236.88 l
455.408 237.474 l
242.723 235.063 l
404.419 236.054 l
470.982 242.567 l
364.045 257.755 l
488.045 241.036 l
367.12 234.139 l
341.328 237.643 l
409.28 201.637 l
467.014 232.717 l
369.699 238.599 l
324.662 237.795 l
419.894 235.495 l
477.53 244.489 l
409.478 249.935 l
484.672 237.576 l
311.27 290.996 l
439.933 199.22 l
306.608 224.66 l
191.635 231.287 l
229.728 228.765 l
440.726 237.11 l
319.901 237.818 l
212.666 234.492 l
272.582 220.635 l
232.307 226.762 l
468.602 159.795 l
409.677 241.899 l
434.973 237.916 l
329.325 239.011 l
468.403 233.42 l
157.411 233.771 l
446.182 227.639 l
223.578 239.45 l
291.232 237.782 l
312.262 233.41 l
320.496 265.383 l
320.595 320.164 l
374.858 229.005 l
408.982 148.709 l
228.934 232.838 l
350.157 242.074 l
376.346 241.281 l
390.928 233.994 l
442.115 246.985 l
215.542 220.18 l
252.147 250.99 l
437.453 219.098 l
120.509 262.28 l
412.058 244.662 l
461.658 278.642 l
140.15 231.238 l
473.066 232.714 l
465.626 198.71 l
409.776 236.778 l
227.645 257.276 l
406.403 252.358 l
264.051 239.309 l
372.477 235.045 l
467.61 227.186 l
281.709 237.406 l
237.267 247.834 l
352.637 236.156 l
290.835 233.09 l
281.411 232.966 l
489.632 244.764 l
490.624 242.484 l
302.144 201.501 l
400.253 236.908 l
288.454 233.059 l
392.118 246.311 l
341.725 278.437 l
480.01 239.699 l
407.098 233.216 l
359.283 255.293 l
207.011 237.125 l
308.096 233.997 l
369.6 236.146 l
368.013 200.069 l
387.853 260.165 l
422.077 238.195 l
214.054 247.146 l
456.4 277.861 l
498.758 229.743 l
261.571 207.865 l
192.131 259.086 l
419.398 233.651 l
329.523 232.829 l
295.994 237.963 l
500.048 235.518 l
306.906 262.231 l
379.322 239.494 l
129.734 235.847 l
332.4 224.776 l
218.32 214.581 l
362.755 237.269 l
229.232 233.391 l
229.53 237.432 l
292.224 273.48 l
386.067 234.046 l
172.49 238.388 l
382.099 250.588 l
402.634 237.089 l
371.584 242.949 l
201.258 240.594 l
417.315 238.285 l
211.178 247.244 l
319.504 233.655 l
325.059 265.421 l
389.043 229.501 l
125.667 227.668 l
390.035 177.423 l
343.114 235.922 l
237.168 235.869 l
503.222 234.1 l
459.872 232.852 l
468.106 224.262 l
389.44 188.904 l
454.118 182.662 l
391.523 237.875 l
316.131 315.494 l
218.518 228.955 l
464.832 234.507 l
228.538 238.296 l
198.083 232.583 l
504.512 219.586 l
396.483 256.097 l
503.619 240.018 l
356.406 251.799 l
245.203 235.367 l
449.158 247.561 l
384.48 220.515 l
228.141 241.892 l
275.162 198.257 l
474.752 226.883 l
230.224 273.658 l
311.072 241.233 l
473.363 243.868 l
371.485 238.382 l
166.637 244.297 l
427.037 235.249 l
382.198 250.409 l
361.069 249.625 l
444.298 247.251 l
462.451 234.562 l
451.44 248.602 l
455.606 234.412 l
375.552 168.859 l
413.942 240.987 l
453.325 227.362 l
488.243 241.17 l
390.432 239.868 l
330.912 233.681 l
484.176 234.024 l
348.966 196.243 l
429.418 235.169 l
278.832 234.261 l
363.549 211.723 l
198.877 239.943 l
365.235 230.704 l
190.544 237.367 l
400.451 233.881 l
443.107 237.514 l
257.901 236.409 l
437.056 221.553 l
459.674 243.225 l
337.36 253.289 l
196.694 255.732 l
353.926 188.617 l
294.803 234.582 l
238.061 239.607 l
333.789 233.883 l
395.491 236.957 l
248.576 236.759 l
451.043 242.073 l
258.397 255.872 l
280.618 250.633 l
284.09 237.502 l
432.294 181.241 l
416.323 248.173 l
410.371 235.83 l
476.339 244.561 l
372.774 255.134 l
402.038 186.728 l
383.786 234.068 l
491.318 234.047 l
502.23 268.53 l
434.477 204.35 l
420.093 240.935 l
281.808 237.738 l
500.246 236.574 l
463.642 244.425 l
472.966 250.137 l
274.07 234.165 l
388.746 238.63 l
345.395 241.897 l
348.669 223.824 l
438.742 237.839 l
487.846 179.093 l
188.858 233.562 l
254.23 261.822 l
476.835 237.088 l
347.578 232.966 l
435.766 233.637 l
453.027 237.524 l
502.528 245.698 l
336.765 227.196 l
324.365 235.392 l
244.41 254.13 l
326.25 243.942 l
259.786 233.917 l
174.771 238.723 l
383.885 236.137 l
434.874 237.424 l
464.336 230.507 l
447.571 221.345 l
375.85 229.567 l
202.349 239.155 l
458.582 149.053 l
449.654 229.094 l
436.957 222.168 l
370.493 192.759 l
446.976 216.918 l
357.795 238.455 l
411.661 225.239 l
351.744 217.536 l
370.989 260.547 l
480.208 248.11 l
375.651 240.786 l
267.126 232.752 l
297.779 238.695 l
400.65 238.54 l
459.376 214.458 l
450.051 231.487 l
459.574 228.427 l
266.134 267.024 l
478.72 243.335 l
364.144 235.953 l
469.197 238.091 l
334.186 237.722 l
353.43 222.054 l
427.83 246.863 l
410.966 176.647 l
420.986 242.207 l
342.022 251.108 l
483.978 236.996 l
406.998 215.933 l
372.08 238.616 l
475.05 249.527 l
104.438 223.22 l
386.861 248.005 l
445.19 220.714 l
470.685 249.314 l
279.427 237.721 l
402.435 234.101 l
205.027 233.57 l
396.781 261.514 l
482.589 182.725 l
395.392 243.599 l
424.061 237.332 l
461.162 241.326 l
326.646 233.775 l
441.52 248.595 l
441.421 228.221 l
443.901 246.271 l
299.168 251.344 l
446.778 253.363 l
220.998 218.58 l
449.357 249.8 l
377.338 260.824 l
351.645 241.269 l
199.869 233.237 l
277.939 239.158 l
198.778 230.606 l
187.27 201.046 l
411.462 232.872 l
504.81 252.638 l
441.917 224.97 l
480.406 291.87 l
384.182 236.703 l
303.434 227.301 l
345.098 243.384 l
373.866 241.212 l
354.125 203.54 l
488.342 237.42 l
351.446 239.237 l
400.154 242.424 l
340.534 243.49 l
442.611 233.947 l
237.565 192.121 l
460.864 242.566 l
350.752 239.403 l
373.965 243.669 l
463.245 242.846 l
387.952 194.093 l
409.578 249.115 l
501.933 273.362 l
415.331 241.615 l
203.341 238.213 l
440.429 226.937 l
340.138 228.416 l
482.886 225.785 l
367.318 238.578 l
201.059 236.587 l
489.533 247.242 l
448.067 232.737 l
234.093 235.388 l
265.539 229.672 l
255.222 232.614 l
305.12 233.304 l
455.706 225.826 l
285.578 216.634 l
386.266 236.095 l
465.725 181.526 l
417.712 219.63 l
248.378 236 l
474.058 237.17 l
360.176 238.492 l
414.141 210.974 l
495.683 231.757 l
465.824 192.116 l
502.429 211.319 l
501.338 234.957 l
320.992 205.424 l
418.208 211.372 l
345.99 239.342 l
452.134 234.342 l
309.584 245.922 l
462.054 244.472 l
465.526 196.893 l
444.992 231.302 l
428.227 225.266 l
347.776 242.197 l
467.213 234.454 l
443.504 237.733 l
255.917 228.931 l
408.784 233.282 l
465.03 237.935 l
285.875 237.776 l
341.13 238.098 l
404.221 239.883 l
424.954 258.003 l
336.963 270.731 l
251.453 190.676 l
252.346 244.41 l
338.253 241.797 l
420.886 245.209 l
348.074 234.029 l
310.576 227.257 l
410.57 222.761 l
365.533 212.442 l
417.018 233.692 l
390.531 238.97 l
329.027 233.813 l
295.101 249.182 l
459.078 309.842 l
472.47 245.023 l
335.674 216.859 l
476.538 232.553 l
448.166 234.913 l
472.272 234.117 l
487.053 245.996 l
460.566 238.793 l
364.342 243.844 l
308.592 284.485 l
387.555 220.122 l
370.89 245.569 l
454.813 230.721 l
269.706 235.204 l
503.52 250.408 l
464.237 223.461 l
482.49 185.712 l
192.627 211.322 l
417.91 205.537 l
479.117 234.218 l
426.838 238.098 l
496.874 182.136 l
426.243 229.081 l
447.274 288.463 l
422.176 238.834 l
489.434 241.858 l
373.568 227.256 l
279.03 232.927 l
454.019 265.487 l
274.963 220.433 l
466.122 293.07 l
429.616 239.511 l
412.355 233.63 l
466.022 220.511 l
195.603 233.211 l
399.162 149.356 l
474.454 237.123 l
301.549 259.702 l
318.314 207.961 l
406.205 222.04 l
404.022 249.14 l
311.469 218.799 l
505.206 231.663 l
355.315 236.029 l
423.664 222.646 l
498.957 247.866 l
307.302 238.547 l
502.032 227.185 l
372.179 239.518 l
399.558 206.767 l
492.906 232.337 l
441.322 234.791 l
293.216 233.123 l
348.768 212.358 l
368.41 229.181 l
397.574 246.712 l
447.869 237.28 l
493.6 237.688 l
448.662 229.573 l
326.15 219.167 l
357.002 219.433 l
320.694 260.265 l
479.811 249.367 l
432.691 283.327 l
442.81 222.518 l
431.6 237.996 l
194.214 273.851 l
447.075 262.499 l
213.856 240.837 l
318.016 201.414 l
208.797 251.883 l
390.333 247.733 l
497.171 213.917 l
398.765 213.909 l
499.85 230.766 l
442.909 229.818 l
397.674 246.371 l
463.84 239.631 l
390.73 236.792 l
353.232 237.46 l
371.088 217.373 l
398.269 238.561 l
481.2 236.37 l
392.614 235.089 l
285.974 234.419 l
494.592 242.163 l
145.11 227.904 l
290.141 234.091 l
478.422 221.459 l
298.077 233.262 l
299.069 255.955 l
476.141 224.567 l
340.237 214.296 l
135.389 203.702 l
261.869 233.164 l
486.16 231.89 l
162.669 232.684 l
468.8 292.796 l
413.446 252.375 l
456.102 179.247 l
230.422 185.831 l
261.274 270.042 l
385.274 272.522 l
407.296 243.026 l
503.123 237.705 l
493.203 232.326 l
411.859 230.088 l
476.934 237.781 l
487.152 240.803 l
209.094 177.686 l
139.158 239.727 l
317.818 215.738 l
463.046 256.405 l
344.304 235.274 l
456.003 184.279 l
384.282 229.851 l
444.099 251.554 l
233.795 232.478 l
297.581 225.417 l
457.094 224.05 l
423.962 243.641 l
383.19 223.914 l
435.866 243.527 l
383.984 238.645 l
319.702 237.405 l
222.784 273.677 l
456.797 231.756 l
201.853 190.17 l
355.613 237.416 l
222.486 234.869 l
163.661 240.979 l
168.72 229.06 l
352.538 241.437 l
401.542 249.376 l
422.374 228.395 l
492.608 229.672 l
359.382 236.738 l
490.227 234.32 l
236.374 233.693 l
316.925 235.221 l
479.414 234.049 l
437.85 226.377 l
298.97 260.425 l
301.152 239.745 l
337.459 239.68 l
426.739 235.454 l
392.218 204.561 l
350.653 238.324 l
426.541 233.522 l
458.384 250.385 l
410.768 242.356 l
472.371 227.312 l
453.92 335.372 l
411.958 232.627 l
430.608 230.754 l
222.982 225.466 l
349.066 178.49 l
428.029 239.993 l
363.846 166.466 l
370.394 191.778 l
327.043 237.781 l
363.648 249.66 l
278.336 254.473 l
222.387 237.69 l
463.146 255.445 l
485.565 237.805 l
218.022 216.119 l
434.378 242.884 l
504.314 287.811 l
388.15 235.598 l
398.566 228.644 l
202.25 229.865 l
251.354 202.885 l
472.669 253.603 l
481.597 237.024 l
500.147 244.719 l
322.083 237.493 l
407.197 244.786 l
422.97 233.838 l
400.947 229.347 l
317.718 225.3 l
334.979 240.061 l
208.102 238.096 l
419.002 235.322 l
437.552 273.285 l
385.075 238.555 l
440.627 245.575 l
479.018 232.015 l
415.827 209.467 l
484.275 225.819 l
186.179 232.704 l
282.205 301.474 l
450.25 237.119 l
450.15 244.181 l
378.23 204.184 l
435.37 244.873 l
330.515 235.937 l
398.864 208.412 l
438.941 234.863 l
442.71 228.113 l
382.694 225.246 l
329.424 237.763 l
266.035 198.582 l
461.062 241.469 l
417.811 219.848 l
208.698 199.573 l
323.075 180.838 l
363.35 233.375 l
442.314 242.125 l
381.008 241.995 l
326.547 233.633 l
419.795 238.886 l
322.976 242.012 l
493.005 243.06 l
408.883 190.684 l
273.277 261.944 l
293.117 234.59 l
311.37 150.693 l
303.83 214.181 l
238.458 232.793 l
348.371 239.372 l
428.525 205.356 l
420.192 240.133 l
442.512 237.181 l
432.989 217.849 l
169.216 233.904 l
467.51 234.183 l
130.528 215.857 l
477.331 256.464 l
353.728 175.577 l
298.87 272.889 l
406.899 224.162 l
454.714 229.118 l
136.381 230.927 l
462.749 234.264 l
327.142 232.963 l
471.28 228.611 l
497.072 214.662 l
417.117 233.525 l
474.256 232.109 l
482.986 235.15 l
498.362 237.69 l
317.52 237.827 l
497.469 236.579 l
373.37 234.684 l
458.979 189.476 l
404.518 223.897 l
231.414 232.472 l
475.149 242.604 l
481.398 231.971 l
391.325 236.479 l
369.402 234.058 l
352.24 225.364 l
390.63 243.379 l
436.56 234.937 l
502.33 267.469 l
483.283 245.194 l
300.755 238.138 l
355.712 231.3 l
394.896 204.287 l
479.712 253.719 l
285.181 246.609 l
465.13 234.221 l
464.634 232.761 l
436.758 221.971 l
119.517 234.095 l
258.595 228.556 l
387.456 208.451 l
402.138 273.194 l
425.846 195.897 l
370.294 202.439 l
379.024 234.103 l
437.254 219.937 l
420.39 300.696 l
466.915 236.723 l
421.283 229.257 l
402.733 233.896 l
278.435 203.035 l
461.261 152.661 l
351.248 231.978 l
466.221 185.279 l
483.779 231.929 l
295.894 236.415 l
155.626 235.703 l
497.37 267.292 l
360.077 236.082 l
436.659 227.196 l
467.411 237.899 l
156.419 232.039 l
264.547 233.992 l
474.95 260.198 l
436.461 238.509 l
323.968 239.541 l
228.835 233.614 l
426.442 236.859 l
429.318 238.672 l
311.568 251.604 l
464.733 232.319 l
337.162 256.477 l
444.496 240.029 l
428.822 236.846 l
480.109 238.7 l
347.28 246.086 l
434.576 198.953 l
370.691 219.784 l
413.347 241.629 l
384.381 233.6 l
433.386 233.237 l
170.01 238.776 l
315.238 233.618 l
476.24 226.158 l
366.723 245.645 l
394.301 231.417 l
183.402 237.271 l
321.587 240.284 l
483.184 249.278 l
342.419 241.235 l
447.174 191.63 l
474.157 232.592 l
312.461 235.044 l
380.016 252.237 l
427.632 180.142 l
344.998 216.328 l
419.994 228.532 l
308.691 254.886 l
434.179 235.012 l
362.557 238.524 l
447.472 257.115 l
332.698 233.279 l
406.701 203.961 l
353.034 238.371 l
407.891 239.13 l
405.709 228.944 l
499.453 232.496 l
479.216 237.055 l
268.714 251.924 l
368.906 275.751 l
391.92 246.878 l
503.322 226.028 l
403.03 238.508 l
501.437 233.818 l
496.973 236.279 l
490.426 222.645 l
328.829 235.547 l
422.87 240.38 l
503.421 232.242 l
471.974 234.354 l
444.595 251.626 l
441.619 261.741 l
496.477 246.923 l
397.178 279.317 l
501.139 262.302 l
358.093 231.129 l
404.122 241.508 l
387.654 216.204 l
364.838 236.121 l
268.614 243.914 l
308.493 293.756 l
431.005 247.49 l
316.23 225.066 l
345.792 235.903 l
365.037 239.511 l
449.555 237.849 l
264.746 232.741 l
386.166 234.074 l
380.909 237.205 l
431.203 236.914 l
366.822 241.623 l
473.661 229.438 l
406.502 257.347 l
396.682 213.521 l
414.042 252.89 l
428.326 173.709 l
476.438 237.097 l
380.115 233.153 l
388.646 236.106 l
467.114 232.264 l
369.997 230.381 l
420.688 219.9 l
329.126 235.519 l
459.277 157.49 l
306.707 246.71 l
498.262 236.884 l
425.251 252.984 l
388.845 239.417 l
193.818 238.42 l
195.206 240.855 l
346.189 231.856 l
499.651 234.153 l
254.627 240.385 l
393.21 233.991 l
478.224 238.55 l
368.509 254.726 l
389.539 205.798 l
490.525 231.498 l
463.443 245.925 l
261.373 212.652 l
405.808 230.336 l
429.517 228.189 l
239.45 211.228 l
416.224 192.586 l
463.741 248.064 l
339.642 157.104 l
378.33 286.819 l
334.781 269.966 l
497.27 214.578 l
208.598 247.589 l
400.352 233.923 l
486.358 236.971 l
457.491 232.899 l
317.917 208.128 l
340.733 235.866 l
456.598 205.307 l
409.875 233.802 l
292.72 211.114 l
479.315 237.759 l
328.928 233.669 l
397.872 236.769 l
301.648 255.363 l
307.203 243.456 l
366.029 249.452 l
471.776 232.632 l
356.01 264.285 l
492.806 224.087 l
344.8 218.692 l
355.514 239.453 l
200.365 233.14 l
483.382 248.232 l
383.29 231.278 l
426.938 238.727 l
346.883 236.746 l
375.453 197.669 l
353.331 231.423 l
408.685 214.767 l
333.094 225.69 l
160.288 232.615 l
438.842 238.455 l
418.506 156.97 l
339.344 245.65 l
390.234 217.532 l
287.661 250.123 l
463.939 240.164 l
454.317 258.77 l
350.058 236.792 l
262.464 233.416 l
443.206 233.19 l
381.206 236.691 l
503.718 212.596 l
427.731 279.438 l
369.005 223.911 l
289.942 248.127 l
373.667 225.987 l
326.349 240.883 l
305.715 234.121 l
190.346 237.764 l
353.133 239.43 l
225.363 198.511 l
354.224 267.389 l
127.354 235.954 l
415.43 210.857 l
495.187 220.089 l
324.067 235.417 l
272.483 230.025 l
420.787 241.806 l
446.877 250.07 l
488.541 231.853 l
328.234 220.159 l
478.819 236.959 l
281.51 234.029 l
323.869 243.727 l
347.677 240.322 l
401.146 216.46 l
384.579 222.792 l
344.899 253.119 l
458.086 227.491 l
491.715 245.583 l
301.053 227.784 l
438.544 232.989 l
452.035 250.206 l
259.091 192.16 l
502.925 233.922 l
410.173 238.407 l
487.35 225.697 l
388.25 243.394 l
497.766 243.859 l
306.806 236.63 l
388.349 236.937 l
424.16 233.57 l
401.046 236.282 l
505.901 252.343 l
269.507 232.784 l
411.066 273.795 l
321.885 233.696 l
393.11 236.832 l
408.288 219.634 l
499.254 200.36 l
391.821 266.418 l
476.637 232.061 l
492.707 244.661 l
308.79 222.5 l
420.589 245.218 l
393.309 233.963 l
374.163 234.064 l
504.611 232.629 l
468.502 249.21 l
483.085 247.227 l
408.09 228.51 l
415.232 228.366 l
334.483 234.357 l
267.622 235.958 l
457.194 229.378 l
424.854 229.835 l
484.87 243.549 l
428.723 244.275 l
181.814 236.234 l
428.426 287.33 l
447.67 231.78 l
435.568 230.185 l
500.742 237.696 l
301.846 242.609 l
262.762 237.566 l
284.883 252.596 l
455.21 232.553 l
424.557 238.78 l
316.826 238.988 l
462.55 237.33 l
480.803 259.682 l
364.739 234.138 l
440.528 227.82 l
183.501 234.208 l
389.638 253.322 l
382 232.296 l
328.531 237.566 l
481.101 242.432 l
343.907 227.331 l
391.722 240.321 l
419.498 233.47 l
416.422 234.866 l
400.55 235.948 l
319.306 235.287 l
213.261 224.084 l
497.866 236.86 l
409.181 231.692 l
394.4 241.546 l
499.949 210.786 l
306.211 190.734 l
425.053 247.393 l
495.386 242.09 l
130.826 236.993 l
219.61 232.324 l
412.95 231.087 l
298.275 236.521 l
438.246 243.621 l
493.402 234.009 l
291.53 228.637 l
491.021 234.037 l
236.573 237.229 l
495.485 237.246 l
265.936 210.288 l
405.114 233.867 l
211.773 216.908 l
472.867 245.458 l
427.533 325.627 l
483.68 232.445 l
330.218 281.504 l
460.765 251.109 l
379.222 238.644 l
392.317 131.375 l
466.717 242.552 l
331.507 235.578 l
285.082 158.023 l
443.405 235.035 l
479.91 241.384 l
342.915 243.455 l
479.613 236.849 l
343.014 241.852 l
503.024 236.868 l
445.488 237.427 l
437.354 282.972 l
315.338 225.705 l
492.41 198.757 l
298.672 227.772 l
256.611 249.471 l
364.64 234.042 l
436.362 237.892 l
478.323 230.29 l
473.165 239.163 l
415.034 238.988 l
451.638 265.814 l
393.408 236.062 l
352.438 244.278 l
328.432 247.053 l
357.2 241.817 l
376.742 236.157 l
335.971 235.748 l
415.53 213.724 l
344.701 257.805 l
440.33 207.775 l
240.541 239.718 l
453.226 234.497 l
464.435 243.807 l
424.755 228.238 l
459.178 233.583 l
259.686 236.632 l
294.109 223.41 l
405.213 233.772 l
364.442 241.326 l
385.968 236.779 l
307.798 236.932 l
292.621 257.766 l
495.088 270.482 l
459.475 279.749 l
334.88 321.381 l
294.208 201.915 l
466.816 242.081 l
435.072 232.864 l
315.536 216.017 l
381.107 242.635 l
365.334 221.834 l
491.219 237.692 l
297.878 234.71 l
401.443 198.157 l
380.314 279.554 l
436.858 213.773 l
440.23 260.211 l
400.848 236.161 l
256.909 222.584 l
243.219 232.782 l
474.653 234.09 l
111.482 250.789 l
493.699 234.027 l
497.667 226.128 l
444.893 239.964 l
496.774 250.76 l
431.302 233.431 l
426.342 245.074 l
298.573 234.487 l
473.562 230.156 l
428.128 246.79 l
258.893 210.962 l
341.923 256.997 l
456.202 191.185 l
308.294 220.98 l
445.389 243.649 l
374.758 230.265 l
428.922 233.477 l
430.509 269.075 l
462.154 236.91 l
315.04 238.616 l
477.43 256.18 l
302.442 245.271 l
155.824 239.158 l
461.459 289.097 l
495.782 233.983 l
442.016 261.74 l
456.995 235.622 l
390.134 228.744 l
424.259 233.356 l
438.048 223.007 l
464.931 237.285 l
460.269 238.015 l
430.013 230.625 l
245.302 242.533 l
492.31 266.666 l
275.757 280.067 l
354.026 250.58 l
243.616 235.795 l
478.918 232.515 l
386.365 238.644 l
399.658 282.489 l
483.878 234.138 l
372.973 238.684 l
328.63 241.722 l
446.381 257.989 l
491.12 236.928 l
483.581 236.31 l
499.75 283.854 l
379.123 236.154 l
500.445 231.705 l
500.445 231.705 l
stroke
grestore
0.500 setlinewidth
0 setlinecap
0.000 setgray
gsave
/o {
gsave
newpath
translate
0.5 setlinewidth
1 setlinejoin
0 setlinecap
0 0 m
0 4 l
gsave
0.000 setgray
fill
grestore
stroke
grestore
} bind def
72 43.2 o
grestore
gsave
/o {
gsave
newpath
translate
0.5 setlinewidth
1 setlinejoin
0 setlinecap
0 0 m
0 -4 l
gsave
0.000 setgray
fill
grestore
stroke
grestore
} bind def
72 388.8 o
grestore
/DejaVuSans findfont
12.000 scalefont
setfont
gsave
68.976562 30.121875 translate
0.000000 rotate
0.000000 0.171875 m /zero glyphshow
grestore
gsave
/o {
gsave
newpath
translate
0.5 setlinewidth
1 setlinejoin
0 setlinecap
0 0 m
0 4 l
gsave
0.000 setgray
fill
grestore
stroke
grestore
} bind def
121.6 43.2 o
grestore
gsave
/o {
gsave
newpath
translate
0.5 setlinewidth
1 setlinejoin
0 setlinecap
0 0 m
0 -4 l
gsave
0.000 setgray
fill
grestore
stroke
grestore
} bind def
121.6 388.8 o
grestore
gsave
110.998437 30.121875 translate
0.000000 rotate
0.000000 0.171875 m /five glyphshow
7.634766 0.171875 m /zero glyphshow
15.269531 0.171875 m /zero glyphshow
grestore
gsave
/o {
gsave
newpath
translate
0.5 setlinewidth
1 setlinejoin
0 setlinecap
0 0 m
0 4 l
gsave
0.000 setgray
fill
grestore
stroke
grestore
} bind def
171.2 43.2 o
grestore
gsave
/o {
gsave
newpath
translate
0.5 setlinewidth
1 setlinejoin
0 setlinecap
0 0 m
0 -4 l
gsave
0.000 setgray
fill
grestore
stroke
grestore
} bind def
171.2 388.8 o
grestore
gsave
156.973437 30.121875 translate
0.000000 rotate
0.000000 0.171875 m /one glyphshow
7.634766 0.171875 m /zero glyphshow
15.269531 0.171875 m /zero glyphshow
22.904297 0.171875 m /zero glyphshow
grestore
gsave
/o {
gsave
newpath
translate
0.5 setlinewidth
1 setlinejoin
0 setlinecap
0 0 m
0 4 l
gsave
0.000 setgray
fill
grestore
stroke
grestore
} bind def
220.8 43.2 o
grestore
gsave
/o {
gsave
newpath
translate
0.5 setlinewidth
1 setlinejoin
0 setlinecap
0 0 m
0 -4 l
gsave
0.000 setgray
fill
grestore
stroke
grestore
} bind def
220.8 388.8 o
grestore
gsave
206.573437 30.121875 translate
0.000000 rotate
0.000000 0.171875 m /one glyphshow
7.634766 0.171875 m /five glyphshow
15.269531 0.171875 m /zero glyphshow
22.904297 0.171875 m /zero glyphshow
grestore
gsave
/o {
gsave
newpath
translate
0.5 setlinewidth
1 setlinejoin
0 setlinecap
0 0 m
0 4 l
gsave
0.000 setgray
fill
grestore
stroke
grestore
} bind def
270.4 43.2 o
grestore
gsave
/o {
gsave
newpath
translate
0.5 setlinewidth
1 setlinejoin
0 setlinecap
0 0 m
0 -4 l
gsave
0.000 setgray
fill
grestore
stroke
grestore
} bind def
270.4 388.8 o
grestore
gsave
255.954687 30.121875 translate
0.000000 rotate
0.000000 0.171875 m /two glyphshow
7.634766 0.171875 m /zero glyphshow
15.269531 0.171875 m /zero glyphshow
22.904297 0.171875 m /zero glyphshow
grestore
gsave
/o {
gsave
newpath
translate
0.5 setlinewidth
1 setlinejoin
0 setlinecap
0 0 m
0 4 l
gsave
0.000 setgray
fill
grestore
stroke
grestore
} bind def
320 43.2 o
grestore
gsave
/o {
gsave
newpath
translate
0.5 setlinewidth
1 setlinejoin
0 setlinecap
0 0 m
0 -4 l
gsave
0.000 setgray
fill
grestore
stroke
grestore
} bind def
320 388.8 o
grestore
gsave
305.554688 30.121875 translate
0.000000 rotate
0.000000 0.171875 m /two glyphshow
7.634766 0.171875 m /five glyphshow
15.269531 0.171875 m /zero glyphshow
22.904297 0.171875 m /zero glyphshow
grestore
gsave
/o {
gsave
newpath
translate
0.5 setlinewidth
1 setlinejoin
0 setlinecap
0 0 m
0 4 l
gsave
0.000 setgray
fill
grestore
stroke
grestore
} bind def
369.6 43.2 o
grestore
gsave
/o {
gsave
newpath
translate
0.5 setlinewidth
1 setlinejoin
0 setlinecap
0 0 m
0 -4 l
gsave
0.000 setgray
fill
grestore
stroke
grestore
} bind def
369.6 388.8 o
grestore
gsave
355.178125 30.121875 translate
0.000000 rotate
0.000000 0.171875 m /three glyphshow
7.634766 0.171875 m /zero glyphshow
15.269531 0.171875 m /zero glyphshow
22.904297 0.171875 m /zero glyphshow
grestore
gsave
/o {
gsave
newpath
translate
0.5 setlinewidth
1 setlinejoin
0 setlinecap
0 0 m
0 4 l
gsave
0.000 setgray
fill
grestore
stroke
grestore
} bind def
419.2 43.2 o
grestore
gsave
/o {
gsave
newpath
translate
0.5 setlinewidth
1 setlinejoin
0 setlinecap
0 0 m
0 -4 l
gsave
0.000 setgray
fill
grestore
stroke
grestore
} bind def
419.2 388.8 o
grestore
gsave
404.778125 30.121875 translate
0.000000 rotate
0.000000 0.171875 m /three glyphshow
7.634766 0.171875 m /five glyphshow
15.269531 0.171875 m /zero glyphshow
22.904297 0.171875 m /zero glyphshow
grestore
gsave
/o {
gsave
newpath
translate
0.5 setlinewidth
1 setlinejoin
0 setlinecap
0 0 m
0 4 l
gsave
0.000 setgray
fill
grestore
stroke
grestore
} bind def
468.8 43.2 o
grestore
gsave
/o {
gsave
newpath
translate
0.5 setlinewidth
1 setlinejoin
0 setlinecap
0 0 m
0 -4 l
gsave
0.000 setgray
fill
grestore
stroke
grestore
} bind def
468.8 388.8 o
grestore
gsave
454.214063 30.121875 translate
0.000000 rotate
0.000000 0.171875 m /four glyphshow
7.634766 0.171875 m /zero glyphshow
15.269531 0.171875 m /zero glyphshow
22.904297 0.171875 m /zero glyphshow
grestore
gsave
/o {
gsave
newpath
translate
0.5 setlinewidth
1 setlinejoin
0 setlinecap
0 0 m
0 4 l
gsave
0.000 setgray
fill
grestore
stroke
grestore
} bind def
518.4 43.2 o
grestore
gsave
/o {
gsave
newpath
translate
0.5 setlinewidth
1 setlinejoin
0 setlinecap
0 0 m
0 -4 l
gsave
0.000 setgray
fill
grestore
stroke
grestore
} bind def
518.4 388.8 o
grestore
gsave
503.814062 30.121875 translate
0.000000 rotate
0.000000 0.171875 m /four glyphshow
7.634766 0.171875 m /five glyphshow
15.269531 0.171875 m /zero glyphshow
22.904297 0.171875 m /zero glyphshow
grestore
gsave
/o {
gsave
newpath
translate
0.5 setlinewidth
1 setlinejoin
0 setlinecap
0 0 m
4 0 l
gsave
0.000 setgray
fill
grestore
stroke
grestore
} bind def
72 43.2 o
grestore
gsave
/o {
gsave
newpath
translate
0.5 setlinewidth
1 setlinejoin
0 setlinecap
0 0 m
-4 0 l
gsave
0.000 setgray
fill
grestore
stroke
grestore
} bind def
518.4 43.2 o
grestore
gsave
29.437500 38.660937 translate
0.000000 rotate
0.000000 0.171875 m /minus glyphshow
10.054688 0.171875 m /two glyphshow
17.689453 0.171875 m /five glyphshow
25.324219 0.171875 m /zero glyphshow
32.958984 0.171875 m /zero glyphshow
grestore
gsave
/o {
gsave
newpath
translate
0.5 setlinewidth
1 setlinejoin
0 setlinecap
0 0 m
4 0 l
gsave
0.000 setgray
fill
grestore
stroke
grestore
} bind def
72 81.6 o
grestore
gsave
/o {
gsave
newpath
translate
0.5 setlinewidth
1 setlinejoin
0 setlinecap
0 0 m
-4 0 l
gsave
0.000 setgray
fill
grestore
stroke
grestore
} bind def
518.4 81.6 o
grestore
gsave
29.437500 77.060937 translate
0.000000 rotate
0.000000 0.171875 m /minus glyphshow
10.054688 0.171875 m /two glyphshow
17.689453 0.171875 m /zero glyphshow
25.324219 0.171875 m /zero glyphshow
32.958984 0.171875 m /zero glyphshow
grestore
gsave
/o {
gsave
newpath
translate
0.5 setlinewidth
1 setlinejoin
0 setlinecap
0 0 m
4 0 l
gsave
0.000 setgray
fill
grestore
stroke
grestore
} bind def
72 120 o
grestore
gsave
/o {
gsave
newpath
translate
0.5 setlinewidth
1 setlinejoin
0 setlinecap
0 0 m
-4 0 l
gsave
0.000 setgray
fill
grestore
stroke
grestore
} bind def
518.4 120 o
grestore
gsave
29.437500 115.460938 translate
0.000000 rotate
0.000000 0.171875 m /minus glyphshow
10.054688 0.171875 m /one glyphshow
17.689453 0.171875 m /five glyphshow
25.324219 0.171875 m /zero glyphshow
32.958984 0.171875 m /zero glyphshow
grestore
gsave
/o {
gsave
newpath
translate
0.5 setlinewidth
1 setlinejoin
0 setlinecap
0 0 m
4 0 l
gsave
0.000 setgray
fill
grestore
stroke
grestore
} bind def
72 158.4 o
grestore
gsave
/o {
gsave
newpath
translate
0.5 setlinewidth
1 setlinejoin
0 setlinecap
0 0 m
-4 0 l
gsave
0.000 setgray
fill
grestore
stroke
grestore
} bind def
518.4 158.4 o
grestore
gsave
29.437500 153.860938 translate
0.000000 rotate
0.000000 0.171875 m /minus glyphshow
10.054688 0.171875 m /one glyphshow
17.689453 0.171875 m /zero glyphshow
25.324219 0.171875 m /zero glyphshow
32.958984 0.171875 m /zero glyphshow
grestore
gsave
/o {
gsave
newpath
translate
0.5 setlinewidth
1 setlinejoin
0 setlinecap
0 0 m
4 0 l
gsave
0.000 setgray
fill
grestore
stroke
grestore
} bind def
72 196.8 o
grestore
gsave
/o {
gsave
newpath
translate
0.5 setlinewidth
1 setlinejoin
0 setlinecap
0 0 m
-4 0 l
gsave
0.000 setgray
fill
grestore
stroke
grestore
} bind def
518.4 196.8 o
grestore
gsave
37.078125 192.260938 translate
0.000000 rotate
0.000000 0.171875 m /minus glyphshow
10.054688 0.171875 m /five glyphshow
17.689453 0.171875 m /zero glyphshow
25.324219 0.171875 m /zero glyphshow
grestore
gsave
/o {
gsave
newpath
translate
0.5 setlinewidth
1 setlinejoin
0 setlinecap
0 0 m
4 0 l
gsave
0.000 setgray
fill
grestore
stroke
grestore
} bind def
72 235.2 o
grestore
gsave
/o {
gsave
newpath
translate
0.5 setlinewidth
1 setlinejoin
0 setlinecap
0 0 m
-4 0 l
gsave
0.000 setgray
fill
grestore
stroke
grestore
} bind def
518.4 235.2 o
grestore
gsave
61.953125 230.660938 translate
0.000000 rotate
0.000000 0.171875 m /zero glyphshow
grestore
gsave
/o {
gsave
newpath
translate
0.5 setlinewidth
1 setlinejoin
0 setlinecap
0 0 m
4 0 l
gsave
0.000 setgray
fill
grestore
stroke
grestore
} bind def
72 273.6 o
grestore
gsave
/o {
gsave
newpath
translate
0.5 setlinewidth
1 setlinejoin
0 setlinecap
0 0 m
-4 0 l
gsave
0.000 setgray
fill
grestore
stroke
grestore
} bind def
518.4 273.6 o
grestore
gsave
46.796875 269.060938 translate
0.000000 rotate
0.000000 0.171875 m /five glyphshow
7.634766 0.171875 m /zero glyphshow
15.269531 0.171875 m /zero glyphshow
grestore
gsave
/o {
gsave
newpath
translate
0.5 setlinewidth
1 setlinejoin
0 setlinecap
0 0 m
4 0 l
gsave
0.000 setgray
fill
grestore
stroke
grestore
} bind def
72 312 o
grestore
gsave
/o {
gsave
newpath
translate
0.5 setlinewidth
1 setlinejoin
0 setlinecap
0 0 m
-4 0 l
gsave
0.000 setgray
fill
grestore
stroke
grestore
} bind def
518.4 312 o
grestore
gsave
39.546875 307.460938 translate
0.000000 rotate
0.000000 0.171875 m /one glyphshow
7.634766 0.171875 m /zero glyphshow
15.269531 0.171875 m /zero glyphshow
22.904297 0.171875 m /zero glyphshow
grestore
gsave
/o {
gsave
newpath
translate
0.5 setlinewidth
1 setlinejoin
0 setlinecap
0 0 m
4 0 l
gsave
0.000 setgray
fill
grestore
stroke
grestore
} bind def
72 350.4 o
grestore
gsave
/o {
gsave
newpath
translate
0.5 setlinewidth
1 setlinejoin
0 setlinecap
0 0 m
-4 0 l
gsave
0.000 setgray
fill
grestore
stroke
grestore
} bind def
518.4 350.4 o
grestore
gsave
39.546875 345.860938 translate
0.000000 rotate
0.000000 0.171875 m /one glyphshow
7.634766 0.171875 m /five glyphshow
15.269531 0.171875 m /zero glyphshow
22.904297 0.171875 m /zero glyphshow
grestore
gsave
/o {
gsave
newpath
translate
0.5 setlinewidth
1 setlinejoin
0 setlinecap
0 0 m
4 0 l
gsave
0.000 setgray
fill
grestore
stroke
grestore
} bind def
72 388.8 o
grestore
gsave
/o {
gsave
newpath
translate
0.5 setlinewidth
1 setlinejoin
0 setlinecap
0 0 m
-4 0 l
gsave
0.000 setgray
fill
grestore
stroke
grestore
} bind def
518.4 388.8 o
grestore
gsave
39.109375 384.260938 translate
0.000000 rotate
0.000000 0.171875 m /two glyphshow
7.634766 0.171875 m /zero glyphshow
15.269531 0.171875 m /zero glyphshow
22.904297 0.171875 m /zero glyphshow
grestore
1.000 setlinewidth
2 setlinecap
gsave
72 388.8 m
518.4 388.8 l
stroke
grestore
gsave
518.4 43.2 m
518.4 388.8 l
stroke
grestore
gsave
72 43.2 m
518.4 43.2 l
stroke
grestore
gsave
72 43.2 m
72 388.8 l
stroke
grestore

end
showpage
