%!PS-Adobe-3.0 EPSF-3.0
%%Title: hourly_hourly_E.eps
%%Creator: matplotlib version 1.2.1, http://matplotlib.org/
%%CreationDate: Fri Nov 22 11:38:38 2013
%%Orientation: portrait
%%BoundingBox: 18 180 594 612
%%EndComments
%%BeginProlog
/mpldict 8 dict def
mpldict begin
/m { moveto } bind def
/l { lineto } bind def
/r { rlineto } bind def
/c { curveto } bind def
/cl { closepath } bind def
/box {
m
1 index 0 r
0 exch r
neg 0 r
cl
} bind def
/clipbox {
box
clip
newpath
} bind def
%!PS-Adobe-3.0 Resource-Font
%%Title: DejaVu Sans
%%Copyright: Copyright (c) 2003 by Bitstream, Inc. All Rights Reserved. Copyright (c) 2006 by Tavmjong Bah. All Rights Reserved. DejaVu changes are in public domain 
%%Creator: Converted from TrueType to type 3 by PPR
25 dict begin
/_d{bind def}bind def
/_m{moveto}_d
/_l{lineto}_d
/_cl{closepath eofill}_d
/_c{curveto}_d
/_sc{7 -1 roll{setcachedevice}{pop pop pop pop pop pop}ifelse}_d
/_e{exec}_d
/FontName /DejaVuSans def
/PaintType 0 def
/FontMatrix[.001 0 0 .001 0 0]def
/FontBBox[-1021 -415 1681 1167]def
/FontType 3 def
/Encoding [ /space /zero /one /two /three /four /five /six /eight /nine /C /D /H /I /S /Y /a /c /d /e /f /i /l /m /n /o /p /r /t /u /y /minus ] def
/FontInfo 10 dict dup begin
/FamilyName (DejaVu Sans) def
/FullName (DejaVu Sans) def
/Notice (Copyright (c) 2003 by Bitstream, Inc. All Rights Reserved. Copyright (c) 2006 by Tavmjong Bah. All Rights Reserved. DejaVu changes are in public domain ) def
/Weight (Book) def
/Version (Version 2.33) def
/ItalicAngle 0.0 def
/isFixedPitch false def
/UnderlinePosition -130 def
/UnderlineThickness 90 def
end readonly def
/CharStrings 32 dict dup begin
/space{318 0 0 0 0 0 _sc
}_d
/zero{636 0 66 -13 570 742 _sc
318 664 _m
267 664 229 639 203 589 _c
177 539 165 464 165 364 _c
165 264 177 189 203 139 _c
229 89 267 64 318 64 _c
369 64 407 89 433 139 _c
458 189 471 264 471 364 _c
471 464 458 539 433 589 _c
407 639 369 664 318 664 _c
318 742 _m
399 742 461 709 505 645 _c
548 580 570 486 570 364 _c
570 241 548 147 505 83 _c
461 19 399 -13 318 -13 _c
236 -13 173 19 130 83 _c
87 147 66 241 66 364 _c
66 486 87 580 130 645 _c
173 709 236 742 318 742 _c
_cl}_d
/one{636 0 110 0 544 729 _sc
124 83 _m
285 83 _l
285 639 _l
110 604 _l
110 694 _l
284 729 _l
383 729 _l
383 83 _l
544 83 _l
544 0 _l
124 0 _l
124 83 _l
_cl}_d
/two{{636 0 73 0 536 742 _sc
192 83 _m
536 83 _l
536 0 _l
73 0 _l
73 83 _l
110 121 161 173 226 239 _c
290 304 331 346 348 365 _c
380 400 402 430 414 455 _c
426 479 433 504 433 528 _c
433 566 419 598 392 622 _c
365 646 330 659 286 659 _c
255 659 222 653 188 643 _c
154 632 117 616 78 594 _c
78 694 _l
118 710 155 722 189 730 _c
223 738 255 742 284 742 _c
}_e{359 742 419 723 464 685 _c
509 647 532 597 532 534 _c
532 504 526 475 515 449 _c
504 422 484 390 454 354 _c
446 344 420 317 376 272 _c
332 227 271 164 192 83 _c
_cl}_e}_d
/three{{636 0 76 -13 556 742 _sc
406 393 _m
453 383 490 362 516 330 _c
542 298 556 258 556 212 _c
556 140 531 84 482 45 _c
432 6 362 -13 271 -13 _c
240 -13 208 -10 176 -4 _c
144 1 110 10 76 22 _c
76 117 _l
103 101 133 89 166 81 _c
198 73 232 69 268 69 _c
330 69 377 81 409 105 _c
441 129 458 165 458 212 _c
458 254 443 288 413 312 _c
383 336 341 349 287 349 _c
}_e{202 349 _l
202 430 _l
291 430 _l
339 430 376 439 402 459 _c
428 478 441 506 441 543 _c
441 580 427 609 401 629 _c
374 649 336 659 287 659 _c
260 659 231 656 200 650 _c
169 644 135 635 98 623 _c
98 711 _l
135 721 170 729 203 734 _c
235 739 266 742 296 742 _c
370 742 429 725 473 691 _c
517 657 539 611 539 553 _c
539 513 527 479 504 451 _c
481 423 448 403 406 393 _c
_cl}_e}_d
/four{636 0 49 0 580 729 _sc
378 643 _m
129 254 _l
378 254 _l
378 643 _l
352 729 _m
476 729 _l
476 254 _l
580 254 _l
580 172 _l
476 172 _l
476 0 _l
378 0 _l
378 172 _l
49 172 _l
49 267 _l
352 729 _l
_cl}_d
/five{{636 0 77 -13 549 729 _sc
108 729 _m
495 729 _l
495 646 _l
198 646 _l
198 467 _l
212 472 227 476 241 478 _c
255 480 270 482 284 482 _c
365 482 429 459 477 415 _c
525 370 549 310 549 234 _c
549 155 524 94 475 51 _c
426 8 357 -13 269 -13 _c
238 -13 207 -10 175 -6 _c
143 -1 111 6 77 17 _c
77 116 _l
106 100 136 88 168 80 _c
199 72 232 69 267 69 _c
}_e{323 69 368 83 401 113 _c
433 143 450 183 450 234 _c
450 284 433 324 401 354 _c
368 384 323 399 267 399 _c
241 399 214 396 188 390 _c
162 384 135 375 108 363 _c
108 729 _l
_cl}_e}_d
/six{{636 0 70 -13 573 742 _sc
330 404 _m
286 404 251 388 225 358 _c
199 328 186 286 186 234 _c
186 181 199 139 225 109 _c
251 79 286 64 330 64 _c
374 64 409 79 435 109 _c
461 139 474 181 474 234 _c
474 286 461 328 435 358 _c
409 388 374 404 330 404 _c
526 713 _m
526 623 _l
501 635 476 644 451 650 _c
425 656 400 659 376 659 _c
310 659 260 637 226 593 _c
}_e{192 549 172 482 168 394 _c
187 422 211 444 240 459 _c
269 474 301 482 336 482 _c
409 482 467 459 509 415 _c
551 371 573 310 573 234 _c
573 159 550 99 506 54 _c
462 9 403 -13 330 -13 _c
246 -13 181 19 137 83 _c
92 147 70 241 70 364 _c
70 479 97 571 152 639 _c
206 707 280 742 372 742 _c
396 742 421 739 447 735 _c
472 730 498 723 526 713 _c
_cl}_e}_d
/eight{{636 0 68 -13 568 742 _sc
318 346 _m
271 346 234 333 207 308 _c
180 283 167 249 167 205 _c
167 161 180 126 207 101 _c
234 76 271 64 318 64 _c
364 64 401 76 428 102 _c
455 127 469 161 469 205 _c
469 249 455 283 429 308 _c
402 333 365 346 318 346 _c
219 388 _m
177 398 144 418 120 447 _c
96 476 85 511 85 553 _c
85 611 105 657 147 691 _c
188 725 245 742 318 742 _c
}_e{390 742 447 725 489 691 _c
530 657 551 611 551 553 _c
551 511 539 476 515 447 _c
491 418 459 398 417 388 _c
464 377 501 355 528 323 _c
554 291 568 251 568 205 _c
568 134 546 80 503 43 _c
459 5 398 -13 318 -13 _c
237 -13 175 5 132 43 _c
89 80 68 134 68 205 _c
68 251 81 291 108 323 _c
134 355 171 377 219 388 _c
183 544 _m
183 506 194 476 218 455 _c
}_e{242 434 275 424 318 424 _c
360 424 393 434 417 455 _c
441 476 453 506 453 544 _c
453 582 441 611 417 632 _c
393 653 360 664 318 664 _c
275 664 242 653 218 632 _c
194 611 183 582 183 544 _c
_cl}_e}_d
/nine{{636 0 63 -13 566 742 _sc
110 15 _m
110 105 _l
134 93 159 84 185 78 _c
210 72 235 69 260 69 _c
324 69 374 90 408 134 _c
442 178 462 244 468 334 _c
448 306 424 284 396 269 _c
367 254 335 247 300 247 _c
226 247 168 269 126 313 _c
84 357 63 417 63 494 _c
63 568 85 628 129 674 _c
173 719 232 742 306 742 _c
390 742 455 709 499 645 _c
543 580 566 486 566 364 _c
}_e{566 248 538 157 484 89 _c
429 21 356 -13 264 -13 _c
239 -13 214 -10 189 -6 _c
163 -2 137 5 110 15 _c
306 324 _m
350 324 385 339 411 369 _c
437 399 450 441 450 494 _c
450 546 437 588 411 618 _c
385 648 350 664 306 664 _c
262 664 227 648 201 618 _c
175 588 162 546 162 494 _c
162 441 175 399 201 369 _c
227 339 262 324 306 324 _c
_cl}_e}_d
/C{{698 0 56 -13 644 742 _sc
644 673 _m
644 569 _l
610 599 575 622 537 638 _c
499 653 460 661 418 661 _c
334 661 270 635 226 584 _c
182 533 160 460 160 364 _c
160 268 182 194 226 143 _c
270 92 334 67 418 67 _c
460 67 499 74 537 90 _c
575 105 610 128 644 159 _c
644 56 _l
609 32 572 15 534 4 _c
496 -7 455 -13 412 -13 _c
302 -13 215 20 151 87 _c
}_e{87 154 56 246 56 364 _c
56 481 87 573 151 641 _c
215 708 302 742 412 742 _c
456 742 497 736 535 725 _c
573 713 610 696 644 673 _c
_cl}_e}_d
/D{770 0 98 0 711 729 _sc
197 648 _m
197 81 _l
316 81 _l
416 81 490 103 537 149 _c
583 195 607 267 607 365 _c
607 463 583 534 537 580 _c
490 625 416 648 316 648 _c
197 648 _l
98 729 _m
301 729 _l
442 729 546 699 612 641 _c
678 582 711 490 711 365 _c
711 239 677 147 611 88 _c
545 29 441 0 301 0 _c
98 0 _l
98 729 _l
_cl}_d
/H{752 0 98 0 654 729 _sc
98 729 _m
197 729 _l
197 430 _l
555 430 _l
555 729 _l
654 729 _l
654 0 _l
555 0 _l
555 347 _l
197 347 _l
197 0 _l
98 0 _l
98 729 _l
_cl}_d
/I{295 0 98 0 197 729 _sc
98 729 _m
197 729 _l
197 0 _l
98 0 _l
98 729 _l
_cl}_d
/S{{635 0 66 -13 579 742 _sc
535 705 _m
535 609 _l
497 627 462 640 429 649 _c
395 657 363 662 333 662 _c
279 662 237 651 208 631 _c
179 610 165 580 165 542 _c
165 510 174 485 194 469 _c
213 452 250 439 304 429 _c
364 417 _l
437 403 491 378 526 343 _c
561 307 579 260 579 201 _c
579 130 555 77 508 41 _c
460 5 391 -13 300 -13 _c
265 -13 228 -9 189 -2 _c
}_e{150 5 110 16 69 32 _c
69 134 _l
109 111 148 94 186 83 _c
224 71 262 66 300 66 _c
356 66 399 77 430 99 _c
460 121 476 152 476 194 _c
476 230 465 258 443 278 _c
421 298 385 313 335 323 _c
275 335 _l
201 349 148 372 115 404 _c
82 435 66 478 66 534 _c
66 598 88 649 134 686 _c
179 723 242 742 322 742 _c
356 742 390 739 426 733 _c
461 727 497 717 535 705 _c
}_e{_cl}_e}_d
/Y{611 0 -1 0 613 729 _sc
-1 729 _m
104 729 _l
306 429 _l
507 729 _l
613 729 _l
355 347 _l
355 0 _l
256 0 _l
256 347 _l
-1 729 _l
_cl}_d
/a{{613 0 60 -13 522 560 _sc
343 275 _m
270 275 220 266 192 250 _c
164 233 150 205 150 165 _c
150 133 160 107 181 89 _c
202 70 231 61 267 61 _c
317 61 357 78 387 114 _c
417 149 432 196 432 255 _c
432 275 _l
343 275 _l
522 312 _m
522 0 _l
432 0 _l
432 83 _l
411 49 385 25 355 10 _c
325 -5 287 -13 243 -13 _c
187 -13 142 2 109 33 _c
76 64 60 106 60 159 _c
}_e{60 220 80 266 122 298 _c
163 329 224 345 306 345 _c
432 345 _l
432 354 _l
432 395 418 427 391 450 _c
364 472 326 484 277 484 _c
245 484 215 480 185 472 _c
155 464 127 453 100 439 _c
100 522 _l
132 534 164 544 195 550 _c
226 556 256 560 286 560 _c
365 560 424 539 463 498 _c
502 457 522 395 522 312 _c
_cl}_e}_d
/c{{550 0 55 -13 488 560 _sc
488 526 _m
488 442 _l
462 456 437 466 411 473 _c
385 480 360 484 334 484 _c
276 484 230 465 198 428 _c
166 391 150 339 150 273 _c
150 206 166 154 198 117 _c
230 80 276 62 334 62 _c
360 62 385 65 411 72 _c
437 79 462 90 488 104 _c
488 21 _l
462 9 436 0 410 -5 _c
383 -10 354 -13 324 -13 _c
242 -13 176 12 128 64 _c
}_e{79 115 55 185 55 273 _c
55 362 79 432 128 483 _c
177 534 244 560 330 560 _c
358 560 385 557 411 551 _c
437 545 463 537 488 526 _c
_cl}_e}_d
/d{{635 0 55 -13 544 760 _sc
454 464 _m
454 760 _l
544 760 _l
544 0 _l
454 0 _l
454 82 _l
435 49 411 25 382 10 _c
353 -5 319 -13 279 -13 _c
213 -13 159 13 117 65 _c
75 117 55 187 55 273 _c
55 359 75 428 117 481 _c
159 533 213 560 279 560 _c
319 560 353 552 382 536 _c
411 520 435 496 454 464 _c
148 273 _m
148 207 161 155 188 117 _c
215 79 253 61 301 61 _c
}_e{348 61 385 79 413 117 _c
440 155 454 207 454 273 _c
454 339 440 390 413 428 _c
385 466 348 485 301 485 _c
253 485 215 466 188 428 _c
161 390 148 339 148 273 _c
_cl}_e}_d
/e{{615 0 55 -13 562 560 _sc
562 296 _m
562 252 _l
149 252 _l
153 190 171 142 205 110 _c
238 78 284 62 344 62 _c
378 62 412 66 444 74 _c
476 82 509 95 541 113 _c
541 28 _l
509 14 476 3 442 -3 _c
408 -9 373 -13 339 -13 _c
251 -13 182 12 131 62 _c
80 112 55 181 55 268 _c
55 357 79 428 127 481 _c
175 533 241 560 323 560 _c
397 560 455 536 498 489 _c
}_e{540 441 562 377 562 296 _c
472 322 _m
471 371 457 410 431 440 _c
404 469 368 484 324 484 _c
274 484 234 469 204 441 _c
174 413 156 373 152 322 _c
472 322 _l
_cl}_e}_d
/f{352 0 23 0 371 760 _sc
371 760 _m
371 685 _l
285 685 _l
253 685 230 678 218 665 _c
205 652 199 629 199 595 _c
199 547 _l
347 547 _l
347 477 _l
199 477 _l
199 0 _l
109 0 _l
109 477 _l
23 477 _l
23 547 _l
109 547 _l
109 585 _l
109 645 123 690 151 718 _c
179 746 224 760 286 760 _c
371 760 _l
_cl}_d
/i{278 0 94 0 184 760 _sc
94 547 _m
184 547 _l
184 0 _l
94 0 _l
94 547 _l
94 760 _m
184 760 _l
184 646 _l
94 646 _l
94 760 _l
_cl}_d
/l{278 0 94 0 184 760 _sc
94 760 _m
184 760 _l
184 0 _l
94 0 _l
94 760 _l
_cl}_d
/m{{974 0 91 0 889 560 _sc
520 442 _m
542 482 569 511 600 531 _c
631 550 668 560 711 560 _c
767 560 811 540 842 500 _c
873 460 889 403 889 330 _c
889 0 _l
799 0 _l
799 327 _l
799 379 789 418 771 444 _c
752 469 724 482 686 482 _c
639 482 602 466 575 435 _c
548 404 535 362 535 309 _c
535 0 _l
445 0 _l
445 327 _l
445 379 435 418 417 444 _c
398 469 369 482 331 482 _c
}_e{285 482 248 466 221 435 _c
194 404 181 362 181 309 _c
181 0 _l
91 0 _l
91 547 _l
181 547 _l
181 462 _l
201 495 226 520 255 536 _c
283 552 317 560 357 560 _c
397 560 430 550 458 530 _c
486 510 506 480 520 442 _c
_cl}_e}_d
/n{634 0 91 0 549 560 _sc
549 330 _m
549 0 _l
459 0 _l
459 327 _l
459 379 448 417 428 443 _c
408 469 378 482 338 482 _c
289 482 251 466 223 435 _c
195 404 181 362 181 309 _c
181 0 _l
91 0 _l
91 547 _l
181 547 _l
181 462 _l
202 494 227 519 257 535 _c
286 551 320 560 358 560 _c
420 560 468 540 500 501 _c
532 462 549 405 549 330 _c
_cl}_d
/o{612 0 55 -13 557 560 _sc
306 484 _m
258 484 220 465 192 427 _c
164 389 150 338 150 273 _c
150 207 163 156 191 118 _c
219 80 257 62 306 62 _c
354 62 392 80 420 118 _c
448 156 462 207 462 273 _c
462 337 448 389 420 427 _c
392 465 354 484 306 484 _c
306 560 _m
384 560 445 534 490 484 _c
534 433 557 363 557 273 _c
557 183 534 113 490 63 _c
445 12 384 -13 306 -13 _c
227 -13 165 12 121 63 _c
77 113 55 183 55 273 _c
55 363 77 433 121 484 _c
165 534 227 560 306 560 _c
_cl}_d
/p{{635 0 91 -207 580 560 _sc
181 82 _m
181 -207 _l
91 -207 _l
91 547 _l
181 547 _l
181 464 _l
199 496 223 520 252 536 _c
281 552 316 560 356 560 _c
422 560 476 533 518 481 _c
559 428 580 359 580 273 _c
580 187 559 117 518 65 _c
476 13 422 -13 356 -13 _c
316 -13 281 -5 252 10 _c
223 25 199 49 181 82 _c
487 273 _m
487 339 473 390 446 428 _c
418 466 381 485 334 485 _c
}_e{286 485 249 466 222 428 _c
194 390 181 339 181 273 _c
181 207 194 155 222 117 _c
249 79 286 61 334 61 _c
381 61 418 79 446 117 _c
473 155 487 207 487 273 _c
_cl}_e}_d
/r{411 0 91 0 411 560 _sc
411 463 _m
401 469 390 473 378 476 _c
366 478 353 480 339 480 _c
288 480 249 463 222 430 _c
194 397 181 350 181 288 _c
181 0 _l
91 0 _l
91 547 _l
181 547 _l
181 462 _l
199 495 224 520 254 536 _c
284 552 321 560 365 560 _c
371 560 378 559 386 559 _c
393 558 401 557 411 555 _c
411 463 _l
_cl}_d
/t{392 0 27 0 368 702 _sc
183 702 _m
183 547 _l
368 547 _l
368 477 _l
183 477 _l
183 180 _l
183 135 189 106 201 94 _c
213 81 238 75 276 75 _c
368 75 _l
368 0 _l
276 0 _l
206 0 158 13 132 39 _c
106 65 93 112 93 180 _c
93 477 _l
27 477 _l
27 547 _l
93 547 _l
93 702 _l
183 702 _l
_cl}_d
/u{634 0 85 -13 543 560 _sc
85 216 _m
85 547 _l
175 547 _l
175 219 _l
175 167 185 129 205 103 _c
225 77 255 64 296 64 _c
344 64 383 79 411 110 _c
439 141 453 183 453 237 _c
453 547 _l
543 547 _l
543 0 _l
453 0 _l
453 84 _l
431 50 405 26 377 10 _c
348 -5 315 -13 277 -13 _c
214 -13 166 6 134 45 _c
101 83 85 140 85 216 _c
311 560 _m
311 560 _l
_cl}_d
/y{592 0 30 -207 562 547 _sc
322 -50 _m
296 -114 271 -157 247 -177 _c
223 -197 191 -207 151 -207 _c
79 -207 _l
79 -132 _l
132 -132 _l
156 -132 175 -126 189 -114 _c
203 -102 218 -75 235 -31 _c
251 9 _l
30 547 _l
125 547 _l
296 119 _l
467 547 _l
562 547 _l
322 -50 _l
_cl}_d
/minus{838 0 106 272 732 355 _sc
106 355 _m
732 355 _l
732 272 _l
106 272 _l
106 355 _l
_cl}_d
end readonly def

/BuildGlyph
 {exch begin
 CharStrings exch
 2 copy known not{pop /.notdef}if
 true 3 1 roll get exec
 end}_d

/BuildChar {
 1 index /Encoding get exch get
 1 index /BuildGlyph get exec
}_d

FontName currentdict end definefont pop
end
%%EndProlog
mpldict begin
18 180 translate
576 432 0 0 clipbox
gsave
0 0 m
576 0 l
576 432 l
0 432 l
cl
1.000 setgray
fill
grestore
gsave
72 43.2 m
518.4 43.2 l
518.4 388.8 l
72 388.8 l
cl
1.000 setgray
fill
grestore
1.000 setlinewidth
1 setlinejoin
2 setlinecap
[] 0 setdash
0.000 0.000 1.000 setrgbcolor
gsave
446.4 345.6 72 43.2 clipbox
72 81.6 m
76.464 81.6 l
80.928 81.6 l
85.392 81.6288 l
89.856 83.2736 l
94.32 86.751 l
98.784 93.2214 l
103.248 149.831 l
107.712 213.243 l
112.176 132.478 l
116.64 267.418 l
121.104 338.57 l
125.568 292.587 l
130.032 251.326 l
134.496 250.01 l
138.96 214.508 l
143.424 192.601 l
147.888 153.966 l
152.352 113.242 l
156.816 83.9643 l
161.28 81.6 l
165.744 81.6 l
170.208 81.6 l
174.672 81.6 l
179.136 81.6 l
183.6 81.6 l
188.064 81.6 l
192.528 81.6 l
196.992 81.7883 l
201.456 84.0007 l
205.92 90.2723 l
210.384 88.2943 l
214.848 88.5929 l
219.312 103.78 l
223.776 211.5 l
228.24 299.739 l
232.704 367.734 l
237.168 325.744 l
241.632 323.027 l
246.096 277.482 l
250.56 218.98 l
255.024 171.057 l
259.488 120.836 l
263.952 87.3191 l
268.416 81.6 l
272.88 81.6 l
277.344 81.6 l
281.808 81.6 l
286.272 81.6 l
290.736 81.6 l
295.2 81.6 l
299.664 81.6 l
304.128 83.526 l
308.592 109.716 l
313.056 154.523 l
317.52 214.655 l
321.984 211.47 l
326.448 163.596 l
330.912 329.247 l
335.376 351.261 l
339.84 357.066 l
344.304 290.511 l
348.768 329.633 l
353.232 292.02 l
357.696 162.427 l
362.16 90.6463 l
366.624 105.409 l
371.088 84.5516 l
375.552 81.6 l
380.016 81.6 l
384.48 81.6 l
388.944 81.6 l
393.408 81.6 l
397.872 81.6 l
402.336 81.6 l
406.8 81.6 l
411.264 83.3207 l
415.728 109.471 l
420.192 161.641 l
424.656 222.675 l
429.12 274.889 l
433.584 320.816 l
438.048 352.312 l
442.512 367.755 l
446.976 277.637 l
451.44 281.543 l
455.904 313.488 l
460.368 177.476 l
464.832 171.354 l
469.296 152.744 l
473.76 112.604 l
478.224 84.5326 l
482.688 81.6 l
487.152 81.6 l
491.616 81.6 l
496.08 81.6 l
stroke
grestore
2.000 setlinewidth
0 setlinecap
[6 6] 0 setdash
0.000 0.500 0.000 setrgbcolor
gsave
446.4 345.6 72 43.2 clipbox
72 83.6321 m
76.464 81.1004 l
80.928 77.804 l
85.392 78.6052 l
89.856 88.7222 l
94.32 111.517 l
98.784 146.954 l
103.248 191.326 l
107.712 238.249 l
112.176 280.449 l
116.64 311.572 l
121.104 327.427 l
125.568 326.418 l
130.032 309.348 l
134.496 278.943 l
138.96 239.368 l
143.424 195.795 l
147.888 153.826 l
152.352 118.64 l
156.816 93.8878 l
161.28 80.7033 l
165.744 77.3282 l
170.208 79.7165 l
174.672 83.0835 l
179.136 83.8772 l
183.6 81.3601 l
188.064 78.0694 l
192.528 78.8836 l
196.992 89.0352 l
201.456 111.889 l
205.92 147.397 l
210.384 191.83 l
214.848 238.784 l
219.312 280.981 l
223.776 312.078 l
228.24 327.904 l
232.704 326.881 l
237.168 309.82 l
241.632 279.431 l
246.096 239.861 l
250.56 196.259 l
255.024 154.226 l
259.488 118.952 l
263.952 94.1156 l
268.416 80.8754 l
272.88 77.485 l
277.344 79.8923 l
281.808 83.2933 l
286.272 84.1162 l
290.736 81.6136 l
295.2 78.328 l
299.664 79.1529 l
304.128 89.3353 l
308.592 112.243 l
313.056 147.817 l
317.52 192.305 l
321.984 239.289 l
326.448 281.483 l
330.912 312.554 l
335.376 328.352 l
339.84 327.317 l
344.304 310.262 l
348.768 279.89 l
353.232 240.323 l
357.696 196.695 l
362.16 154.6 l
366.624 119.244 l
371.088 94.3284 l
375.552 81.0365 l
380.016 77.6334 l
384.48 80.0606 l
388.944 83.4961 l
393.408 84.3484 l
397.872 81.8602 l
402.336 78.5788 l
406.8 79.4123 l
411.264 89.6215 l
415.728 112.577 l
420.192 148.211 l
424.656 192.752 l
429.12 239.762 l
433.584 281.952 l
438.048 312.999 l
442.512 328.77 l
446.976 327.723 l
451.44 310.675 l
455.904 280.317 l
460.368 240.755 l
464.832 197.101 l
469.296 154.949 l
473.76 119.515 l
478.224 94.5253 l
482.688 81.186 l
487.152 77.7726 l
491.616 80.221 l
496.08 83.6913 l
stroke
grestore
0.500 setlinewidth
[] 0 setdash
0.000 setgray
gsave
/o {
gsave
newpath
translate
0.5 setlinewidth
1 setlinejoin
0 setlinecap
0 0 m
0 4 l
gsave
0.000 setgray
fill
grestore
stroke
grestore
} bind def
72 43.2 o
grestore
gsave
/o {
gsave
newpath
translate
0.5 setlinewidth
1 setlinejoin
0 setlinecap
0 0 m
0 -4 l
gsave
0.000 setgray
fill
grestore
stroke
grestore
} bind def
72 388.8 o
grestore
/DejaVuSans findfont
12.000 scalefont
setfont
gsave
57.578125 30.121875 translate
0.000000 rotate
0.000000 0.171875 m /three glyphshow
7.634766 0.171875 m /eight glyphshow
15.269531 0.171875 m /four glyphshow
22.904297 0.171875 m /zero glyphshow
grestore
gsave
/o {
gsave
newpath
translate
0.5 setlinewidth
1 setlinejoin
0 setlinecap
0 0 m
0 4 l
gsave
0.000 setgray
fill
grestore
stroke
grestore
} bind def
161.28 43.2 o
grestore
gsave
/o {
gsave
newpath
translate
0.5 setlinewidth
1 setlinejoin
0 setlinecap
0 0 m
0 -4 l
gsave
0.000 setgray
fill
grestore
stroke
grestore
} bind def
161.28 388.8 o
grestore
gsave
146.858125 30.121875 translate
0.000000 rotate
0.000000 0.171875 m /three glyphshow
7.634766 0.171875 m /eight glyphshow
15.269531 0.171875 m /six glyphshow
22.904297 0.171875 m /zero glyphshow
grestore
gsave
/o {
gsave
newpath
translate
0.5 setlinewidth
1 setlinejoin
0 setlinecap
0 0 m
0 4 l
gsave
0.000 setgray
fill
grestore
stroke
grestore
} bind def
250.56 43.2 o
grestore
gsave
/o {
gsave
newpath
translate
0.5 setlinewidth
1 setlinejoin
0 setlinecap
0 0 m
0 -4 l
gsave
0.000 setgray
fill
grestore
stroke
grestore
} bind def
250.56 388.8 o
grestore
gsave
236.138125 30.121875 translate
0.000000 rotate
0.000000 0.171875 m /three glyphshow
7.634766 0.171875 m /eight glyphshow
15.269531 0.171875 m /eight glyphshow
22.904297 0.171875 m /zero glyphshow
grestore
gsave
/o {
gsave
newpath
translate
0.5 setlinewidth
1 setlinejoin
0 setlinecap
0 0 m
0 4 l
gsave
0.000 setgray
fill
grestore
stroke
grestore
} bind def
339.84 43.2 o
grestore
gsave
/o {
gsave
newpath
translate
0.5 setlinewidth
1 setlinejoin
0 setlinecap
0 0 m
0 -4 l
gsave
0.000 setgray
fill
grestore
stroke
grestore
} bind def
339.84 388.8 o
grestore
gsave
325.418125 30.121875 translate
0.000000 rotate
0.000000 0.171875 m /three glyphshow
7.634766 0.171875 m /nine glyphshow
15.269531 0.171875 m /zero glyphshow
22.904297 0.171875 m /zero glyphshow
grestore
gsave
/o {
gsave
newpath
translate
0.5 setlinewidth
1 setlinejoin
0 setlinecap
0 0 m
0 4 l
gsave
0.000 setgray
fill
grestore
stroke
grestore
} bind def
429.12 43.2 o
grestore
gsave
/o {
gsave
newpath
translate
0.5 setlinewidth
1 setlinejoin
0 setlinecap
0 0 m
0 -4 l
gsave
0.000 setgray
fill
grestore
stroke
grestore
} bind def
429.12 388.8 o
grestore
gsave
414.698125 30.121875 translate
0.000000 rotate
0.000000 0.171875 m /three glyphshow
7.634766 0.171875 m /nine glyphshow
15.269531 0.171875 m /two glyphshow
22.904297 0.171875 m /zero glyphshow
grestore
gsave
/o {
gsave
newpath
translate
0.5 setlinewidth
1 setlinejoin
0 setlinecap
0 0 m
0 4 l
gsave
0.000 setgray
fill
grestore
stroke
grestore
} bind def
518.4 43.2 o
grestore
gsave
/o {
gsave
newpath
translate
0.5 setlinewidth
1 setlinejoin
0 setlinecap
0 0 m
0 -4 l
gsave
0.000 setgray
fill
grestore
stroke
grestore
} bind def
518.4 388.8 o
grestore
gsave
503.978125 30.121875 translate
0.000000 rotate
0.000000 0.171875 m /three glyphshow
7.634766 0.171875 m /nine glyphshow
15.269531 0.171875 m /four glyphshow
22.904297 0.171875 m /zero glyphshow
grestore
/DejaVuSans findfont
16.000 scalefont
setfont
gsave
246.168750 12.731250 translate
0.000000 rotate
0.000000 0.234375 m /H glyphshow
12.031250 0.234375 m /o glyphshow
21.820312 0.234375 m /u glyphshow
31.960938 0.234375 m /r glyphshow
38.539062 0.234375 m /space glyphshow
43.625000 0.234375 m /o glyphshow
53.414062 0.234375 m /f glyphshow
59.046875 0.234375 m /space glyphshow
64.132812 0.234375 m /Y glyphshow
71.781250 0.234375 m /e glyphshow
81.625000 0.234375 m /a glyphshow
91.429688 0.234375 m /r glyphshow
grestore
gsave
/o {
gsave
newpath
translate
0.5 setlinewidth
1 setlinejoin
0 setlinecap
0 0 m
4 0 l
gsave
0.000 setgray
fill
grestore
stroke
grestore
} bind def
72 43.2 o
grestore
gsave
/o {
gsave
newpath
translate
0.5 setlinewidth
1 setlinejoin
0 setlinecap
0 0 m
-4 0 l
gsave
0.000 setgray
fill
grestore
stroke
grestore
} bind def
518.4 43.2 o
grestore
/DejaVuSans findfont
12.000 scalefont
setfont
gsave
37.078125 38.660937 translate
0.000000 rotate
0.000000 0.171875 m /minus glyphshow
10.054688 0.171875 m /five glyphshow
17.689453 0.171875 m /zero glyphshow
25.324219 0.171875 m /zero glyphshow
grestore
gsave
/o {
gsave
newpath
translate
0.5 setlinewidth
1 setlinejoin
0 setlinecap
0 0 m
4 0 l
gsave
0.000 setgray
fill
grestore
stroke
grestore
} bind def
72 81.6 o
grestore
gsave
/o {
gsave
newpath
translate
0.5 setlinewidth
1 setlinejoin
0 setlinecap
0 0 m
-4 0 l
gsave
0.000 setgray
fill
grestore
stroke
grestore
} bind def
518.4 81.6 o
grestore
gsave
61.953125 77.060937 translate
0.000000 rotate
0.000000 0.171875 m /zero glyphshow
grestore
gsave
/o {
gsave
newpath
translate
0.5 setlinewidth
1 setlinejoin
0 setlinecap
0 0 m
4 0 l
gsave
0.000 setgray
fill
grestore
stroke
grestore
} bind def
72 120 o
grestore
gsave
/o {
gsave
newpath
translate
0.5 setlinewidth
1 setlinejoin
0 setlinecap
0 0 m
-4 0 l
gsave
0.000 setgray
fill
grestore
stroke
grestore
} bind def
518.4 120 o
grestore
gsave
46.796875 115.460938 translate
0.000000 rotate
0.000000 0.171875 m /five glyphshow
7.634766 0.171875 m /zero glyphshow
15.269531 0.171875 m /zero glyphshow
grestore
gsave
/o {
gsave
newpath
translate
0.5 setlinewidth
1 setlinejoin
0 setlinecap
0 0 m
4 0 l
gsave
0.000 setgray
fill
grestore
stroke
grestore
} bind def
72 158.4 o
grestore
gsave
/o {
gsave
newpath
translate
0.5 setlinewidth
1 setlinejoin
0 setlinecap
0 0 m
-4 0 l
gsave
0.000 setgray
fill
grestore
stroke
grestore
} bind def
518.4 158.4 o
grestore
gsave
39.546875 153.860938 translate
0.000000 rotate
0.000000 0.171875 m /one glyphshow
7.634766 0.171875 m /zero glyphshow
15.269531 0.171875 m /zero glyphshow
22.904297 0.171875 m /zero glyphshow
grestore
gsave
/o {
gsave
newpath
translate
0.5 setlinewidth
1 setlinejoin
0 setlinecap
0 0 m
4 0 l
gsave
0.000 setgray
fill
grestore
stroke
grestore
} bind def
72 196.8 o
grestore
gsave
/o {
gsave
newpath
translate
0.5 setlinewidth
1 setlinejoin
0 setlinecap
0 0 m
-4 0 l
gsave
0.000 setgray
fill
grestore
stroke
grestore
} bind def
518.4 196.8 o
grestore
gsave
39.546875 192.260938 translate
0.000000 rotate
0.000000 0.171875 m /one glyphshow
7.634766 0.171875 m /five glyphshow
15.269531 0.171875 m /zero glyphshow
22.904297 0.171875 m /zero glyphshow
grestore
gsave
/o {
gsave
newpath
translate
0.5 setlinewidth
1 setlinejoin
0 setlinecap
0 0 m
4 0 l
gsave
0.000 setgray
fill
grestore
stroke
grestore
} bind def
72 235.2 o
grestore
gsave
/o {
gsave
newpath
translate
0.5 setlinewidth
1 setlinejoin
0 setlinecap
0 0 m
-4 0 l
gsave
0.000 setgray
fill
grestore
stroke
grestore
} bind def
518.4 235.2 o
grestore
gsave
39.109375 230.660938 translate
0.000000 rotate
0.000000 0.171875 m /two glyphshow
7.634766 0.171875 m /zero glyphshow
15.269531 0.171875 m /zero glyphshow
22.904297 0.171875 m /zero glyphshow
grestore
gsave
/o {
gsave
newpath
translate
0.5 setlinewidth
1 setlinejoin
0 setlinecap
0 0 m
4 0 l
gsave
0.000 setgray
fill
grestore
stroke
grestore
} bind def
72 273.6 o
grestore
gsave
/o {
gsave
newpath
translate
0.5 setlinewidth
1 setlinejoin
0 setlinecap
0 0 m
-4 0 l
gsave
0.000 setgray
fill
grestore
stroke
grestore
} bind def
518.4 273.6 o
grestore
gsave
39.109375 269.060938 translate
0.000000 rotate
0.000000 0.171875 m /two glyphshow
7.634766 0.171875 m /five glyphshow
15.269531 0.171875 m /zero glyphshow
22.904297 0.171875 m /zero glyphshow
grestore
gsave
/o {
gsave
newpath
translate
0.5 setlinewidth
1 setlinejoin
0 setlinecap
0 0 m
4 0 l
gsave
0.000 setgray
fill
grestore
stroke
grestore
} bind def
72 312 o
grestore
gsave
/o {
gsave
newpath
translate
0.5 setlinewidth
1 setlinejoin
0 setlinecap
0 0 m
-4 0 l
gsave
0.000 setgray
fill
grestore
stroke
grestore
} bind def
518.4 312 o
grestore
gsave
39.156250 307.460938 translate
0.000000 rotate
0.000000 0.171875 m /three glyphshow
7.634766 0.171875 m /zero glyphshow
15.269531 0.171875 m /zero glyphshow
22.904297 0.171875 m /zero glyphshow
grestore
gsave
/o {
gsave
newpath
translate
0.5 setlinewidth
1 setlinejoin
0 setlinecap
0 0 m
4 0 l
gsave
0.000 setgray
fill
grestore
stroke
grestore
} bind def
72 350.4 o
grestore
gsave
/o {
gsave
newpath
translate
0.5 setlinewidth
1 setlinejoin
0 setlinecap
0 0 m
-4 0 l
gsave
0.000 setgray
fill
grestore
stroke
grestore
} bind def
518.4 350.4 o
grestore
gsave
39.156250 345.860937 translate
0.000000 rotate
0.000000 0.171875 m /three glyphshow
7.634766 0.171875 m /five glyphshow
15.269531 0.171875 m /zero glyphshow
22.904297 0.171875 m /zero glyphshow
grestore
gsave
/o {
gsave
newpath
translate
0.5 setlinewidth
1 setlinejoin
0 setlinecap
0 0 m
4 0 l
gsave
0.000 setgray
fill
grestore
stroke
grestore
} bind def
72 388.8 o
grestore
gsave
/o {
gsave
newpath
translate
0.5 setlinewidth
1 setlinejoin
0 setlinecap
0 0 m
-4 0 l
gsave
0.000 setgray
fill
grestore
stroke
grestore
} bind def
518.4 388.8 o
grestore
gsave
38.828125 384.260938 translate
0.000000 rotate
0.000000 0.171875 m /four glyphshow
7.634766 0.171875 m /zero glyphshow
15.269531 0.171875 m /zero glyphshow
22.904297 0.171875 m /zero glyphshow
grestore
/DejaVuSans findfont
16.000 scalefont
setfont
gsave
32.078125 153.156250 translate
90.000000 rotate
0.000000 0.234375 m /S glyphshow
10.156250 0.234375 m /o glyphshow
19.945312 0.234375 m /l glyphshow
24.390625 0.234375 m /a glyphshow
34.195312 0.234375 m /r glyphshow
40.773438 0.234375 m /space glyphshow
45.859375 0.234375 m /I glyphshow
50.578125 0.234375 m /r glyphshow
56.906250 0.234375 m /r glyphshow
63.484375 0.234375 m /a glyphshow
73.289062 0.234375 m /d glyphshow
83.445312 0.234375 m /i glyphshow
87.890625 0.234375 m /a glyphshow
97.695312 0.234375 m /n glyphshow
107.835938 0.234375 m /c glyphshow
116.632812 0.234375 m /e glyphshow
grestore
1.000 setlinewidth
2 setlinecap
gsave
72 388.8 m
518.4 388.8 l
stroke
grestore
gsave
518.4 43.2 m
518.4 388.8 l
stroke
grestore
gsave
72 43.2 m
518.4 43.2 l
stroke
grestore
gsave
72 43.2 m
72 388.8 l
stroke
grestore
gsave
324.532 335.786 m
511.2 335.786 l
511.2 381.6 l
324.532 381.6 l
324.532 335.786 l
cl
gsave
1.000 setgray
fill
grestore
stroke
grestore
0.000 0.000 1.000 setrgbcolor
gsave
334.612 370.239 m
354.772 370.239 l
stroke
grestore
0.000 setgray
/DejaVuSans findfont
14.400 scalefont
setfont
gsave
370.611875 362.293125 translate
0.000000 rotate
0.000000 2.906250 m /H glyphshow
10.821075 2.906250 m /o glyphshow
19.625488 2.906250 m /u glyphshow
28.746109 2.906250 m /r glyphshow
34.662567 2.906250 m /l glyphshow
38.660736 2.906250 m /y glyphshow
47.177063 2.906250 m /space glyphshow
51.751419 2.906250 m /D glyphshow
62.832474 2.906250 m /a glyphshow
71.650940 2.906250 m /t glyphshow
77.293350 2.906250 m /a glyphshow
grestore
2.000 setlinewidth
0 setlinecap
[6 6] 0 setdash
0.000 0.500 0.000 setrgbcolor
gsave
334.612 349.493 m
354.772 349.493 l
stroke
grestore
0.000 setgray
gsave
370.611875 341.546250 translate
0.000000 rotate
0.000000 2.906250 m /H glyphshow
10.821075 2.906250 m /o glyphshow
19.625488 2.906250 m /u glyphshow
28.746109 2.906250 m /r glyphshow
34.662567 2.906250 m /l glyphshow
38.660736 2.906250 m /y glyphshow
47.177063 2.906250 m /space glyphshow
51.751419 2.906250 m /C glyphshow
61.799561 2.906250 m /o glyphshow
70.603973 2.906250 m /m glyphshow
84.622177 2.906250 m /p glyphshow
93.756851 2.906250 m /o glyphshow
102.561264 2.906250 m /n glyphshow
111.681885 2.906250 m /e glyphshow
120.535492 2.906250 m /n glyphshow
129.656113 2.906250 m /t glyphshow
grestore

end
showpage
