%!PS-Adobe-3.0 EPSF-3.0
%%Title: /home/ebilionis/work/solar/tests/sigmoid_ex2.eps
%%Creator: matplotlib version 1.2.1, http://matplotlib.org/
%%CreationDate: Tue Nov 26 12:46:17 2013
%%Orientation: portrait
%%BoundingBox: 13 175 598 616
%%EndComments
%%BeginProlog
/mpldict 10 dict def
mpldict begin
/m { moveto } bind def
/l { lineto } bind def
/r { rlineto } bind def
/c { curveto } bind def
/cl { closepath } bind def
/box {
m
1 index 0 r
0 exch r
neg 0 r
cl
} bind def
/clipbox {
box
clip
newpath
} bind def
%!PS-Adobe-3.0 Resource-Font
%%Title: cmr10
%%Copyright: Copyright (C) 1994, Basil K. Malyshev. All Rights Reserved.012BaKoMa Fonts Collection, Level-B.
%%Creator: Converted from TrueType to type 3 by PPR
25 dict begin
/_d{bind def}bind def
/_m{moveto}_d
/_l{lineto}_d
/_cl{closepath eofill}_d
/_c{curveto}_d
/_sc{7 -1 roll{setcachedevice}{pop pop pop pop pop pop}ifelse}_d
/_e{exec}_d
/FontName /Cmr10 def
/PaintType 0 def
/FontMatrix[.001 0 0 .001 0 0]def
/FontBBox[-44 -250 1009 750]def
/FontType 3 def
/Encoding [ /zero /equal /two /parenright /one /parenleft /five ] def
/FontInfo 10 dict dup begin
/FamilyName (cmr10) def
/FullName (cmr10) def
/Notice (Copyright (C) 1994, Basil K. Malyshev. All Rights Reserved.012BaKoMa Fonts Collection, Level-B. ) def
/Weight (Regular) def
/Version (1.1/12-Nov-94) def
/ItalicAngle 0.0 def
/isFixedPitch false def
/UnderlinePosition -133 def
/UnderlineThickness 20 def
end readonly def
/CharStrings 7 dict dup begin
/zero{{500 0 39 -21 460 666 _sc
250 -21 _m
168 -21 112 12 83 79 _c
53 146 39 226 39 319 _c
39 377 44 431 55 482 _c
65 533 86 576 118 612 _c
149 648 193 666 250 666 _c
294 666 330 655 358 634 _c
386 612 407 585 422 551 _c
436 517 446 480 452 441 _c
457 402 460 361 460 319 _c
460 261 454 208 444 158 _c
433 108 412 65 381 31 _c
350 -3 306 -21 250 -21 _c
250 4 _m
}_e{287 4 315 23 333 61 _c
351 99 362 141 366 187 _c
370 233 373 283 373 335 _c
373 385 370 431 366 473 _c
362 515 351 554 333 588 _c
315 622 287 640 250 640 _c
212 640 184 622 166 588 _c
148 554 136 515 132 473 _c
128 431 126 385 126 335 _c
126 297 126 262 128 230 _c
130 197 135 163 143 128 _c
151 93 163 64 181 40 _c
198 16 221 4 250 4 _c
_cl}_e}_d
/equal{{777 0 56 133 721 367 _sc
75 133 _m
69 133 65 135 61 139 _c
57 143 56 148 56 153 _c
56 158 57 163 61 167 _c
65 171 69 173 75 173 _c
703 173 _l
707 173 711 171 715 167 _c
719 163 721 158 721 153 _c
721 148 719 143 715 139 _c
711 135 707 133 703 133 _c
75 133 _l
75 327 _m
69 327 65 329 61 333 _c
57 337 56 341 56 347 _c
56 351 57 356 61 360 _c
}_e{65 364 69 367 75 367 _c
703 367 _l
707 367 711 364 715 360 _c
719 356 721 351 721 347 _c
721 341 719 337 715 333 _c
711 329 707 327 703 327 _c
75 327 _l
_cl}_e}_d
/two{{500 0 50 0 449 666 _sc
50 0 _m
50 27 _l
50 28 50 30 52 32 _c
207 204 _l
230 229 249 250 264 268 _c
278 285 293 305 307 327 _c
321 349 333 372 341 396 _c
349 419 354 444 354 470 _c
354 497 349 523 339 548 _c
329 573 314 593 294 608 _c
274 623 249 631 221 631 _c
192 631 166 622 143 605 _c
119 587 103 565 94 537 _c
96 537 100 538 105 538 _c
}_e{119 538 132 533 143 523 _c
153 513 159 500 159 484 _c
159 468 153 455 143 445 _c
132 434 119 429 105 429 _c
89 429 76 434 66 445 _c
55 456 50 469 50 484 _c
50 508 54 532 64 554 _c
73 576 86 595 104 613 _c
122 630 142 643 164 652 _c
186 661 210 666 236 666 _c
274 666 309 658 342 642 _c
375 626 401 603 420 573 _c
439 543 449 509 449 470 _c
}_e{449 441 442 414 430 388 _c
417 362 401 338 381 317 _c
361 295 336 271 305 244 _c
274 217 254 199 244 190 _c
131 81 _l
227 81 _l
274 81 313 81 345 82 _c
377 82 394 84 396 86 _c
404 94 412 125 420 178 _c
449 178 _l
421 0 _l
50 0 _l
_cl}_e}_d
/parenright{{388 0 56 -249 291 750 _sc
65 -249 _m
59 -249 56 -246 56 -240 _c
56 -237 56 -235 58 -234 _c
172 -122 229 38 229 250 _c
229 462 172 623 60 733 _c
57 734 56 737 56 741 _c
56 743 57 745 59 747 _c
61 749 63 750 65 750 _c
74 750 _l
76 750 77 749 79 748 _c
127 710 167 664 199 610 _c
231 556 254 498 269 437 _c
283 376 291 314 291 250 _c
291 202 287 156 279 110 _c
}_e{271 64 258 20 241 -24 _c
223 -68 201 -108 175 -146 _c
148 -184 116 -217 79 -247 _c
77 -248 76 -249 74 -249 _c
65 -249 _l
_cl}_e}_d
/one{500 0 87 0 421 666 _sc
93 0 _m
93 35 _l
176 35 218 45 218 67 _c
218 592 _l
183 575 139 567 87 567 _c
87 602 _l
168 602 230 623 272 666 _c
286 666 _l
288 666 291 665 293 663 _c
295 661 296 659 296 657 _c
296 67 _l
296 45 337 35 421 35 _c
421 0 _l
93 0 _l
_cl}_d
/parenleft{{388 0 97 -249 332 750 _sc
310 -247 _m
272 -217 240 -184 214 -146 _c
187 -108 165 -67 148 -25 _c
131 17 118 62 110 109 _c
101 155 97 202 97 250 _c
97 298 101 345 110 392 _c
118 438 131 483 149 527 _c
166 570 188 611 215 649 _c
242 687 274 720 310 748 _c
310 749 311 750 315 750 _c
324 750 _l
326 750 327 749 329 747 _c
331 745 332 743 332 741 _c
332 738 331 736 330 735 _c
}_e{297 703 270 668 248 632 _c
226 596 209 557 196 516 _c
183 474 174 432 168 388 _c
162 344 159 298 159 250 _c
159 38 215 -122 329 -232 _c
331 -234 332 -236 332 -240 _c
332 -242 331 -244 329 -246 _c
327 -248 326 -249 324 -249 _c
315 -249 _l
311 -249 310 -248 310 -247 _c
_cl}_e}_d
/five{{500 0 50 -21 449 666 _sc
87 114 _m
93 94 104 76 118 60 _c
132 44 149 32 169 23 _c
188 14 208 10 229 10 _c
277 10 310 28 328 66 _c
346 103 356 148 356 202 _c
356 225 355 244 355 260 _c
354 276 352 291 348 306 _c
342 329 331 349 315 367 _c
299 385 281 394 259 394 _c
236 394 217 390 201 384 _c
185 377 171 369 161 360 _c
151 350 142 341 134 331 _c
}_e{126 321 122 315 120 315 _c
109 315 _l
107 315 104 316 102 318 _c
100 320 99 322 99 324 _c
99 658 _l
99 660 100 661 102 663 _c
104 665 106 666 109 666 _c
112 666 _l
156 644 204 634 255 634 _c
304 634 352 644 398 666 _c
401 666 _l
403 666 405 665 407 663 _c
409 661 410 660 410 658 _c
410 649 _l
410 645 409 644 408 644 _c
385 614 356 590 322 573 _c
}_e{288 556 252 548 216 548 _c
189 548 162 551 134 559 _c
134 370 _l
156 388 175 400 193 408 _c
210 416 232 420 260 420 _c
296 420 329 409 358 388 _c
387 366 409 339 425 305 _c
441 271 449 236 449 201 _c
449 161 439 124 419 90 _c
399 56 373 29 339 9 _c
305 -11 269 -21 229 -21 _c
196 -21 166 -12 138 4 _c
110 20 89 43 73 72 _c
57 100 50 131 50 163 _c
}_e{50 178 54 190 64 200 _c
74 209 86 214 101 214 _c
115 214 128 209 138 199 _c
148 189 153 177 153 163 _c
153 149 148 137 138 127 _c
128 117 115 112 101 112 _c
99 112 96 112 93 112 _c
90 112 88 113 87 114 _c
_cl}_e}_d
end readonly def

/BuildGlyph
 {exch begin
 CharStrings exch
 2 copy known not{pop /.notdef}if
 true 3 1 roll get exec
 end}_d

/BuildChar {
 1 index /Encoding get exch get
 1 index /BuildGlyph get exec
}_d

FontName currentdict end definefont pop
%!PS-Adobe-3.0 Resource-Font
%%Title: DejaVu Sans
%%Copyright: Copyright (c) 2003 by Bitstream, Inc. All Rights Reserved. Copyright (c) 2006 by Tavmjong Bah. All Rights Reserved. DejaVu changes are in public domain 
%%Creator: Converted from TrueType to type 3 by PPR
25 dict begin
/_d{bind def}bind def
/_m{moveto}_d
/_l{lineto}_d
/_cl{closepath eofill}_d
/_c{curveto}_d
/_sc{7 -1 roll{setcachedevice}{pop pop pop pop pop pop}ifelse}_d
/_e{exec}_d
/FontName /DejaVuSans def
/PaintType 0 def
/FontMatrix[.001 0 0 .001 0 0]def
/FontBBox[-1021 -415 1681 1167]def
/FontType 3 def
/Encoding [ /space /parenleft /parenright /period /zero /one /two /three /four /five /six /eight /colon /C /E /O /S /a /b /c /e /h /i /m /n /o /p /r /s /t /v /x /y /minus ] def
/FontInfo 10 dict dup begin
/FamilyName (DejaVu Sans) def
/FullName (DejaVu Sans) def
/Notice (Copyright (c) 2003 by Bitstream, Inc. All Rights Reserved. Copyright (c) 2006 by Tavmjong Bah. All Rights Reserved. DejaVu changes are in public domain ) def
/Weight (Book) def
/Version (Version 2.33) def
/ItalicAngle 0.0 def
/isFixedPitch false def
/UnderlinePosition -130 def
/UnderlineThickness 90 def
end readonly def
/CharStrings 34 dict dup begin
/space{318 0 0 0 0 0 _sc
}_d
/parenleft{390 0 86 -131 310 759 _sc
310 759 _m
266 683 234 609 213 536 _c
191 463 181 389 181 314 _c
181 238 191 164 213 91 _c
234 17 266 -56 310 -131 _c
232 -131 _l
183 -54 146 20 122 94 _c
98 168 86 241 86 314 _c
86 386 98 459 122 533 _c
146 607 182 682 232 759 _c
310 759 _l
_cl}_d
/parenright{390 0 80 -131 304 759 _sc
80 759 _m
158 759 _l
206 682 243 607 267 533 _c
291 459 304 386 304 314 _c
304 241 291 168 267 94 _c
243 20 206 -54 158 -131 _c
80 -131 _l
123 -56 155 17 177 91 _c
198 164 209 238 209 314 _c
209 389 198 463 177 536 _c
155 609 123 683 80 759 _c
_cl}_d
/period{318 0 107 0 210 124 _sc
107 124 _m
210 124 _l
210 0 _l
107 0 _l
107 124 _l
_cl}_d
/zero{636 0 66 -13 570 742 _sc
318 664 _m
267 664 229 639 203 589 _c
177 539 165 464 165 364 _c
165 264 177 189 203 139 _c
229 89 267 64 318 64 _c
369 64 407 89 433 139 _c
458 189 471 264 471 364 _c
471 464 458 539 433 589 _c
407 639 369 664 318 664 _c
318 742 _m
399 742 461 709 505 645 _c
548 580 570 486 570 364 _c
570 241 548 147 505 83 _c
461 19 399 -13 318 -13 _c
236 -13 173 19 130 83 _c
87 147 66 241 66 364 _c
66 486 87 580 130 645 _c
173 709 236 742 318 742 _c
_cl}_d
/one{636 0 110 0 544 729 _sc
124 83 _m
285 83 _l
285 639 _l
110 604 _l
110 694 _l
284 729 _l
383 729 _l
383 83 _l
544 83 _l
544 0 _l
124 0 _l
124 83 _l
_cl}_d
/two{{636 0 73 0 536 742 _sc
192 83 _m
536 83 _l
536 0 _l
73 0 _l
73 83 _l
110 121 161 173 226 239 _c
290 304 331 346 348 365 _c
380 400 402 430 414 455 _c
426 479 433 504 433 528 _c
433 566 419 598 392 622 _c
365 646 330 659 286 659 _c
255 659 222 653 188 643 _c
154 632 117 616 78 594 _c
78 694 _l
118 710 155 722 189 730 _c
223 738 255 742 284 742 _c
}_e{359 742 419 723 464 685 _c
509 647 532 597 532 534 _c
532 504 526 475 515 449 _c
504 422 484 390 454 354 _c
446 344 420 317 376 272 _c
332 227 271 164 192 83 _c
_cl}_e}_d
/three{{636 0 76 -13 556 742 _sc
406 393 _m
453 383 490 362 516 330 _c
542 298 556 258 556 212 _c
556 140 531 84 482 45 _c
432 6 362 -13 271 -13 _c
240 -13 208 -10 176 -4 _c
144 1 110 10 76 22 _c
76 117 _l
103 101 133 89 166 81 _c
198 73 232 69 268 69 _c
330 69 377 81 409 105 _c
441 129 458 165 458 212 _c
458 254 443 288 413 312 _c
383 336 341 349 287 349 _c
}_e{202 349 _l
202 430 _l
291 430 _l
339 430 376 439 402 459 _c
428 478 441 506 441 543 _c
441 580 427 609 401 629 _c
374 649 336 659 287 659 _c
260 659 231 656 200 650 _c
169 644 135 635 98 623 _c
98 711 _l
135 721 170 729 203 734 _c
235 739 266 742 296 742 _c
370 742 429 725 473 691 _c
517 657 539 611 539 553 _c
539 513 527 479 504 451 _c
481 423 448 403 406 393 _c
_cl}_e}_d
/four{636 0 49 0 580 729 _sc
378 643 _m
129 254 _l
378 254 _l
378 643 _l
352 729 _m
476 729 _l
476 254 _l
580 254 _l
580 172 _l
476 172 _l
476 0 _l
378 0 _l
378 172 _l
49 172 _l
49 267 _l
352 729 _l
_cl}_d
/five{{636 0 77 -13 549 729 _sc
108 729 _m
495 729 _l
495 646 _l
198 646 _l
198 467 _l
212 472 227 476 241 478 _c
255 480 270 482 284 482 _c
365 482 429 459 477 415 _c
525 370 549 310 549 234 _c
549 155 524 94 475 51 _c
426 8 357 -13 269 -13 _c
238 -13 207 -10 175 -6 _c
143 -1 111 6 77 17 _c
77 116 _l
106 100 136 88 168 80 _c
199 72 232 69 267 69 _c
}_e{323 69 368 83 401 113 _c
433 143 450 183 450 234 _c
450 284 433 324 401 354 _c
368 384 323 399 267 399 _c
241 399 214 396 188 390 _c
162 384 135 375 108 363 _c
108 729 _l
_cl}_e}_d
/six{{636 0 70 -13 573 742 _sc
330 404 _m
286 404 251 388 225 358 _c
199 328 186 286 186 234 _c
186 181 199 139 225 109 _c
251 79 286 64 330 64 _c
374 64 409 79 435 109 _c
461 139 474 181 474 234 _c
474 286 461 328 435 358 _c
409 388 374 404 330 404 _c
526 713 _m
526 623 _l
501 635 476 644 451 650 _c
425 656 400 659 376 659 _c
310 659 260 637 226 593 _c
}_e{192 549 172 482 168 394 _c
187 422 211 444 240 459 _c
269 474 301 482 336 482 _c
409 482 467 459 509 415 _c
551 371 573 310 573 234 _c
573 159 550 99 506 54 _c
462 9 403 -13 330 -13 _c
246 -13 181 19 137 83 _c
92 147 70 241 70 364 _c
70 479 97 571 152 639 _c
206 707 280 742 372 742 _c
396 742 421 739 447 735 _c
472 730 498 723 526 713 _c
_cl}_e}_d
/eight{{636 0 68 -13 568 742 _sc
318 346 _m
271 346 234 333 207 308 _c
180 283 167 249 167 205 _c
167 161 180 126 207 101 _c
234 76 271 64 318 64 _c
364 64 401 76 428 102 _c
455 127 469 161 469 205 _c
469 249 455 283 429 308 _c
402 333 365 346 318 346 _c
219 388 _m
177 398 144 418 120 447 _c
96 476 85 511 85 553 _c
85 611 105 657 147 691 _c
188 725 245 742 318 742 _c
}_e{390 742 447 725 489 691 _c
530 657 551 611 551 553 _c
551 511 539 476 515 447 _c
491 418 459 398 417 388 _c
464 377 501 355 528 323 _c
554 291 568 251 568 205 _c
568 134 546 80 503 43 _c
459 5 398 -13 318 -13 _c
237 -13 175 5 132 43 _c
89 80 68 134 68 205 _c
68 251 81 291 108 323 _c
134 355 171 377 219 388 _c
183 544 _m
183 506 194 476 218 455 _c
}_e{242 434 275 424 318 424 _c
360 424 393 434 417 455 _c
441 476 453 506 453 544 _c
453 582 441 611 417 632 _c
393 653 360 664 318 664 _c
275 664 242 653 218 632 _c
194 611 183 582 183 544 _c
_cl}_e}_d
/colon{337 0 117 0 220 517 _sc
117 124 _m
220 124 _l
220 0 _l
117 0 _l
117 124 _l
117 517 _m
220 517 _l
220 393 _l
117 393 _l
117 517 _l
_cl}_d
/C{{698 0 56 -13 644 742 _sc
644 673 _m
644 569 _l
610 599 575 622 537 638 _c
499 653 460 661 418 661 _c
334 661 270 635 226 584 _c
182 533 160 460 160 364 _c
160 268 182 194 226 143 _c
270 92 334 67 418 67 _c
460 67 499 74 537 90 _c
575 105 610 128 644 159 _c
644 56 _l
609 32 572 15 534 4 _c
496 -7 455 -13 412 -13 _c
302 -13 215 20 151 87 _c
}_e{87 154 56 246 56 364 _c
56 481 87 573 151 641 _c
215 708 302 742 412 742 _c
456 742 497 736 535 725 _c
573 713 610 696 644 673 _c
_cl}_e}_d
/E{632 0 98 0 568 729 _sc
98 729 _m
559 729 _l
559 646 _l
197 646 _l
197 430 _l
544 430 _l
544 347 _l
197 347 _l
197 83 _l
568 83 _l
568 0 _l
98 0 _l
98 729 _l
_cl}_d
/O{787 0 56 -13 731 742 _sc
394 662 _m
322 662 265 635 223 582 _c
181 528 160 456 160 364 _c
160 272 181 199 223 146 _c
265 92 322 66 394 66 _c
465 66 522 92 564 146 _c
606 199 627 272 627 364 _c
627 456 606 528 564 582 _c
522 635 465 662 394 662 _c
394 742 _m
496 742 577 707 639 639 _c
700 571 731 479 731 364 _c
731 248 700 157 639 89 _c
577 21 496 -13 394 -13 _c
291 -13 209 21 148 89 _c
86 157 56 248 56 364 _c
56 479 86 571 148 639 _c
209 707 291 742 394 742 _c
_cl}_d
/S{{635 0 66 -13 579 742 _sc
535 705 _m
535 609 _l
497 627 462 640 429 649 _c
395 657 363 662 333 662 _c
279 662 237 651 208 631 _c
179 610 165 580 165 542 _c
165 510 174 485 194 469 _c
213 452 250 439 304 429 _c
364 417 _l
437 403 491 378 526 343 _c
561 307 579 260 579 201 _c
579 130 555 77 508 41 _c
460 5 391 -13 300 -13 _c
265 -13 228 -9 189 -2 _c
}_e{150 5 110 16 69 32 _c
69 134 _l
109 111 148 94 186 83 _c
224 71 262 66 300 66 _c
356 66 399 77 430 99 _c
460 121 476 152 476 194 _c
476 230 465 258 443 278 _c
421 298 385 313 335 323 _c
275 335 _l
201 349 148 372 115 404 _c
82 435 66 478 66 534 _c
66 598 88 649 134 686 _c
179 723 242 742 322 742 _c
356 742 390 739 426 733 _c
461 727 497 717 535 705 _c
}_e{_cl}_e}_d
/a{{613 0 60 -13 522 560 _sc
343 275 _m
270 275 220 266 192 250 _c
164 233 150 205 150 165 _c
150 133 160 107 181 89 _c
202 70 231 61 267 61 _c
317 61 357 78 387 114 _c
417 149 432 196 432 255 _c
432 275 _l
343 275 _l
522 312 _m
522 0 _l
432 0 _l
432 83 _l
411 49 385 25 355 10 _c
325 -5 287 -13 243 -13 _c
187 -13 142 2 109 33 _c
76 64 60 106 60 159 _c
}_e{60 220 80 266 122 298 _c
163 329 224 345 306 345 _c
432 345 _l
432 354 _l
432 395 418 427 391 450 _c
364 472 326 484 277 484 _c
245 484 215 480 185 472 _c
155 464 127 453 100 439 _c
100 522 _l
132 534 164 544 195 550 _c
226 556 256 560 286 560 _c
365 560 424 539 463 498 _c
502 457 522 395 522 312 _c
_cl}_e}_d
/b{{635 0 91 -13 580 760 _sc
487 273 _m
487 339 473 390 446 428 _c
418 466 381 485 334 485 _c
286 485 249 466 222 428 _c
194 390 181 339 181 273 _c
181 207 194 155 222 117 _c
249 79 286 61 334 61 _c
381 61 418 79 446 117 _c
473 155 487 207 487 273 _c
181 464 _m
199 496 223 520 252 536 _c
281 552 316 560 356 560 _c
422 560 476 533 518 481 _c
559 428 580 359 580 273 _c
}_e{580 187 559 117 518 65 _c
476 13 422 -13 356 -13 _c
316 -13 281 -5 252 10 _c
223 25 199 49 181 82 _c
181 0 _l
91 0 _l
91 760 _l
181 760 _l
181 464 _l
_cl}_e}_d
/c{{550 0 55 -13 488 560 _sc
488 526 _m
488 442 _l
462 456 437 466 411 473 _c
385 480 360 484 334 484 _c
276 484 230 465 198 428 _c
166 391 150 339 150 273 _c
150 206 166 154 198 117 _c
230 80 276 62 334 62 _c
360 62 385 65 411 72 _c
437 79 462 90 488 104 _c
488 21 _l
462 9 436 0 410 -5 _c
383 -10 354 -13 324 -13 _c
242 -13 176 12 128 64 _c
}_e{79 115 55 185 55 273 _c
55 362 79 432 128 483 _c
177 534 244 560 330 560 _c
358 560 385 557 411 551 _c
437 545 463 537 488 526 _c
_cl}_e}_d
/e{{615 0 55 -13 562 560 _sc
562 296 _m
562 252 _l
149 252 _l
153 190 171 142 205 110 _c
238 78 284 62 344 62 _c
378 62 412 66 444 74 _c
476 82 509 95 541 113 _c
541 28 _l
509 14 476 3 442 -3 _c
408 -9 373 -13 339 -13 _c
251 -13 182 12 131 62 _c
80 112 55 181 55 268 _c
55 357 79 428 127 481 _c
175 533 241 560 323 560 _c
397 560 455 536 498 489 _c
}_e{540 441 562 377 562 296 _c
472 322 _m
471 371 457 410 431 440 _c
404 469 368 484 324 484 _c
274 484 234 469 204 441 _c
174 413 156 373 152 322 _c
472 322 _l
_cl}_e}_d
/h{634 0 91 0 549 760 _sc
549 330 _m
549 0 _l
459 0 _l
459 327 _l
459 379 448 417 428 443 _c
408 469 378 482 338 482 _c
289 482 251 466 223 435 _c
195 404 181 362 181 309 _c
181 0 _l
91 0 _l
91 760 _l
181 760 _l
181 462 _l
202 494 227 519 257 535 _c
286 551 320 560 358 560 _c
420 560 468 540 500 501 _c
532 462 549 405 549 330 _c
_cl}_d
/i{278 0 94 0 184 760 _sc
94 547 _m
184 547 _l
184 0 _l
94 0 _l
94 547 _l
94 760 _m
184 760 _l
184 646 _l
94 646 _l
94 760 _l
_cl}_d
/m{{974 0 91 0 889 560 _sc
520 442 _m
542 482 569 511 600 531 _c
631 550 668 560 711 560 _c
767 560 811 540 842 500 _c
873 460 889 403 889 330 _c
889 0 _l
799 0 _l
799 327 _l
799 379 789 418 771 444 _c
752 469 724 482 686 482 _c
639 482 602 466 575 435 _c
548 404 535 362 535 309 _c
535 0 _l
445 0 _l
445 327 _l
445 379 435 418 417 444 _c
398 469 369 482 331 482 _c
}_e{285 482 248 466 221 435 _c
194 404 181 362 181 309 _c
181 0 _l
91 0 _l
91 547 _l
181 547 _l
181 462 _l
201 495 226 520 255 536 _c
283 552 317 560 357 560 _c
397 560 430 550 458 530 _c
486 510 506 480 520 442 _c
_cl}_e}_d
/n{634 0 91 0 549 560 _sc
549 330 _m
549 0 _l
459 0 _l
459 327 _l
459 379 448 417 428 443 _c
408 469 378 482 338 482 _c
289 482 251 466 223 435 _c
195 404 181 362 181 309 _c
181 0 _l
91 0 _l
91 547 _l
181 547 _l
181 462 _l
202 494 227 519 257 535 _c
286 551 320 560 358 560 _c
420 560 468 540 500 501 _c
532 462 549 405 549 330 _c
_cl}_d
/o{612 0 55 -13 557 560 _sc
306 484 _m
258 484 220 465 192 427 _c
164 389 150 338 150 273 _c
150 207 163 156 191 118 _c
219 80 257 62 306 62 _c
354 62 392 80 420 118 _c
448 156 462 207 462 273 _c
462 337 448 389 420 427 _c
392 465 354 484 306 484 _c
306 560 _m
384 560 445 534 490 484 _c
534 433 557 363 557 273 _c
557 183 534 113 490 63 _c
445 12 384 -13 306 -13 _c
227 -13 165 12 121 63 _c
77 113 55 183 55 273 _c
55 363 77 433 121 484 _c
165 534 227 560 306 560 _c
_cl}_d
/p{{635 0 91 -207 580 560 _sc
181 82 _m
181 -207 _l
91 -207 _l
91 547 _l
181 547 _l
181 464 _l
199 496 223 520 252 536 _c
281 552 316 560 356 560 _c
422 560 476 533 518 481 _c
559 428 580 359 580 273 _c
580 187 559 117 518 65 _c
476 13 422 -13 356 -13 _c
316 -13 281 -5 252 10 _c
223 25 199 49 181 82 _c
487 273 _m
487 339 473 390 446 428 _c
418 466 381 485 334 485 _c
}_e{286 485 249 466 222 428 _c
194 390 181 339 181 273 _c
181 207 194 155 222 117 _c
249 79 286 61 334 61 _c
381 61 418 79 446 117 _c
473 155 487 207 487 273 _c
_cl}_e}_d
/r{411 0 91 0 411 560 _sc
411 463 _m
401 469 390 473 378 476 _c
366 478 353 480 339 480 _c
288 480 249 463 222 430 _c
194 397 181 350 181 288 _c
181 0 _l
91 0 _l
91 547 _l
181 547 _l
181 462 _l
199 495 224 520 254 536 _c
284 552 321 560 365 560 _c
371 560 378 559 386 559 _c
393 558 401 557 411 555 _c
411 463 _l
_cl}_d
/s{{521 0 54 -13 472 560 _sc
443 531 _m
443 446 _l
417 458 391 468 364 475 _c
336 481 308 485 279 485 _c
234 485 200 478 178 464 _c
156 450 145 430 145 403 _c
145 382 153 366 169 354 _c
185 342 217 330 265 320 _c
296 313 _l
360 299 405 279 432 255 _c
458 230 472 195 472 151 _c
472 100 452 60 412 31 _c
372 1 316 -13 246 -13 _c
216 -13 186 -10 154 -5 _c
}_e{122 0 89 8 54 20 _c
54 113 _l
87 95 120 82 152 74 _c
184 65 216 61 248 61 _c
290 61 323 68 346 82 _c
368 96 380 117 380 144 _c
380 168 371 187 355 200 _c
339 213 303 226 247 238 _c
216 245 _l
160 257 119 275 95 299 _c
70 323 58 356 58 399 _c
58 450 76 490 112 518 _c
148 546 200 560 268 560 _c
301 560 332 557 362 552 _c
391 547 418 540 443 531 _c
}_e{_cl}_e}_d
/t{392 0 27 0 368 702 _sc
183 702 _m
183 547 _l
368 547 _l
368 477 _l
183 477 _l
183 180 _l
183 135 189 106 201 94 _c
213 81 238 75 276 75 _c
368 75 _l
368 0 _l
276 0 _l
206 0 158 13 132 39 _c
106 65 93 112 93 180 _c
93 477 _l
27 477 _l
27 547 _l
93 547 _l
93 702 _l
183 702 _l
_cl}_d
/v{592 0 30 0 562 547 _sc
30 547 _m
125 547 _l
296 88 _l
467 547 _l
562 547 _l
357 0 _l
235 0 _l
30 547 _l
_cl}_d
/x{592 0 29 0 559 547 _sc
549 547 _m
351 281 _l
559 0 _l
453 0 _l
294 215 _l
135 0 _l
29 0 _l
241 286 _l
47 547 _l
153 547 _l
298 352 _l
443 547 _l
549 547 _l
_cl}_d
/y{592 0 30 -207 562 547 _sc
322 -50 _m
296 -114 271 -157 247 -177 _c
223 -197 191 -207 151 -207 _c
79 -207 _l
79 -132 _l
132 -132 _l
156 -132 175 -126 189 -114 _c
203 -102 218 -75 235 -31 _c
251 9 _l
30 547 _l
125 547 _l
296 119 _l
467 547 _l
562 547 _l
322 -50 _l
_cl}_d
/minus{838 0 106 272 732 355 _sc
106 355 _m
732 355 _l
732 272 _l
106 272 _l
106 355 _l
_cl}_d
end readonly def

/BuildGlyph
 {exch begin
 CharStrings exch
 2 copy known not{pop /.notdef}if
 true 3 1 roll get exec
 end}_d

/BuildChar {
 1 index /Encoding get exch get
 1 index /BuildGlyph get exec
}_d

FontName currentdict end definefont pop
%!PS-Adobe-3.0 Resource-Font
%%Title: cmmi10
%%Copyright: Copyright (C) 1994, Basil K. Malyshev. All Rights Reserved.012BaKoMa Fonts Collection, Level-B.
%%Creator: Converted from TrueType to type 3 by PPR
25 dict begin
/_d{bind def}bind def
/_m{moveto}_d
/_l{lineto}_d
/_cl{closepath eofill}_d
/_c{curveto}_d
/_sc{7 -1 roll{setcachedevice}{pop pop pop pop pop pop}ifelse}_d
/_e{exec}_d
/FontName /Cmmi10 def
/PaintType 0 def
/FontMatrix[.001 0 0 .001 0 0]def
/FontBBox[-34 -250 1048 750]def
/FontType 3 def
/Encoding [ /sigma /rho /comma /t /period /m /W /Y /s /slash /lscript /E ] def
/FontInfo 10 dict dup begin
/FamilyName (cmmi10) def
/FullName (cmmi10) def
/Notice (Copyright (C) 1994, Basil K. Malyshev. All Rights Reserved.012BaKoMa Fonts Collection, Level-B. ) def
/Weight (Regular) def
/Version (1.1/12-Nov-94) def
/ItalicAngle 0.0 def
/isFixedPitch false def
/UnderlinePosition -133 def
/UnderlineThickness 20 def
end readonly def
/CharStrings 12 dict dup begin
/sigma{{571 0 36 -10 568 431 _sc
187 -10 _m
157 -10 131 -3 108 10 _c
85 24 67 43 55 67 _c
42 91 36 118 36 147 _c
36 177 43 210 57 244 _c
71 278 90 310 114 338 _c
138 366 166 389 197 406 _c
227 422 259 431 291 431 _c
543 431 _l
549 431 555 428 560 424 _c
565 419 568 413 568 406 _c
568 396 564 387 557 380 _c
550 372 542 369 532 369 _c
410 369 _l
}_e{429 340 439 305 439 265 _c
439 231 432 198 419 166 _c
406 133 388 103 365 77 _c
342 50 315 29 284 13 _c
253 -2 221 -10 187 -10 _c
188 15 _m
224 15 257 29 285 58 _c
313 86 334 121 349 162 _c
364 203 372 241 372 277 _c
372 305 364 328 348 344 _c
332 360 310 369 282 369 _c
243 369 210 356 183 330 _c
156 304 136 271 122 232 _c
108 192 102 154 102 118 _c
}_e{102 89 109 65 124 45 _c
139 25 160 15 188 15 _c
_cl}_e}_d
/rho{{517 0 28 -215 504 442 _sc
28 -187 _m
28 -183 28 -180 29 -179 _c
128 219 _l
137 255 153 290 176 324 _c
199 358 227 387 260 409 _c
292 431 327 442 363 442 _c
391 442 416 434 438 419 _c
460 403 476 383 487 359 _c
498 335 504 308 504 279 _c
504 246 497 212 484 178 _c
470 144 452 112 429 84 _c
406 55 379 32 349 15 _c
319 -1 287 -10 254 -10 _c
234 -10 216 -4 199 6 _c
}_e{181 17 168 32 158 52 _c
99 -183 _l
97 -192 92 -200 84 -206 _c
76 -212 68 -215 58 -215 _c
50 -215 43 -212 37 -207 _c
31 -202 28 -195 28 -187 _c
256 15 _m
291 15 322 33 348 69 _c
374 105 394 148 408 197 _c
422 246 429 288 429 322 _c
429 347 423 369 412 388 _c
401 406 384 416 361 416 _c
331 416 306 405 284 383 _c
262 361 244 335 231 305 _c
217 275 206 245 198 213 _c
}_e{171 101 _l
175 77 184 56 199 40 _c
214 23 233 15 256 15 _c
_cl}_e}_d
/comma{277 0 84 -193 205 110 _sc
99 -179 _m
99 -176 100 -173 103 -171 _c
127 -147 145 -120 159 -90 _c
172 -60 179 -28 179 4 _c
179 16 _l
168 5 155 0 139 0 _c
123 0 110 5 100 16 _c
89 26 84 39 84 55 _c
84 71 89 84 100 94 _c
110 104 123 110 139 110 _c
163 110 180 99 190 77 _c
200 55 205 30 205 4 _c
205 -32 197 -67 183 -101 _c
168 -134 147 -164 120 -191 _c
117 -192 115 -193 114 -193 _c
110 -193 107 -191 104 -188 _c
100 -185 99 -182 99 -179 _c
_cl}_d
/t{{361 0 22 -10 330 626 _sc
62 81 _m
62 91 63 100 65 109 _c
137 396 _l
32 396 _l
25 396 22 400 22 409 _c
24 423 29 431 35 431 _c
146 431 _l
186 594 _l
188 602 193 610 201 616 _c
209 622 218 626 228 626 _c
236 626 243 623 249 618 _c
255 613 258 606 258 598 _c
258 596 257 594 257 593 _c
257 592 257 591 257 590 _c
217 431 _l
320 431 _l
326 431 330 426 330 418 _c
}_e{330 416 329 414 328 410 _c
327 406 326 402 324 400 _c
322 397 320 396 317 396 _c
208 396 _l
136 107 _l
131 88 129 72 129 58 _c
129 29 138 15 158 15 _c
187 15 213 28 236 56 _c
258 84 276 114 288 147 _c
290 151 293 153 296 153 _c
308 153 _l
310 153 312 152 314 150 _c
316 148 317 146 317 144 _c
317 142 316 141 316 141 _c
301 101 280 65 252 35 _c
}_e{224 5 192 -10 156 -10 _c
129 -10 107 -1 89 15 _c
71 32 62 54 62 81 _c
_cl}_e}_d
/period{277 0 84 0 194 110 _sc
84 55 _m
84 70 89 83 100 94 _c
111 104 124 110 139 110 _c
148 110 157 107 166 102 _c
174 97 181 90 186 82 _c
191 73 194 64 194 55 _c
194 40 188 27 178 16 _c
167 5 154 0 139 0 _c
124 0 111 5 100 16 _c
89 27 84 40 84 55 _c
_cl}_d
/m{{878 0 27 -10 851 442 _sc
77 17 _m
77 21 77 24 78 26 _c
153 324 _l
157 342 160 359 160 373 _c
160 401 150 416 131 416 _c
110 416 94 403 84 378 _c
74 353 64 322 55 284 _c
55 282 54 280 52 279 _c
50 278 48 278 47 278 _c
35 278 _l
33 278 31 279 29 281 _c
27 283 27 286 27 288 _c
34 317 41 342 48 362 _c
54 382 65 400 79 417 _c
}_e{93 433 110 442 132 442 _c
156 442 178 434 198 418 _c
217 402 227 382 227 358 _c
247 384 270 404 297 419 _c
323 434 352 442 382 442 _c
413 442 440 434 463 418 _c
486 402 498 379 498 349 _c
518 378 542 401 570 417 _c
597 433 627 442 660 442 _c
694 442 722 432 743 414 _c
764 395 775 368 775 334 _c
775 306 768 273 756 235 _c
744 196 729 153 711 105 _c
}_e{701 81 697 61 697 45 _c
697 25 704 15 720 15 _c
746 15 767 29 785 57 _c
802 85 814 115 822 147 _c
824 151 826 153 830 153 _c
842 153 _l
844 153 846 152 848 150 _c
850 148 851 146 851 144 _c
851 143 850 142 850 141 _c
840 103 824 68 802 37 _c
780 5 752 -10 718 -10 _c
694 -10 674 -2 658 13 _c
641 29 633 48 633 72 _c
633 83 635 96 641 111 _c
}_e{659 161 675 205 688 245 _c
700 284 707 319 707 349 _c
707 367 703 383 696 396 _c
688 409 676 416 658 416 _c
622 416 590 404 563 382 _c
536 360 513 330 494 294 _c
492 287 491 282 491 279 _c
427 22 _l
424 12 419 5 411 -1 _c
403 -7 394 -10 385 -10 _c
377 -10 370 -7 364 -3 _c
358 1 355 8 355 17 _c
355 21 355 24 356 26 _c
420 281 _l
426 308 430 331 430 349 _c
}_e{430 367 426 383 418 396 _c
410 409 398 416 380 416 _c
355 416 332 410 312 400 _c
292 389 274 375 259 357 _c
243 339 229 318 217 294 _c
149 22 _l
147 12 142 5 134 -1 _c
126 -7 117 -10 107 -10 _c
99 -10 92 -7 86 -3 _c
80 1 77 8 77 17 _c
_cl}_e}_d
/W{{944 0 54 -21 1048 683 _sc
178 -10 _m
132 626 _l
129 636 121 642 109 644 _c
97 646 82 648 64 648 _c
57 648 54 652 54 661 _c
56 669 58 675 60 678 _c
61 681 65 683 71 683 _c
309 683 _l
315 683 319 678 319 670 _c
316 655 312 648 306 648 _c
252 648 224 638 221 620 _c
257 115 _l
507 551 _l
502 626 _l
500 636 492 642 480 644 _c
467 646 452 648 434 648 _c
}_e{427 648 424 652 424 661 _c
426 669 427 675 429 678 _c
430 681 434 683 441 683 _c
679 683 _l
685 683 689 678 689 670 _c
688 668 687 665 687 661 _c
686 657 685 654 683 652 _c
681 649 679 648 676 648 _c
622 648 593 638 591 620 _c
591 613 _l
627 115 _l
899 590 _l
903 597 905 604 905 611 _c
905 624 898 633 885 639 _c
871 645 856 648 840 648 _c
833 648 830 652 830 661 _c
}_e{831 666 832 670 833 673 _c
833 676 835 678 837 680 _c
839 682 843 683 847 683 _c
1038 683 _l
1044 683 1048 678 1048 670 _c
1047 668 1046 665 1045 661 _c
1044 657 1043 653 1041 651 _c
1039 649 1037 648 1035 648 _c
987 648 951 626 927 583 _c
925 581 924 580 924 580 _c
585 -10 _l
581 -17 576 -21 568 -21 _c
560 -21 _l
552 -21 548 -17 548 -10 _c
510 504 _l
216 -10 _l
}_e{210 -17 204 -21 198 -21 _c
190 -21 _l
182 -21 178 -17 178 -10 _c
_cl}_e}_d
/Y{{580 0 33 0 763 683 _sc
89 13 _m
89 15 89 17 90 21 _c
91 25 92 28 94 31 _c
96 33 98 35 102 35 _c
142 35 171 37 187 42 _c
190 42 193 44 196 48 _c
198 52 200 56 202 60 _c
204 64 205 68 207 72 _c
257 273 _l
128 628 _l
122 636 111 642 96 644 _c
80 646 63 648 43 648 _c
36 648 33 652 33 661 _c
35 669 36 674 38 678 _c
}_e{40 681 44 683 50 683 _c
302 683 _l
308 683 311 678 311 670 _c
308 655 304 648 298 648 _c
250 648 227 640 227 626 _c
340 318 _l
576 591 _l
577 594 579 598 583 603 _c
586 607 588 611 590 615 _c
592 618 593 622 593 626 _c
593 640 579 648 552 648 _c
545 648 542 652 542 661 _c
543 666 544 670 545 673 _c
545 676 547 678 549 680 _c
551 682 555 683 559 683 _c
753 683 _l
}_e{755 683 758 681 760 678 _c
762 675 763 672 763 670 _c
761 665 760 661 760 659 _c
759 657 758 654 756 652 _c
754 649 752 648 749 648 _c
722 648 697 642 673 630 _c
649 618 629 602 611 582 _c
610 581 609 580 608 580 _c
607 580 606 579 606 578 _c
342 273 _l
290 66 _l
290 64 289 61 289 58 _c
288 55 288 53 288 51 _c
288 48 288 46 289 44 _c
290 42 291 41 293 41 _c
}_e{294 40 296 39 300 39 _c
312 36 336 35 372 35 _c
378 35 382 30 382 22 _c
379 12 377 6 376 4 _c
375 1 371 0 365 0 _c
99 0 _l
92 0 89 4 89 13 _c
_cl}_e}_d
/s{{468 0 52 -10 419 442 _sc
87 61 _m
105 30 141 15 195 15 _c
218 15 240 19 261 27 _c
282 35 300 47 314 63 _c
328 79 335 98 335 121 _c
335 138 328 152 316 163 _c
304 174 289 182 271 186 _c
217 197 _l
192 203 172 214 156 231 _c
140 248 132 269 132 293 _c
132 322 140 348 156 371 _c
172 394 193 412 219 424 _c
245 436 273 442 302 442 _c
332 442 359 434 383 420 _c
}_e{407 405 419 384 419 356 _c
419 340 414 327 406 315 _c
397 303 385 298 370 298 _c
361 298 353 300 347 306 _c
341 312 338 319 338 328 _c
338 336 340 343 344 351 _c
348 358 354 364 362 368 _c
369 372 377 375 385 375 _c
379 389 368 399 352 406 _c
336 412 318 416 300 416 _c
282 416 265 412 249 406 _c
232 399 218 389 208 376 _c
198 362 193 347 193 329 _c
}_e{193 317 197 306 205 297 _c
213 288 224 282 237 278 _c
295 266 _l
313 262 330 255 346 245 _c
361 235 373 222 382 207 _c
391 192 396 175 396 156 _c
396 131 389 106 375 82 _c
361 58 344 39 324 25 _c
288 1 245 -10 194 -10 _c
158 -10 126 -2 96 14 _c
66 30 52 54 52 86 _c
52 104 57 119 67 133 _c
77 147 92 154 111 154 _c
121 154 130 150 138 144 _c
}_e{145 137 149 128 149 118 _c
149 102 143 89 132 78 _c
120 66 107 61 92 61 _c
87 61 _l
_cl}_e}_d
/slash{500 0 56 -249 443 750 _sc
56 -229 _m
56 -227 56 -225 57 -225 _c
405 738 _l
406 742 408 745 412 747 _c
415 749 419 750 423 750 _c
429 750 433 748 437 744 _c
441 740 443 736 443 730 _c
443 726 _l
95 -237 _l
91 -245 84 -249 76 -249 _c
70 -249 66 -247 62 -243 _c
58 -239 56 -234 56 -229 _c
_cl}_d
/lscript{{416 0 10 -14 398 705 _sc
24 74 _m
21 74 18 75 15 79 _c
11 83 10 86 10 90 _c
10 95 37 123 93 174 _c
93 176 92 179 92 181 _c
92 183 92 185 92 187 _c
92 215 94 244 98 274 _c
102 304 109 333 117 363 _c
125 393 135 424 147 456 _c
159 488 172 517 184 541 _c
205 585 228 623 254 656 _c
279 688 307 705 339 705 _c
360 705 375 697 384 683 _c
}_e{393 669 398 651 398 629 _c
398 507 317 363 155 198 _c
152 169 151 149 151 137 _c
151 53 170 12 208 12 _c
224 12 240 16 256 25 _c
272 33 286 43 298 53 _c
309 63 325 78 346 98 _c
347 99 349 100 352 100 _c
355 100 358 98 362 94 _c
365 90 367 86 367 83 _c
367 81 365 78 363 76 _c
333 47 306 25 282 9 _c
258 -6 233 -14 206 -14 _c
}_e{170 -14 144 1 127 31 _c
110 61 99 96 95 138 _c
77 120 55 99 30 76 _c
29 74 27 74 24 74 _c
163 246 _m
198 284 231 323 262 365 _c
293 407 319 451 340 497 _c
360 543 371 588 371 632 _c
371 663 360 679 338 679 _c
314 679 289 650 265 594 _c
240 537 219 476 201 410 _c
183 344 171 289 163 246 _c
_cl}_e}_d
/E{{738 0 37 0 764 683 _sc
47 0 _m
40 0 37 4 37 13 _c
37 15 38 18 39 22 _c
40 26 41 29 43 31 _c
45 33 47 35 50 35 _c
90 35 119 37 135 42 _c
143 44 150 53 154 69 _c
291 618 _l
292 624 293 629 293 632 _c
293 639 289 643 281 644 _c
268 646 244 648 209 648 _c
202 648 199 652 199 661 _c
199 663 200 666 201 670 _c
202 674 203 677 205 679 _c
}_e{207 681 209 683 212 683 _c
754 683 _l
760 683 764 678 764 670 _c
740 463 _l
740 461 738 459 736 457 _c
734 455 732 454 730 454 _c
721 454 _l
714 454 711 458 711 467 _c
715 499 717 523 717 539 _c
717 565 712 586 703 601 _c
693 616 681 627 666 633 _c
651 639 634 643 616 645 _c
598 647 574 648 544 648 _c
430 648 _l
412 648 400 646 394 643 _c
388 640 382 630 378 614 _c
}_e{318 372 _l
396 372 _l
430 372 455 374 473 379 _c
490 383 504 393 514 408 _c
524 423 533 447 541 480 _c
541 482 542 484 544 486 _c
546 488 548 489 551 489 _c
560 489 _l
566 489 570 484 570 476 _c
508 229 _l
506 223 503 220 498 220 _c
489 220 _l
482 220 479 224 479 233 _c
485 259 489 279 489 292 _c
489 311 480 323 462 329 _c
444 334 421 337 392 337 _c
309 337 _l
}_e{241 65 _l
238 57 237 49 237 43 _c
237 37 248 35 271 35 _c
392 35 _l
440 35 479 38 509 46 _c
539 54 563 66 583 82 _c
603 98 620 119 634 145 _c
648 170 666 207 687 256 _c
688 260 691 262 696 262 _c
705 262 _l
707 262 710 260 712 258 _c
714 256 715 253 715 251 _c
715 249 714 248 714 247 _c
611 6 _l
609 2 607 0 603 0 _c
47 0 _l
_cl}_e}_d
end readonly def

/BuildGlyph
 {exch begin
 CharStrings exch
 2 copy known not{pop /.notdef}if
 true 3 1 roll get exec
 end}_d

/BuildChar {
 1 index /Encoding get exch get
 1 index /BuildGlyph get exec
}_d

FontName currentdict end definefont pop
end
%%EndProlog
mpldict begin
13.5 175.5 translate
585 441 0 0 clipbox
gsave
0 0 m
585 0 l
585 441 l
0 441 l
cl
1.000 setgray
fill
grestore
gsave
73.125 236.536 m
526.5 236.536 l
526.5 396.9 l
73.125 396.9 l
cl
1.000 setgray
fill
grestore
2.000 setlinewidth
1 setlinejoin
2 setlinecap
[] 0 setdash
1.000 0.000 0.000 setrgbcolor
gsave
453.4 160.4 73.12 236.5 clipbox
73.125 315.647 m
73.5784 322.889 l
74.0318 325.355 l
74.4851 320.469 l
74.9385 324.354 l
75.3919 324.539 l
75.8452 328.6 l
76.2986 330.974 l
76.752 325.149 l
77.2054 328.227 l
77.6587 326.953 l
78.1121 331.33 l
78.5655 332.04 l
79.0189 330.876 l
79.4723 337.014 l
79.9256 335.238 l
80.379 332.717 l
80.8324 334.262 l
81.2858 332.332 l
81.7391 339.453 l
82.1925 341.048 l
82.6459 349.592 l
83.0992 341.241 l
83.5526 346.23 l
84.006 344.377 l
84.4594 337.612 l
84.9128 328.65 l
85.3661 333.331 l
85.8195 336.444 l
86.2729 328.079 l
86.7262 328.33 l
87.1796 335.669 l
87.633 337.172 l
88.0864 343.117 l
88.5397 345.514 l
89.4465 355.821 l
89.8999 370.625 l
90.3533 379.052 l
90.8066 380.821 l
91.26 392.518 l
91.7134 383.893 l
92.1668 378.403 l
92.6201 386.908 l
93.0735 388.966 l
93.5269 384.223 l
93.9802 385.714 l
94.4336 381.765 l
94.887 384.045 l
95.3404 382.657 l
95.7938 384.901 l
96.2471 392.548 l
96.7005 392.05 l
97.6072 379.129 l
98.0606 383.268 l
98.514 382.789 l
98.9674 379.782 l
99.4207 370.204 l
99.8741 364.304 l
101.688 331.623 l
102.141 330.509 l
102.594 341.702 l
103.048 347.095 l
103.501 359.337 l
103.954 361.595 l
105.315 352.455 l
105.768 347.065 l
106.221 348.017 l
107.128 357.509 l
107.582 352.91 l
108.488 360.641 l
108.942 367.425 l
109.395 378.276 l
109.848 384.971 l
110.302 389.101 l
110.755 387.464 l
111.209 394.399 l
112.115 381.346 l
112.569 390.034 l
113.022 388.967 l
113.475 381.347 l
113.929 377.393 l
114.382 369.049 l
114.835 357.252 l
115.742 345.702 l
116.196 347.779 l
116.649 351.708 l
117.102 354.462 l
117.556 345.158 l
118.009 338.798 l
118.463 340.26 l
118.916 345.515 l
119.369 348.061 l
119.823 346.661 l
120.276 336.963 l
120.729 333.375 l
121.636 336.615 l
122.09 344.046 l
122.543 342.166 l
122.996 339.478 l
123.45 338.358 l
123.903 339.742 l
124.356 341.817 l
124.81 346.697 l
125.263 353.652 l
125.716 351.432 l
127.077 328.259 l
127.53 327.965 l
127.983 322.525 l
128.437 323.582 l
128.89 330.22 l
129.344 342.122 l
129.797 343.802 l
130.25 348.575 l
130.704 348.282 l
131.157 348.497 l
131.61 351.061 l
132.064 349.106 l
132.517 352.361 l
132.971 356.606 l
133.424 359.257 l
133.877 364.247 l
134.331 364.359 l
134.784 367.155 l
135.237 362.54 l
135.691 362.824 l
136.144 363.874 l
136.597 361.015 l
137.051 360.084 l
137.504 353.434 l
137.958 352.898 l
138.411 349.805 l
138.864 353.117 l
139.318 350.777 l
139.771 350.214 l
140.225 342.101 l
140.678 344.191 l
141.131 350.513 l
141.585 351.322 l
142.038 347.93 l
142.491 346.7 l
142.945 338.142 l
143.398 338.525 l
144.305 319.35 l
145.212 313.395 l
145.665 302.329 l
146.118 297.103 l
147.025 300.919 l
147.478 307.139 l
147.932 308.872 l
148.385 305.636 l
148.839 291.669 l
149.292 287.882 l
149.745 276.715 l
150.199 282.932 l
151.106 308.083 l
151.559 313.181 l
152.466 332.679 l
152.919 347.913 l
153.372 352.548 l
153.826 353.131 l
154.279 355.581 l
154.733 347.618 l
155.639 344.978 l
156.093 334.302 l
156.546 330.629 l
156.999 324.472 l
157.453 327.338 l
157.906 336.664 l
158.36 339.118 l
158.813 331.583 l
159.72 322.639 l
160.173 326.354 l
160.626 331.825 l
161.987 355.91 l
162.44 356.332 l
162.893 355.008 l
163.347 344.916 l
163.8 341.998 l
164.253 332.501 l
164.707 327.326 l
165.16 329.715 l
166.067 321.17 l
166.52 326.209 l
166.974 327.644 l
167.427 327.667 l
168.334 321.737 l
168.787 322.709 l
169.24 335.305 l
169.694 333.675 l
170.147 331.421 l
170.601 333.381 l
171.054 339.712 l
171.507 340.054 l
171.961 337.365 l
172.414 332.925 l
172.868 333.814 l
173.321 335.428 l
173.774 339.276 l
174.681 355.972 l
175.134 359.973 l
175.588 370.147 l
176.041 376.659 l
176.948 353.903 l
177.855 345.779 l
178.308 345.897 l
178.761 346.441 l
179.215 345.222 l
179.668 351.289 l
180.122 350.991 l
180.575 338.542 l
181.028 342.119 l
181.935 332.368 l
182.388 332.124 l
182.842 336.84 l
183.295 340.36 l
184.202 325.52 l
184.655 312.062 l
185.109 313.442 l
185.562 312.632 l
186.015 312.883 l
186.922 307.191 l
187.375 301.167 l
187.829 305.575 l
188.282 294.937 l
188.736 290.902 l
189.189 293.334 l
190.096 287.077 l
190.549 295.846 l
191.002 296.457 l
191.456 296.07 l
191.909 297.987 l
192.363 301.726 l
192.816 310.986 l
193.723 324.2 l
194.176 327.824 l
194.63 326.514 l
195.083 326.458 l
195.536 320.568 l
195.99 317.559 l
196.443 315.8 l
196.896 316.104 l
197.35 314.135 l
197.803 326.684 l
198.257 323.872 l
198.71 316.108 l
199.163 318.146 l
199.617 315.051 l
200.07 316.902 l
200.523 316.14 l
200.977 328.237 l
201.43 323.221 l
201.883 326.333 l
202.337 322.798 l
202.79 333.788 l
203.244 341.407 l
203.697 351.478 l
204.15 357.887 l
204.604 355 l
205.057 344.081 l
205.511 340.603 l
205.964 335.148 l
206.417 332.153 l
206.871 332.984 l
207.324 331.185 l
207.777 332.149 l
208.684 336.564 l
209.138 332.467 l
209.591 346.273 l
210.044 346.669 l
210.498 344.006 l
210.951 335.407 l
211.404 338.941 l
211.858 331.977 l
212.311 329.842 l
212.764 330.234 l
213.218 337.274 l
213.671 331.789 l
214.125 321.809 l
215.031 312.258 l
215.485 313.817 l
215.938 319.158 l
216.392 318.243 l
216.845 315.877 l
217.298 316.538 l
217.752 324.009 l
218.205 326.8 l
218.658 327.851 l
219.112 329.447 l
219.565 326.641 l
220.019 330.375 l
220.472 324.289 l
220.925 320.045 l
221.379 319.267 l
221.832 311.965 l
222.285 316.293 l
222.739 317.761 l
223.192 312.546 l
223.645 316.063 l
224.552 326.391 l
225.006 330.532 l
225.459 325.786 l
225.912 326.306 l
226.366 327.519 l
226.819 330.694 l
227.273 329.445 l
227.726 333.247 l
228.179 326.079 l
229.086 323.187 l
229.539 322.173 l
229.993 318.459 l
230.446 318.931 l
230.9 320.449 l
231.353 315.279 l
231.806 311.386 l
232.26 316.324 l
232.713 318.475 l
233.166 322.49 l
233.62 322.334 l
234.073 313.003 l
234.526 315.576 l
234.98 313.858 l
235.887 327.634 l
236.34 332.384 l
236.793 332.674 l
237.247 336.458 l
237.7 338.683 l
238.154 342.785 l
238.607 348.828 l
239.06 362.181 l
239.514 364.416 l
239.967 364.051 l
240.42 365.818 l
240.874 363.949 l
241.327 366.121 l
241.781 374.233 l
242.234 371.901 l
242.687 378.684 l
243.141 381.663 l
243.594 387.74 l
244.047 386.994 l
244.501 383.486 l
244.954 375.117 l
245.407 369.663 l
245.861 359.334 l
246.314 361.103 l
246.768 364.319 l
247.674 381.669 l
248.128 377.834 l
249.035 355.598 l
249.488 353.629 l
249.941 347.352 l
250.395 344.356 l
250.848 342.607 l
251.301 336.846 l
252.208 342.827 l
252.662 344.824 l
253.115 345.609 l
253.568 345.774 l
254.022 336.873 l
254.475 331.779 l
254.928 328.664 l
255.382 330.552 l
256.288 305.798 l
256.742 299.346 l
257.195 318.351 l
258.102 326.077 l
258.555 325.269 l
259.009 333.574 l
259.462 346.364 l
259.916 350.214 l
260.369 346.482 l
260.822 346.812 l
261.276 344.041 l
261.729 345.365 l
262.182 355.397 l
262.636 355.635 l
263.089 359.931 l
263.543 353.181 l
263.996 348.246 l
264.903 335.1 l
265.356 331.375 l
265.809 330.243 l
266.263 330.249 l
266.716 329.861 l
267.169 333.737 l
267.623 332.627 l
268.53 343.708 l
268.983 341.969 l
269.436 341.427 l
269.89 345.919 l
270.343 353.434 l
270.797 356.763 l
271.25 352.303 l
271.703 355.253 l
273.063 369.51 l
273.517 375.179 l
273.97 376.603 l
274.423 371.845 l
274.877 370.352 l
275.33 361.07 l
275.784 357.971 l
276.69 340.36 l
277.144 340.956 l
278.05 328.294 l
278.504 327.195 l
278.957 324.702 l
279.411 320.71 l
280.317 344.188 l
280.771 345.616 l
281.224 349.991 l
281.678 344.011 l
282.131 336.455 l
282.584 332.467 l
283.038 323.412 l
283.491 318.1 l
283.944 318.704 l
284.398 322.83 l
284.851 329.908 l
285.305 332.739 l
285.758 332.902 l
286.211 328.11 l
286.665 330.556 l
287.118 327.211 l
287.571 325.897 l
288.025 320.238 l
288.478 320 l
288.932 311.65 l
289.385 299.08 l
289.838 299.215 l
290.292 295.314 l
290.745 295.159 l
291.198 298.201 l
291.652 298.597 l
292.105 296.826 l
292.558 297.951 l
293.012 306.523 l
293.465 310.033 l
293.919 319.347 l
294.372 315.834 l
294.825 309.066 l
295.279 311.947 l
295.732 313.188 l
296.186 315.749 l
297.546 310.359 l
297.999 312.321 l
298.452 310.903 l
299.812 300.695 l
300.266 300.658 l
300.719 302.627 l
301.626 318.261 l
302.079 317.928 l
302.533 322.019 l
302.986 321.413 l
303.44 319.164 l
303.893 310.919 l
304.346 310.025 l
305.706 286.566 l
306.16 288.548 l
306.613 291.267 l
307.067 295.887 l
307.52 307.513 l
307.973 312.117 l
308.427 313.048 l
308.88 314.646 l
309.333 320.3 l
309.787 322.687 l
310.24 327.156 l
311.6 361.117 l
312.054 368.441 l
312.507 370.027 l
313.414 364.524 l
313.867 369.026 l
314.774 357.767 l
315.227 353.851 l
315.681 356.709 l
316.587 354.152 l
317.041 346.21 l
317.494 333.703 l
317.947 328.645 l
318.401 316.544 l
318.854 310.247 l
319.308 305.742 l
319.761 304.918 l
320.214 310.938 l
321.121 307.604 l
321.575 304.481 l
322.028 305.382 l
323.388 319.597 l
323.841 322.794 l
324.295 316.589 l
324.748 312.249 l
325.202 310.143 l
325.655 315.953 l
326.562 302.457 l
327.015 308.281 l
327.468 300.876 l
327.922 299.302 l
328.375 301.146 l
328.829 304.101 l
329.282 306.305 l
329.735 304.222 l
330.189 304.464 l
330.642 296.514 l
331.095 294.476 l
332.002 286.85 l
332.456 292.836 l
332.909 292.398 l
333.362 292.551 l
333.816 300.544 l
334.269 300.765 l
334.722 301.614 l
335.176 311.322 l
335.629 311.565 l
336.083 311.257 l
336.536 312.054 l
337.443 324.909 l
337.896 325.407 l
338.349 330.053 l
338.803 344.908 l
339.256 350.481 l
340.163 344.323 l
340.616 343.993 l
341.07 338.038 l
341.523 336.642 l
341.976 333.819 l
342.883 322.42 l
343.337 324.946 l
343.79 321.939 l
344.243 312.302 l
344.697 306.724 l
345.15 298.343 l
345.603 282.128 l
346.51 262.732 l
346.964 264.143 l
347.417 260.809 l
347.87 265.327 l
348.324 260.728 l
348.777 260.285 l
349.23 255.95 l
349.684 260.593 l
350.591 285.636 l
351.044 283.161 l
351.497 287.174 l
351.951 287.189 l
352.404 286.071 l
352.857 289.994 l
353.311 295.99 l
353.764 304.735 l
354.218 310.948 l
354.671 307.16 l
355.124 306.441 l
355.578 314.978 l
356.031 326.435 l
356.484 331.878 l
356.938 341.902 l
357.391 346.633 l
357.845 346.259 l
358.298 338.646 l
358.751 333.72 l
359.658 346.865 l
360.111 350.574 l
360.565 347.464 l
361.018 358.684 l
361.471 355.095 l
361.925 354.841 l
362.378 351.706 l
362.832 350.783 l
363.285 350.292 l
363.738 349.392 l
364.192 357.239 l
364.645 354.255 l
365.099 350.474 l
365.552 343.07 l
366.005 344.101 l
366.459 342.687 l
366.912 338.399 l
367.365 342.995 l
367.819 345.157 l
368.272 346.095 l
368.726 343.115 l
369.179 337.579 l
369.632 328.669 l
370.086 315.69 l
370.539 314.598 l
370.992 316.083 l
371.446 316.131 l
371.899 319.323 l
372.353 309.671 l
372.806 316.557 l
373.259 318.908 l
373.713 324.897 l
374.166 327.815 l
374.619 334.76 l
375.073 345.622 l
375.526 343.778 l
375.98 347.915 l
376.433 347.676 l
376.886 345.483 l
377.34 346.775 l
377.793 355.881 l
378.246 359.365 l
378.7 360.514 l
379.153 372.045 l
379.607 371.729 l
380.06 366.891 l
380.513 357.077 l
380.967 355.243 l
381.42 342.723 l
381.873 337.38 l
382.327 336.145 l
383.233 356.874 l
383.687 361.318 l
384.14 352.202 l
384.594 346.902 l
385.047 337.146 l
385.5 336.165 l
385.954 330.586 l
386.407 335.601 l
386.861 338.828 l
387.314 340.836 l
387.767 334.689 l
388.221 325.519 l
388.674 313.637 l
389.581 300.274 l
390.034 292.62 l
390.488 287.464 l
390.941 288.002 l
391.394 285.397 l
391.848 291.719 l
392.301 301.047 l
392.754 306.99 l
393.208 319.972 l
393.661 341.954 l
394.115 346.045 l
394.568 341.715 l
395.021 341.148 l
395.475 337.917 l
395.928 335.647 l
396.381 334.489 l
396.835 326.537 l
397.288 325.158 l
397.742 322.417 l
398.648 333.282 l
399.555 356.449 l
400.008 353.7 l
400.462 363.235 l
400.915 367.257 l
401.369 357.011 l
401.822 354.547 l
402.275 358.613 l
402.729 353.151 l
403.182 352.389 l
403.635 348.244 l
404.089 342.493 l
404.995 327.204 l
405.449 331.327 l
405.902 330.587 l
406.356 331.449 l
406.809 324.267 l
407.262 326.982 l
407.716 331.599 l
408.169 325.968 l
409.076 332.858 l
409.529 326.436 l
409.983 321.959 l
410.436 320.627 l
410.889 314.581 l
411.343 311.658 l
411.796 310.246 l
412.25 311.356 l
412.703 312.996 l
414.063 321.156 l
414.97 333.892 l
415.423 324.911 l
415.877 332.937 l
416.33 343.738 l
416.783 343.442 l
417.237 348.245 l
417.69 359.658 l
418.143 364.703 l
418.597 379.265 l
419.05 383.835 l
419.504 379.649 l
419.957 381.518 l
420.41 382.245 l
421.77 355.617 l
422.224 351.257 l
423.584 329.423 l
424.037 332.795 l
424.491 333.335 l
424.944 326.104 l
425.851 307.15 l
426.304 304.359 l
426.758 308.338 l
427.211 308.252 l
428.118 316.14 l
428.571 314.22 l
429.024 310.344 l
429.931 317.853 l
430.838 328.365 l
431.291 326.683 l
431.745 329.728 l
432.198 329.679 l
432.651 328.014 l
433.105 330.376 l
433.558 323.055 l
434.012 321.432 l
434.465 323.565 l
434.918 335.029 l
435.372 329.169 l
435.825 327.438 l
436.278 329.458 l
437.185 336.931 l
437.639 336.365 l
438.092 342.992 l
438.545 337.059 l
438.999 335.353 l
439.452 328.58 l
439.905 323.748 l
440.359 326.807 l
440.812 318.098 l
441.719 330.56 l
442.626 337.374 l
443.079 338.489 l
443.532 326.24 l
443.986 321.925 l
444.439 314.723 l
444.893 314.918 l
445.346 319.315 l
445.799 322.331 l
446.253 327.571 l
446.706 323.188 l
447.159 322.095 l
447.613 329.376 l
448.066 331.394 l
448.52 325.801 l
448.973 326.638 l
449.88 310.956 l
450.786 325.536 l
451.24 328.46 l
451.693 334.592 l
452.147 352.123 l
452.6 348.353 l
453.053 352.361 l
453.507 354.524 l
453.96 353.698 l
454.413 346.402 l
454.867 342.586 l
455.774 332.693 l
456.227 333.103 l
456.68 336.267 l
457.587 325.008 l
458.04 331.349 l
458.494 322.235 l
458.947 320.502 l
459.401 316.799 l
459.854 307.56 l
460.307 305.831 l
460.761 303.653 l
461.214 300.231 l
462.121 308.815 l
463.028 294.381 l
463.481 292.949 l
463.934 295.779 l
464.388 301.535 l
464.841 300.409 l
465.294 311.112 l
465.748 316.244 l
466.201 324.088 l
466.655 319.219 l
467.561 311.677 l
468.015 313.48 l
468.468 308.075 l
469.375 309.826 l
470.735 322.864 l
471.188 334.181 l
471.642 334.344 l
472.095 341.493 l
473.002 352.396 l
473.455 353.793 l
473.909 353.516 l
474.362 346.197 l
474.815 335.915 l
475.269 330.504 l
475.722 327.236 l
476.175 333.054 l
476.629 330.494 l
477.536 315.403 l
477.989 318.784 l
478.442 315.824 l
478.896 311.221 l
479.349 299.487 l
479.802 296.707 l
480.256 304.427 l
480.709 303.107 l
481.163 307.428 l
481.616 308.016 l
482.069 308.352 l
482.523 306.469 l
482.976 305.463 l
483.429 307.399 l
483.883 301.125 l
484.336 287.792 l
485.243 281.369 l
485.696 282.841 l
486.15 287.265 l
486.603 293.686 l
487.056 290.269 l
487.963 287.563 l
488.417 284.971 l
488.87 288.808 l
489.323 280.491 l
489.777 281.647 l
490.23 287.605 l
490.683 288.837 l
491.137 281.623 l
491.59 281.02 l
492.044 281.362 l
492.497 282.772 l
492.95 283.043 l
493.404 278.768 l
493.857 284.79 l
494.31 293.301 l
494.764 297.135 l
495.671 313.918 l
496.124 314.644 l
496.577 322.14 l
497.031 322.865 l
497.484 322.611 l
497.937 324.169 l
498.391 313.362 l
499.298 318.377 l
499.751 312.305 l
500.204 303.877 l
500.658 302.75 l
501.111 313.847 l
501.564 321.755 l
502.018 334.548 l
502.471 342.438 l
502.925 345.121 l
503.378 352.6 l
503.831 352.832 l
504.285 343.623 l
504.738 339.148 l
505.191 340.878 l
505.645 344.165 l
506.098 345.441 l
506.552 342.24 l
507.005 342.624 l
507.458 347.838 l
507.912 348.785 l
507.912 348.785 l
stroke
grestore
0.500 setlinewidth
0 setlinecap
0.000 setgray
gsave
/o {
gsave
newpath
translate
0.5 setlinewidth
1 setlinejoin
0 setlinecap
0 0 m
0 4 l
gsave
0.000 setgray
fill
grestore
stroke
grestore
} bind def
73.125 236.536 o
grestore
gsave
/o {
gsave
newpath
translate
0.5 setlinewidth
1 setlinejoin
0 setlinecap
0 0 m
0 -4 l
gsave
0.000 setgray
fill
grestore
stroke
grestore
} bind def
73.125 396.9 o
grestore
/DejaVuSans findfont
12.000 scalefont
setfont
gsave
70.101562 223.458239 translate
0.000000 rotate
0.000000 0.171875 m /zero glyphshow
grestore
gsave
/o {
gsave
newpath
translate
0.5 setlinewidth
1 setlinejoin
0 setlinecap
0 0 m
0 4 l
gsave
0.000 setgray
fill
grestore
stroke
grestore
} bind def
163.8 236.536 o
grestore
gsave
/o {
gsave
newpath
translate
0.5 setlinewidth
1 setlinejoin
0 setlinecap
0 0 m
0 -4 l
gsave
0.000 setgray
fill
grestore
stroke
grestore
} bind def
163.8 396.9 o
grestore
gsave
153.175000 223.458239 translate
0.000000 rotate
0.000000 0.171875 m /two glyphshow
7.634766 0.171875 m /zero glyphshow
15.269531 0.171875 m /zero glyphshow
grestore
gsave
/o {
gsave
newpath
translate
0.5 setlinewidth
1 setlinejoin
0 setlinecap
0 0 m
0 4 l
gsave
0.000 setgray
fill
grestore
stroke
grestore
} bind def
254.475 236.536 o
grestore
gsave
/o {
gsave
newpath
translate
0.5 setlinewidth
1 setlinejoin
0 setlinecap
0 0 m
0 -4 l
gsave
0.000 setgray
fill
grestore
stroke
grestore
} bind def
254.475 396.9 o
grestore
gsave
243.709375 223.458239 translate
0.000000 rotate
0.000000 0.171875 m /four glyphshow
7.634766 0.171875 m /zero glyphshow
15.269531 0.171875 m /zero glyphshow
grestore
gsave
/o {
gsave
newpath
translate
0.5 setlinewidth
1 setlinejoin
0 setlinecap
0 0 m
0 4 l
gsave
0.000 setgray
fill
grestore
stroke
grestore
} bind def
345.15 236.536 o
grestore
gsave
/o {
gsave
newpath
translate
0.5 setlinewidth
1 setlinejoin
0 setlinecap
0 0 m
0 -4 l
gsave
0.000 setgray
fill
grestore
stroke
grestore
} bind def
345.15 396.9 o
grestore
gsave
334.509375 223.458239 translate
0.000000 rotate
0.000000 0.171875 m /six glyphshow
7.634766 0.171875 m /zero glyphshow
15.269531 0.171875 m /zero glyphshow
grestore
gsave
/o {
gsave
newpath
translate
0.5 setlinewidth
1 setlinejoin
0 setlinecap
0 0 m
0 4 l
gsave
0.000 setgray
fill
grestore
stroke
grestore
} bind def
435.825 236.536 o
grestore
gsave
/o {
gsave
newpath
translate
0.5 setlinewidth
1 setlinejoin
0 setlinecap
0 0 m
0 -4 l
gsave
0.000 setgray
fill
grestore
stroke
grestore
} bind def
435.825 396.9 o
grestore
gsave
425.168750 223.458239 translate
0.000000 rotate
0.000000 0.171875 m /eight glyphshow
7.634766 0.171875 m /zero glyphshow
15.269531 0.171875 m /zero glyphshow
grestore
gsave
/o {
gsave
newpath
translate
0.5 setlinewidth
1 setlinejoin
0 setlinecap
0 0 m
0 4 l
gsave
0.000 setgray
fill
grestore
stroke
grestore
} bind def
526.5 236.536 o
grestore
gsave
/o {
gsave
newpath
translate
0.5 setlinewidth
1 setlinejoin
0 setlinecap
0 0 m
0 -4 l
gsave
0.000 setgray
fill
grestore
stroke
grestore
} bind def
526.5 396.9 o
grestore
gsave
512.273438 223.458239 translate
0.000000 rotate
0.000000 0.171875 m /one glyphshow
7.634766 0.171875 m /zero glyphshow
15.269531 0.171875 m /zero glyphshow
22.904297 0.171875 m /zero glyphshow
grestore
gsave
/o {
gsave
newpath
translate
0.5 setlinewidth
1 setlinejoin
0 setlinecap
0 0 m
4 0 l
gsave
0.000 setgray
fill
grestore
stroke
grestore
} bind def
73.125 236.536 o
grestore
gsave
/o {
gsave
newpath
translate
0.5 setlinewidth
1 setlinejoin
0 setlinecap
0 0 m
-4 0 l
gsave
0.000 setgray
fill
grestore
stroke
grestore
} bind def
526.5 236.536 o
grestore
gsave
53.359375 232.161364 translate
0.000000 rotate
0.000000 0.000000 m /minus glyphshow
10.054688 0.000000 m /four glyphshow
grestore
gsave
/o {
gsave
newpath
translate
0.5 setlinewidth
1 setlinejoin
0 setlinecap
0 0 m
4 0 l
gsave
0.000 setgray
fill
grestore
stroke
grestore
} bind def
73.125 259.445 o
grestore
gsave
/o {
gsave
newpath
translate
0.5 setlinewidth
1 setlinejoin
0 setlinecap
0 0 m
-4 0 l
gsave
0.000 setgray
fill
grestore
stroke
grestore
} bind def
526.5 259.445 o
grestore
gsave
53.656250 254.906392 translate
0.000000 rotate
0.000000 0.171875 m /minus glyphshow
10.054688 0.171875 m /three glyphshow
grestore
gsave
/o {
gsave
newpath
translate
0.5 setlinewidth
1 setlinejoin
0 setlinecap
0 0 m
4 0 l
gsave
0.000 setgray
fill
grestore
stroke
grestore
} bind def
73.125 282.355 o
grestore
gsave
/o {
gsave
newpath
translate
0.5 setlinewidth
1 setlinejoin
0 setlinecap
0 0 m
-4 0 l
gsave
0.000 setgray
fill
grestore
stroke
grestore
} bind def
526.5 282.355 o
grestore
gsave
53.890625 277.901420 translate
0.000000 rotate
0.000000 0.000000 m /minus glyphshow
10.054688 0.000000 m /two glyphshow
grestore
gsave
/o {
gsave
newpath
translate
0.5 setlinewidth
1 setlinejoin
0 setlinecap
0 0 m
4 0 l
gsave
0.000 setgray
fill
grestore
stroke
grestore
} bind def
73.125 305.264 o
grestore
gsave
/o {
gsave
newpath
translate
0.5 setlinewidth
1 setlinejoin
0 setlinecap
0 0 m
-4 0 l
gsave
0.000 setgray
fill
grestore
stroke
grestore
} bind def
526.5 305.264 o
grestore
gsave
53.796875 300.888636 translate
0.000000 rotate
0.000000 0.000000 m /minus glyphshow
10.054688 0.000000 m /one glyphshow
grestore
gsave
/o {
gsave
newpath
translate
0.5 setlinewidth
1 setlinejoin
0 setlinecap
0 0 m
4 0 l
gsave
0.000 setgray
fill
grestore
stroke
grestore
} bind def
73.125 328.173 o
grestore
gsave
/o {
gsave
newpath
translate
0.5 setlinewidth
1 setlinejoin
0 setlinecap
0 0 m
-4 0 l
gsave
0.000 setgray
fill
grestore
stroke
grestore
} bind def
526.5 328.173 o
grestore
gsave
63.078125 323.633665 translate
0.000000 rotate
0.000000 0.171875 m /zero glyphshow
grestore
gsave
/o {
gsave
newpath
translate
0.5 setlinewidth
1 setlinejoin
0 setlinecap
0 0 m
4 0 l
gsave
0.000 setgray
fill
grestore
stroke
grestore
} bind def
73.125 351.082 o
grestore
gsave
/o {
gsave
newpath
translate
0.5 setlinewidth
1 setlinejoin
0 setlinecap
0 0 m
-4 0 l
gsave
0.000 setgray
fill
grestore
stroke
grestore
} bind def
526.5 351.082 o
grestore
gsave
63.906250 346.706818 translate
0.000000 rotate
0.000000 0.000000 m /one glyphshow
grestore
gsave
/o {
gsave
newpath
translate
0.5 setlinewidth
1 setlinejoin
0 setlinecap
0 0 m
4 0 l
gsave
0.000 setgray
fill
grestore
stroke
grestore
} bind def
73.125 373.991 o
grestore
gsave
/o {
gsave
newpath
translate
0.5 setlinewidth
1 setlinejoin
0 setlinecap
0 0 m
-4 0 l
gsave
0.000 setgray
fill
grestore
stroke
grestore
} bind def
526.5 373.991 o
grestore
gsave
63.562500 369.537784 translate
0.000000 rotate
0.000000 0.000000 m /two glyphshow
grestore
gsave
/o {
gsave
newpath
translate
0.5 setlinewidth
1 setlinejoin
0 setlinecap
0 0 m
4 0 l
gsave
0.000 setgray
fill
grestore
stroke
grestore
} bind def
73.125 396.9 o
grestore
gsave
/o {
gsave
newpath
translate
0.5 setlinewidth
1 setlinejoin
0 setlinecap
0 0 m
-4 0 l
gsave
0.000 setgray
fill
grestore
stroke
grestore
} bind def
526.5 396.9 o
grestore
gsave
63.375000 392.360938 translate
0.000000 rotate
0.000000 0.171875 m /three glyphshow
grestore
gsave
48.359375 308.718182 translate
90.000000 rotate
/Cmmi10 findfont
16.0 scalefont
setfont
0.000000 5.062500 moveto
/Y glyphshow

/Cmmi10 findfont
11.2 scalefont
setfont
9.281250 0.981000 moveto
/t glyphshow


grestore
1.000 setlinewidth
2 setlinecap
gsave
73.125 396.9 m
526.5 396.9 l
stroke
grestore
gsave
526.5 236.536 m
526.5 396.9 l
stroke
grestore
gsave
73.125 236.536 m
526.5 236.536 l
stroke
grestore
gsave
73.125 236.536 m
73.125 396.9 l
stroke
grestore
gsave
123.312500 397.900000 translate
0.000000 rotate
/DejaVuSans findfont
16.0 scalefont
setfont
0.000000 4.125000 moveto
/E glyphshow

10.109375 4.125000 moveto
/x glyphshow

19.578125 4.125000 moveto
/p glyphshow

29.734375 4.125000 moveto
/period glyphshow

34.820312 4.125000 moveto
/space glyphshow

39.906250 4.125000 moveto
/C glyphshow

51.078125 4.125000 moveto
/o glyphshow

60.867188 4.125000 moveto
/v glyphshow

70.335938 4.125000 moveto
/period glyphshow

74.796875 4.125000 moveto
/colon glyphshow

80.187500 4.125000 moveto
/space glyphshow

/Cmmi10 findfont
16.0 scalefont
setfont
85.273438 4.125000 moveto
/rho glyphshow

/Cmr10 findfont
16.0 scalefont
setfont
96.356250 4.125000 moveto
/equal glyphshow

109.806250 4.125000 moveto
/one glyphshow

/Cmmi10 findfont
16.0 scalefont
setfont
117.806250 4.125000 moveto
/period glyphshow

/Cmr10 findfont
16.0 scalefont
setfont
122.365625 4.125000 moveto
/five glyphshow

130.365625 4.125000 moveto
/zero glyphshow

/Cmmi10 findfont
16.0 scalefont
setfont
138.365625 4.125000 moveto
/comma glyphshow

154.350000 4.125000 moveto
/s glyphshow

/Cmr10 findfont
16.0 scalefont
setfont
164.643750 4.125000 moveto
/equal glyphshow

178.093750 4.125000 moveto
/one glyphshow

/Cmmi10 findfont
16.0 scalefont
setfont
186.093750 4.125000 moveto
/period glyphshow

/Cmr10 findfont
16.0 scalefont
setfont
190.653125 4.125000 moveto
/zero glyphshow

198.653125 4.125000 moveto
/zero glyphshow

/Cmmi10 findfont
16.0 scalefont
setfont
206.653125 4.125000 moveto
/comma glyphshow

222.637500 4.125000 moveto
/sigma glyphshow

/Cmr10 findfont
16.0 scalefont
setfont
234.579688 4.125000 moveto
/equal glyphshow

248.029688 4.125000 moveto
/zero glyphshow

/Cmmi10 findfont
16.0 scalefont
setfont
256.029688 4.125000 moveto
/period glyphshow

/Cmr10 findfont
16.0 scalefont
setfont
260.589063 4.125000 moveto
/zero glyphshow

268.589063 4.125000 moveto
/zero glyphshow

/Cmmi10 findfont
16.0 scalefont
setfont
276.589063 4.125000 moveto
/comma glyphshow

292.573438 4.125000 moveto
/lscript glyphshow

/Cmr10 findfont
16.0 scalefont
setfont
302.039062 4.125000 moveto
/equal glyphshow

315.489062 4.125000 moveto
/one glyphshow

323.489062 4.125000 moveto
/zero glyphshow

/Cmmi10 findfont
16.0 scalefont
setfont
331.489062 4.125000 moveto
/period glyphshow

/Cmr10 findfont
16.0 scalefont
setfont
336.048437 4.125000 moveto
/zero glyphshow

344.048437 4.125000 moveto
/zero glyphshow


grestore
gsave
73.125 44.1 m
526.5 44.1 l
526.5 204.464 l
73.125 204.464 l
cl
1.000 setgray
fill
grestore
2.000 setlinewidth
0.000 0.000 1.000 setrgbcolor
gsave
453.4 160.4 73.12 44.1 clipbox
73.125 44.1 m
85.8195 44.1212 l
86.2729 44.337 l
86.7262 44.8575 l
87.1796 45.7219 l
87.633 46.9082 l
88.5397 50.7596 l
89.4465 55.1066 l
89.8999 57.1122 l
90.3533 57.7584 l
90.8066 59.4262 l
92.1668 69.6823 l
93.0735 79.3853 l
93.5269 80.8634 l
93.9802 81.9004 l
94.4336 86.6204 l
94.887 83.4051 l
95.3404 77.0948 l
95.7938 77.7176 l
96.2471 72.7383 l
96.7005 72.2091 l
97.1539 77.1189 l
97.6072 76.2208 l
98.0606 75.7985 l
98.514 73.8207 l
98.9674 65.2701 l
99.4207 67.1929 l
99.8741 64.6455 l
100.781 56.4729 l
101.688 49.5553 l
102.141 46.9898 l
102.594 45.457 l
103.048 44.4623 l
103.501 44.1066 l
111.209 44.1 l
128.89 44.1 l
129.344 44.4247 l
129.797 45.806 l
130.25 49.6082 l
131.157 61.1704 l
131.61 66.1251 l
132.064 75.0529 l
133.424 111.49 l
134.331 128.847 l
134.784 137.052 l
135.237 142.582 l
135.691 151.349 l
136.144 157.445 l
136.597 161.612 l
137.504 167.222 l
137.958 168.414 l
138.411 169.015 l
138.864 168.058 l
139.318 166.054 l
139.771 163.154 l
140.678 153.749 l
141.585 141.622 l
142.945 116.277 l
143.851 96.1246 l
145.212 64.0327 l
145.665 54.7471 l
146.118 47.9573 l
146.572 45.1512 l
147.025 44.2411 l
147.478 44.1 l
172.414 44.1 l
172.868 44.4604 l
173.321 45.7923 l
173.774 48.8914 l
174.228 57.996 l
174.681 59.8763 l
175.134 64.1484 l
176.041 88.2641 l
176.495 83.8568 l
176.948 88.6143 l
177.401 113.364 l
177.855 126.361 l
178.308 133.318 l
179.215 144.287 l
179.668 150.287 l
180.122 152.77 l
180.575 152.423 l
181.028 150.135 l
181.482 129.483 l
181.935 98.1773 l
182.388 92.7677 l
182.842 80.5881 l
183.295 75.9028 l
183.749 75.542 l
184.202 70.1757 l
184.655 66.224 l
185.109 65.2071 l
185.562 60.9176 l
186.015 59.987 l
186.469 57.7042 l
186.922 54.549 l
187.829 49.577 l
188.282 48.4651 l
189.189 45.6675 l
189.642 44.7024 l
190.096 44.2149 l
191.002 44.1 l
216.392 44.1 l
217.298 44.4753 l
217.752 46.095 l
218.205 48.7393 l
218.658 46.8297 l
219.112 47.2188 l
219.565 45.672 l
220.019 48 l
220.472 56.4095 l
220.925 70.2834 l
221.379 79.6793 l
221.832 81.2295 l
222.285 75.9322 l
222.739 86.9919 l
223.192 101.759 l
223.645 90.0763 l
224.099 69.3877 l
224.552 75.3362 l
225.006 84.2444 l
225.459 101.63 l
226.366 75.6195 m
226.819 69.4979 l
227.273 66.0698 l
227.726 66.2566 l
228.179 61.9338 l
228.633 61.7106 l
229.086 62.8249 l
229.539 74.5263 l
229.993 81.1841 l
230.446 76.7581 l
230.9 75.0716 l
231.353 64.2794 l
231.806 64.4499 l
232.26 63.4273 l
233.166 48.5766 l
233.62 45.2416 l
234.073 44.1306 l
235.887 44.1 l
259.462 44.1 l
259.916 44.3635 l
260.369 45.7448 l
260.822 52.8746 l
262.182 88.6891 l
262.636 99.4629 l
263.543 115.905 l
264.903 141.478 l
266.263 183.248 l
266.716 185.436 l
267.169 193.292 l
267.623 190.445 l
268.076 184.977 l
268.53 166.399 l
268.983 170.381 l
269.436 171.119 l
269.89 168.804 l
270.797 158.731 l
271.25 152.736 l
271.703 148.801 l
273.063 125.134 l
273.97 106.292 l
274.877 71.5489 l
275.33 72.7463 l
275.784 65.3637 l
276.237 55.6903 l
276.69 49.0082 l
277.144 45.4383 l
277.597 44.2674 l
278.05 44.1 l
302.986 44.1397 l
303.44 44.3575 l
303.893 45.7518 l
304.346 54.4688 l
305.253 77.012 l
306.16 95.7905 l
307.52 118.805 l
307.973 125.003 l
308.427 136.322 l
308.88 155.825 l
309.333 168.053 l
310.24 165.485 l
310.694 174.342 l
311.147 180.503 l
311.6 174.064 l
312.054 171.121 l
312.507 172.656 l
312.96 167.468 l
313.867 161.534 l
314.774 150.664 l
315.681 134.254 l
316.134 130.229 l
317.494 103.015 l
318.401 81.6278 l
320.214 49.1621 l
320.668 45.4191 l
321.121 44.2486 l
321.575 44.1 l
346.51 44.1 l
346.964 44.402 l
347.417 45.9707 l
347.87 54.8636 l
348.777 80.7698 l
349.684 110.365 l
350.137 105.129 l
350.591 74.6145 l
351.044 73.7299 l
351.497 103.114 l
351.951 142.205 l
352.404 139.826 l
352.857 142.948 l
353.764 154.607 l
354.671 162.283 l
355.124 164.349 l
355.578 165.284 l
356.031 165.022 l
356.484 164.913 l
357.391 159.311 l
357.845 153.249 l
358.298 151.867 l
358.751 146.543 l
360.111 124.137 l
361.471 96.1915 l
363.285 57.0133 l
363.738 49.5997 l
364.192 45.6084 l
364.645 44.3398 l
365.099 44.1 l
390.034 44.1083 l
390.488 44.4569 l
390.941 47.3514 l
391.394 61.6988 l
391.848 66.3312 l
392.301 78.4232 l
392.754 60.9577 l
393.208 59.9092 l
393.661 68.8965 l
394.115 89.4989 l
394.568 119.188 l
395.021 90.0335 l
395.475 124.341 l
395.928 138.902 l
396.835 149.432 l
397.288 155.935 l
397.742 160.249 l
399.102 167.217 l
399.555 163.517 l
400.008 167.184 l
400.915 151.656 l
401.369 106.73 l
401.822 96.7768 l
402.275 114.444 l
402.729 127.198 l
403.182 112.308 l
403.635 81.1012 l
404.089 75.8306 l
404.542 66.8406 l
404.995 60.6276 l
405.449 56.2759 l
405.902 57.1186 l
406.809 49.7141 l
407.262 46.0616 l
407.716 44.8358 l
408.169 44.2182 l
408.623 44.1 l
433.558 44.1 l
434.012 44.2268 l
434.465 45.057 l
434.918 48.1144 l
435.372 52.9419 l
435.825 55.5569 l
436.278 56.3125 l
436.732 56.8107 l
437.185 50.0476 l
437.639 49.636 l
438.092 49.4781 l
438.545 53.1891 l
438.999 54.6677 l
439.452 54.2462 l
439.905 58.3275 l
440.359 57.6906 l
440.812 54.5889 l
441.266 65.2685 l
441.719 65.7611 l
442.172 59.6542 l
442.626 62.6314 l
443.079 60.3555 l
443.532 65.4901 l
444.439 80.5373 l
444.893 76.1914 l
445.346 80.0455 l
445.799 73.6684 l
446.253 59.578 l
446.706 64.9449 l
447.613 57.3367 l
448.066 58.317 l
448.52 58.572 l
448.973 64.9053 l
449.426 64.049 l
449.88 54.2021 l
450.333 50.8342 l
450.786 49.9073 l
451.24 45.9502 l
451.693 44.4426 l
452.147 44.1365 l
453.507 44.1 l
466.201 44.1 l
477.082 44.1 l
477.536 44.2329 l
477.989 44.7061 l
478.442 45.9509 l
479.802 51.1015 l
480.256 52.6867 l
480.709 54.7631 l
481.163 58.665 l
481.616 60.9131 l
482.069 63.7822 l
482.523 67.5104 l
482.976 72.8986 l
483.429 76.5496 l
483.883 78.5007 l
484.336 75.2827 l
484.79 78.0062 l
485.243 76.7928 l
485.696 75.0876 l
486.15 84.1615 l
486.603 85.4524 l
487.056 78.2093 l
487.51 86.4013 l
487.963 83.9504 l
488.417 84.2577 l
488.87 80.7912 l
489.323 80.3796 l
489.777 82.7075 l
490.23 76.8757 l
490.683 78.0329 l
491.137 74.1415 l
491.59 64.553 l
492.044 61.9634 l
492.497 58.5164 l
492.95 56.5448 l
493.404 55.5379 l
493.857 49.9477 l
494.31 46.8887 l
494.764 45.0378 l
495.671 44.1 l
507.912 44.1 l
507.912 44.1 l
stroke
grestore
1.000 0.000 0.000 setrgbcolor
gsave
453.4 160.4 73.12 44.1 clipbox
73.125 44.1 m
85.8195 44.1 l
86.2729 48.1135 l
86.7262 55.0655 l
88.5397 94.8388 l
89.4465 118.856 l
89.8999 136.788 l
90.3533 149.164 l
90.8066 157.523 l
91.26 168.818 l
92.1668 173.776 l
92.6201 182.07 l
93.0735 186.106 l
93.5269 186.157 l
93.9802 188.07 l
94.4336 186.272 l
94.887 186.691 l
95.3404 184.234 l
95.7938 182.618 l
96.2471 181.955 l
96.7005 177.042 l
98.9674 135.935 l
101.234 69.1456 l
101.688 59.0113 l
102.594 44.3959 l
103.048 44.1 l
129.344 44.1 l
129.797 49.4023 l
131.61 89.5763 l
132.064 97.3536 l
133.877 140.75 l
134.784 156.166 l
135.237 157.742 l
136.144 167.168 l
136.597 167.168 l
137.051 168.107 l
137.504 161.318 l
137.958 160.824 l
138.411 156.113 l
138.864 159.098 l
139.318 153.93 l
139.771 150.314 l
140.225 135.907 l
140.678 134.804 l
141.131 137.622 l
141.585 132.7 l
142.491 114.86 l
142.945 99.7835 l
143.398 93.2208 l
144.305 66.6157 l
145.665 47.684 l
146.118 44.3455 l
146.572 44.1 l
172.868 44.1 l
173.321 48.7038 l
173.774 57.5985 l
175.134 93.9599 l
176.041 121.253 l
176.495 125.906 l
176.948 125.286 l
177.401 128.473 l
177.855 129.725 l
178.761 140.167 l
179.215 142.314 l
179.668 153.578 l
180.122 155.736 l
180.575 139.025 l
181.028 145.559 l
181.482 138.408 l
181.935 129.316 l
182.388 127.903 l
182.842 133.967 l
183.295 137.004 l
184.202 108.411 l
184.655 86.9939 l
185.109 86.0125 l
186.015 79.0604 l
187.375 60.3794 l
187.829 59.4436 l
188.282 52.3039 l
188.736 48.9399 l
189.642 44.4163 l
190.096 44.1 l
216.392 44.1 l
216.845 47.0405 l
217.298 52.3086 l
219.112 82.5776 l
219.565 85.9682 l
220.019 95.267 l
220.472 93.4629 l
220.925 92.4103 l
221.379 94.8651 l
221.832 88.0693 l
222.285 96.2474 l
222.739 100.52 l
223.192 94.4189 l
223.645 100.975 l
224.552 119.656 l
225.006 126.927 l
225.459 118.422 l
225.912 118.441 l
226.366 119.074 l
226.819 122.275 l
227.273 117.715 l
227.726 120.318 l
228.179 106.3 l
229.539 89.3142 l
229.993 81.0622 l
230.9 73.2965 l
231.806 58.4205 l
232.26 55.4455 l
233.166 45.3145 l
233.62 44.1 l
259.916 44.1 l
260.369 49.6313 l
261.729 77.7201 l
262.182 92.0718 l
263.089 113.588 l
263.996 120.451 l
264.449 119.53 l
264.903 116.562 l
265.356 115.548 l
265.809 117.35 l
266.263 120.287 l
266.716 122.047 l
267.169 130.353 l
267.623 129.878 l
268.076 141.229 l
268.53 149.03 l
268.983 145.855 l
269.436 143.859 l
269.89 148.732 l
270.343 155.935 l
270.797 156.012 l
271.25 146.494 l
272.157 142.563 l
273.063 134.142 l
273.517 127.711 l
273.97 118.209 l
276.69 46.3705 l
277.144 44.1 l
303.44 44.1 l
303.893 46.6945 l
304.346 50.9707 l
304.8 52.9875 l
305.253 53.9086 l
305.706 52.8848 l
306.613 58.6034 l
307.067 63.3834 l
307.52 75.4153 l
307.973 83.1976 l
308.88 91.8819 l
309.333 102.458 l
309.787 108.527 l
310.24 117.88 l
311.147 156.411 l
311.6 172.173 l
312.054 179.604 l
312.507 180.363 l
313.414 171.632 l
313.867 172.31 l
315.227 143.695 l
315.681 140.556 l
316.587 124.138 l
317.041 109.595 l
317.494 91.1525 l
317.947 80.4706 l
318.401 66.3874 l
318.854 58.5458 l
319.308 52.9149 l
320.214 45.5314 l
320.668 44.1 l
346.964 44.1 l
347.417 44.5129 l
347.87 45.4423 l
348.324 45.9115 l
348.777 46.5499 l
349.23 46.6843 l
349.684 47.86 l
350.137 51.671 l
350.591 57.4132 l
351.044 57.4843 l
351.497 61.0331 l
351.951 62.2681 l
352.404 62.5696 l
352.857 66.5298 l
353.311 73.036 l
354.218 93.7994 l
354.671 89.1192 l
355.124 88.5331 l
355.578 101.531 l
356.031 120.558 l
356.484 129.052 l
356.938 143.786 l
357.391 148.195 l
357.845 144.319 l
358.751 118.595 l
359.205 123.981 l
359.658 124.8 l
360.111 121.674 l
360.565 111.387 l
361.018 111.348 l
362.378 78.7379 l
363.738 47.9423 l
364.192 44.1 l
390.488 44.1 l
390.941 45.338 l
391.394 47.0979 l
391.848 50.2667 l
392.754 62.0887 l
393.208 75.3349 l
393.661 100.822 l
394.115 111.95 l
394.568 114.438 l
395.021 119.868 l
395.928 122.534 l
396.381 124.674 l
396.835 115.189 l
397.288 115.166 l
397.742 112.255 l
398.648 132.926 l
399.102 153.108 l
399.555 167.823 l
400.008 163.091 l
400.462 171.754 l
400.915 172.293 l
401.369 158.294 l
401.822 151.043 l
402.275 149.976 l
402.729 138.48 l
403.182 131.201 l
404.089 107.468 l
404.995 80.3277 l
405.449 76.88 l
407.262 47.1629 l
407.716 44.1 l
434.012 44.1 l
434.465 47.962 l
434.918 57.0958 l
435.825 68.9202 l
436.732 86.4806 l
437.185 96.5304 l
437.639 102.582 l
438.092 116.13 l
438.545 115.16 l
438.999 117.993 l
439.452 112.504 l
439.905 108.417 l
440.359 115.932 l
440.812 103.966 l
441.719 127.795 l
442.626 140.643 l
443.079 142.157 l
443.532 120.199 l
443.986 111.6 l
444.439 98.5463 l
444.893 97.112 l
445.346 101.43 l
445.799 102.991 l
446.253 106.813 l
446.706 96.8749 l
447.159 91.3137 l
447.613 94.5507 l
448.066 90.6881 l
448.52 79.6959 l
448.973 74.256 l
449.88 55.4283 l
450.333 52.6414 l
450.786 47.5139 l
451.24 44.1 l
477.536 44.1 l
477.989 47.6185 l
478.442 52.5389 l
478.896 56.0591 l
479.349 55.3924 l
479.802 57.0408 l
480.256 64.1786 l
480.709 66.3355 l
481.163 72.8505 l
482.069 79.5966 l
482.523 79.9988 l
482.976 80.9672 l
483.429 85.2306 l
483.883 79.0486 l
484.336 66.5832 l
484.79 64.755 l
485.243 62.4484 l
485.696 63.7109 l
486.15 67.3628 l
486.603 73.4193 l
487.056 69.7459 l
487.963 66.3649 l
488.417 63.6649 l
488.87 65.8052 l
489.323 59.1745 l
489.777 58.9624 l
490.23 61.469 l
490.683 60.8215 l
491.137 55.6184 l
492.044 52.8373 l
492.497 51.79 l
492.95 50.2451 l
493.404 47.8776 l
493.857 47.0169 l
494.764 44.1 l
507.912 44.1 l
507.912 44.1 l
stroke
grestore
0.500 setlinewidth
0 setlinecap
0.000 setgray
gsave
/o {
gsave
newpath
translate
0.5 setlinewidth
1 setlinejoin
0 setlinecap
0 0 m
0 4 l
gsave
0.000 setgray
fill
grestore
stroke
grestore
} bind def
73.125 44.1 o
grestore
gsave
/o {
gsave
newpath
translate
0.5 setlinewidth
1 setlinejoin
0 setlinecap
0 0 m
0 -4 l
gsave
0.000 setgray
fill
grestore
stroke
grestore
} bind def
73.125 204.464 o
grestore
gsave
70.101562 31.021875 translate
0.000000 rotate
0.000000 0.171875 m /zero glyphshow
grestore
gsave
/o {
gsave
newpath
translate
0.5 setlinewidth
1 setlinejoin
0 setlinecap
0 0 m
0 4 l
gsave
0.000 setgray
fill
grestore
stroke
grestore
} bind def
163.8 44.1 o
grestore
gsave
/o {
gsave
newpath
translate
0.5 setlinewidth
1 setlinejoin
0 setlinecap
0 0 m
0 -4 l
gsave
0.000 setgray
fill
grestore
stroke
grestore
} bind def
163.8 204.464 o
grestore
gsave
153.175000 31.021875 translate
0.000000 rotate
0.000000 0.171875 m /two glyphshow
7.634766 0.171875 m /zero glyphshow
15.269531 0.171875 m /zero glyphshow
grestore
gsave
/o {
gsave
newpath
translate
0.5 setlinewidth
1 setlinejoin
0 setlinecap
0 0 m
0 4 l
gsave
0.000 setgray
fill
grestore
stroke
grestore
} bind def
254.475 44.1 o
grestore
gsave
/o {
gsave
newpath
translate
0.5 setlinewidth
1 setlinejoin
0 setlinecap
0 0 m
0 -4 l
gsave
0.000 setgray
fill
grestore
stroke
grestore
} bind def
254.475 204.464 o
grestore
gsave
243.709375 31.021875 translate
0.000000 rotate
0.000000 0.171875 m /four glyphshow
7.634766 0.171875 m /zero glyphshow
15.269531 0.171875 m /zero glyphshow
grestore
gsave
/o {
gsave
newpath
translate
0.5 setlinewidth
1 setlinejoin
0 setlinecap
0 0 m
0 4 l
gsave
0.000 setgray
fill
grestore
stroke
grestore
} bind def
345.15 44.1 o
grestore
gsave
/o {
gsave
newpath
translate
0.5 setlinewidth
1 setlinejoin
0 setlinecap
0 0 m
0 -4 l
gsave
0.000 setgray
fill
grestore
stroke
grestore
} bind def
345.15 204.464 o
grestore
gsave
334.509375 31.021875 translate
0.000000 rotate
0.000000 0.171875 m /six glyphshow
7.634766 0.171875 m /zero glyphshow
15.269531 0.171875 m /zero glyphshow
grestore
gsave
/o {
gsave
newpath
translate
0.5 setlinewidth
1 setlinejoin
0 setlinecap
0 0 m
0 4 l
gsave
0.000 setgray
fill
grestore
stroke
grestore
} bind def
435.825 44.1 o
grestore
gsave
/o {
gsave
newpath
translate
0.5 setlinewidth
1 setlinejoin
0 setlinecap
0 0 m
0 -4 l
gsave
0.000 setgray
fill
grestore
stroke
grestore
} bind def
435.825 204.464 o
grestore
gsave
425.168750 31.021875 translate
0.000000 rotate
0.000000 0.171875 m /eight glyphshow
7.634766 0.171875 m /zero glyphshow
15.269531 0.171875 m /zero glyphshow
grestore
gsave
/o {
gsave
newpath
translate
0.5 setlinewidth
1 setlinejoin
0 setlinecap
0 0 m
0 4 l
gsave
0.000 setgray
fill
grestore
stroke
grestore
} bind def
526.5 44.1 o
grestore
gsave
/o {
gsave
newpath
translate
0.5 setlinewidth
1 setlinejoin
0 setlinecap
0 0 m
0 -4 l
gsave
0.000 setgray
fill
grestore
stroke
grestore
} bind def
526.5 204.464 o
grestore
gsave
512.273438 31.021875 translate
0.000000 rotate
0.000000 0.171875 m /one glyphshow
7.634766 0.171875 m /zero glyphshow
15.269531 0.171875 m /zero glyphshow
22.904297 0.171875 m /zero glyphshow
grestore
gsave
249.812500 9.021875 translate
0.000000 rotate
/Cmmi10 findfont
16.0 scalefont
setfont
0.000000 4.843750 moveto
/t glyphshow

/DejaVuSans findfont
16.0 scalefont
setfont
5.773438 4.843750 moveto
/space glyphshow

10.859375 4.843750 moveto
/parenleft glyphshow

17.101562 4.843750 moveto
/t glyphshow

23.375000 4.843750 moveto
/i glyphshow

27.820312 4.843750 moveto
/m glyphshow

43.406250 4.843750 moveto
/e glyphshow

53.250000 4.843750 moveto
/space glyphshow

58.335938 4.843750 moveto
/s glyphshow

66.671875 4.843750 moveto
/t glyphshow

72.945312 4.843750 moveto
/e glyphshow

82.789062 4.843750 moveto
/p glyphshow

92.945312 4.843750 moveto
/parenright glyphshow


grestore
gsave
/o {
gsave
newpath
translate
0.5 setlinewidth
1 setlinejoin
0 setlinecap
0 0 m
4 0 l
gsave
0.000 setgray
fill
grestore
stroke
grestore
} bind def
73.125 44.1 o
grestore
gsave
/o {
gsave
newpath
translate
0.5 setlinewidth
1 setlinejoin
0 setlinecap
0 0 m
-4 0 l
gsave
0.000 setgray
fill
grestore
stroke
grestore
} bind def
526.5 44.1 o
grestore
gsave
63.078125 39.560937 translate
0.000000 rotate
0.000000 0.171875 m /zero glyphshow
grestore
gsave
/o {
gsave
newpath
translate
0.5 setlinewidth
1 setlinejoin
0 setlinecap
0 0 m
4 0 l
gsave
0.000 setgray
fill
grestore
stroke
grestore
} bind def
73.125 70.8273 o
grestore
gsave
/o {
gsave
newpath
translate
0.5 setlinewidth
1 setlinejoin
0 setlinecap
0 0 m
-4 0 l
gsave
0.000 setgray
fill
grestore
stroke
grestore
} bind def
526.5 70.8273 o
grestore
gsave
48.312500 66.288210 translate
0.000000 rotate
0.000000 0.171875 m /one glyphshow
7.634766 0.171875 m /zero glyphshow
15.269531 0.171875 m /zero glyphshow
grestore
gsave
/o {
gsave
newpath
translate
0.5 setlinewidth
1 setlinejoin
0 setlinecap
0 0 m
4 0 l
gsave
0.000 setgray
fill
grestore
stroke
grestore
} bind def
73.125 97.5545 o
grestore
gsave
/o {
gsave
newpath
translate
0.5 setlinewidth
1 setlinejoin
0 setlinecap
0 0 m
-4 0 l
gsave
0.000 setgray
fill
grestore
stroke
grestore
} bind def
526.5 97.5545 o
grestore
gsave
47.875000 93.015483 translate
0.000000 rotate
0.000000 0.171875 m /two glyphshow
7.634766 0.171875 m /zero glyphshow
15.269531 0.171875 m /zero glyphshow
grestore
gsave
/o {
gsave
newpath
translate
0.5 setlinewidth
1 setlinejoin
0 setlinecap
0 0 m
4 0 l
gsave
0.000 setgray
fill
grestore
stroke
grestore
} bind def
73.125 124.282 o
grestore
gsave
/o {
gsave
newpath
translate
0.5 setlinewidth
1 setlinejoin
0 setlinecap
0 0 m
-4 0 l
gsave
0.000 setgray
fill
grestore
stroke
grestore
} bind def
526.5 124.282 o
grestore
gsave
47.921875 119.742756 translate
0.000000 rotate
0.000000 0.171875 m /three glyphshow
7.634766 0.171875 m /zero glyphshow
15.269531 0.171875 m /zero glyphshow
grestore
gsave
/o {
gsave
newpath
translate
0.5 setlinewidth
1 setlinejoin
0 setlinecap
0 0 m
4 0 l
gsave
0.000 setgray
fill
grestore
stroke
grestore
} bind def
73.125 151.009 o
grestore
gsave
/o {
gsave
newpath
translate
0.5 setlinewidth
1 setlinejoin
0 setlinecap
0 0 m
-4 0 l
gsave
0.000 setgray
fill
grestore
stroke
grestore
} bind def
526.5 151.009 o
grestore
gsave
47.593750 146.470028 translate
0.000000 rotate
0.000000 0.171875 m /four glyphshow
7.634766 0.171875 m /zero glyphshow
15.269531 0.171875 m /zero glyphshow
grestore
gsave
/o {
gsave
newpath
translate
0.5 setlinewidth
1 setlinejoin
0 setlinecap
0 0 m
4 0 l
gsave
0.000 setgray
fill
grestore
stroke
grestore
} bind def
73.125 177.736 o
grestore
gsave
/o {
gsave
newpath
translate
0.5 setlinewidth
1 setlinejoin
0 setlinecap
0 0 m
-4 0 l
gsave
0.000 setgray
fill
grestore
stroke
grestore
} bind def
526.5 177.736 o
grestore
gsave
47.921875 173.197301 translate
0.000000 rotate
0.000000 0.171875 m /five glyphshow
7.634766 0.171875 m /zero glyphshow
15.269531 0.171875 m /zero glyphshow
grestore
gsave
/o {
gsave
newpath
translate
0.5 setlinewidth
1 setlinejoin
0 setlinecap
0 0 m
4 0 l
gsave
0.000 setgray
fill
grestore
stroke
grestore
} bind def
73.125 204.464 o
grestore
gsave
/o {
gsave
newpath
translate
0.5 setlinewidth
1 setlinejoin
0 setlinecap
0 0 m
-4 0 l
gsave
0.000 setgray
fill
grestore
stroke
grestore
} bind def
526.5 204.464 o
grestore
gsave
47.843750 199.924574 translate
0.000000 rotate
0.000000 0.171875 m /six glyphshow
7.634766 0.171875 m /zero glyphshow
15.269531 0.171875 m /zero glyphshow
grestore
gsave
42.593750 85.281818 translate
90.000000 rotate
/Cmmi10 findfont
16.0 scalefont
setfont
0.000000 5.738125 moveto
/E glyphshow

/Cmmi10 findfont
11.2 scalefont
setfont
11.804688 1.656625 moveto
/t glyphshow

/Cmr10 findfont
16.0 scalefont
setfont
17.578125 5.738125 moveto
/parenleft glyphshow

/Cmmi10 findfont
16.0 scalefont
setfont
23.789062 5.738125 moveto
/W glyphshow

38.890625 5.738125 moveto
/slash glyphshow

46.890625 5.738125 moveto
/m glyphshow

/Cmr10 findfont
11.2 scalefont
setfont
60.937500 12.540625 moveto
/two glyphshow

/Cmr10 findfont
16.0 scalefont
setfont
71.658500 5.738125 moveto
/parenright glyphshow


grestore
1.000 setlinewidth
2 setlinecap
gsave
73.125 204.464 m
526.5 204.464 l
stroke
grestore
gsave
526.5 44.1 m
526.5 204.464 l
stroke
grestore
gsave
73.125 44.1 m
526.5 44.1 l
stroke
grestore
gsave
73.125 44.1 m
73.125 204.464 l
stroke
grestore
gsave
365.697 144.695 m
518.5 144.695 l
518.5 196.464 l
365.697 196.464 l
365.697 144.695 l
cl
gsave
1.000 setgray
fill
grestore
stroke
grestore
2.000 setlinewidth
0.000 0.000 1.000 setrgbcolor
gsave
376.897 183.507 m
399.297 183.507 l
stroke
grestore
0.000 setgray
/DejaVuSans findfont
16.000 scalefont
setfont
gsave
416.896875 177.673011 translate
0.000000 rotate
0.000000 0.234375 m /O glyphshow
12.593750 0.234375 m /b glyphshow
22.750000 0.234375 m /s glyphshow
31.085938 0.234375 m /e glyphshow
40.929688 0.234375 m /r glyphshow
47.507812 0.234375 m /v glyphshow
56.976562 0.234375 m /a glyphshow
66.781250 0.234375 m /t glyphshow
73.054688 0.234375 m /i glyphshow
77.500000 0.234375 m /o glyphshow
87.289062 0.234375 m /n glyphshow
grestore
1.000 0.000 0.000 setrgbcolor
gsave
376.897 160.023 m
399.297 160.023 l
stroke
grestore
0.000 setgray
gsave
416.896875 151.094886 translate
0.000000 rotate
0.000000 3.328125 m /S glyphshow
10.156250 3.328125 m /y glyphshow
19.625000 3.328125 m /n glyphshow
29.765625 3.328125 m /t glyphshow
36.039062 3.328125 m /h glyphshow
46.179688 3.328125 m /e glyphshow
56.023438 3.328125 m /t glyphshow
62.296875 3.328125 m /i glyphshow
66.742188 3.328125 m /c glyphshow
grestore

end
showpage
