%!PS-Adobe-3.0 EPSF-3.0
%%Title: /home/ebilionis/work/solar/tests/sigmoid_ex4.eps
%%Creator: matplotlib version 1.2.1, http://matplotlib.org/
%%CreationDate: Tue Nov 26 12:47:44 2013
%%Orientation: portrait
%%BoundingBox: 13 175 598 616
%%EndComments
%%BeginProlog
/mpldict 10 dict def
mpldict begin
/m { moveto } bind def
/l { lineto } bind def
/r { rlineto } bind def
/c { curveto } bind def
/cl { closepath } bind def
/box {
m
1 index 0 r
0 exch r
neg 0 r
cl
} bind def
/clipbox {
box
clip
newpath
} bind def
%!PS-Adobe-3.0 Resource-Font
%%Title: cmr10
%%Copyright: Copyright (C) 1994, Basil K. Malyshev. All Rights Reserved.012BaKoMa Fonts Collection, Level-B.
%%Creator: Converted from TrueType to type 3 by PPR
25 dict begin
/_d{bind def}bind def
/_m{moveto}_d
/_l{lineto}_d
/_cl{closepath eofill}_d
/_c{curveto}_d
/_sc{7 -1 roll{setcachedevice}{pop pop pop pop pop pop}ifelse}_d
/_e{exec}_d
/FontName /Cmr10 def
/PaintType 0 def
/FontMatrix[.001 0 0 .001 0 0]def
/FontBBox[-44 -250 1009 750]def
/FontType 3 def
/Encoding [ /zero /equal /two /four /parenright /one /parenleft /five ] def
/FontInfo 10 dict dup begin
/FamilyName (cmr10) def
/FullName (cmr10) def
/Notice (Copyright (C) 1994, Basil K. Malyshev. All Rights Reserved.012BaKoMa Fonts Collection, Level-B. ) def
/Weight (Regular) def
/Version (1.1/12-Nov-94) def
/ItalicAngle 0.0 def
/isFixedPitch false def
/UnderlinePosition -133 def
/UnderlineThickness 20 def
end readonly def
/CharStrings 8 dict dup begin
/zero{{500 0 39 -21 460 666 _sc
250 -21 _m
168 -21 112 12 83 79 _c
53 146 39 226 39 319 _c
39 377 44 431 55 482 _c
65 533 86 576 118 612 _c
149 648 193 666 250 666 _c
294 666 330 655 358 634 _c
386 612 407 585 422 551 _c
436 517 446 480 452 441 _c
457 402 460 361 460 319 _c
460 261 454 208 444 158 _c
433 108 412 65 381 31 _c
350 -3 306 -21 250 -21 _c
250 4 _m
}_e{287 4 315 23 333 61 _c
351 99 362 141 366 187 _c
370 233 373 283 373 335 _c
373 385 370 431 366 473 _c
362 515 351 554 333 588 _c
315 622 287 640 250 640 _c
212 640 184 622 166 588 _c
148 554 136 515 132 473 _c
128 431 126 385 126 335 _c
126 297 126 262 128 230 _c
130 197 135 163 143 128 _c
151 93 163 64 181 40 _c
198 16 221 4 250 4 _c
_cl}_e}_d
/equal{{777 0 56 133 721 367 _sc
75 133 _m
69 133 65 135 61 139 _c
57 143 56 148 56 153 _c
56 158 57 163 61 167 _c
65 171 69 173 75 173 _c
703 173 _l
707 173 711 171 715 167 _c
719 163 721 158 721 153 _c
721 148 719 143 715 139 _c
711 135 707 133 703 133 _c
75 133 _l
75 327 _m
69 327 65 329 61 333 _c
57 337 56 341 56 347 _c
56 351 57 356 61 360 _c
}_e{65 364 69 367 75 367 _c
703 367 _l
707 367 711 364 715 360 _c
719 356 721 351 721 347 _c
721 341 719 337 715 333 _c
711 329 707 327 703 327 _c
75 327 _l
_cl}_e}_d
/two{{500 0 50 0 449 666 _sc
50 0 _m
50 27 _l
50 28 50 30 52 32 _c
207 204 _l
230 229 249 250 264 268 _c
278 285 293 305 307 327 _c
321 349 333 372 341 396 _c
349 419 354 444 354 470 _c
354 497 349 523 339 548 _c
329 573 314 593 294 608 _c
274 623 249 631 221 631 _c
192 631 166 622 143 605 _c
119 587 103 565 94 537 _c
96 537 100 538 105 538 _c
}_e{119 538 132 533 143 523 _c
153 513 159 500 159 484 _c
159 468 153 455 143 445 _c
132 434 119 429 105 429 _c
89 429 76 434 66 445 _c
55 456 50 469 50 484 _c
50 508 54 532 64 554 _c
73 576 86 595 104 613 _c
122 630 142 643 164 652 _c
186 661 210 666 236 666 _c
274 666 309 658 342 642 _c
375 626 401 603 420 573 _c
439 543 449 509 449 470 _c
}_e{449 441 442 414 430 388 _c
417 362 401 338 381 317 _c
361 295 336 271 305 244 _c
274 217 254 199 244 190 _c
131 81 _l
227 81 _l
274 81 313 81 345 82 _c
377 82 394 84 396 86 _c
404 94 412 125 420 178 _c
449 178 _l
421 0 _l
50 0 _l
_cl}_e}_d
/four{{500 0 28 0 471 666 _sc
28 165 _m
28 200 _l
337 661 _l
339 664 342 666 347 666 _c
362 666 _l
369 666 373 662 373 655 _c
373 200 _l
471 200 _l
471 165 _l
373 165 _l
373 67 _l
373 53 382 44 402 40 _c
422 36 444 35 470 35 _c
470 0 _l
195 0 _l
195 35 _l
220 35 242 36 262 40 _c
282 44 292 53 292 67 _c
292 165 _l
28 165 _l
61 200 _m
298 200 _l
}_e{298 554 _l
61 200 _l
_cl}_e}_d
/parenright{{388 0 56 -249 291 750 _sc
65 -249 _m
59 -249 56 -246 56 -240 _c
56 -237 56 -235 58 -234 _c
172 -122 229 38 229 250 _c
229 462 172 623 60 733 _c
57 734 56 737 56 741 _c
56 743 57 745 59 747 _c
61 749 63 750 65 750 _c
74 750 _l
76 750 77 749 79 748 _c
127 710 167 664 199 610 _c
231 556 254 498 269 437 _c
283 376 291 314 291 250 _c
291 202 287 156 279 110 _c
}_e{271 64 258 20 241 -24 _c
223 -68 201 -108 175 -146 _c
148 -184 116 -217 79 -247 _c
77 -248 76 -249 74 -249 _c
65 -249 _l
_cl}_e}_d
/one{500 0 87 0 421 666 _sc
93 0 _m
93 35 _l
176 35 218 45 218 67 _c
218 592 _l
183 575 139 567 87 567 _c
87 602 _l
168 602 230 623 272 666 _c
286 666 _l
288 666 291 665 293 663 _c
295 661 296 659 296 657 _c
296 67 _l
296 45 337 35 421 35 _c
421 0 _l
93 0 _l
_cl}_d
/parenleft{{388 0 97 -249 332 750 _sc
310 -247 _m
272 -217 240 -184 214 -146 _c
187 -108 165 -67 148 -25 _c
131 17 118 62 110 109 _c
101 155 97 202 97 250 _c
97 298 101 345 110 392 _c
118 438 131 483 149 527 _c
166 570 188 611 215 649 _c
242 687 274 720 310 748 _c
310 749 311 750 315 750 _c
324 750 _l
326 750 327 749 329 747 _c
331 745 332 743 332 741 _c
332 738 331 736 330 735 _c
}_e{297 703 270 668 248 632 _c
226 596 209 557 196 516 _c
183 474 174 432 168 388 _c
162 344 159 298 159 250 _c
159 38 215 -122 329 -232 _c
331 -234 332 -236 332 -240 _c
332 -242 331 -244 329 -246 _c
327 -248 326 -249 324 -249 _c
315 -249 _l
311 -249 310 -248 310 -247 _c
_cl}_e}_d
/five{{500 0 50 -21 449 666 _sc
87 114 _m
93 94 104 76 118 60 _c
132 44 149 32 169 23 _c
188 14 208 10 229 10 _c
277 10 310 28 328 66 _c
346 103 356 148 356 202 _c
356 225 355 244 355 260 _c
354 276 352 291 348 306 _c
342 329 331 349 315 367 _c
299 385 281 394 259 394 _c
236 394 217 390 201 384 _c
185 377 171 369 161 360 _c
151 350 142 341 134 331 _c
}_e{126 321 122 315 120 315 _c
109 315 _l
107 315 104 316 102 318 _c
100 320 99 322 99 324 _c
99 658 _l
99 660 100 661 102 663 _c
104 665 106 666 109 666 _c
112 666 _l
156 644 204 634 255 634 _c
304 634 352 644 398 666 _c
401 666 _l
403 666 405 665 407 663 _c
409 661 410 660 410 658 _c
410 649 _l
410 645 409 644 408 644 _c
385 614 356 590 322 573 _c
}_e{288 556 252 548 216 548 _c
189 548 162 551 134 559 _c
134 370 _l
156 388 175 400 193 408 _c
210 416 232 420 260 420 _c
296 420 329 409 358 388 _c
387 366 409 339 425 305 _c
441 271 449 236 449 201 _c
449 161 439 124 419 90 _c
399 56 373 29 339 9 _c
305 -11 269 -21 229 -21 _c
196 -21 166 -12 138 4 _c
110 20 89 43 73 72 _c
57 100 50 131 50 163 _c
}_e{50 178 54 190 64 200 _c
74 209 86 214 101 214 _c
115 214 128 209 138 199 _c
148 189 153 177 153 163 _c
153 149 148 137 138 127 _c
128 117 115 112 101 112 _c
99 112 96 112 93 112 _c
90 112 88 113 87 114 _c
_cl}_e}_d
end readonly def

/BuildGlyph
 {exch begin
 CharStrings exch
 2 copy known not{pop /.notdef}if
 true 3 1 roll get exec
 end}_d

/BuildChar {
 1 index /Encoding get exch get
 1 index /BuildGlyph get exec
}_d

FontName currentdict end definefont pop
%!PS-Adobe-3.0 Resource-Font
%%Title: DejaVu Sans
%%Copyright: Copyright (c) 2003 by Bitstream, Inc. All Rights Reserved. Copyright (c) 2006 by Tavmjong Bah. All Rights Reserved. DejaVu changes are in public domain 
%%Creator: Converted from TrueType to type 3 by PPR
25 dict begin
/_d{bind def}bind def
/_m{moveto}_d
/_l{lineto}_d
/_cl{closepath eofill}_d
/_c{curveto}_d
/_sc{7 -1 roll{setcachedevice}{pop pop pop pop pop pop}ifelse}_d
/_e{exec}_d
/FontName /DejaVuSans def
/PaintType 0 def
/FontMatrix[.001 0 0 .001 0 0]def
/FontBBox[-1021 -415 1681 1167]def
/FontType 3 def
/Encoding [ /space /parenleft /parenright /period /zero /one /two /three /four /five /colon /C /E /O /S /a /b /c /e /h /i /m /n /o /p /r /s /t /v /x /y /minus ] def
/FontInfo 10 dict dup begin
/FamilyName (DejaVu Sans) def
/FullName (DejaVu Sans) def
/Notice (Copyright (c) 2003 by Bitstream, Inc. All Rights Reserved. Copyright (c) 2006 by Tavmjong Bah. All Rights Reserved. DejaVu changes are in public domain ) def
/Weight (Book) def
/Version (Version 2.33) def
/ItalicAngle 0.0 def
/isFixedPitch false def
/UnderlinePosition -130 def
/UnderlineThickness 90 def
end readonly def
/CharStrings 32 dict dup begin
/space{318 0 0 0 0 0 _sc
}_d
/parenleft{390 0 86 -131 310 759 _sc
310 759 _m
266 683 234 609 213 536 _c
191 463 181 389 181 314 _c
181 238 191 164 213 91 _c
234 17 266 -56 310 -131 _c
232 -131 _l
183 -54 146 20 122 94 _c
98 168 86 241 86 314 _c
86 386 98 459 122 533 _c
146 607 182 682 232 759 _c
310 759 _l
_cl}_d
/parenright{390 0 80 -131 304 759 _sc
80 759 _m
158 759 _l
206 682 243 607 267 533 _c
291 459 304 386 304 314 _c
304 241 291 168 267 94 _c
243 20 206 -54 158 -131 _c
80 -131 _l
123 -56 155 17 177 91 _c
198 164 209 238 209 314 _c
209 389 198 463 177 536 _c
155 609 123 683 80 759 _c
_cl}_d
/period{318 0 107 0 210 124 _sc
107 124 _m
210 124 _l
210 0 _l
107 0 _l
107 124 _l
_cl}_d
/zero{636 0 66 -13 570 742 _sc
318 664 _m
267 664 229 639 203 589 _c
177 539 165 464 165 364 _c
165 264 177 189 203 139 _c
229 89 267 64 318 64 _c
369 64 407 89 433 139 _c
458 189 471 264 471 364 _c
471 464 458 539 433 589 _c
407 639 369 664 318 664 _c
318 742 _m
399 742 461 709 505 645 _c
548 580 570 486 570 364 _c
570 241 548 147 505 83 _c
461 19 399 -13 318 -13 _c
236 -13 173 19 130 83 _c
87 147 66 241 66 364 _c
66 486 87 580 130 645 _c
173 709 236 742 318 742 _c
_cl}_d
/one{636 0 110 0 544 729 _sc
124 83 _m
285 83 _l
285 639 _l
110 604 _l
110 694 _l
284 729 _l
383 729 _l
383 83 _l
544 83 _l
544 0 _l
124 0 _l
124 83 _l
_cl}_d
/two{{636 0 73 0 536 742 _sc
192 83 _m
536 83 _l
536 0 _l
73 0 _l
73 83 _l
110 121 161 173 226 239 _c
290 304 331 346 348 365 _c
380 400 402 430 414 455 _c
426 479 433 504 433 528 _c
433 566 419 598 392 622 _c
365 646 330 659 286 659 _c
255 659 222 653 188 643 _c
154 632 117 616 78 594 _c
78 694 _l
118 710 155 722 189 730 _c
223 738 255 742 284 742 _c
}_e{359 742 419 723 464 685 _c
509 647 532 597 532 534 _c
532 504 526 475 515 449 _c
504 422 484 390 454 354 _c
446 344 420 317 376 272 _c
332 227 271 164 192 83 _c
_cl}_e}_d
/three{{636 0 76 -13 556 742 _sc
406 393 _m
453 383 490 362 516 330 _c
542 298 556 258 556 212 _c
556 140 531 84 482 45 _c
432 6 362 -13 271 -13 _c
240 -13 208 -10 176 -4 _c
144 1 110 10 76 22 _c
76 117 _l
103 101 133 89 166 81 _c
198 73 232 69 268 69 _c
330 69 377 81 409 105 _c
441 129 458 165 458 212 _c
458 254 443 288 413 312 _c
383 336 341 349 287 349 _c
}_e{202 349 _l
202 430 _l
291 430 _l
339 430 376 439 402 459 _c
428 478 441 506 441 543 _c
441 580 427 609 401 629 _c
374 649 336 659 287 659 _c
260 659 231 656 200 650 _c
169 644 135 635 98 623 _c
98 711 _l
135 721 170 729 203 734 _c
235 739 266 742 296 742 _c
370 742 429 725 473 691 _c
517 657 539 611 539 553 _c
539 513 527 479 504 451 _c
481 423 448 403 406 393 _c
_cl}_e}_d
/four{636 0 49 0 580 729 _sc
378 643 _m
129 254 _l
378 254 _l
378 643 _l
352 729 _m
476 729 _l
476 254 _l
580 254 _l
580 172 _l
476 172 _l
476 0 _l
378 0 _l
378 172 _l
49 172 _l
49 267 _l
352 729 _l
_cl}_d
/five{{636 0 77 -13 549 729 _sc
108 729 _m
495 729 _l
495 646 _l
198 646 _l
198 467 _l
212 472 227 476 241 478 _c
255 480 270 482 284 482 _c
365 482 429 459 477 415 _c
525 370 549 310 549 234 _c
549 155 524 94 475 51 _c
426 8 357 -13 269 -13 _c
238 -13 207 -10 175 -6 _c
143 -1 111 6 77 17 _c
77 116 _l
106 100 136 88 168 80 _c
199 72 232 69 267 69 _c
}_e{323 69 368 83 401 113 _c
433 143 450 183 450 234 _c
450 284 433 324 401 354 _c
368 384 323 399 267 399 _c
241 399 214 396 188 390 _c
162 384 135 375 108 363 _c
108 729 _l
_cl}_e}_d
/colon{337 0 117 0 220 517 _sc
117 124 _m
220 124 _l
220 0 _l
117 0 _l
117 124 _l
117 517 _m
220 517 _l
220 393 _l
117 393 _l
117 517 _l
_cl}_d
/C{{698 0 56 -13 644 742 _sc
644 673 _m
644 569 _l
610 599 575 622 537 638 _c
499 653 460 661 418 661 _c
334 661 270 635 226 584 _c
182 533 160 460 160 364 _c
160 268 182 194 226 143 _c
270 92 334 67 418 67 _c
460 67 499 74 537 90 _c
575 105 610 128 644 159 _c
644 56 _l
609 32 572 15 534 4 _c
496 -7 455 -13 412 -13 _c
302 -13 215 20 151 87 _c
}_e{87 154 56 246 56 364 _c
56 481 87 573 151 641 _c
215 708 302 742 412 742 _c
456 742 497 736 535 725 _c
573 713 610 696 644 673 _c
_cl}_e}_d
/E{632 0 98 0 568 729 _sc
98 729 _m
559 729 _l
559 646 _l
197 646 _l
197 430 _l
544 430 _l
544 347 _l
197 347 _l
197 83 _l
568 83 _l
568 0 _l
98 0 _l
98 729 _l
_cl}_d
/O{787 0 56 -13 731 742 _sc
394 662 _m
322 662 265 635 223 582 _c
181 528 160 456 160 364 _c
160 272 181 199 223 146 _c
265 92 322 66 394 66 _c
465 66 522 92 564 146 _c
606 199 627 272 627 364 _c
627 456 606 528 564 582 _c
522 635 465 662 394 662 _c
394 742 _m
496 742 577 707 639 639 _c
700 571 731 479 731 364 _c
731 248 700 157 639 89 _c
577 21 496 -13 394 -13 _c
291 -13 209 21 148 89 _c
86 157 56 248 56 364 _c
56 479 86 571 148 639 _c
209 707 291 742 394 742 _c
_cl}_d
/S{{635 0 66 -13 579 742 _sc
535 705 _m
535 609 _l
497 627 462 640 429 649 _c
395 657 363 662 333 662 _c
279 662 237 651 208 631 _c
179 610 165 580 165 542 _c
165 510 174 485 194 469 _c
213 452 250 439 304 429 _c
364 417 _l
437 403 491 378 526 343 _c
561 307 579 260 579 201 _c
579 130 555 77 508 41 _c
460 5 391 -13 300 -13 _c
265 -13 228 -9 189 -2 _c
}_e{150 5 110 16 69 32 _c
69 134 _l
109 111 148 94 186 83 _c
224 71 262 66 300 66 _c
356 66 399 77 430 99 _c
460 121 476 152 476 194 _c
476 230 465 258 443 278 _c
421 298 385 313 335 323 _c
275 335 _l
201 349 148 372 115 404 _c
82 435 66 478 66 534 _c
66 598 88 649 134 686 _c
179 723 242 742 322 742 _c
356 742 390 739 426 733 _c
461 727 497 717 535 705 _c
}_e{_cl}_e}_d
/a{{613 0 60 -13 522 560 _sc
343 275 _m
270 275 220 266 192 250 _c
164 233 150 205 150 165 _c
150 133 160 107 181 89 _c
202 70 231 61 267 61 _c
317 61 357 78 387 114 _c
417 149 432 196 432 255 _c
432 275 _l
343 275 _l
522 312 _m
522 0 _l
432 0 _l
432 83 _l
411 49 385 25 355 10 _c
325 -5 287 -13 243 -13 _c
187 -13 142 2 109 33 _c
76 64 60 106 60 159 _c
}_e{60 220 80 266 122 298 _c
163 329 224 345 306 345 _c
432 345 _l
432 354 _l
432 395 418 427 391 450 _c
364 472 326 484 277 484 _c
245 484 215 480 185 472 _c
155 464 127 453 100 439 _c
100 522 _l
132 534 164 544 195 550 _c
226 556 256 560 286 560 _c
365 560 424 539 463 498 _c
502 457 522 395 522 312 _c
_cl}_e}_d
/b{{635 0 91 -13 580 760 _sc
487 273 _m
487 339 473 390 446 428 _c
418 466 381 485 334 485 _c
286 485 249 466 222 428 _c
194 390 181 339 181 273 _c
181 207 194 155 222 117 _c
249 79 286 61 334 61 _c
381 61 418 79 446 117 _c
473 155 487 207 487 273 _c
181 464 _m
199 496 223 520 252 536 _c
281 552 316 560 356 560 _c
422 560 476 533 518 481 _c
559 428 580 359 580 273 _c
}_e{580 187 559 117 518 65 _c
476 13 422 -13 356 -13 _c
316 -13 281 -5 252 10 _c
223 25 199 49 181 82 _c
181 0 _l
91 0 _l
91 760 _l
181 760 _l
181 464 _l
_cl}_e}_d
/c{{550 0 55 -13 488 560 _sc
488 526 _m
488 442 _l
462 456 437 466 411 473 _c
385 480 360 484 334 484 _c
276 484 230 465 198 428 _c
166 391 150 339 150 273 _c
150 206 166 154 198 117 _c
230 80 276 62 334 62 _c
360 62 385 65 411 72 _c
437 79 462 90 488 104 _c
488 21 _l
462 9 436 0 410 -5 _c
383 -10 354 -13 324 -13 _c
242 -13 176 12 128 64 _c
}_e{79 115 55 185 55 273 _c
55 362 79 432 128 483 _c
177 534 244 560 330 560 _c
358 560 385 557 411 551 _c
437 545 463 537 488 526 _c
_cl}_e}_d
/e{{615 0 55 -13 562 560 _sc
562 296 _m
562 252 _l
149 252 _l
153 190 171 142 205 110 _c
238 78 284 62 344 62 _c
378 62 412 66 444 74 _c
476 82 509 95 541 113 _c
541 28 _l
509 14 476 3 442 -3 _c
408 -9 373 -13 339 -13 _c
251 -13 182 12 131 62 _c
80 112 55 181 55 268 _c
55 357 79 428 127 481 _c
175 533 241 560 323 560 _c
397 560 455 536 498 489 _c
}_e{540 441 562 377 562 296 _c
472 322 _m
471 371 457 410 431 440 _c
404 469 368 484 324 484 _c
274 484 234 469 204 441 _c
174 413 156 373 152 322 _c
472 322 _l
_cl}_e}_d
/h{634 0 91 0 549 760 _sc
549 330 _m
549 0 _l
459 0 _l
459 327 _l
459 379 448 417 428 443 _c
408 469 378 482 338 482 _c
289 482 251 466 223 435 _c
195 404 181 362 181 309 _c
181 0 _l
91 0 _l
91 760 _l
181 760 _l
181 462 _l
202 494 227 519 257 535 _c
286 551 320 560 358 560 _c
420 560 468 540 500 501 _c
532 462 549 405 549 330 _c
_cl}_d
/i{278 0 94 0 184 760 _sc
94 547 _m
184 547 _l
184 0 _l
94 0 _l
94 547 _l
94 760 _m
184 760 _l
184 646 _l
94 646 _l
94 760 _l
_cl}_d
/m{{974 0 91 0 889 560 _sc
520 442 _m
542 482 569 511 600 531 _c
631 550 668 560 711 560 _c
767 560 811 540 842 500 _c
873 460 889 403 889 330 _c
889 0 _l
799 0 _l
799 327 _l
799 379 789 418 771 444 _c
752 469 724 482 686 482 _c
639 482 602 466 575 435 _c
548 404 535 362 535 309 _c
535 0 _l
445 0 _l
445 327 _l
445 379 435 418 417 444 _c
398 469 369 482 331 482 _c
}_e{285 482 248 466 221 435 _c
194 404 181 362 181 309 _c
181 0 _l
91 0 _l
91 547 _l
181 547 _l
181 462 _l
201 495 226 520 255 536 _c
283 552 317 560 357 560 _c
397 560 430 550 458 530 _c
486 510 506 480 520 442 _c
_cl}_e}_d
/n{634 0 91 0 549 560 _sc
549 330 _m
549 0 _l
459 0 _l
459 327 _l
459 379 448 417 428 443 _c
408 469 378 482 338 482 _c
289 482 251 466 223 435 _c
195 404 181 362 181 309 _c
181 0 _l
91 0 _l
91 547 _l
181 547 _l
181 462 _l
202 494 227 519 257 535 _c
286 551 320 560 358 560 _c
420 560 468 540 500 501 _c
532 462 549 405 549 330 _c
_cl}_d
/o{612 0 55 -13 557 560 _sc
306 484 _m
258 484 220 465 192 427 _c
164 389 150 338 150 273 _c
150 207 163 156 191 118 _c
219 80 257 62 306 62 _c
354 62 392 80 420 118 _c
448 156 462 207 462 273 _c
462 337 448 389 420 427 _c
392 465 354 484 306 484 _c
306 560 _m
384 560 445 534 490 484 _c
534 433 557 363 557 273 _c
557 183 534 113 490 63 _c
445 12 384 -13 306 -13 _c
227 -13 165 12 121 63 _c
77 113 55 183 55 273 _c
55 363 77 433 121 484 _c
165 534 227 560 306 560 _c
_cl}_d
/p{{635 0 91 -207 580 560 _sc
181 82 _m
181 -207 _l
91 -207 _l
91 547 _l
181 547 _l
181 464 _l
199 496 223 520 252 536 _c
281 552 316 560 356 560 _c
422 560 476 533 518 481 _c
559 428 580 359 580 273 _c
580 187 559 117 518 65 _c
476 13 422 -13 356 -13 _c
316 -13 281 -5 252 10 _c
223 25 199 49 181 82 _c
487 273 _m
487 339 473 390 446 428 _c
418 466 381 485 334 485 _c
}_e{286 485 249 466 222 428 _c
194 390 181 339 181 273 _c
181 207 194 155 222 117 _c
249 79 286 61 334 61 _c
381 61 418 79 446 117 _c
473 155 487 207 487 273 _c
_cl}_e}_d
/r{411 0 91 0 411 560 _sc
411 463 _m
401 469 390 473 378 476 _c
366 478 353 480 339 480 _c
288 480 249 463 222 430 _c
194 397 181 350 181 288 _c
181 0 _l
91 0 _l
91 547 _l
181 547 _l
181 462 _l
199 495 224 520 254 536 _c
284 552 321 560 365 560 _c
371 560 378 559 386 559 _c
393 558 401 557 411 555 _c
411 463 _l
_cl}_d
/s{{521 0 54 -13 472 560 _sc
443 531 _m
443 446 _l
417 458 391 468 364 475 _c
336 481 308 485 279 485 _c
234 485 200 478 178 464 _c
156 450 145 430 145 403 _c
145 382 153 366 169 354 _c
185 342 217 330 265 320 _c
296 313 _l
360 299 405 279 432 255 _c
458 230 472 195 472 151 _c
472 100 452 60 412 31 _c
372 1 316 -13 246 -13 _c
216 -13 186 -10 154 -5 _c
}_e{122 0 89 8 54 20 _c
54 113 _l
87 95 120 82 152 74 _c
184 65 216 61 248 61 _c
290 61 323 68 346 82 _c
368 96 380 117 380 144 _c
380 168 371 187 355 200 _c
339 213 303 226 247 238 _c
216 245 _l
160 257 119 275 95 299 _c
70 323 58 356 58 399 _c
58 450 76 490 112 518 _c
148 546 200 560 268 560 _c
301 560 332 557 362 552 _c
391 547 418 540 443 531 _c
}_e{_cl}_e}_d
/t{392 0 27 0 368 702 _sc
183 702 _m
183 547 _l
368 547 _l
368 477 _l
183 477 _l
183 180 _l
183 135 189 106 201 94 _c
213 81 238 75 276 75 _c
368 75 _l
368 0 _l
276 0 _l
206 0 158 13 132 39 _c
106 65 93 112 93 180 _c
93 477 _l
27 477 _l
27 547 _l
93 547 _l
93 702 _l
183 702 _l
_cl}_d
/v{592 0 30 0 562 547 _sc
30 547 _m
125 547 _l
296 88 _l
467 547 _l
562 547 _l
357 0 _l
235 0 _l
30 547 _l
_cl}_d
/x{592 0 29 0 559 547 _sc
549 547 _m
351 281 _l
559 0 _l
453 0 _l
294 215 _l
135 0 _l
29 0 _l
241 286 _l
47 547 _l
153 547 _l
298 352 _l
443 547 _l
549 547 _l
_cl}_d
/y{592 0 30 -207 562 547 _sc
322 -50 _m
296 -114 271 -157 247 -177 _c
223 -197 191 -207 151 -207 _c
79 -207 _l
79 -132 _l
132 -132 _l
156 -132 175 -126 189 -114 _c
203 -102 218 -75 235 -31 _c
251 9 _l
30 547 _l
125 547 _l
296 119 _l
467 547 _l
562 547 _l
322 -50 _l
_cl}_d
/minus{838 0 106 272 732 355 _sc
106 355 _m
732 355 _l
732 272 _l
106 272 _l
106 355 _l
_cl}_d
end readonly def

/BuildGlyph
 {exch begin
 CharStrings exch
 2 copy known not{pop /.notdef}if
 true 3 1 roll get exec
 end}_d

/BuildChar {
 1 index /Encoding get exch get
 1 index /BuildGlyph get exec
}_d

FontName currentdict end definefont pop
%!PS-Adobe-3.0 Resource-Font
%%Title: cmmi10
%%Copyright: Copyright (C) 1994, Basil K. Malyshev. All Rights Reserved.012BaKoMa Fonts Collection, Level-B.
%%Creator: Converted from TrueType to type 3 by PPR
25 dict begin
/_d{bind def}bind def
/_m{moveto}_d
/_l{lineto}_d
/_cl{closepath eofill}_d
/_c{curveto}_d
/_sc{7 -1 roll{setcachedevice}{pop pop pop pop pop pop}ifelse}_d
/_e{exec}_d
/FontName /Cmmi10 def
/PaintType 0 def
/FontMatrix[.001 0 0 .001 0 0]def
/FontBBox[-34 -250 1048 750]def
/FontType 3 def
/Encoding [ /sigma /rho /comma /t /period /m /W /Y /s /slash /lscript /E ] def
/FontInfo 10 dict dup begin
/FamilyName (cmmi10) def
/FullName (cmmi10) def
/Notice (Copyright (C) 1994, Basil K. Malyshev. All Rights Reserved.012BaKoMa Fonts Collection, Level-B. ) def
/Weight (Regular) def
/Version (1.1/12-Nov-94) def
/ItalicAngle 0.0 def
/isFixedPitch false def
/UnderlinePosition -133 def
/UnderlineThickness 20 def
end readonly def
/CharStrings 12 dict dup begin
/sigma{{571 0 36 -10 568 431 _sc
187 -10 _m
157 -10 131 -3 108 10 _c
85 24 67 43 55 67 _c
42 91 36 118 36 147 _c
36 177 43 210 57 244 _c
71 278 90 310 114 338 _c
138 366 166 389 197 406 _c
227 422 259 431 291 431 _c
543 431 _l
549 431 555 428 560 424 _c
565 419 568 413 568 406 _c
568 396 564 387 557 380 _c
550 372 542 369 532 369 _c
410 369 _l
}_e{429 340 439 305 439 265 _c
439 231 432 198 419 166 _c
406 133 388 103 365 77 _c
342 50 315 29 284 13 _c
253 -2 221 -10 187 -10 _c
188 15 _m
224 15 257 29 285 58 _c
313 86 334 121 349 162 _c
364 203 372 241 372 277 _c
372 305 364 328 348 344 _c
332 360 310 369 282 369 _c
243 369 210 356 183 330 _c
156 304 136 271 122 232 _c
108 192 102 154 102 118 _c
}_e{102 89 109 65 124 45 _c
139 25 160 15 188 15 _c
_cl}_e}_d
/rho{{517 0 28 -215 504 442 _sc
28 -187 _m
28 -183 28 -180 29 -179 _c
128 219 _l
137 255 153 290 176 324 _c
199 358 227 387 260 409 _c
292 431 327 442 363 442 _c
391 442 416 434 438 419 _c
460 403 476 383 487 359 _c
498 335 504 308 504 279 _c
504 246 497 212 484 178 _c
470 144 452 112 429 84 _c
406 55 379 32 349 15 _c
319 -1 287 -10 254 -10 _c
234 -10 216 -4 199 6 _c
}_e{181 17 168 32 158 52 _c
99 -183 _l
97 -192 92 -200 84 -206 _c
76 -212 68 -215 58 -215 _c
50 -215 43 -212 37 -207 _c
31 -202 28 -195 28 -187 _c
256 15 _m
291 15 322 33 348 69 _c
374 105 394 148 408 197 _c
422 246 429 288 429 322 _c
429 347 423 369 412 388 _c
401 406 384 416 361 416 _c
331 416 306 405 284 383 _c
262 361 244 335 231 305 _c
217 275 206 245 198 213 _c
}_e{171 101 _l
175 77 184 56 199 40 _c
214 23 233 15 256 15 _c
_cl}_e}_d
/comma{277 0 84 -193 205 110 _sc
99 -179 _m
99 -176 100 -173 103 -171 _c
127 -147 145 -120 159 -90 _c
172 -60 179 -28 179 4 _c
179 16 _l
168 5 155 0 139 0 _c
123 0 110 5 100 16 _c
89 26 84 39 84 55 _c
84 71 89 84 100 94 _c
110 104 123 110 139 110 _c
163 110 180 99 190 77 _c
200 55 205 30 205 4 _c
205 -32 197 -67 183 -101 _c
168 -134 147 -164 120 -191 _c
117 -192 115 -193 114 -193 _c
110 -193 107 -191 104 -188 _c
100 -185 99 -182 99 -179 _c
_cl}_d
/t{{361 0 22 -10 330 626 _sc
62 81 _m
62 91 63 100 65 109 _c
137 396 _l
32 396 _l
25 396 22 400 22 409 _c
24 423 29 431 35 431 _c
146 431 _l
186 594 _l
188 602 193 610 201 616 _c
209 622 218 626 228 626 _c
236 626 243 623 249 618 _c
255 613 258 606 258 598 _c
258 596 257 594 257 593 _c
257 592 257 591 257 590 _c
217 431 _l
320 431 _l
326 431 330 426 330 418 _c
}_e{330 416 329 414 328 410 _c
327 406 326 402 324 400 _c
322 397 320 396 317 396 _c
208 396 _l
136 107 _l
131 88 129 72 129 58 _c
129 29 138 15 158 15 _c
187 15 213 28 236 56 _c
258 84 276 114 288 147 _c
290 151 293 153 296 153 _c
308 153 _l
310 153 312 152 314 150 _c
316 148 317 146 317 144 _c
317 142 316 141 316 141 _c
301 101 280 65 252 35 _c
}_e{224 5 192 -10 156 -10 _c
129 -10 107 -1 89 15 _c
71 32 62 54 62 81 _c
_cl}_e}_d
/period{277 0 84 0 194 110 _sc
84 55 _m
84 70 89 83 100 94 _c
111 104 124 110 139 110 _c
148 110 157 107 166 102 _c
174 97 181 90 186 82 _c
191 73 194 64 194 55 _c
194 40 188 27 178 16 _c
167 5 154 0 139 0 _c
124 0 111 5 100 16 _c
89 27 84 40 84 55 _c
_cl}_d
/m{{878 0 27 -10 851 442 _sc
77 17 _m
77 21 77 24 78 26 _c
153 324 _l
157 342 160 359 160 373 _c
160 401 150 416 131 416 _c
110 416 94 403 84 378 _c
74 353 64 322 55 284 _c
55 282 54 280 52 279 _c
50 278 48 278 47 278 _c
35 278 _l
33 278 31 279 29 281 _c
27 283 27 286 27 288 _c
34 317 41 342 48 362 _c
54 382 65 400 79 417 _c
}_e{93 433 110 442 132 442 _c
156 442 178 434 198 418 _c
217 402 227 382 227 358 _c
247 384 270 404 297 419 _c
323 434 352 442 382 442 _c
413 442 440 434 463 418 _c
486 402 498 379 498 349 _c
518 378 542 401 570 417 _c
597 433 627 442 660 442 _c
694 442 722 432 743 414 _c
764 395 775 368 775 334 _c
775 306 768 273 756 235 _c
744 196 729 153 711 105 _c
}_e{701 81 697 61 697 45 _c
697 25 704 15 720 15 _c
746 15 767 29 785 57 _c
802 85 814 115 822 147 _c
824 151 826 153 830 153 _c
842 153 _l
844 153 846 152 848 150 _c
850 148 851 146 851 144 _c
851 143 850 142 850 141 _c
840 103 824 68 802 37 _c
780 5 752 -10 718 -10 _c
694 -10 674 -2 658 13 _c
641 29 633 48 633 72 _c
633 83 635 96 641 111 _c
}_e{659 161 675 205 688 245 _c
700 284 707 319 707 349 _c
707 367 703 383 696 396 _c
688 409 676 416 658 416 _c
622 416 590 404 563 382 _c
536 360 513 330 494 294 _c
492 287 491 282 491 279 _c
427 22 _l
424 12 419 5 411 -1 _c
403 -7 394 -10 385 -10 _c
377 -10 370 -7 364 -3 _c
358 1 355 8 355 17 _c
355 21 355 24 356 26 _c
420 281 _l
426 308 430 331 430 349 _c
}_e{430 367 426 383 418 396 _c
410 409 398 416 380 416 _c
355 416 332 410 312 400 _c
292 389 274 375 259 357 _c
243 339 229 318 217 294 _c
149 22 _l
147 12 142 5 134 -1 _c
126 -7 117 -10 107 -10 _c
99 -10 92 -7 86 -3 _c
80 1 77 8 77 17 _c
_cl}_e}_d
/W{{944 0 54 -21 1048 683 _sc
178 -10 _m
132 626 _l
129 636 121 642 109 644 _c
97 646 82 648 64 648 _c
57 648 54 652 54 661 _c
56 669 58 675 60 678 _c
61 681 65 683 71 683 _c
309 683 _l
315 683 319 678 319 670 _c
316 655 312 648 306 648 _c
252 648 224 638 221 620 _c
257 115 _l
507 551 _l
502 626 _l
500 636 492 642 480 644 _c
467 646 452 648 434 648 _c
}_e{427 648 424 652 424 661 _c
426 669 427 675 429 678 _c
430 681 434 683 441 683 _c
679 683 _l
685 683 689 678 689 670 _c
688 668 687 665 687 661 _c
686 657 685 654 683 652 _c
681 649 679 648 676 648 _c
622 648 593 638 591 620 _c
591 613 _l
627 115 _l
899 590 _l
903 597 905 604 905 611 _c
905 624 898 633 885 639 _c
871 645 856 648 840 648 _c
833 648 830 652 830 661 _c
}_e{831 666 832 670 833 673 _c
833 676 835 678 837 680 _c
839 682 843 683 847 683 _c
1038 683 _l
1044 683 1048 678 1048 670 _c
1047 668 1046 665 1045 661 _c
1044 657 1043 653 1041 651 _c
1039 649 1037 648 1035 648 _c
987 648 951 626 927 583 _c
925 581 924 580 924 580 _c
585 -10 _l
581 -17 576 -21 568 -21 _c
560 -21 _l
552 -21 548 -17 548 -10 _c
510 504 _l
216 -10 _l
}_e{210 -17 204 -21 198 -21 _c
190 -21 _l
182 -21 178 -17 178 -10 _c
_cl}_e}_d
/Y{{580 0 33 0 763 683 _sc
89 13 _m
89 15 89 17 90 21 _c
91 25 92 28 94 31 _c
96 33 98 35 102 35 _c
142 35 171 37 187 42 _c
190 42 193 44 196 48 _c
198 52 200 56 202 60 _c
204 64 205 68 207 72 _c
257 273 _l
128 628 _l
122 636 111 642 96 644 _c
80 646 63 648 43 648 _c
36 648 33 652 33 661 _c
35 669 36 674 38 678 _c
}_e{40 681 44 683 50 683 _c
302 683 _l
308 683 311 678 311 670 _c
308 655 304 648 298 648 _c
250 648 227 640 227 626 _c
340 318 _l
576 591 _l
577 594 579 598 583 603 _c
586 607 588 611 590 615 _c
592 618 593 622 593 626 _c
593 640 579 648 552 648 _c
545 648 542 652 542 661 _c
543 666 544 670 545 673 _c
545 676 547 678 549 680 _c
551 682 555 683 559 683 _c
753 683 _l
}_e{755 683 758 681 760 678 _c
762 675 763 672 763 670 _c
761 665 760 661 760 659 _c
759 657 758 654 756 652 _c
754 649 752 648 749 648 _c
722 648 697 642 673 630 _c
649 618 629 602 611 582 _c
610 581 609 580 608 580 _c
607 580 606 579 606 578 _c
342 273 _l
290 66 _l
290 64 289 61 289 58 _c
288 55 288 53 288 51 _c
288 48 288 46 289 44 _c
290 42 291 41 293 41 _c
}_e{294 40 296 39 300 39 _c
312 36 336 35 372 35 _c
378 35 382 30 382 22 _c
379 12 377 6 376 4 _c
375 1 371 0 365 0 _c
99 0 _l
92 0 89 4 89 13 _c
_cl}_e}_d
/s{{468 0 52 -10 419 442 _sc
87 61 _m
105 30 141 15 195 15 _c
218 15 240 19 261 27 _c
282 35 300 47 314 63 _c
328 79 335 98 335 121 _c
335 138 328 152 316 163 _c
304 174 289 182 271 186 _c
217 197 _l
192 203 172 214 156 231 _c
140 248 132 269 132 293 _c
132 322 140 348 156 371 _c
172 394 193 412 219 424 _c
245 436 273 442 302 442 _c
332 442 359 434 383 420 _c
}_e{407 405 419 384 419 356 _c
419 340 414 327 406 315 _c
397 303 385 298 370 298 _c
361 298 353 300 347 306 _c
341 312 338 319 338 328 _c
338 336 340 343 344 351 _c
348 358 354 364 362 368 _c
369 372 377 375 385 375 _c
379 389 368 399 352 406 _c
336 412 318 416 300 416 _c
282 416 265 412 249 406 _c
232 399 218 389 208 376 _c
198 362 193 347 193 329 _c
}_e{193 317 197 306 205 297 _c
213 288 224 282 237 278 _c
295 266 _l
313 262 330 255 346 245 _c
361 235 373 222 382 207 _c
391 192 396 175 396 156 _c
396 131 389 106 375 82 _c
361 58 344 39 324 25 _c
288 1 245 -10 194 -10 _c
158 -10 126 -2 96 14 _c
66 30 52 54 52 86 _c
52 104 57 119 67 133 _c
77 147 92 154 111 154 _c
121 154 130 150 138 144 _c
}_e{145 137 149 128 149 118 _c
149 102 143 89 132 78 _c
120 66 107 61 92 61 _c
87 61 _l
_cl}_e}_d
/slash{500 0 56 -249 443 750 _sc
56 -229 _m
56 -227 56 -225 57 -225 _c
405 738 _l
406 742 408 745 412 747 _c
415 749 419 750 423 750 _c
429 750 433 748 437 744 _c
441 740 443 736 443 730 _c
443 726 _l
95 -237 _l
91 -245 84 -249 76 -249 _c
70 -249 66 -247 62 -243 _c
58 -239 56 -234 56 -229 _c
_cl}_d
/lscript{{416 0 10 -14 398 705 _sc
24 74 _m
21 74 18 75 15 79 _c
11 83 10 86 10 90 _c
10 95 37 123 93 174 _c
93 176 92 179 92 181 _c
92 183 92 185 92 187 _c
92 215 94 244 98 274 _c
102 304 109 333 117 363 _c
125 393 135 424 147 456 _c
159 488 172 517 184 541 _c
205 585 228 623 254 656 _c
279 688 307 705 339 705 _c
360 705 375 697 384 683 _c
}_e{393 669 398 651 398 629 _c
398 507 317 363 155 198 _c
152 169 151 149 151 137 _c
151 53 170 12 208 12 _c
224 12 240 16 256 25 _c
272 33 286 43 298 53 _c
309 63 325 78 346 98 _c
347 99 349 100 352 100 _c
355 100 358 98 362 94 _c
365 90 367 86 367 83 _c
367 81 365 78 363 76 _c
333 47 306 25 282 9 _c
258 -6 233 -14 206 -14 _c
}_e{170 -14 144 1 127 31 _c
110 61 99 96 95 138 _c
77 120 55 99 30 76 _c
29 74 27 74 24 74 _c
163 246 _m
198 284 231 323 262 365 _c
293 407 319 451 340 497 _c
360 543 371 588 371 632 _c
371 663 360 679 338 679 _c
314 679 289 650 265 594 _c
240 537 219 476 201 410 _c
183 344 171 289 163 246 _c
_cl}_e}_d
/E{{738 0 37 0 764 683 _sc
47 0 _m
40 0 37 4 37 13 _c
37 15 38 18 39 22 _c
40 26 41 29 43 31 _c
45 33 47 35 50 35 _c
90 35 119 37 135 42 _c
143 44 150 53 154 69 _c
291 618 _l
292 624 293 629 293 632 _c
293 639 289 643 281 644 _c
268 646 244 648 209 648 _c
202 648 199 652 199 661 _c
199 663 200 666 201 670 _c
202 674 203 677 205 679 _c
}_e{207 681 209 683 212 683 _c
754 683 _l
760 683 764 678 764 670 _c
740 463 _l
740 461 738 459 736 457 _c
734 455 732 454 730 454 _c
721 454 _l
714 454 711 458 711 467 _c
715 499 717 523 717 539 _c
717 565 712 586 703 601 _c
693 616 681 627 666 633 _c
651 639 634 643 616 645 _c
598 647 574 648 544 648 _c
430 648 _l
412 648 400 646 394 643 _c
388 640 382 630 378 614 _c
}_e{318 372 _l
396 372 _l
430 372 455 374 473 379 _c
490 383 504 393 514 408 _c
524 423 533 447 541 480 _c
541 482 542 484 544 486 _c
546 488 548 489 551 489 _c
560 489 _l
566 489 570 484 570 476 _c
508 229 _l
506 223 503 220 498 220 _c
489 220 _l
482 220 479 224 479 233 _c
485 259 489 279 489 292 _c
489 311 480 323 462 329 _c
444 334 421 337 392 337 _c
309 337 _l
}_e{241 65 _l
238 57 237 49 237 43 _c
237 37 248 35 271 35 _c
392 35 _l
440 35 479 38 509 46 _c
539 54 563 66 583 82 _c
603 98 620 119 634 145 _c
648 170 666 207 687 256 _c
688 260 691 262 696 262 _c
705 262 _l
707 262 710 260 712 258 _c
714 256 715 253 715 251 _c
715 249 714 248 714 247 _c
611 6 _l
609 2 607 0 603 0 _c
47 0 _l
_cl}_e}_d
end readonly def

/BuildGlyph
 {exch begin
 CharStrings exch
 2 copy known not{pop /.notdef}if
 true 3 1 roll get exec
 end}_d

/BuildChar {
 1 index /Encoding get exch get
 1 index /BuildGlyph get exec
}_d

FontName currentdict end definefont pop
end
%%EndProlog
mpldict begin
13.5 175.5 translate
585 441 0 0 clipbox
gsave
0 0 m
585 0 l
585 441 l
0 441 l
cl
1.000 setgray
fill
grestore
gsave
73.125 236.536 m
526.5 236.536 l
526.5 396.9 l
73.125 396.9 l
cl
1.000 setgray
fill
grestore
2.000 setlinewidth
1 setlinejoin
2 setlinecap
[] 0 setdash
1.000 0.000 0.000 setrgbcolor
gsave
453.4 160.4 73.12 236.5 clipbox
73.125 287.613 m
75.3919 302.984 l
76.5253 283.9 l
77.6587 280.711 l
78.7922 290.344 l
79.9256 273.966 l
81.0591 270.722 l
82.1925 262.059 l
83.3259 262.441 l
84.4594 272.283 l
85.5928 273.179 l
86.7262 275.582 l
87.8597 273.572 l
88.9931 277.909 l
90.1266 295.28 l
91.26 286.329 l
92.3934 289.416 l
93.5269 275.916 l
94.6603 283.294 l
95.7938 287.555 l
96.9272 274.336 l
98.0606 272.044 l
99.1941 287.878 l
100.328 289.789 l
101.461 292.445 l
102.594 288.004 l
103.728 275.721 l
104.861 276.349 l
105.995 279.579 l
107.128 280.388 l
108.262 279.817 l
109.395 288.227 l
110.528 285.564 l
111.662 286.156 l
112.795 289.723 l
113.929 306.082 l
115.062 305.885 l
116.196 302.649 l
117.329 312.774 l
118.463 321.139 l
119.596 328.512 l
120.729 321.751 l
121.863 316.711 l
122.996 315.88 l
124.13 311.609 l
125.263 315.628 l
126.397 304.611 l
127.53 309.955 l
128.663 304.608 l
129.797 298.261 l
130.93 306.061 l
133.197 319.554 l
134.331 318.498 l
135.464 330.113 l
136.597 317.827 l
137.731 311.597 l
138.864 315.51 l
141.131 302.597 l
142.265 299.261 l
143.398 307.78 l
144.532 301.638 l
145.665 316.373 l
146.798 319.892 l
147.932 329.146 l
149.065 329.006 l
150.199 327.209 l
151.332 320.729 l
152.466 332.898 l
153.599 339.2 l
154.733 346.89 l
155.866 346.828 l
156.999 344.691 l
158.133 352.225 l
159.266 352.274 l
160.4 323.698 l
161.533 325.06 l
162.667 321.483 l
163.8 318.57 l
164.933 326.117 l
166.067 318.381 l
167.2 323.49 l
168.334 313.568 l
169.467 324.539 l
171.734 300.962 l
172.868 300.982 l
174.001 292.942 l
175.134 300.527 l
176.268 275.668 l
177.401 274.664 l
179.668 288.474 l
180.802 276.287 l
181.935 301.585 l
183.068 277.754 l
184.202 283.259 l
185.335 287.574 l
186.469 294.04 l
188.736 304.821 l
189.869 302.79 l
191.002 297.41 l
192.136 302.612 l
193.269 300.151 l
194.403 296.52 l
195.536 294.162 l
196.67 287.594 l
197.803 288 l
198.937 291.52 l
200.07 293.038 l
201.203 297.459 l
202.337 302.428 l
203.47 299.674 l
204.604 300.79 l
205.737 306.344 l
206.871 306.531 l
208.004 306.087 l
209.138 301.389 l
210.271 286.192 l
211.404 276.796 l
212.538 279.491 l
213.671 277.905 l
214.805 273.219 l
215.938 285.181 l
217.072 283.886 l
218.205 281.666 l
219.338 284.609 l
221.605 301.448 l
222.739 304.575 l
223.872 314.493 l
225.006 313.974 l
226.139 328.655 l
227.273 328.666 l
228.406 330.719 l
229.539 352.432 l
230.673 333.654 l
231.806 337.881 l
232.94 331.495 l
234.073 328.029 l
235.207 333.189 l
236.34 333.772 l
237.473 347.793 l
238.607 349.821 l
239.74 345.749 l
240.874 351.038 l
242.007 351.125 l
243.141 360.604 l
244.274 366.806 l
245.408 360.298 l
246.541 343.932 l
247.674 340.209 l
249.941 321.237 l
251.075 324.215 l
252.208 325.234 l
253.342 338.388 l
254.475 333.482 l
255.608 333.722 l
256.742 338.147 l
257.875 336.557 l
259.009 332.473 l
260.142 346.961 l
261.276 345.798 l
262.409 352.577 l
263.543 352.577 l
264.676 353.212 l
265.809 346.5 l
266.943 337.546 l
268.076 334.866 l
270.343 326.726 l
271.477 336.721 l
272.61 349.574 l
274.877 343.515 l
276.01 339.797 l
277.144 355.786 l
278.277 345.076 l
279.411 347.077 l
281.678 313.725 l
282.811 333.94 l
283.944 324.947 l
285.078 311.221 l
286.211 307.033 l
287.345 313.248 l
288.478 321.904 l
289.612 318.074 l
290.745 327.945 l
291.878 341.846 l
293.012 353.053 l
294.145 355.79 l
295.279 359.831 l
296.412 346.842 l
297.546 343.874 l
298.679 346.75 l
299.812 359.705 l
300.946 358.85 l
302.079 360.313 l
304.346 370.329 l
305.48 371.002 l
306.613 374.054 l
307.747 368.865 l
308.88 349.263 l
310.013 349.967 l
311.147 350.513 l
312.28 331.279 l
313.414 333.055 l
314.547 346.746 l
315.681 345.144 l
316.814 356.256 l
317.947 347.156 l
319.081 350.246 l
320.214 353.729 l
321.348 337.866 l
322.481 337.68 l
323.615 342.197 l
324.748 338.894 l
325.882 355.742 l
327.015 344.301 l
328.148 357.649 l
329.282 368.444 l
330.415 363.067 l
331.549 366.463 l
332.682 360.684 l
333.816 373.827 l
334.949 374.71 l
336.083 373.872 l
337.216 367.12 l
338.349 367.666 l
339.483 361.879 l
340.616 371.419 l
341.75 375.513 l
342.883 369.505 l
344.017 366.672 l
345.15 358.781 l
346.283 343.676 l
347.417 342.657 l
348.55 352.748 l
349.684 343.247 l
350.817 337.174 l
351.951 342.501 l
353.084 351.036 l
354.218 367.7 l
355.351 358.838 l
356.484 364.333 l
357.618 355.554 l
358.751 372.444 l
359.885 361.464 l
362.152 359.403 l
363.285 348.68 l
364.418 340.878 l
365.552 316.128 l
366.685 311.755 l
367.819 313.842 l
368.952 315.391 l
370.086 322.536 l
371.219 340.341 l
372.353 329.392 l
373.486 337.806 l
374.619 340.458 l
375.753 340.667 l
376.886 338.661 l
378.02 328.306 l
379.153 324.035 l
380.287 306.91 l
381.42 295.292 l
382.553 297.575 l
383.687 305.557 l
384.82 311.127 l
385.954 303.694 l
387.087 310.008 l
388.221 293.516 l
389.354 295.649 l
390.488 299.195 l
391.621 293.806 l
392.754 279.876 l
393.888 258.482 l
395.021 259.23 l
396.155 270.603 l
397.288 259.487 l
398.422 252.49 l
399.555 250.841 l
400.688 254.951 l
401.822 263.481 l
402.955 264.179 l
404.089 270.705 l
405.222 271.004 l
406.356 268.197 l
407.489 253.584 l
408.623 259.193 l
409.756 259.129 l
410.889 254.165 l
412.023 269.329 l
413.156 269.067 l
414.29 272.228 l
415.423 269.939 l
416.557 271.383 l
417.69 281.353 l
418.823 294.684 l
419.957 304.587 l
421.09 311.302 l
423.357 330.955 l
424.491 330.148 l
425.624 327.119 l
426.758 331.525 l
427.891 333.638 l
429.024 332.557 l
430.158 328.363 l
431.291 319.979 l
432.425 315.989 l
433.558 313.603 l
434.692 315.34 l
435.825 311.095 l
436.958 332.936 l
438.092 342.069 l
439.225 342.076 l
440.359 334.446 l
441.492 335.891 l
442.626 326.017 l
443.759 331.99 l
444.893 319.808 l
446.026 322.581 l
447.159 315.48 l
448.293 302.734 l
449.426 303.385 l
450.56 300.417 l
451.693 307.459 l
452.827 309.053 l
453.96 306.131 l
455.093 308.733 l
456.227 313.595 l
457.36 298.705 l
458.494 295.324 l
459.627 294.756 l
460.761 308.444 l
461.894 310.257 l
463.028 310.391 l
464.161 313.122 l
465.294 305.966 l
466.428 314.524 l
468.695 325.006 l
469.828 327.655 l
470.962 352.506 l
472.095 357.44 l
473.228 365.214 l
474.362 354.767 l
475.495 354.438 l
476.629 347.55 l
477.762 339.964 l
478.896 352.401 l
480.029 357.849 l
481.163 353.868 l
482.296 347.369 l
483.429 337 l
484.563 334.006 l
485.696 343.053 l
486.83 360.493 l
487.963 355.935 l
489.097 347.889 l
490.23 332.496 l
491.363 331.451 l
492.497 334.854 l
493.63 344.827 l
494.764 346.99 l
495.897 358.973 l
497.031 346.198 l
498.164 343.81 l
499.298 366.962 l
500.431 358.606 l
501.564 370.507 l
502.698 374.366 l
503.831 386.33 l
504.965 393.703 l
506.098 393.653 l
507.232 394.817 l
507.232 394.817 l
stroke
grestore
0.500 setlinewidth
0 setlinecap
0.000 setgray
gsave
/o {
gsave
newpath
translate
0.5 setlinewidth
1 setlinejoin
0 setlinecap
0 0 m
0 4 l
gsave
0.000 setgray
fill
grestore
stroke
grestore
} bind def
73.125 236.536 o
grestore
gsave
/o {
gsave
newpath
translate
0.5 setlinewidth
1 setlinejoin
0 setlinecap
0 0 m
0 -4 l
gsave
0.000 setgray
fill
grestore
stroke
grestore
} bind def
73.125 396.9 o
grestore
/DejaVuSans findfont
12.000 scalefont
setfont
gsave
70.101562 223.458239 translate
0.000000 rotate
0.000000 0.171875 m /zero glyphshow
grestore
gsave
/o {
gsave
newpath
translate
0.5 setlinewidth
1 setlinejoin
0 setlinecap
0 0 m
0 4 l
gsave
0.000 setgray
fill
grestore
stroke
grestore
} bind def
129.797 236.536 o
grestore
gsave
/o {
gsave
newpath
translate
0.5 setlinewidth
1 setlinejoin
0 setlinecap
0 0 m
0 -4 l
gsave
0.000 setgray
fill
grestore
stroke
grestore
} bind def
129.797 396.9 o
grestore
gsave
123.015625 223.458239 translate
0.000000 rotate
0.000000 0.171875 m /five glyphshow
7.634766 0.171875 m /zero glyphshow
grestore
gsave
/o {
gsave
newpath
translate
0.5 setlinewidth
1 setlinejoin
0 setlinecap
0 0 m
0 4 l
gsave
0.000 setgray
fill
grestore
stroke
grestore
} bind def
186.469 236.536 o
grestore
gsave
/o {
gsave
newpath
translate
0.5 setlinewidth
1 setlinejoin
0 setlinecap
0 0 m
0 -4 l
gsave
0.000 setgray
fill
grestore
stroke
grestore
} bind def
186.469 396.9 o
grestore
gsave
176.062500 223.458239 translate
0.000000 rotate
0.000000 0.171875 m /one glyphshow
7.634766 0.171875 m /zero glyphshow
15.269531 0.171875 m /zero glyphshow
grestore
gsave
/o {
gsave
newpath
translate
0.5 setlinewidth
1 setlinejoin
0 setlinecap
0 0 m
0 4 l
gsave
0.000 setgray
fill
grestore
stroke
grestore
} bind def
243.141 236.536 o
grestore
gsave
/o {
gsave
newpath
translate
0.5 setlinewidth
1 setlinejoin
0 setlinecap
0 0 m
0 -4 l
gsave
0.000 setgray
fill
grestore
stroke
grestore
} bind def
243.141 396.9 o
grestore
gsave
232.734375 223.458239 translate
0.000000 rotate
0.000000 0.171875 m /one glyphshow
7.634766 0.171875 m /five glyphshow
15.269531 0.171875 m /zero glyphshow
grestore
gsave
/o {
gsave
newpath
translate
0.5 setlinewidth
1 setlinejoin
0 setlinecap
0 0 m
0 4 l
gsave
0.000 setgray
fill
grestore
stroke
grestore
} bind def
299.812 236.536 o
grestore
gsave
/o {
gsave
newpath
translate
0.5 setlinewidth
1 setlinejoin
0 setlinecap
0 0 m
0 -4 l
gsave
0.000 setgray
fill
grestore
stroke
grestore
} bind def
299.812 396.9 o
grestore
gsave
289.187500 223.458239 translate
0.000000 rotate
0.000000 0.171875 m /two glyphshow
7.634766 0.171875 m /zero glyphshow
15.269531 0.171875 m /zero glyphshow
grestore
gsave
/o {
gsave
newpath
translate
0.5 setlinewidth
1 setlinejoin
0 setlinecap
0 0 m
0 4 l
gsave
0.000 setgray
fill
grestore
stroke
grestore
} bind def
356.484 236.536 o
grestore
gsave
/o {
gsave
newpath
translate
0.5 setlinewidth
1 setlinejoin
0 setlinecap
0 0 m
0 -4 l
gsave
0.000 setgray
fill
grestore
stroke
grestore
} bind def
356.484 396.9 o
grestore
gsave
345.859375 223.458239 translate
0.000000 rotate
0.000000 0.171875 m /two glyphshow
7.634766 0.171875 m /five glyphshow
15.269531 0.171875 m /zero glyphshow
grestore
gsave
/o {
gsave
newpath
translate
0.5 setlinewidth
1 setlinejoin
0 setlinecap
0 0 m
0 4 l
gsave
0.000 setgray
fill
grestore
stroke
grestore
} bind def
413.156 236.536 o
grestore
gsave
/o {
gsave
newpath
translate
0.5 setlinewidth
1 setlinejoin
0 setlinecap
0 0 m
0 -4 l
gsave
0.000 setgray
fill
grestore
stroke
grestore
} bind def
413.156 396.9 o
grestore
gsave
402.554688 223.458239 translate
0.000000 rotate
0.000000 0.171875 m /three glyphshow
7.634766 0.171875 m /zero glyphshow
15.269531 0.171875 m /zero glyphshow
grestore
gsave
/o {
gsave
newpath
translate
0.5 setlinewidth
1 setlinejoin
0 setlinecap
0 0 m
0 4 l
gsave
0.000 setgray
fill
grestore
stroke
grestore
} bind def
469.828 236.536 o
grestore
gsave
/o {
gsave
newpath
translate
0.5 setlinewidth
1 setlinejoin
0 setlinecap
0 0 m
0 -4 l
gsave
0.000 setgray
fill
grestore
stroke
grestore
} bind def
469.828 396.9 o
grestore
gsave
459.226563 223.458239 translate
0.000000 rotate
0.000000 0.171875 m /three glyphshow
7.634766 0.171875 m /five glyphshow
15.269531 0.171875 m /zero glyphshow
grestore
gsave
/o {
gsave
newpath
translate
0.5 setlinewidth
1 setlinejoin
0 setlinecap
0 0 m
0 4 l
gsave
0.000 setgray
fill
grestore
stroke
grestore
} bind def
526.5 236.536 o
grestore
gsave
/o {
gsave
newpath
translate
0.5 setlinewidth
1 setlinejoin
0 setlinecap
0 0 m
0 -4 l
gsave
0.000 setgray
fill
grestore
stroke
grestore
} bind def
526.5 396.9 o
grestore
gsave
515.734375 223.458239 translate
0.000000 rotate
0.000000 0.171875 m /four glyphshow
7.634766 0.171875 m /zero glyphshow
15.269531 0.171875 m /zero glyphshow
grestore
gsave
/o {
gsave
newpath
translate
0.5 setlinewidth
1 setlinejoin
0 setlinecap
0 0 m
4 0 l
gsave
0.000 setgray
fill
grestore
stroke
grestore
} bind def
73.125 236.536 o
grestore
gsave
/o {
gsave
newpath
translate
0.5 setlinewidth
1 setlinejoin
0 setlinecap
0 0 m
-4 0 l
gsave
0.000 setgray
fill
grestore
stroke
grestore
} bind def
526.5 236.536 o
grestore
gsave
42.031250 231.997301 translate
0.000000 rotate
0.000000 0.171875 m /minus glyphshow
10.054688 0.171875 m /two glyphshow
17.689453 0.171875 m /period glyphshow
21.503906 0.171875 m /zero glyphshow
grestore
gsave
/o {
gsave
newpath
translate
0.5 setlinewidth
1 setlinejoin
0 setlinecap
0 0 m
4 0 l
gsave
0.000 setgray
fill
grestore
stroke
grestore
} bind def
73.125 256.582 o
grestore
gsave
/o {
gsave
newpath
translate
0.5 setlinewidth
1 setlinejoin
0 setlinecap
0 0 m
-4 0 l
gsave
0.000 setgray
fill
grestore
stroke
grestore
} bind def
526.5 256.582 o
grestore
gsave
42.281250 252.120881 translate
0.000000 rotate
0.000000 0.171875 m /minus glyphshow
10.054688 0.171875 m /one glyphshow
17.689453 0.171875 m /period glyphshow
21.503906 0.171875 m /five glyphshow
grestore
gsave
/o {
gsave
newpath
translate
0.5 setlinewidth
1 setlinejoin
0 setlinecap
0 0 m
4 0 l
gsave
0.000 setgray
fill
grestore
stroke
grestore
} bind def
73.125 276.627 o
grestore
gsave
/o {
gsave
newpath
translate
0.5 setlinewidth
1 setlinejoin
0 setlinecap
0 0 m
-4 0 l
gsave
0.000 setgray
fill
grestore
stroke
grestore
} bind def
526.5 276.627 o
grestore
gsave
42.031250 272.088210 translate
0.000000 rotate
0.000000 0.171875 m /minus glyphshow
10.054688 0.171875 m /one glyphshow
17.689453 0.171875 m /period glyphshow
21.503906 0.171875 m /zero glyphshow
grestore
gsave
/o {
gsave
newpath
translate
0.5 setlinewidth
1 setlinejoin
0 setlinecap
0 0 m
4 0 l
gsave
0.000 setgray
fill
grestore
stroke
grestore
} bind def
73.125 296.673 o
grestore
gsave
/o {
gsave
newpath
translate
0.5 setlinewidth
1 setlinejoin
0 setlinecap
0 0 m
-4 0 l
gsave
0.000 setgray
fill
grestore
stroke
grestore
} bind def
526.5 296.673 o
grestore
gsave
42.281250 292.133665 translate
0.000000 rotate
0.000000 0.171875 m /minus glyphshow
10.054688 0.171875 m /zero glyphshow
17.689453 0.171875 m /period glyphshow
21.503906 0.171875 m /five glyphshow
grestore
gsave
/o {
gsave
newpath
translate
0.5 setlinewidth
1 setlinejoin
0 setlinecap
0 0 m
4 0 l
gsave
0.000 setgray
fill
grestore
stroke
grestore
} bind def
73.125 316.718 o
grestore
gsave
/o {
gsave
newpath
translate
0.5 setlinewidth
1 setlinejoin
0 setlinecap
0 0 m
-4 0 l
gsave
0.000 setgray
fill
grestore
stroke
grestore
} bind def
526.5 316.718 o
grestore
gsave
51.625000 312.179119 translate
0.000000 rotate
0.000000 0.171875 m /zero glyphshow
7.634766 0.171875 m /period glyphshow
11.449219 0.171875 m /zero glyphshow
grestore
gsave
/o {
gsave
newpath
translate
0.5 setlinewidth
1 setlinejoin
0 setlinecap
0 0 m
4 0 l
gsave
0.000 setgray
fill
grestore
stroke
grestore
} bind def
73.125 336.764 o
grestore
gsave
/o {
gsave
newpath
translate
0.5 setlinewidth
1 setlinejoin
0 setlinecap
0 0 m
-4 0 l
gsave
0.000 setgray
fill
grestore
stroke
grestore
} bind def
526.5 336.764 o
grestore
gsave
51.875000 332.224574 translate
0.000000 rotate
0.000000 0.171875 m /zero glyphshow
7.634766 0.171875 m /period glyphshow
11.449219 0.171875 m /five glyphshow
grestore
gsave
/o {
gsave
newpath
translate
0.5 setlinewidth
1 setlinejoin
0 setlinecap
0 0 m
4 0 l
gsave
0.000 setgray
fill
grestore
stroke
grestore
} bind def
73.125 356.809 o
grestore
gsave
/o {
gsave
newpath
translate
0.5 setlinewidth
1 setlinejoin
0 setlinecap
0 0 m
-4 0 l
gsave
0.000 setgray
fill
grestore
stroke
grestore
} bind def
526.5 356.809 o
grestore
gsave
52.140625 352.270028 translate
0.000000 rotate
0.000000 0.171875 m /one glyphshow
7.634766 0.171875 m /period glyphshow
11.449219 0.171875 m /zero glyphshow
grestore
gsave
/o {
gsave
newpath
translate
0.5 setlinewidth
1 setlinejoin
0 setlinecap
0 0 m
4 0 l
gsave
0.000 setgray
fill
grestore
stroke
grestore
} bind def
73.125 376.855 o
grestore
gsave
/o {
gsave
newpath
translate
0.5 setlinewidth
1 setlinejoin
0 setlinecap
0 0 m
-4 0 l
gsave
0.000 setgray
fill
grestore
stroke
grestore
} bind def
526.5 376.855 o
grestore
gsave
52.390625 372.393608 translate
0.000000 rotate
0.000000 0.171875 m /one glyphshow
7.634766 0.171875 m /period glyphshow
11.449219 0.171875 m /five glyphshow
grestore
gsave
/o {
gsave
newpath
translate
0.5 setlinewidth
1 setlinejoin
0 setlinecap
0 0 m
4 0 l
gsave
0.000 setgray
fill
grestore
stroke
grestore
} bind def
73.125 396.9 o
grestore
gsave
/o {
gsave
newpath
translate
0.5 setlinewidth
1 setlinejoin
0 setlinecap
0 0 m
-4 0 l
gsave
0.000 setgray
fill
grestore
stroke
grestore
} bind def
526.5 396.9 o
grestore
gsave
51.703125 392.360938 translate
0.000000 rotate
0.000000 0.171875 m /two glyphshow
7.634766 0.171875 m /period glyphshow
11.449219 0.171875 m /zero glyphshow
grestore
gsave
37.031250 308.718182 translate
90.000000 rotate
/Cmmi10 findfont
16.0 scalefont
setfont
0.000000 5.062500 moveto
/Y glyphshow

/Cmmi10 findfont
11.2 scalefont
setfont
9.281250 0.981000 moveto
/t glyphshow


grestore
1.000 setlinewidth
2 setlinecap
gsave
73.125 396.9 m
526.5 396.9 l
stroke
grestore
gsave
526.5 236.536 m
526.5 396.9 l
stroke
grestore
gsave
73.125 236.536 m
526.5 236.536 l
stroke
grestore
gsave
73.125 236.536 m
73.125 396.9 l
stroke
grestore
gsave
123.312500 397.900000 translate
0.000000 rotate
/DejaVuSans findfont
16.0 scalefont
setfont
0.000000 4.125000 moveto
/E glyphshow

10.109375 4.125000 moveto
/x glyphshow

19.578125 4.125000 moveto
/p glyphshow

29.734375 4.125000 moveto
/period glyphshow

34.820312 4.125000 moveto
/space glyphshow

39.906250 4.125000 moveto
/C glyphshow

51.078125 4.125000 moveto
/o glyphshow

60.867188 4.125000 moveto
/v glyphshow

70.335938 4.125000 moveto
/period glyphshow

74.796875 4.125000 moveto
/colon glyphshow

80.187500 4.125000 moveto
/space glyphshow

/Cmmi10 findfont
16.0 scalefont
setfont
85.273438 4.125000 moveto
/rho glyphshow

/Cmr10 findfont
16.0 scalefont
setfont
96.356250 4.125000 moveto
/equal glyphshow

109.806250 4.125000 moveto
/one glyphshow

/Cmmi10 findfont
16.0 scalefont
setfont
117.806250 4.125000 moveto
/period glyphshow

/Cmr10 findfont
16.0 scalefont
setfont
122.365625 4.125000 moveto
/zero glyphshow

130.365625 4.125000 moveto
/zero glyphshow

/Cmmi10 findfont
16.0 scalefont
setfont
138.365625 4.125000 moveto
/comma glyphshow

154.350000 4.125000 moveto
/s glyphshow

/Cmr10 findfont
16.0 scalefont
setfont
164.643750 4.125000 moveto
/equal glyphshow

178.093750 4.125000 moveto
/one glyphshow

/Cmmi10 findfont
16.0 scalefont
setfont
186.093750 4.125000 moveto
/period glyphshow

/Cmr10 findfont
16.0 scalefont
setfont
190.653125 4.125000 moveto
/zero glyphshow

198.653125 4.125000 moveto
/zero glyphshow

/Cmmi10 findfont
16.0 scalefont
setfont
206.653125 4.125000 moveto
/comma glyphshow

222.637500 4.125000 moveto
/sigma glyphshow

/Cmr10 findfont
16.0 scalefont
setfont
234.579688 4.125000 moveto
/equal glyphshow

248.029688 4.125000 moveto
/zero glyphshow

/Cmmi10 findfont
16.0 scalefont
setfont
256.029688 4.125000 moveto
/period glyphshow

/Cmr10 findfont
16.0 scalefont
setfont
260.589063 4.125000 moveto
/zero glyphshow

268.589063 4.125000 moveto
/zero glyphshow

/Cmmi10 findfont
16.0 scalefont
setfont
276.589063 4.125000 moveto
/comma glyphshow

292.573438 4.125000 moveto
/lscript glyphshow

/Cmr10 findfont
16.0 scalefont
setfont
302.039062 4.125000 moveto
/equal glyphshow

315.489062 4.125000 moveto
/four glyphshow

323.489062 4.125000 moveto
/five glyphshow

/Cmmi10 findfont
16.0 scalefont
setfont
331.489062 4.125000 moveto
/period glyphshow

/Cmr10 findfont
16.0 scalefont
setfont
336.048437 4.125000 moveto
/zero glyphshow

344.048437 4.125000 moveto
/zero glyphshow


grestore
gsave
73.125 44.1 m
526.5 44.1 l
526.5 204.464 l
73.125 204.464 l
cl
1.000 setgray
fill
grestore
2.000 setlinewidth
0.000 0.000 1.000 setrgbcolor
gsave
453.4 160.4 73.12 44.1 clipbox
73.125 44.1 m
104.861 44.1254 l
105.995 44.3844 l
107.128 45.009 l
108.262 46.0463 l
109.395 47.4699 l
110.528 49.5909 l
111.662 52.0916 l
112.795 54.9723 l
115.062 59.7146 l
116.196 60.4901 l
117.329 62.4915 l
119.596 70.0953 l
120.729 74.7987 l
122.996 86.4424 l
124.13 88.216 l
125.263 89.4605 l
126.397 95.1245 l
127.53 91.2662 l
128.663 83.6938 l
129.797 84.4411 l
130.93 78.4659 l
132.064 77.8309 l
133.197 83.7226 l
134.331 82.645 l
135.464 82.1383 l
136.597 79.7649 l
137.731 69.5042 l
138.864 71.8115 l
139.998 68.7546 l
141.131 63.3324 l
143.398 54.6946 l
144.532 50.6464 l
145.665 47.5677 l
146.798 45.7284 l
147.932 44.5348 l
149.065 44.108 l
164.933 44.1 l
212.538 44.1 l
213.671 44.4896 l
214.805 46.1472 l
215.938 50.7099 l
217.072 58.2229 l
219.338 70.5302 l
220.472 81.2434 l
222.739 112.405 l
225.006 136.376 l
227.273 155.643 l
228.406 162.278 l
229.539 172.798 l
230.673 180.114 l
231.806 185.114 l
232.94 188.831 l
234.073 191.846 l
235.207 193.277 l
236.34 193.998 l
237.473 192.85 l
238.607 190.445 l
239.74 186.965 l
240.874 181.904 l
243.141 169.1 l
244.274 161.127 l
245.408 151.752 l
247.674 130.712 l
248.808 119.189 l
254.475 56.8765 l
255.608 48.7287 l
256.742 45.3614 l
257.875 44.2693 l
259.009 44.1 l
321.348 44.1 l
322.481 44.5325 l
323.615 46.1307 l
324.748 49.8497 l
325.882 60.7753 l
327.015 63.0316 l
328.148 68.1581 l
330.415 97.097 l
331.549 91.8082 l
332.682 97.5171 l
333.816 127.216 l
334.949 142.813 l
336.083 151.162 l
337.216 157.095 l
339.483 171.525 l
340.616 174.505 l
341.75 174.088 l
342.883 171.342 l
344.017 146.56 l
345.15 108.993 l
346.283 102.501 l
347.417 87.8857 l
348.55 82.2633 l
349.684 81.8304 l
350.817 75.3908 l
351.951 70.6488 l
353.084 69.4285 l
354.218 64.2811 l
355.351 63.1644 l
356.484 60.425 l
357.618 56.6388 l
358.751 53.9839 l
359.885 50.6723 l
361.018 49.3381 l
363.285 45.981 l
364.418 44.8228 l
365.552 44.2379 l
367.819 44.1 l
431.291 44.1 l
433.558 44.5503 l
434.692 46.4939 l
435.825 49.6672 l
436.958 47.3756 l
438.092 47.8426 l
439.225 45.9864 l
440.359 48.7801 l
441.492 58.8714 l
442.626 75.52 l
443.759 86.7952 l
444.893 88.6554 l
446.026 82.2986 l
447.159 95.5703 l
448.293 113.29 l
449.426 99.2715 l
450.56 74.4453 l
451.693 81.5834 l
452.827 92.2732 l
453.96 113.137 l
456.227 81.9234 m
457.36 74.5774 l
458.494 70.4638 l
459.627 70.688 l
460.761 65.5005 l
461.894 65.2327 l
463.028 66.5698 l
464.161 80.6116 l
465.294 88.6009 l
466.428 83.2897 l
467.561 81.2659 l
468.695 68.3152 l
469.828 68.5199 l
470.962 67.2928 l
472.095 57.4163 l
473.228 49.4719 l
474.362 45.4699 l
475.495 44.1367 l
480.029 44.1 l
507.232 44.1 l
507.232 44.1 l
stroke
grestore
1.000 0.000 0.000 setrgbcolor
gsave
453.4 160.4 73.12 44.1 clipbox
73.125 44.1 m
104.861 44.1 l
105.995 46.838 l
108.262 56.3061 l
109.395 63.5529 l
110.528 67.6012 l
111.662 72.5569 l
112.795 79.0376 l
113.929 94.6857 l
115.062 99.7911 l
116.196 101.841 l
118.463 127.812 l
119.596 139.466 l
120.729 136.013 l
121.863 133.249 l
122.996 134.348 l
124.13 130.821 l
125.263 136.221 l
126.397 123.61 l
127.53 129.292 l
128.663 122.204 l
129.797 113.817 l
130.93 120.206 l
132.064 124.829 l
133.197 128.015 l
134.331 122.646 l
135.464 128.091 l
136.597 111.762 l
137.731 101.108 l
138.864 97.8237 l
141.131 77.5336 l
142.265 69.9138 l
143.398 66.2187 l
144.532 57.649 l
145.665 52.3643 l
146.798 44.3868 l
147.932 44.1 l
213.671 44.1 l
214.805 46.5193 l
215.938 52.2907 l
217.072 57.2048 l
218.205 61.4843 l
219.338 67.234 l
220.472 76.1028 l
221.605 86.1382 l
222.739 93.6798 l
223.872 106.742 l
225.006 111.704 l
226.139 130.219 l
227.273 135.363 l
228.406 141.914 l
229.539 167.044 l
230.673 152.087 l
231.806 159.139 l
232.94 153.909 l
234.073 150.907 l
235.207 156.944 l
236.34 157.01 l
237.473 170.378 l
238.607 169.926 l
239.74 162.744 l
240.874 163.518 l
242.007 158.53 l
243.141 159.898 l
244.274 156.812 l
245.408 144.609 l
246.541 125.53 l
247.674 114.808 l
249.941 87.4027 l
251.075 80.5759 l
252.208 72.1791 l
253.342 65.7777 l
254.475 54.707 l
255.608 44.9692 l
256.742 44.1 l
322.481 44.1 l
323.615 50.3429 l
324.748 60.7172 l
325.882 75.2045 l
327.015 83.4457 l
329.282 114.413 l
330.415 123.004 l
331.549 134.788 l
332.682 140.885 l
333.816 157.179 l
334.949 165.838 l
336.083 172.597 l
337.216 174.282 l
338.349 179.857 l
339.483 179.481 l
340.616 190.207 l
341.75 195.516 l
342.883 192.351 l
344.017 190.366 l
345.15 182.897 l
346.283 166.707 l
347.417 163.364 l
348.55 169.874 l
349.684 156.902 l
350.817 146.467 l
351.951 146.001 l
353.084 146.543 l
354.218 149.829 l
355.351 135.767 l
356.484 129.221 l
357.618 114.767 l
358.751 110.576 l
359.885 95.1611 l
362.152 70.3927 l
363.285 56.9325 l
364.418 45.6268 l
365.552 44.1 l
431.291 44.1 l
432.425 48.8385 l
434.692 65.1975 l
435.825 71.6423 l
436.958 89.0291 l
438.092 102.773 l
439.225 111.991 l
440.359 115.433 l
441.492 123.991 l
442.626 122.535 l
443.759 133.678 l
444.893 127.083 l
446.026 134.062 l
447.159 129.936 l
448.293 118.488 l
449.426 120.957 l
450.56 118.844 l
451.693 127.587 l
452.827 129.62 l
453.96 125.831 l
455.093 127.864 l
456.227 131.818 l
457.36 113.374 l
458.494 107.647 l
459.627 104.461 l
460.761 114.27 l
461.894 111.669 l
463.028 106.921 l
464.161 103.684 l
465.294 92.6918 l
466.428 92.0317 l
467.561 87.8088 l
468.695 82.0871 l
469.828 74.1597 l
470.962 69.9594 l
473.228 46.661 l
474.362 44.1 l
507.232 44.1 l
507.232 44.1 l
stroke
grestore
0.500 setlinewidth
0 setlinecap
0.000 setgray
gsave
/o {
gsave
newpath
translate
0.5 setlinewidth
1 setlinejoin
0 setlinecap
0 0 m
0 4 l
gsave
0.000 setgray
fill
grestore
stroke
grestore
} bind def
73.125 44.1 o
grestore
gsave
/o {
gsave
newpath
translate
0.5 setlinewidth
1 setlinejoin
0 setlinecap
0 0 m
0 -4 l
gsave
0.000 setgray
fill
grestore
stroke
grestore
} bind def
73.125 204.464 o
grestore
gsave
70.101562 31.021875 translate
0.000000 rotate
0.000000 0.171875 m /zero glyphshow
grestore
gsave
/o {
gsave
newpath
translate
0.5 setlinewidth
1 setlinejoin
0 setlinecap
0 0 m
0 4 l
gsave
0.000 setgray
fill
grestore
stroke
grestore
} bind def
129.797 44.1 o
grestore
gsave
/o {
gsave
newpath
translate
0.5 setlinewidth
1 setlinejoin
0 setlinecap
0 0 m
0 -4 l
gsave
0.000 setgray
fill
grestore
stroke
grestore
} bind def
129.797 204.464 o
grestore
gsave
123.015625 31.021875 translate
0.000000 rotate
0.000000 0.171875 m /five glyphshow
7.634766 0.171875 m /zero glyphshow
grestore
gsave
/o {
gsave
newpath
translate
0.5 setlinewidth
1 setlinejoin
0 setlinecap
0 0 m
0 4 l
gsave
0.000 setgray
fill
grestore
stroke
grestore
} bind def
186.469 44.1 o
grestore
gsave
/o {
gsave
newpath
translate
0.5 setlinewidth
1 setlinejoin
0 setlinecap
0 0 m
0 -4 l
gsave
0.000 setgray
fill
grestore
stroke
grestore
} bind def
186.469 204.464 o
grestore
gsave
176.062500 31.021875 translate
0.000000 rotate
0.000000 0.171875 m /one glyphshow
7.634766 0.171875 m /zero glyphshow
15.269531 0.171875 m /zero glyphshow
grestore
gsave
/o {
gsave
newpath
translate
0.5 setlinewidth
1 setlinejoin
0 setlinecap
0 0 m
0 4 l
gsave
0.000 setgray
fill
grestore
stroke
grestore
} bind def
243.141 44.1 o
grestore
gsave
/o {
gsave
newpath
translate
0.5 setlinewidth
1 setlinejoin
0 setlinecap
0 0 m
0 -4 l
gsave
0.000 setgray
fill
grestore
stroke
grestore
} bind def
243.141 204.464 o
grestore
gsave
232.734375 31.021875 translate
0.000000 rotate
0.000000 0.171875 m /one glyphshow
7.634766 0.171875 m /five glyphshow
15.269531 0.171875 m /zero glyphshow
grestore
gsave
/o {
gsave
newpath
translate
0.5 setlinewidth
1 setlinejoin
0 setlinecap
0 0 m
0 4 l
gsave
0.000 setgray
fill
grestore
stroke
grestore
} bind def
299.812 44.1 o
grestore
gsave
/o {
gsave
newpath
translate
0.5 setlinewidth
1 setlinejoin
0 setlinecap
0 0 m
0 -4 l
gsave
0.000 setgray
fill
grestore
stroke
grestore
} bind def
299.812 204.464 o
grestore
gsave
289.187500 31.021875 translate
0.000000 rotate
0.000000 0.171875 m /two glyphshow
7.634766 0.171875 m /zero glyphshow
15.269531 0.171875 m /zero glyphshow
grestore
gsave
/o {
gsave
newpath
translate
0.5 setlinewidth
1 setlinejoin
0 setlinecap
0 0 m
0 4 l
gsave
0.000 setgray
fill
grestore
stroke
grestore
} bind def
356.484 44.1 o
grestore
gsave
/o {
gsave
newpath
translate
0.5 setlinewidth
1 setlinejoin
0 setlinecap
0 0 m
0 -4 l
gsave
0.000 setgray
fill
grestore
stroke
grestore
} bind def
356.484 204.464 o
grestore
gsave
345.859375 31.021875 translate
0.000000 rotate
0.000000 0.171875 m /two glyphshow
7.634766 0.171875 m /five glyphshow
15.269531 0.171875 m /zero glyphshow
grestore
gsave
/o {
gsave
newpath
translate
0.5 setlinewidth
1 setlinejoin
0 setlinecap
0 0 m
0 4 l
gsave
0.000 setgray
fill
grestore
stroke
grestore
} bind def
413.156 44.1 o
grestore
gsave
/o {
gsave
newpath
translate
0.5 setlinewidth
1 setlinejoin
0 setlinecap
0 0 m
0 -4 l
gsave
0.000 setgray
fill
grestore
stroke
grestore
} bind def
413.156 204.464 o
grestore
gsave
402.554688 31.021875 translate
0.000000 rotate
0.000000 0.171875 m /three glyphshow
7.634766 0.171875 m /zero glyphshow
15.269531 0.171875 m /zero glyphshow
grestore
gsave
/o {
gsave
newpath
translate
0.5 setlinewidth
1 setlinejoin
0 setlinecap
0 0 m
0 4 l
gsave
0.000 setgray
fill
grestore
stroke
grestore
} bind def
469.828 44.1 o
grestore
gsave
/o {
gsave
newpath
translate
0.5 setlinewidth
1 setlinejoin
0 setlinecap
0 0 m
0 -4 l
gsave
0.000 setgray
fill
grestore
stroke
grestore
} bind def
469.828 204.464 o
grestore
gsave
459.226563 31.021875 translate
0.000000 rotate
0.000000 0.171875 m /three glyphshow
7.634766 0.171875 m /five glyphshow
15.269531 0.171875 m /zero glyphshow
grestore
gsave
/o {
gsave
newpath
translate
0.5 setlinewidth
1 setlinejoin
0 setlinecap
0 0 m
0 4 l
gsave
0.000 setgray
fill
grestore
stroke
grestore
} bind def
526.5 44.1 o
grestore
gsave
/o {
gsave
newpath
translate
0.5 setlinewidth
1 setlinejoin
0 setlinecap
0 0 m
0 -4 l
gsave
0.000 setgray
fill
grestore
stroke
grestore
} bind def
526.5 204.464 o
grestore
gsave
515.734375 31.021875 translate
0.000000 rotate
0.000000 0.171875 m /four glyphshow
7.634766 0.171875 m /zero glyphshow
15.269531 0.171875 m /zero glyphshow
grestore
gsave
249.812500 9.021875 translate
0.000000 rotate
/Cmmi10 findfont
16.0 scalefont
setfont
0.000000 4.843750 moveto
/t glyphshow

/DejaVuSans findfont
16.0 scalefont
setfont
5.773438 4.843750 moveto
/space glyphshow

10.859375 4.843750 moveto
/parenleft glyphshow

17.101562 4.843750 moveto
/t glyphshow

23.375000 4.843750 moveto
/i glyphshow

27.820312 4.843750 moveto
/m glyphshow

43.406250 4.843750 moveto
/e glyphshow

53.250000 4.843750 moveto
/space glyphshow

58.335938 4.843750 moveto
/s glyphshow

66.671875 4.843750 moveto
/t glyphshow

72.945312 4.843750 moveto
/e glyphshow

82.789062 4.843750 moveto
/p glyphshow

92.945312 4.843750 moveto
/parenright glyphshow


grestore
gsave
/o {
gsave
newpath
translate
0.5 setlinewidth
1 setlinejoin
0 setlinecap
0 0 m
4 0 l
gsave
0.000 setgray
fill
grestore
stroke
grestore
} bind def
73.125 44.1 o
grestore
gsave
/o {
gsave
newpath
translate
0.5 setlinewidth
1 setlinejoin
0 setlinecap
0 0 m
-4 0 l
gsave
0.000 setgray
fill
grestore
stroke
grestore
} bind def
526.5 44.1 o
grestore
gsave
63.078125 39.560937 translate
0.000000 rotate
0.000000 0.171875 m /zero glyphshow
grestore
gsave
/o {
gsave
newpath
translate
0.5 setlinewidth
1 setlinejoin
0 setlinecap
0 0 m
4 0 l
gsave
0.000 setgray
fill
grestore
stroke
grestore
} bind def
73.125 76.1727 o
grestore
gsave
/o {
gsave
newpath
translate
0.5 setlinewidth
1 setlinejoin
0 setlinecap
0 0 m
-4 0 l
gsave
0.000 setgray
fill
grestore
stroke
grestore
} bind def
526.5 76.1727 o
grestore
gsave
48.312500 71.633665 translate
0.000000 rotate
0.000000 0.171875 m /one glyphshow
7.634766 0.171875 m /zero glyphshow
15.269531 0.171875 m /zero glyphshow
grestore
gsave
/o {
gsave
newpath
translate
0.5 setlinewidth
1 setlinejoin
0 setlinecap
0 0 m
4 0 l
gsave
0.000 setgray
fill
grestore
stroke
grestore
} bind def
73.125 108.245 o
grestore
gsave
/o {
gsave
newpath
translate
0.5 setlinewidth
1 setlinejoin
0 setlinecap
0 0 m
-4 0 l
gsave
0.000 setgray
fill
grestore
stroke
grestore
} bind def
526.5 108.245 o
grestore
gsave
47.875000 103.706392 translate
0.000000 rotate
0.000000 0.171875 m /two glyphshow
7.634766 0.171875 m /zero glyphshow
15.269531 0.171875 m /zero glyphshow
grestore
gsave
/o {
gsave
newpath
translate
0.5 setlinewidth
1 setlinejoin
0 setlinecap
0 0 m
4 0 l
gsave
0.000 setgray
fill
grestore
stroke
grestore
} bind def
73.125 140.318 o
grestore
gsave
/o {
gsave
newpath
translate
0.5 setlinewidth
1 setlinejoin
0 setlinecap
0 0 m
-4 0 l
gsave
0.000 setgray
fill
grestore
stroke
grestore
} bind def
526.5 140.318 o
grestore
gsave
47.921875 135.779119 translate
0.000000 rotate
0.000000 0.171875 m /three glyphshow
7.634766 0.171875 m /zero glyphshow
15.269531 0.171875 m /zero glyphshow
grestore
gsave
/o {
gsave
newpath
translate
0.5 setlinewidth
1 setlinejoin
0 setlinecap
0 0 m
4 0 l
gsave
0.000 setgray
fill
grestore
stroke
grestore
} bind def
73.125 172.391 o
grestore
gsave
/o {
gsave
newpath
translate
0.5 setlinewidth
1 setlinejoin
0 setlinecap
0 0 m
-4 0 l
gsave
0.000 setgray
fill
grestore
stroke
grestore
} bind def
526.5 172.391 o
grestore
gsave
47.593750 167.851847 translate
0.000000 rotate
0.000000 0.171875 m /four glyphshow
7.634766 0.171875 m /zero glyphshow
15.269531 0.171875 m /zero glyphshow
grestore
gsave
/o {
gsave
newpath
translate
0.5 setlinewidth
1 setlinejoin
0 setlinecap
0 0 m
4 0 l
gsave
0.000 setgray
fill
grestore
stroke
grestore
} bind def
73.125 204.464 o
grestore
gsave
/o {
gsave
newpath
translate
0.5 setlinewidth
1 setlinejoin
0 setlinecap
0 0 m
-4 0 l
gsave
0.000 setgray
fill
grestore
stroke
grestore
} bind def
526.5 204.464 o
grestore
gsave
47.921875 199.924574 translate
0.000000 rotate
0.000000 0.171875 m /five glyphshow
7.634766 0.171875 m /zero glyphshow
15.269531 0.171875 m /zero glyphshow
grestore
gsave
42.593750 85.281818 translate
90.000000 rotate
/Cmmi10 findfont
16.0 scalefont
setfont
0.000000 5.738125 moveto
/E glyphshow

/Cmmi10 findfont
11.2 scalefont
setfont
11.804688 1.656625 moveto
/t glyphshow

/Cmr10 findfont
16.0 scalefont
setfont
17.578125 5.738125 moveto
/parenleft glyphshow

/Cmmi10 findfont
16.0 scalefont
setfont
23.789062 5.738125 moveto
/W glyphshow

38.890625 5.738125 moveto
/slash glyphshow

46.890625 5.738125 moveto
/m glyphshow

/Cmr10 findfont
11.2 scalefont
setfont
60.937500 12.540625 moveto
/two glyphshow

/Cmr10 findfont
16.0 scalefont
setfont
71.658500 5.738125 moveto
/parenright glyphshow


grestore
1.000 setlinewidth
2 setlinecap
gsave
73.125 204.464 m
526.5 204.464 l
stroke
grestore
gsave
526.5 44.1 m
526.5 204.464 l
stroke
grestore
gsave
73.125 44.1 m
526.5 44.1 l
stroke
grestore
gsave
73.125 44.1 m
73.125 204.464 l
stroke
grestore
gsave
365.697 144.695 m
518.5 144.695 l
518.5 196.464 l
365.697 196.464 l
365.697 144.695 l
cl
gsave
1.000 setgray
fill
grestore
stroke
grestore
2.000 setlinewidth
0.000 0.000 1.000 setrgbcolor
gsave
376.897 183.507 m
399.297 183.507 l
stroke
grestore
0.000 setgray
/DejaVuSans findfont
16.000 scalefont
setfont
gsave
416.896875 177.673011 translate
0.000000 rotate
0.000000 0.234375 m /O glyphshow
12.593750 0.234375 m /b glyphshow
22.750000 0.234375 m /s glyphshow
31.085938 0.234375 m /e glyphshow
40.929688 0.234375 m /r glyphshow
47.507812 0.234375 m /v glyphshow
56.976562 0.234375 m /a glyphshow
66.781250 0.234375 m /t glyphshow
73.054688 0.234375 m /i glyphshow
77.500000 0.234375 m /o glyphshow
87.289062 0.234375 m /n glyphshow
grestore
1.000 0.000 0.000 setrgbcolor
gsave
376.897 160.023 m
399.297 160.023 l
stroke
grestore
0.000 setgray
gsave
416.896875 151.094886 translate
0.000000 rotate
0.000000 3.328125 m /S glyphshow
10.156250 3.328125 m /y glyphshow
19.625000 3.328125 m /n glyphshow
29.765625 3.328125 m /t glyphshow
36.039062 3.328125 m /h glyphshow
46.179688 3.328125 m /e glyphshow
56.023438 3.328125 m /t glyphshow
62.296875 3.328125 m /i glyphshow
66.742188 3.328125 m /c glyphshow
grestore

end
showpage
